%!PS-Adobe-3.0 EPSF-3.0
%%Creator: (MATLAB, The Mathworks, Inc. Version 9.5.0.1049112 \(R2018b\) Update 3. Operating System: Windows 10)
%%Title: learning/eps2/no_normalize.eps
%%CreationDate: 2020-01-07T21:46:31
%%Pages: (atend)
%%BoundingBox:    25     3   383   295
%%LanguageLevel: 3
%%EndComments
%%BeginProlog
%%BeginResource: procset (Apache XML Graphics Std ProcSet) 1.2 0
%%Version: 1.2 0
%%Copyright: (Copyright 2001-2003,2010 The Apache Software Foundation. License terms: http://www.apache.org/licenses/LICENSE-2.0)
/bd{bind def}bind def
/ld{load def}bd
/GR/grestore ld
/GS/gsave ld
/RM/rmoveto ld
/C/curveto ld
/t/show ld
/L/lineto ld
/ML/setmiterlimit ld
/CT/concat ld
/f/fill ld
/N/newpath ld
/S/stroke ld
/CC/setcmykcolor ld
/A/ashow ld
/cp/closepath ld
/RC/setrgbcolor ld
/LJ/setlinejoin ld
/GC/setgray ld
/LW/setlinewidth ld
/M/moveto ld
/re {4 2 roll M
1 index 0 rlineto
0 exch rlineto
neg 0 rlineto
cp } bd
/_ctm matrix def
/_tm matrix def
/BT { _ctm currentmatrix pop matrix _tm copy pop 0 0 moveto } bd
/ET { _ctm setmatrix } bd
/iTm { _ctm setmatrix _tm concat } bd
/Tm { _tm astore pop iTm 0 0 moveto } bd
/ux 0.0 def
/uy 0.0 def
/F {
  /Tp exch def
  /Tf exch def
  Tf findfont Tp scalefont setfont
  /cf Tf def  /cs Tp def
} bd
/ULS {currentpoint /uy exch def /ux exch def} bd
/ULE {
  /Tcx currentpoint pop def
  gsave
  newpath
  cf findfont cs scalefont dup
  /FontMatrix get 0 get /Ts exch def /FontInfo get dup
  /UnderlinePosition get Ts mul /To exch def
  /UnderlineThickness get Ts mul /Tt exch def
  ux uy To add moveto  Tcx uy To add lineto
  Tt setlinewidth stroke
  grestore
} bd
/OLE {
  /Tcx currentpoint pop def
  gsave
  newpath
  cf findfont cs scalefont dup
  /FontMatrix get 0 get /Ts exch def /FontInfo get dup
  /UnderlinePosition get Ts mul /To exch def
  /UnderlineThickness get Ts mul /Tt exch def
  ux uy To add cs add moveto Tcx uy To add cs add lineto
  Tt setlinewidth stroke
  grestore
} bd
/SOE {
  /Tcx currentpoint pop def
  gsave
  newpath
  cf findfont cs scalefont dup
  /FontMatrix get 0 get /Ts exch def /FontInfo get dup
  /UnderlinePosition get Ts mul /To exch def
  /UnderlineThickness get Ts mul /Tt exch def
  ux uy To add cs 10 mul 26 idiv add moveto Tcx uy To add cs 10 mul 26 idiv add lineto
  Tt setlinewidth stroke
  grestore
} bd
/QT {
/Y22 exch store
/X22 exch store
/Y21 exch store
/X21 exch store
currentpoint
/Y21 load 2 mul add 3 div exch
/X21 load 2 mul add 3 div exch
/X21 load 2 mul /X22 load add 3 div
/Y21 load 2 mul /Y22 load add 3 div
/X22 load /Y22 load curveto
} bd
/SSPD {
dup length /d exch dict def
{
/v exch def
/k exch def
currentpagedevice k known {
/cpdv currentpagedevice k get def
v cpdv ne {
/upd false def
/nullv v type /nulltype eq def
/nullcpdv cpdv type /nulltype eq def
nullv nullcpdv or
{
/upd true def
} {
/sametype v type cpdv type eq def
sametype {
v type /arraytype eq {
/vlen v length def
/cpdvlen cpdv length def
vlen cpdvlen eq {
0 1 vlen 1 sub {
/i exch def
/obj v i get def
/cpdobj cpdv i get def
obj cpdobj ne {
/upd true def
exit
} if
} for
} {
/upd true def
} ifelse
} {
v type /dicttype eq {
v {
/dv exch def
/dk exch def
/cpddv cpdv dk get def
dv cpddv ne {
/upd true def
exit
} if
} forall
} {
/upd true def
} ifelse
} ifelse
} if
} ifelse
upd true eq {
d k v put
} if
} if
} if
} forall
d length 0 gt {
d setpagedevice
} if
} bd
/RE { % /NewFontName [NewEncodingArray] /FontName RE -
  findfont dup length dict begin
  {
    1 index /FID ne
    {def} {pop pop} ifelse
  } forall
  /Encoding exch def
  /FontName 1 index def
  currentdict definefont pop
  end
} bind def
%%EndResource
%%BeginResource: procset (Apache XML Graphics EPS ProcSet) 1.0 0
%%Version: 1.0 0
%%Copyright: (Copyright 2002-2003 The Apache Software Foundation. License terms: http://www.apache.org/licenses/LICENSE-2.0)
/BeginEPSF { %def
/b4_Inc_state save def         % Save state for cleanup
/dict_count countdictstack def % Count objects on dict stack
/op_count count 1 sub def      % Count objects on operand stack
userdict begin                 % Push userdict on dict stack
/showpage { } def              % Redefine showpage, { } = null proc
0 setgray 0 setlinecap         % Prepare graphics state
1 setlinewidth 0 setlinejoin
10 setmiterlimit [ ] 0 setdash newpath
/languagelevel where           % If level not equal to 1 then
{pop languagelevel             % set strokeadjust and
1 ne                           % overprint to their defaults.
{false setstrokeadjust false setoverprint
} if
} if
} bd
/EndEPSF { %def
count op_count sub {pop} repeat            % Clean up stacks
countdictstack dict_count sub {end} repeat
b4_Inc_state restore
} bd
%%EndResource
%FOPBeginFontDict
%%IncludeResource: font Courier-Oblique
%%IncludeResource: font Courier-BoldOblique
%%IncludeResource: font Courier-Bold
%%IncludeResource: font ZapfDingbats
%%IncludeResource: font Symbol
%%IncludeResource: font Helvetica
%%IncludeResource: font Helvetica-Oblique
%%IncludeResource: font Helvetica-Bold
%%IncludeResource: font Helvetica-BoldOblique
%%IncludeResource: font Times-Roman
%%IncludeResource: font Times-Italic
%%IncludeResource: font Times-Bold
%%IncludeResource: font Times-BoldItalic
%%IncludeResource: font Courier
%FOPEndFontDict
%%BeginResource: encoding WinAnsiEncoding
/WinAnsiEncoding [
/.notdef /.notdef /.notdef /.notdef /.notdef
/.notdef /.notdef /.notdef /.notdef /.notdef
/.notdef /.notdef /.notdef /.notdef /.notdef
/.notdef /.notdef /.notdef /.notdef /.notdef
/.notdef /.notdef /.notdef /.notdef /.notdef
/.notdef /.notdef /.notdef /.notdef /.notdef
/.notdef /.notdef /space /exclam /quotedbl
/numbersign /dollar /percent /ampersand /quotesingle
/parenleft /parenright /asterisk /plus /comma
/hyphen /period /slash /zero /one
/two /three /four /five /six
/seven /eight /nine /colon /semicolon
/less /equal /greater /question /at
/A /B /C /D /E
/F /G /H /I /J
/K /L /M /N /O
/P /Q /R /S /T
/U /V /W /X /Y
/Z /bracketleft /backslash /bracketright /asciicircum
/underscore /quoteleft /a /b /c
/d /e /f /g /h
/i /j /k /l /m
/n /o /p /q /r
/s /t /u /v /w
/x /y /z /braceleft /bar
/braceright /asciitilde /bullet /Euro /bullet
/quotesinglbase /florin /quotedblbase /ellipsis /dagger
/daggerdbl /circumflex /perthousand /Scaron /guilsinglleft
/OE /bullet /Zcaron /bullet /bullet
/quoteleft /quoteright /quotedblleft /quotedblright /bullet
/endash /emdash /asciitilde /trademark /scaron
/guilsinglright /oe /bullet /zcaron /Ydieresis
/space /exclamdown /cent /sterling /currency
/yen /brokenbar /section /dieresis /copyright
/ordfeminine /guillemotleft /logicalnot /sfthyphen /registered
/macron /degree /plusminus /twosuperior /threesuperior
/acute /mu /paragraph /middot /cedilla
/onesuperior /ordmasculine /guillemotright /onequarter /onehalf
/threequarters /questiondown /Agrave /Aacute /Acircumflex
/Atilde /Adieresis /Aring /AE /Ccedilla
/Egrave /Eacute /Ecircumflex /Edieresis /Igrave
/Iacute /Icircumflex /Idieresis /Eth /Ntilde
/Ograve /Oacute /Ocircumflex /Otilde /Odieresis
/multiply /Oslash /Ugrave /Uacute /Ucircumflex
/Udieresis /Yacute /Thorn /germandbls /agrave
/aacute /acircumflex /atilde /adieresis /aring
/ae /ccedilla /egrave /eacute /ecircumflex
/edieresis /igrave /iacute /icircumflex /idieresis
/eth /ntilde /ograve /oacute /ocircumflex
/otilde /odieresis /divide /oslash /ugrave
/uacute /ucircumflex /udieresis /yacute /thorn
/ydieresis
] def
%%EndResource
%FOPBeginFontReencode
/Courier-Oblique findfont
dup length dict begin
  {1 index /FID ne {def} {pop pop} ifelse} forall
  /Encoding WinAnsiEncoding def
  currentdict
end
/Courier-Oblique exch definefont pop
/Courier-BoldOblique findfont
dup length dict begin
  {1 index /FID ne {def} {pop pop} ifelse} forall
  /Encoding WinAnsiEncoding def
  currentdict
end
/Courier-BoldOblique exch definefont pop
/Courier-Bold findfont
dup length dict begin
  {1 index /FID ne {def} {pop pop} ifelse} forall
  /Encoding WinAnsiEncoding def
  currentdict
end
/Courier-Bold exch definefont pop
/Helvetica findfont
dup length dict begin
  {1 index /FID ne {def} {pop pop} ifelse} forall
  /Encoding WinAnsiEncoding def
  currentdict
end
/Helvetica exch definefont pop
/Helvetica-Oblique findfont
dup length dict begin
  {1 index /FID ne {def} {pop pop} ifelse} forall
  /Encoding WinAnsiEncoding def
  currentdict
end
/Helvetica-Oblique exch definefont pop
/Helvetica-Bold findfont
dup length dict begin
  {1 index /FID ne {def} {pop pop} ifelse} forall
  /Encoding WinAnsiEncoding def
  currentdict
end
/Helvetica-Bold exch definefont pop
/Helvetica-BoldOblique findfont
dup length dict begin
  {1 index /FID ne {def} {pop pop} ifelse} forall
  /Encoding WinAnsiEncoding def
  currentdict
end
/Helvetica-BoldOblique exch definefont pop
/Times-Roman findfont
dup length dict begin
  {1 index /FID ne {def} {pop pop} ifelse} forall
  /Encoding WinAnsiEncoding def
  currentdict
end
/Times-Roman exch definefont pop
/Times-Italic findfont
dup length dict begin
  {1 index /FID ne {def} {pop pop} ifelse} forall
  /Encoding WinAnsiEncoding def
  currentdict
end
/Times-Italic exch definefont pop
/Times-Bold findfont
dup length dict begin
  {1 index /FID ne {def} {pop pop} ifelse} forall
  /Encoding WinAnsiEncoding def
  currentdict
end
/Times-Bold exch definefont pop
/Times-BoldItalic findfont
dup length dict begin
  {1 index /FID ne {def} {pop pop} ifelse} forall
  /Encoding WinAnsiEncoding def
  currentdict
end
/Times-BoldItalic exch definefont pop
/Courier findfont
dup length dict begin
  {1 index /FID ne {def} {pop pop} ifelse} forall
  /Encoding WinAnsiEncoding def
  currentdict
end
/Courier exch definefont pop
%FOPEndFontReencode
%%EndProlog
%%Page: 1 1
%%PageBoundingBox: 0 0 420 315
%%BeginPageSetup
[1 0 0 -1 0 315] CT
%%EndPageSetup
GS
[0.75 0 0 0.75 0 0] CT
1 GC
N
0 0 560 420 re
f
GR
GS
[0.75 0 0 0.75 0 0] CT
1 GC
N
0 0 560 420 re
f
GR
GS
[0.75 0 0 0.75 0 0] CT
1 GC
N
73 374 M
507 374 L
507 31 L
73 31 L
cp
f
GR
GS
[0.75 0 0 0.75 0 0] CT
0.149 GC
2 setlinecap
1 LJ
0.667 LW
N
73 374 M
507 374 L
S
GR
GS
[0.75 0 0 0.75 0 0] CT
0.149 GC
2 setlinecap
1 LJ
0.667 LW
N
73 31 M
507 31 L
S
GR
GS
[0.75 0 0 0.75 0 0] CT
0.149 GC
2 setlinecap
1 LJ
0.667 LW
N
73 374 M
73 369.66 L
S
GR
GS
[0.75 0 0 0.75 0 0] CT
0.149 GC
2 setlinecap
1 LJ
0.667 LW
N
116.4 374 M
116.4 369.66 L
S
GR
GS
[0.75 0 0 0.75 0 0] CT
0.149 GC
2 setlinecap
1 LJ
0.667 LW
N
159.8 374 M
159.8 369.66 L
S
GR
GS
[0.75 0 0 0.75 0 0] CT
0.149 GC
2 setlinecap
1 LJ
0.667 LW
N
203.2 374 M
203.2 369.66 L
S
GR
GS
[0.75 0 0 0.75 0 0] CT
0.149 GC
2 setlinecap
1 LJ
0.667 LW
N
246.6 374 M
246.6 369.66 L
S
GR
GS
[0.75 0 0 0.75 0 0] CT
0.149 GC
2 setlinecap
1 LJ
0.667 LW
N
290 374 M
290 369.66 L
S
GR
GS
[0.75 0 0 0.75 0 0] CT
0.149 GC
2 setlinecap
1 LJ
0.667 LW
N
333.4 374 M
333.4 369.66 L
S
GR
GS
[0.75 0 0 0.75 0 0] CT
0.149 GC
2 setlinecap
1 LJ
0.667 LW
N
376.8 374 M
376.8 369.66 L
S
GR
GS
[0.75 0 0 0.75 0 0] CT
0.149 GC
2 setlinecap
1 LJ
0.667 LW
N
420.2 374 M
420.2 369.66 L
S
GR
GS
[0.75 0 0 0.75 0 0] CT
0.149 GC
2 setlinecap
1 LJ
0.667 LW
N
463.6 374 M
463.6 369.66 L
S
GR
GS
[0.75 0 0 0.75 0 0] CT
0.149 GC
2 setlinecap
1 LJ
0.667 LW
N
507 374 M
507 369.66 L
S
GR
GS
[0.75 0 0 0.75 0 0] CT
0.149 GC
2 setlinecap
1 LJ
0.667 LW
N
73 31 M
73 35.34 L
S
GR
GS
[0.75 0 0 0.75 0 0] CT
0.149 GC
2 setlinecap
1 LJ
0.667 LW
N
116.4 31 M
116.4 35.34 L
S
GR
GS
[0.75 0 0 0.75 0 0] CT
0.149 GC
2 setlinecap
1 LJ
0.667 LW
N
159.8 31 M
159.8 35.34 L
S
GR
GS
[0.75 0 0 0.75 0 0] CT
0.149 GC
2 setlinecap
1 LJ
0.667 LW
N
203.2 31 M
203.2 35.34 L
S
GR
GS
[0.75 0 0 0.75 0 0] CT
0.149 GC
2 setlinecap
1 LJ
0.667 LW
N
246.6 31 M
246.6 35.34 L
S
GR
GS
[0.75 0 0 0.75 0 0] CT
0.149 GC
2 setlinecap
1 LJ
0.667 LW
N
290 31 M
290 35.34 L
S
GR
GS
[0.75 0 0 0.75 0 0] CT
0.149 GC
2 setlinecap
1 LJ
0.667 LW
N
333.4 31 M
333.4 35.34 L
S
GR
GS
[0.75 0 0 0.75 0 0] CT
0.149 GC
2 setlinecap
1 LJ
0.667 LW
N
376.8 31 M
376.8 35.34 L
S
GR
GS
[0.75 0 0 0.75 0 0] CT
0.149 GC
2 setlinecap
1 LJ
0.667 LW
N
420.2 31 M
420.2 35.34 L
S
GR
GS
[0.75 0 0 0.75 0 0] CT
0.149 GC
2 setlinecap
1 LJ
0.667 LW
N
463.6 31 M
463.6 35.34 L
S
GR
GS
[0.75 0 0 0.75 0 0] CT
0.149 GC
2 setlinecap
1 LJ
0.667 LW
N
507 31 M
507 35.34 L
S
GR
GS
[0.75 0 0 0.75 54.75 284.50001] CT
0.149 GC
/Helvetica 13.333 F
GS
[1 0 0 1 0 0] CT
-4 14 moveto 
1 -1 scale
(0) t 
GR
GR
GS
[0.75 0 0 0.75 87.3 284.50001] CT
0.149 GC
/Helvetica 13.333 F
GS
[1 0 0 1 0 0] CT
-9.5 14 moveto 
1 -1 scale
(0.5) t 
GR
GR
GS
[0.75 0 0 0.75 119.85 284.50001] CT
0.149 GC
/Helvetica 13.333 F
GS
[1 0 0 1 0 0] CT
-4 14 moveto 
1 -1 scale
(1) t 
GR
GR
GS
[0.75 0 0 0.75 152.4 284.50001] CT
0.149 GC
/Helvetica 13.333 F
GS
[1 0 0 1 0 0] CT
-9.5 14 moveto 
1 -1 scale
(1.5) t 
GR
GR
GS
[0.75 0 0 0.75 184.95 284.50001] CT
0.149 GC
/Helvetica 13.333 F
GS
[1 0 0 1 0 0] CT
-4 14 moveto 
1 -1 scale
(2) t 
GR
GR
GS
[0.75 0 0 0.75 217.5 284.50001] CT
0.149 GC
/Helvetica 13.333 F
GS
[1 0 0 1 0 0] CT
-9.5 14 moveto 
1 -1 scale
(2.5) t 
GR
GR
GS
[0.75 0 0 0.75 250.05 284.50001] CT
0.149 GC
/Helvetica 13.333 F
GS
[1 0 0 1 0 0] CT
-4 14 moveto 
1 -1 scale
(3) t 
GR
GR
GS
[0.75 0 0 0.75 282.59999 284.50001] CT
0.149 GC
/Helvetica 13.333 F
GS
[1 0 0 1 0 0] CT
-9.5 14 moveto 
1 -1 scale
(3.5) t 
GR
GR
GS
[0.75 0 0 0.75 315.15001 284.50001] CT
0.149 GC
/Helvetica 13.333 F
GS
[1 0 0 1 0 0] CT
-4 14 moveto 
1 -1 scale
(4) t 
GR
GR
GS
[0.75 0 0 0.75 347.7 284.50001] CT
0.149 GC
/Helvetica 13.333 F
GS
[1 0 0 1 0 0] CT
-9.5 14 moveto 
1 -1 scale
(4.5) t 
GR
GR
GS
[0.75 0 0 0.75 380.25 284.50001] CT
0.149 GC
/Helvetica 13.333 F
GS
[1 0 0 1 0 0] CT
-4 14 moveto 
1 -1 scale
(5) t 
GR
GR
GS
[0.75 0 0 0.75 217.50016 298.24999] CT
0.149 GC
/Helvetica 14.667 F
GS
[1 0 0 1 0 0] CT
-15.5 15 moveto 
1 -1 scale
(Krok) t 
GR
GR
GS
[0.75 0 0 0.75 356.25 311.25] CT
0.149 GC
N
1.906 -0.375 M
1.906 -0.469 1.969 -0.563 QT
4.672 -3.25 L
1.969 -5.953 L
1.906 -6.016 1.906 -6.125 QT
1.906 -6.219 1.984 -6.305 QT
2.063 -6.391 2.172 -6.391 QT
2.266 -6.391 2.375 -6.297 QT
5.063 -3.609 L
7.734 -6.297 L
7.844 -6.391 7.922 -6.391 QT
8.031 -6.391 8.109 -6.313 QT
8.188 -6.234 8.188 -6.125 QT
8.188 -6.016 8.125 -5.953 QT
5.422 -3.25 L
8.125 -0.563 L
8.188 -0.469 8.188 -0.375 QT
8.188 -0.266 8.109 -0.188 QT
8.031 -0.109 7.922 -0.109 QT
7.828 -0.109 7.734 -0.203 QT
5.063 -2.891 L
2.375 -0.203 L
2.266 -0.109 2.172 -0.109 QT
2.063 -0.109 1.984 -0.195 QT
1.906 -0.281 1.906 -0.375 QT
cp
f
GR
GS
[0.75 0 0 0.75 364.5 311.25] CT
0.149 GC
/Helvetica 13.333 F
GS
[1 0 0 1 0 0] CT
0 0 moveto 
1 -1 scale
(10) t 
GR
GR
GS
[0.75 0 0 0.75 375.75 306.75] CT
0.149 GC
/Helvetica 10.667 F
GS
[1 0 0 1 0 0] CT
0 0 moveto 
1 -1 scale
(5) t 
GR
GR
GS
[0.75 0 0 0.75 0 0] CT
0.149 GC
2 setlinecap
1 LJ
0.667 LW
N
73 374 M
73 31 L
S
GR
GS
[0.75 0 0 0.75 0 0] CT
0.149 GC
2 setlinecap
1 LJ
0.667 LW
N
507 374 M
507 31 L
S
GR
GS
[0.75 0 0 0.75 0 0] CT
0.149 GC
2 setlinecap
1 LJ
0.667 LW
N
73 374 M
77.34 374 L
S
GR
GS
[0.75 0 0 0.75 0 0] CT
0.149 GC
2 setlinecap
1 LJ
0.667 LW
N
73 331.125 M
77.34 331.125 L
S
GR
GS
[0.75 0 0 0.75 0 0] CT
0.149 GC
2 setlinecap
1 LJ
0.667 LW
N
73 288.25 M
77.34 288.25 L
S
GR
GS
[0.75 0 0 0.75 0 0] CT
0.149 GC
2 setlinecap
1 LJ
0.667 LW
N
73 245.375 M
77.34 245.375 L
S
GR
GS
[0.75 0 0 0.75 0 0] CT
0.149 GC
2 setlinecap
1 LJ
0.667 LW
N
73 202.5 M
77.34 202.5 L
S
GR
GS
[0.75 0 0 0.75 0 0] CT
0.149 GC
2 setlinecap
1 LJ
0.667 LW
N
73 159.625 M
77.34 159.625 L
S
GR
GS
[0.75 0 0 0.75 0 0] CT
0.149 GC
2 setlinecap
1 LJ
0.667 LW
N
73 116.75 M
77.34 116.75 L
S
GR
GS
[0.75 0 0 0.75 0 0] CT
0.149 GC
2 setlinecap
1 LJ
0.667 LW
N
73 73.875 M
77.34 73.875 L
S
GR
GS
[0.75 0 0 0.75 0 0] CT
0.149 GC
2 setlinecap
1 LJ
0.667 LW
N
73 31 M
77.34 31 L
S
GR
GS
[0.75 0 0 0.75 0 0] CT
0.149 GC
2 setlinecap
1 LJ
0.667 LW
N
507 374 M
502.66 374 L
S
GR
GS
[0.75 0 0 0.75 0 0] CT
0.149 GC
2 setlinecap
1 LJ
0.667 LW
N
507 331.125 M
502.66 331.125 L
S
GR
GS
[0.75 0 0 0.75 0 0] CT
0.149 GC
2 setlinecap
1 LJ
0.667 LW
N
507 288.25 M
502.66 288.25 L
S
GR
GS
[0.75 0 0 0.75 0 0] CT
0.149 GC
2 setlinecap
1 LJ
0.667 LW
N
507 245.375 M
502.66 245.375 L
S
GR
GS
[0.75 0 0 0.75 0 0] CT
0.149 GC
2 setlinecap
1 LJ
0.667 LW
N
507 202.5 M
502.66 202.5 L
S
GR
GS
[0.75 0 0 0.75 0 0] CT
0.149 GC
2 setlinecap
1 LJ
0.667 LW
N
507 159.625 M
502.66 159.625 L
S
GR
GS
[0.75 0 0 0.75 0 0] CT
0.149 GC
2 setlinecap
1 LJ
0.667 LW
N
507 116.75 M
502.66 116.75 L
S
GR
GS
[0.75 0 0 0.75 0 0] CT
0.149 GC
2 setlinecap
1 LJ
0.667 LW
N
507 73.875 M
502.66 73.875 L
S
GR
GS
[0.75 0 0 0.75 0 0] CT
0.149 GC
2 setlinecap
1 LJ
0.667 LW
N
507 31 M
502.66 31 L
S
GR
GS
[0.75 0 0 0.75 50.75 280.5] CT
0.149 GC
/Helvetica 13.333 F
GS
[1 0 0 1 0 0] CT
-8 5.5 moveto 
1 -1 scale
(0) t 
GR
GR
GS
[0.75 0 0 0.75 50.75 248.34375] CT
0.149 GC
/Helvetica 13.333 F
GS
[1 0 0 1 0 0] CT
-15 5.5 moveto 
1 -1 scale
(10) t 
GR
GR
GS
[0.75 0 0 0.75 50.75 216.1875] CT
0.149 GC
/Helvetica 13.333 F
GS
[1 0 0 1 0 0] CT
-15 5.5 moveto 
1 -1 scale
(20) t 
GR
GR
GS
[0.75 0 0 0.75 50.75 184.03125] CT
0.149 GC
/Helvetica 13.333 F
GS
[1 0 0 1 0 0] CT
-15 5.5 moveto 
1 -1 scale
(30) t 
GR
GR
GS
[0.75 0 0 0.75 50.75 151.875] CT
0.149 GC
/Helvetica 13.333 F
GS
[1 0 0 1 0 0] CT
-15 5.5 moveto 
1 -1 scale
(40) t 
GR
GR
GS
[0.75 0 0 0.75 50.75 119.71875] CT
0.149 GC
/Helvetica 13.333 F
GS
[1 0 0 1 0 0] CT
-15 5.5 moveto 
1 -1 scale
(50) t 
GR
GR
GS
[0.75 0 0 0.75 50.75 87.5625] CT
0.149 GC
/Helvetica 13.333 F
GS
[1 0 0 1 0 0] CT
-15 5.5 moveto 
1 -1 scale
(60) t 
GR
GR
GS
[0.75 0 0 0.75 50.75 55.40625] CT
0.149 GC
/Helvetica 13.333 F
GS
[1 0 0 1 0 0] CT
-15 5.5 moveto 
1 -1 scale
(70) t 
GR
GR
GS
[0.75 0 0 0.75 50.75 23.25] CT
0.149 GC
/Helvetica 13.333 F
GS
[1 0 0 1 0 0] CT
-15 5.5 moveto 
1 -1 scale
(80) t 
GR
GR
GS
[0 -0.75 0.75 0 36.5 151.87487] CT
0.149 GC
N
-62.844 -4 M
-62.844 -14.734 L
-59.141 -14.734 L
-57.891 -14.734 -57.234 -14.578 QT
-56.313 -14.375 -55.656 -13.813 QT
-54.813 -13.094 -54.391 -11.977 QT
-53.969 -10.859 -53.969 -9.422 QT
-53.969 -8.203 -54.25 -7.258 QT
-54.531 -6.313 -54.984 -5.695 QT
-55.438 -5.078 -55.969 -4.719 QT
-56.5 -4.359 -57.25 -4.18 QT
-58 -4 -58.969 -4 QT
-62.844 -4 L
cp
-61.422 -5.266 M
-59.125 -5.266 L
-58.063 -5.266 -57.461 -5.461 QT
-56.859 -5.656 -56.5 -6.016 QT
-56 -6.531 -55.719 -7.383 QT
-55.438 -8.234 -55.438 -9.453 QT
-55.438 -11.141 -55.984 -12.039 QT
-56.531 -12.938 -57.328 -13.25 QT
-57.906 -13.469 -59.172 -13.469 QT
-61.422 -13.469 L
-61.422 -5.266 L
cp
-52.447 -8.203 M
-53.4 -7.406 L
-53.4 -8.563 L
-52.447 -9.359 L
-52.447 -14.734 L
-51.134 -14.734 L
-51.134 -10.469 L
-50.134 -11.313 L
-50.134 -10.172 L
-51.134 -9.328 L
-51.134 -4 L
-52.447 -4 L
-52.447 -8.203 L
cp
-44.066 -4 M
-44.066 -5.141 L
-44.988 -3.828 -46.535 -3.828 QT
-47.222 -3.828 -47.824 -4.094 QT
-48.425 -4.359 -48.714 -4.758 QT
-49.003 -5.156 -49.113 -5.734 QT
-49.206 -6.109 -49.206 -6.953 QT
-49.206 -11.781 L
-47.878 -11.781 L
-47.878 -7.469 L
-47.878 -6.438 -47.8 -6.078 QT
-47.675 -5.547 -47.277 -5.25 QT
-46.878 -4.953 -46.285 -4.953 QT
-45.691 -4.953 -45.167 -5.258 QT
-44.644 -5.563 -44.425 -6.086 QT
-44.206 -6.609 -44.206 -7.609 QT
-44.206 -11.781 L
-42.894 -11.781 L
-42.894 -4 L
-44.066 -4 L
cp
-41.258 -3.359 M
-39.977 -3.172 L
-39.899 -2.578 -39.54 -2.297 QT
-39.04 -1.938 -38.196 -1.938 QT
-37.274 -1.938 -36.774 -2.305 QT
-36.274 -2.672 -36.102 -3.328 QT
-36.008 -3.734 -36.008 -5.016 QT
-36.868 -4 -38.165 -4 QT
-39.774 -4 -40.649 -5.156 QT
-41.524 -6.313 -41.524 -7.938 QT
-41.524 -9.047 -41.118 -9.984 QT
-40.712 -10.922 -39.954 -11.438 QT
-39.196 -11.953 -38.149 -11.953 QT
-36.774 -11.953 -35.883 -10.844 QT
-35.883 -11.781 L
-34.665 -11.781 L
-34.665 -5.063 L
-34.665 -3.234 -35.04 -2.477 QT
-35.415 -1.719 -36.212 -1.281 QT
-37.008 -0.844 -38.18 -0.844 QT
-39.571 -0.844 -40.43 -1.469 QT
-41.29 -2.094 -41.258 -3.359 QT
cp
-40.165 -8.031 M
-40.165 -6.5 -39.563 -5.797 QT
-38.962 -5.094 -38.04 -5.094 QT
-37.133 -5.094 -36.516 -5.789 QT
-35.899 -6.484 -35.899 -7.984 QT
-35.899 -9.406 -36.532 -10.133 QT
-37.165 -10.859 -38.055 -10.859 QT
-38.946 -10.859 -39.555 -10.148 QT
-40.165 -9.438 -40.165 -8.031 QT
cp
-33.357 -7.891 M
-33.357 -10.047 -32.154 -11.094 QT
-31.154 -11.953 -29.717 -11.953 QT
-28.107 -11.953 -27.092 -10.906 QT
-26.076 -9.859 -26.076 -8 QT
-26.076 -6.5 -26.521 -5.641 QT
-26.967 -4.781 -27.834 -4.305 QT
-28.701 -3.828 -29.717 -3.828 QT
-31.342 -3.828 -32.35 -4.875 QT
-33.357 -5.922 -33.357 -7.891 QT
cp
-31.998 -7.891 M
-31.998 -6.391 -31.35 -5.648 QT
-30.701 -4.906 -29.717 -4.906 QT
-28.732 -4.906 -28.076 -5.656 QT
-27.42 -6.406 -27.42 -7.938 QT
-27.42 -9.375 -28.076 -10.117 QT
-28.732 -10.859 -29.717 -10.859 QT
-30.701 -10.859 -31.35 -10.125 QT
-31.998 -9.391 -31.998 -7.891 QT
cp
-25.238 -6.328 M
-23.941 -6.531 L
-23.831 -5.75 -23.331 -5.328 QT
-22.831 -4.906 -21.925 -4.906 QT
-21.019 -4.906 -20.581 -5.273 QT
-20.144 -5.641 -20.144 -6.141 QT
-20.144 -6.594 -20.534 -6.844 QT
-20.8 -7.031 -21.878 -7.297 QT
-23.331 -7.656 -23.886 -7.93 QT
-24.441 -8.203 -24.73 -8.672 QT
-25.019 -9.141 -25.019 -9.719 QT
-25.019 -10.234 -24.784 -10.68 QT
-24.55 -11.125 -24.144 -11.406 QT
-23.831 -11.641 -23.3 -11.797 QT
-22.769 -11.953 -22.159 -11.953 QT
-21.253 -11.953 -20.558 -11.688 QT
-19.863 -11.422 -19.534 -10.977 QT
-19.206 -10.531 -19.081 -9.766 QT
-20.363 -9.594 L
-20.456 -10.203 -20.878 -10.539 QT
-21.3 -10.875 -22.066 -10.875 QT
-22.972 -10.875 -23.363 -10.57 QT
-23.753 -10.266 -23.753 -9.859 QT
-23.753 -9.609 -23.597 -9.406 QT
-23.425 -9.188 -23.081 -9.047 QT
-22.894 -8.984 -21.925 -8.719 QT
-20.519 -8.344 -19.964 -8.109 QT
-19.409 -7.875 -19.097 -7.414 QT
-18.784 -6.953 -18.784 -6.281 QT
-18.784 -5.625 -19.167 -5.047 QT
-19.55 -4.469 -20.277 -4.148 QT
-21.003 -3.828 -21.925 -3.828 QT
-23.441 -3.828 -24.23 -4.453 QT
-25.019 -5.078 -25.238 -6.328 QT
cp
-22.8 -13 M
-21.831 -15.047 L
-20.097 -15.047 L
-21.706 -13 L
-22.8 -13 L
cp
-12.316 -6.844 M
-11.019 -6.688 L
-11.222 -5.344 -12.105 -4.586 QT
-12.988 -3.828 -14.253 -3.828 QT
-15.847 -3.828 -16.816 -4.867 QT
-17.784 -5.906 -17.784 -7.859 QT
-17.784 -9.125 -17.37 -10.07 QT
-16.956 -11.016 -16.105 -11.484 QT
-15.253 -11.953 -14.253 -11.953 QT
-12.988 -11.953 -12.175 -11.313 QT
-11.363 -10.672 -11.144 -9.5 QT
-12.425 -9.297 L
-12.613 -10.078 -13.073 -10.477 QT
-13.534 -10.875 -14.191 -10.875 QT
-15.191 -10.875 -15.816 -10.156 QT
-16.441 -9.438 -16.441 -7.891 QT
-16.441 -6.328 -15.839 -5.617 QT
-15.238 -4.906 -14.269 -4.906 QT
-13.488 -4.906 -12.972 -5.383 QT
-12.456 -5.859 -12.316 -6.844 QT
cp
-15.472 -13 M
-14.503 -15.047 L
-12.769 -15.047 L
-14.378 -13 L
-15.472 -13 L
cp
-0.666 -6.5 M
0.694 -6.344 L
0.381 -5.141 -0.494 -4.484 QT
-1.369 -3.828 -2.728 -3.828 QT
-4.431 -3.828 -5.431 -4.875 QT
-6.431 -5.922 -6.431 -7.828 QT
-6.431 -9.781 -5.416 -10.867 QT
-4.4 -11.953 -2.791 -11.953 QT
-1.228 -11.953 -0.244 -10.891 QT
0.741 -9.828 0.741 -7.906 QT
0.741 -7.781 0.741 -7.547 QT
-5.072 -7.547 L
-4.994 -6.266 -4.345 -5.586 QT
-3.697 -4.906 -2.712 -4.906 QT
-1.994 -4.906 -1.478 -5.289 QT
-0.962 -5.672 -0.666 -6.5 QT
cp
-4.994 -8.641 M
-0.65 -8.641 L
-0.744 -9.625 -1.15 -10.109 QT
-1.775 -10.875 -2.775 -10.875 QT
-3.697 -10.875 -4.314 -10.266 QT
-4.931 -9.656 -4.994 -8.641 QT
cp
2.157 -1.016 M
2.157 -11.781 L
3.361 -11.781 L
3.361 -10.766 L
3.782 -11.359 4.322 -11.656 QT
4.861 -11.953 5.626 -11.953 QT
6.611 -11.953 7.376 -11.438 QT
8.142 -10.922 8.525 -9.992 QT
8.907 -9.063 8.907 -7.953 QT
8.907 -6.75 8.486 -5.797 QT
8.064 -4.844 7.243 -4.336 QT
6.423 -3.828 5.517 -3.828 QT
4.861 -3.828 4.337 -4.102 QT
3.814 -4.375 3.486 -4.813 QT
3.486 -1.016 L
2.157 -1.016 L
cp
3.361 -7.844 M
3.361 -6.344 3.97 -5.625 QT
4.579 -4.906 5.439 -4.906 QT
6.314 -4.906 6.939 -5.648 QT
7.564 -6.391 7.564 -7.953 QT
7.564 -9.438 6.954 -10.18 QT
6.345 -10.922 5.501 -10.922 QT
4.657 -10.922 4.009 -10.133 QT
3.361 -9.344 3.361 -7.844 QT
cp
10.324 -13.219 M
10.324 -14.734 L
11.637 -14.734 L
11.637 -13.219 L
10.324 -13.219 L
cp
10.324 -4 M
10.324 -11.781 L
11.637 -11.781 L
11.637 -4 L
10.324 -4 L
cp
12.877 -4 M
12.877 -5.063 L
17.83 -10.75 L
16.987 -10.703 16.33 -10.703 QT
13.174 -10.703 L
13.174 -11.781 L
19.518 -11.781 L
19.518 -10.906 L
15.315 -5.969 L
14.502 -5.063 L
15.393 -5.141 16.158 -5.141 QT
19.752 -5.141 L
19.752 -4 L
12.877 -4 L
cp
20.408 -7.891 M
20.408 -10.047 21.612 -11.094 QT
22.612 -11.953 24.049 -11.953 QT
25.658 -11.953 26.674 -10.906 QT
27.69 -9.859 27.69 -8 QT
27.69 -6.5 27.244 -5.641 QT
26.799 -4.781 25.932 -4.305 QT
25.065 -3.828 24.049 -3.828 QT
22.424 -3.828 21.416 -4.875 QT
20.408 -5.922 20.408 -7.891 QT
cp
21.768 -7.891 M
21.768 -6.391 22.416 -5.648 QT
23.065 -4.906 24.049 -4.906 QT
25.033 -4.906 25.69 -5.656 QT
26.346 -6.406 26.346 -7.938 QT
26.346 -9.375 25.69 -10.117 QT
25.033 -10.859 24.049 -10.859 QT
23.065 -10.859 22.416 -10.125 QT
21.768 -9.391 21.768 -7.891 QT
cp
34.091 -4 M
34.091 -4.984 L
33.356 -3.828 31.919 -3.828 QT
30.997 -3.828 30.216 -4.336 QT
29.435 -4.844 29.005 -5.766 QT
28.575 -6.688 28.575 -7.875 QT
28.575 -9.047 28.966 -9.992 QT
29.356 -10.938 30.13 -11.445 QT
30.903 -11.953 31.856 -11.953 QT
32.56 -11.953 33.114 -11.656 QT
33.669 -11.359 34.013 -10.891 QT
34.013 -14.734 L
35.325 -14.734 L
35.325 -4 L
34.091 -4 L
cp
29.935 -7.875 M
29.935 -6.391 30.56 -5.648 QT
31.185 -4.906 32.044 -4.906 QT
32.903 -4.906 33.513 -5.617 QT
34.122 -6.328 34.122 -7.766 QT
34.122 -9.375 33.505 -10.117 QT
32.888 -10.859 31.981 -10.859 QT
31.106 -10.859 30.521 -10.141 QT
29.935 -9.422 29.935 -7.875 QT
cp
42.304 -4 M
42.304 -5.141 L
41.383 -3.828 39.836 -3.828 QT
39.148 -3.828 38.547 -4.094 QT
37.945 -4.359 37.656 -4.758 QT
37.367 -5.156 37.258 -5.734 QT
37.164 -6.109 37.164 -6.953 QT
37.164 -11.781 L
38.492 -11.781 L
38.492 -7.469 L
38.492 -6.438 38.57 -6.078 QT
38.695 -5.547 39.093 -5.25 QT
39.492 -4.953 40.086 -4.953 QT
40.679 -4.953 41.203 -5.258 QT
41.726 -5.563 41.945 -6.086 QT
42.164 -6.609 42.164 -7.609 QT
42.164 -11.781 L
43.476 -11.781 L
43.476 -4 L
42.304 -4 L
cp
49.449 -1.016 M
49.449 -14.734 L
52.356 -14.734 L
52.356 -13.641 L
50.778 -13.641 L
50.778 -2.109 L
52.356 -2.109 L
52.356 -1.016 L
49.449 -1.016 L
cp
52.974 -6.328 M
54.271 -6.531 L
54.381 -5.75 54.881 -5.328 QT
55.381 -4.906 56.287 -4.906 QT
57.193 -4.906 57.631 -5.273 QT
58.068 -5.641 58.068 -6.141 QT
58.068 -6.594 57.678 -6.844 QT
57.412 -7.031 56.334 -7.297 QT
54.881 -7.656 54.326 -7.93 QT
53.771 -8.203 53.482 -8.672 QT
53.193 -9.141 53.193 -9.719 QT
53.193 -10.234 53.428 -10.68 QT
53.662 -11.125 54.068 -11.406 QT
54.381 -11.641 54.912 -11.797 QT
55.443 -11.953 56.053 -11.953 QT
56.959 -11.953 57.654 -11.688 QT
58.349 -11.422 58.678 -10.977 QT
59.006 -10.531 59.131 -9.766 QT
57.849 -9.594 L
57.756 -10.203 57.334 -10.539 QT
56.912 -10.875 56.146 -10.875 QT
55.24 -10.875 54.849 -10.57 QT
54.459 -10.266 54.459 -9.859 QT
54.459 -9.609 54.615 -9.406 QT
54.787 -9.188 55.131 -9.047 QT
55.318 -8.984 56.287 -8.719 QT
57.693 -8.344 58.248 -8.109 QT
58.803 -7.875 59.115 -7.414 QT
59.428 -6.953 59.428 -6.281 QT
59.428 -5.625 59.045 -5.047 QT
58.662 -4.469 57.935 -4.148 QT
57.209 -3.828 56.287 -3.828 QT
54.771 -3.828 53.982 -4.453 QT
53.193 -5.078 52.974 -6.328 QT
cp
63.021 -1.016 M
60.115 -1.016 L
60.115 -2.109 L
61.709 -2.109 L
61.709 -13.641 L
60.115 -13.641 L
60.115 -14.734 L
63.021 -14.734 L
63.021 -1.016 L
cp
f
GR
GS
[0.75 0 0 0.75 0 0] CT
0 1 0 RC
1 LJ
0.667 LW
N
73.868 353.896 M
74.737 352.626 L
75.605 353.088 L
76.473 352.971 L
77.34 353.058 L
78.209 352.557 L
79.077 353.043 L
79.945 353.144 L
80.812 353.37 L
81.681 352.596 L
82.548 352.6 L
83.416 352.708 L
84.285 352.308 L
85.153 352.566 L
86.021 352.139 L
86.888 353.015 L
87.757 351.711 L
88.625 352.791 L
89.492 352.599 L
90.36 351.921 L
91.229 352.884 L
92.097 352.979 L
92.965 351.748 L
93.832 352.499 L
94.7 353.194 L
95.568 353.124 L
96.436 352.533 L
97.305 352.838 L
98.173 352.974 L
99.041 352.279 L
99.909 352.43 L
100.776 352.229 L
101.645 352.277 L
102.513 352.463 L
103.381 352.347 L
104.249 352.471 L
105.117 352.799 L
105.984 352.236 L
106.853 352.667 L
107.72 352.922 L
108.588 352.527 L
109.457 352.51 L
110.324 352.623 L
111.193 352.57 L
112.06 353.155 L
112.929 352.53 L
113.796 352.808 L
114.664 352.349 L
115.532 353.305 L
116.401 352.708 L
117.268 352.119 L
118.136 352.187 L
119.005 352.676 L
119.872 351.801 L
120.741 351.98 L
121.608 352.915 L
122.476 352.633 L
123.345 352.542 L
124.212 352.273 L
125.08 352.171 L
125.948 352.075 L
126.816 352.101 L
127.685 352.322 L
128.552 353.319 L
129.421 352.187 L
130.289 352.789 L
131.156 352.496 L
132.025 352.456 L
132.893 352.777 L
133.761 352.427 L
134.628 352.732 L
135.497 352.661 L
136.365 352.342 L
137.233 352.738 L
138.101 352.136 L
138.969 352.307 L
139.837 352.431 L
140.705 352.539 L
141.572 352.822 L
142.44 352.057 L
143.308 352.46 L
144.176 352.317 L
145.044 351.966 L
145.913 352.854 L
146.78 351.869 L
147.648 352.484 L
148.517 352.001 L
149.385 351.832 L
150.252 350.424 L
151.12 350.849 L
151.989 352.71 L
152.856 351.403 L
153.724 352.164 L
154.593 352.34 L
155.46 352.473 L
156.329 351.876 L
157.197 351.957 L
158.064 351.567 L
158.932 351.939 L
159.8 351.943 L
160.669 351.314 L
161.537 348.674 L
162.405 350.985 L
163.272 351.595 L
164.141 350.208 L
165.008 352.374 L
165.876 348.275 L
166.744 351.622 L
167.613 351.524 L
168.481 352.654 L
169.349 351.588 L
170.216 346.463 L
171.084 349.96 L
171.952 350.15 L
172.82 347.211 L
173.689 348.899 L
174.556 350.274 L
175.425 350.54 L
176.293 348.902 L
177.161 350.767 L
178.029 345.523 L
178.897 348.247 L
179.765 349.871 L
180.632 350.224 L
181.501 349.93 L
182.369 344.935 L
183.237 347.168 L
184.104 346.046 L
184.973 347.368 L
185.84 349.533 L
186.708 347.594 L
187.576 346.352 L
188.444 344.897 L
189.313 345.232 L
190.181 344.805 L
191.048 349.15 L
191.917 345.438 L
192.784 343.972 L
193.653 338.671 L
194.521 329.698 L
195.388 331.539 L
196.257 342.083 L
197.124 334.646 L
197.993 330.46 L
198.86 329.245 L
199.728 342.762 L
200.596 319.539 L
201.464 340.264 L
202.333 303.083 L
203.2 326.75 L
204.068 340.215 L
204.937 317.648 L
205.804 314.032 L
206.673 322.474 L
207.541 310.488 L
208.408 312.232 L
209.277 298.221 L
210.145 324.896 L
211.012 325.459 L
211.881 304.219 L
212.749 279.388 L
213.617 286.2 L
214.485 306.004 L
215.353 327.909 L
216.22 234.78 L
217.089 225.726 L
217.957 240.607 L
218.824 269.628 L
219.693 263.062 L
220.561 235.914 L
221.428 244.451 L
222.296 283.717 L
223.165 261.753 L
224.032 252.375 L
224.9 256.97 L
225.768 254.657 L
226.636 253.474 L
227.504 302.019 L
228.372 216.875 L
229.24 210.571 L
230.109 188.78 L
230.977 231.109 L
231.845 279.857 L
232.713 273.191 L
233.581 244.563 L
234.448 180.548 L
235.316 210.401 L
236.184 258.658 L
237.052 180.912 L
237.92 254.563 L
238.788 102.893 L
239.657 190.93 L
240.525 47.121 L
241.392 58.416 L
242.26 44.834 L
243.129 156.195 L
243.997 160.29 L
244.865 187.938 L
245.732 131.713 L
246.6 59.755 L
247.468 49.922 L
248.337 198.67 L
249.204 94.361 L
250.074 101.872 L
250.942 108.775 L
251.808 122.85 L
252.676 174.142 L
253.544 99.132 L
254.412 126.449 L
255.28 148.539 L
256.149 97.751 L
257.017 87.347 L
257.884 153.078 L
258.752 71.281 L
259.621 122.838 L
260.488 135.958 L
261.356 127.775 L
262.224 70.626 L
263.093 94.809 L
263.96 168.543 L
264.828 39.159 L
265.696 226.477 L
266.564 145.971 L
267.433 110.054 L
268.3 72.166 L
269.168 155.634 L
270.036 103.887 L
270.904 101.823 L
271.774 120.173 L
272.641 159.185 L
273.509 200.895 L
274.376 105.464 L
275.244 174.163 L
276.112 147.957 L
276.98 98.733 L
277.848 90.037 L
278.716 166.641 L
279.585 129.57 L
280.452 155.899 L
281.32 135.906 L
282.189 141.783 L
283.057 140.171 L
283.924 127.486 L
284.793 133.24 L
285.66 160.883 L
286.529 130.148 L
287.397 94.584 L
288.265 155.989 L
289.132 138.366 L
290 153.205 L
290.869 93.218 L
291.736 172.851 L
292.604 121.386 L
293.472 145.955 L
294.34 130.011 L
295.208 175.51 L
296.076 149.935 L
296.944 142.457 L
297.813 157.837 L
298.681 130.832 L
299.548 177.846 L
300.416 178.842 L
301.284 160.338 L
302.152 134.984 L
303.021 164.128 L
303.888 142.742 L
304.756 175.895 L
305.624 159.376 L
306.493 216.645 L
307.36 182.042 L
308.229 178.592 L
309.096 183.466 L
309.965 128.611 L
310.832 173.287 L
311.7 196.606 L
312.568 187.751 L
313.436 92.777 L
314.305 182.763 L
315.173 183.317 L
316.04 202.301 L
316.909 206.906 L
317.776 188.625 L
318.645 176.875 L
319.512 138.716 L
320.38 230.374 L
321.248 188.046 L
322.117 196.58 L
322.984 187.828 L
323.852 189.748 L
324.72 207.271 L
325.589 210.333 L
326.456 214.682 L
327.325 160.167 L
328.193 216.49 L
329.06 198.977 L
329.928 209.795 L
330.797 236.092 L
331.664 247.212 L
332.532 207.89 L
333.4 248.08 L
334.268 229.687 L
335.137 235.896 L
336.004 221.041 L
336.873 192.288 L
337.741 217.185 L
338.609 210.545 L
339.477 226.518 L
340.344 228.516 L
341.212 234.418 L
342.081 232.506 L
342.948 241.731 L
343.817 270.641 L
344.684 241.536 L
345.552 259.98 L
346.42 229.534 L
347.289 224.252 L
348.156 220.65 L
349.024 216.654 L
349.893 235.55 L
350.76 222.882 L
351.628 210.027 L
352.496 234.322 L
353.365 223.54 L
354.232 233.683 L
355.101 234.568 L
355.969 229.427 L
356.837 235.438 L
357.704 218.81 L
358.572 250.415 L
359.441 233.279 L
360.308 203.964 L
361.176 256.696 L
362.044 235.432 L
362.912 241.636 L
363.78 233.09 L
364.648 233.091 L
365.516 238.398 L
366.384 258.202 L
367.252 189.807 L
368.12 252.395 L
368.989 232.677 L
369.856 237.687 L
370.724 259.904 L
371.593 265.743 L
372.461 214.648 L
373.328 250.936 L
374.197 252.761 L
375.064 216.623 L
375.932 257.075 L
376.801 230.375 L
377.668 229.818 L
378.537 227.907 L
379.405 255.75 L
380.273 258.354 L
381.14 228.846 L
382.009 236.558 L
382.877 251.419 L
383.744 245.749 L
384.612 249.359 L
385.48 245.867 L
386.348 230.766 L
387.216 256.453 L
388.084 262.866 L
388.953 237.783 L
389.82 245.981 L
390.688 236.134 L
391.557 218.285 L
392.425 245.726 L
393.293 232.086 L
394.16 241.66 L
395.028 226.557 L
395.897 255.417 L
396.764 240.599 L
397.633 260.88 L
398.501 221.584 L
399.368 221.498 L
400.236 226.917 L
401.104 247.669 L
401.973 239.252 L
402.84 235.642 L
403.708 250.914 L
404.576 192.858 L
405.444 249.25 L
406.312 242.457 L
407.18 253.105 L
408.049 247.232 L
408.916 228.231 L
409.784 239.081 L
410.652 223.104 L
411.52 236.154 L
412.388 222.506 L
413.256 236.48 L
414.124 254.272 L
414.994 212.948 L
415.86 232.604 L
416.728 243.326 L
417.596 247.573 L
418.464 250.273 L
419.332 236.299 L
420.2 244.084 L
421.068 232.562 L
421.936 221.974 L
422.805 234.933 L
423.672 217.216 L
424.54 268.686 L
425.408 268.844 L
426.278 210.441 L
427.144 228.748 L
428.013 268.747 L
428.88 259.816 L
429.748 245.603 L
430.616 224.15 L
431.484 218 L
432.352 256.508 L
433.22 248.926 L
434.088 230.382 L
434.957 220.606 L
435.825 244.435 L
436.693 231.489 L
437.56 258.45 L
438.428 238.542 L
439.296 222.095 L
440.164 235.346 L
441.032 236.248 L
441.9 231.946 L
442.768 237.492 L
443.636 241.043 L
444.505 258.708 L
445.373 232.429 L
446.241 210.349 L
447.109 251.16 L
447.976 248.762 L
448.844 239.667 L
449.712 229.063 L
450.58 232.726 L
451.448 234.612 L
452.316 220.393 L
453.185 245.741 L
454.052 245.295 L
454.92 239.766 L
455.788 261.226 L
456.656 215.877 L
457.524 239.791 L
458.393 238.006 L
459.26 227.611 L
460.129 252.76 L
460.997 213.479 L
461.864 216.166 L
462.732 261.987 L
463.601 235.08 L
464.47 263.995 L
465.338 225.849 L
466.204 260.246 L
467.073 244.616 L
467.94 236.658 L
468.809 237.096 L
469.677 230.371 L
470.544 235.367 L
471.412 241.106 L
472.281 215.377 L
473.148 238.892 L
474.017 246.774 L
474.885 244.808 L
475.752 252.271 L
476.622 256.323 L
477.488 237.417 L
478.356 234.542 L
479.224 238.239 L
480.092 253.176 L
480.96 231.177 L
481.83 210.32 L
482.696 250.84 L
483.565 255.245 L
484.432 243.433 L
485.3 257.111 L
486.168 235.807 L
487.036 247.562 L
487.904 229.263 L
488.772 247.347 L
489.642 244.553 L
490.509 241.009 L
491.378 234.495 L
492.244 243.845 L
493.112 268.553 L
493.98 250.422 L
494.848 243.831 L
495.716 233.19 L
496.585 260.102 L
497.452 238.689 L
498.321 213.56 L
499.189 247.264 L
500.056 248.162 L
500.925 264.117 L
501.793 248.557 L
502.66 236.089 L
503.528 246.028 L
504.397 225.2 L
505.264 233.508 L
506.132 246.597 L
507 247.495 L
S
GR
GS
[0.75 0 0 0.75 0 0] CT
1 0 0 RC
1 LJ
0.667 LW
N
73.868 358.504 M
74.737 357.866 L
75.605 357.04 L
76.473 357.065 L
77.34 356.4 L
78.209 357.074 L
79.077 356.956 L
79.945 356.811 L
80.812 356.525 L
81.681 356.459 L
82.548 355.902 L
83.416 356.631 L
84.285 356.372 L
85.153 356.151 L
86.021 356.12 L
86.888 355.729 L
87.757 355.287 L
88.625 354.57 L
89.492 355.782 L
90.36 355.314 L
91.229 354.763 L
92.097 354.708 L
92.965 354.685 L
93.832 354.552 L
94.7 354.616 L
95.568 354.759 L
96.436 355.082 L
97.305 355.152 L
98.173 355.318 L
99.041 355.478 L
99.909 355.246 L
100.776 355.152 L
101.645 354.763 L
102.513 354.89 L
103.381 354.754 L
104.249 354.976 L
105.117 355.295 L
105.984 354.728 L
106.853 355.077 L
107.72 355.375 L
108.588 354.572 L
109.457 355.327 L
110.324 354.997 L
111.193 354.733 L
112.06 354.655 L
112.929 354.968 L
113.796 354.379 L
114.664 354.468 L
115.532 354.542 L
116.401 354.297 L
117.268 355.036 L
118.136 354.862 L
119.005 355.289 L
119.872 355.014 L
120.741 354.855 L
121.608 354.774 L
122.476 355.071 L
123.345 354.485 L
124.212 355.093 L
125.08 354.987 L
125.948 354.986 L
126.816 354.512 L
127.685 354.39 L
128.552 354.734 L
129.421 354.158 L
130.289 353.604 L
131.156 353.928 L
132.025 353.959 L
132.893 353.898 L
133.761 353.733 L
134.628 353.73 L
135.497 353.501 L
136.365 354.01 L
137.233 354.053 L
138.101 353.98 L
138.969 353.99 L
139.837 353.674 L
140.705 353.742 L
141.572 353.438 L
142.44 354.185 L
143.308 353.463 L
144.176 353.44 L
145.044 353.831 L
145.913 353.794 L
146.78 353.809 L
147.648 353.566 L
148.517 353.468 L
149.385 353.855 L
150.252 353.125 L
151.12 353.191 L
151.989 353.121 L
152.856 353.12 L
153.724 353.551 L
154.593 353.921 L
155.46 353.367 L
156.329 353.444 L
157.197 353.031 L
158.064 353.297 L
158.932 353.355 L
159.8 353.212 L
160.669 353.883 L
161.537 353.472 L
162.405 352.954 L
163.272 352.96 L
164.141 353.41 L
165.008 352.994 L
165.876 353.151 L
166.744 353.289 L
167.613 353.389 L
168.481 353.021 L
169.349 353.371 L
170.216 353.02 L
171.084 353.098 L
171.952 353.049 L
172.82 353.02 L
173.689 352.961 L
174.556 352.99 L
175.425 353.126 L
176.293 352.898 L
177.161 353.839 L
178.029 352.869 L
178.897 353.485 L
179.765 353.11 L
180.632 353.337 L
181.501 352.736 L
182.369 353.333 L
183.237 353.986 L
184.104 353.151 L
184.973 352.991 L
185.84 353.689 L
186.708 353.538 L
187.576 352.77 L
188.444 352.944 L
189.313 352.836 L
190.181 353.297 L
191.048 353.874 L
191.917 353.358 L
192.784 352.976 L
193.653 353.526 L
194.521 353.457 L
195.388 353.331 L
196.257 353.546 L
197.124 353.39 L
197.993 353.092 L
198.86 353.029 L
199.728 353.124 L
200.596 352.732 L
201.464 353.068 L
202.333 353.632 L
203.2 352.85 L
204.068 353.329 L
204.937 353.21 L
205.804 353.53 L
206.673 352.841 L
207.541 353.073 L
208.408 352.686 L
209.277 353.593 L
210.145 353.345 L
211.012 353.33 L
211.881 352.883 L
212.749 353.15 L
213.617 353.328 L
214.485 353.129 L
215.353 353.322 L
216.22 352.937 L
217.089 353.044 L
217.957 353.464 L
218.824 353.19 L
219.693 353.057 L
220.561 353.116 L
221.428 353.233 L
222.296 353.226 L
223.165 353.209 L
224.032 353.472 L
224.9 353.61 L
225.768 353.074 L
226.636 352.958 L
227.504 353.266 L
228.372 353.639 L
229.24 352.611 L
230.109 353.05 L
230.977 352.644 L
231.845 352.749 L
232.713 352.997 L
233.581 352.891 L
234.448 352.566 L
235.316 353.306 L
236.184 352.896 L
237.052 352.639 L
237.92 353.735 L
238.788 353.104 L
239.657 353.365 L
240.525 352.972 L
241.392 353.174 L
242.26 353.049 L
243.129 353.267 L
243.997 352.807 L
244.865 352.764 L
245.732 353.21 L
246.6 353.258 L
247.468 354.03 L
248.337 353.075 L
249.204 353.06 L
250.074 353.832 L
250.942 352.964 L
251.808 353.252 L
252.676 353.823 L
253.544 352.862 L
254.412 353.077 L
255.28 353.215 L
256.149 353.352 L
257.017 352.992 L
257.884 352.87 L
258.752 352.905 L
259.621 354.025 L
260.488 353.341 L
261.356 352.884 L
262.224 353.26 L
263.093 352.997 L
263.96 353.161 L
264.828 353.226 L
265.696 352.99 L
266.564 352.814 L
267.433 353.151 L
268.3 352.683 L
269.168 352.739 L
270.036 352.637 L
270.904 352.679 L
271.774 352.845 L
272.641 352.873 L
273.509 353.5 L
274.376 352.736 L
275.244 352.77 L
276.112 353.506 L
276.98 353.434 L
277.848 353.036 L
278.716 352.576 L
279.585 352.962 L
280.452 352.976 L
281.32 353.708 L
282.189 353.268 L
283.057 352.827 L
283.924 352.745 L
284.793 353.113 L
285.66 352.603 L
286.529 353.181 L
287.397 353.22 L
288.265 352.81 L
289.132 353.304 L
290 353.559 L
290.869 352.954 L
291.736 352.747 L
292.604 352.911 L
293.472 353.313 L
294.34 353.584 L
295.208 352.986 L
296.076 352.659 L
296.944 352.98 L
297.813 352.915 L
298.681 352.876 L
299.548 352.727 L
300.416 352.872 L
301.284 352.606 L
302.152 353.231 L
303.021 352.587 L
303.888 353.005 L
304.756 353.523 L
305.624 352.979 L
306.493 352.981 L
307.36 353.413 L
308.229 352.957 L
309.096 352.892 L
309.965 352.815 L
310.832 353.438 L
311.7 352.676 L
312.568 352.607 L
313.436 352.889 L
314.305 353.409 L
315.173 353.191 L
316.04 353.047 L
316.909 353.409 L
317.776 352.898 L
318.645 353.216 L
319.512 353.115 L
320.38 352.759 L
321.248 353.161 L
322.117 352.696 L
322.984 352.667 L
323.852 353.178 L
324.72 352.612 L
325.589 353.002 L
326.456 353.072 L
327.325 352.725 L
328.193 352.886 L
329.06 352.605 L
329.928 353.068 L
330.797 352.93 L
331.664 353.235 L
332.532 352.985 L
333.4 352.838 L
334.268 352.926 L
335.137 352.86 L
336.004 352.736 L
336.873 352.632 L
337.741 352.563 L
338.609 352.767 L
339.477 353.296 L
340.344 352.848 L
341.212 352.732 L
342.081 353.328 L
342.948 352.965 L
343.817 352.898 L
344.684 352.829 L
345.552 352.766 L
346.42 352.455 L
347.289 352.829 L
348.156 353.147 L
349.024 352.911 L
349.893 352.982 L
350.76 353.128 L
351.628 353.247 L
352.496 353.169 L
353.365 352.935 L
354.232 352.563 L
355.101 352.749 L
355.969 352.563 L
356.837 352.84 L
357.704 352.911 L
358.572 352.727 L
359.441 353.003 L
360.308 352.697 L
361.176 352.97 L
362.044 352.849 L
362.912 353.119 L
363.78 352.951 L
364.648 353.035 L
365.516 353.09 L
366.384 352.573 L
367.252 353.139 L
368.12 352.891 L
368.989 352.896 L
369.856 353.498 L
370.724 352.867 L
371.593 352.88 L
372.461 353.059 L
373.328 353.22 L
374.197 353.07 L
375.064 352.632 L
375.932 352.842 L
376.801 352.802 L
377.668 352.752 L
378.537 352.949 L
379.405 352.967 L
380.273 352.775 L
381.14 352.994 L
382.009 352.789 L
382.877 352.996 L
383.744 353.176 L
384.612 352.563 L
385.48 352.563 L
386.348 352.967 L
387.216 352.721 L
388.084 352.586 L
388.953 352.563 L
389.82 352.648 L
390.688 352.824 L
391.557 353.106 L
392.425 352.453 L
393.293 353.211 L
394.16 353.558 L
395.028 353.359 L
395.897 352.873 L
396.764 352.75 L
397.633 353.211 L
398.501 353.09 L
399.368 352.835 L
400.236 352.838 L
401.104 352.796 L
401.973 352.855 L
402.84 352.563 L
403.708 352.709 L
404.576 352.783 L
405.444 353.234 L
406.312 353.133 L
407.18 352.684 L
408.049 352.829 L
408.916 353.193 L
409.784 353.021 L
410.652 352.75 L
411.52 352.979 L
412.388 353.337 L
413.256 352.964 L
414.124 353.222 L
414.994 353.021 L
415.86 352.563 L
416.728 352.754 L
417.596 353.508 L
418.464 352.81 L
419.332 353.008 L
420.2 352.874 L
421.068 352.891 L
421.936 353.039 L
422.805 353.214 L
423.672 352.563 L
424.54 352.563 L
425.408 352.563 L
426.278 352.563 L
427.144 353.052 L
428.013 352.563 L
428.88 352.563 L
429.748 352.764 L
430.616 352.582 L
431.484 352.703 L
432.352 352.575 L
433.22 352.942 L
434.088 353.009 L
434.957 352.758 L
435.825 352.613 L
436.693 352.749 L
437.56 353.023 L
438.428 352.745 L
439.296 353.062 L
440.164 352.59 L
441.032 353.195 L
441.9 353.686 L
442.768 352.818 L
443.636 352.838 L
444.505 352.79 L
445.373 352.563 L
446.241 352.841 L
447.109 352.832 L
447.976 352.719 L
448.844 352.694 L
449.712 352.662 L
450.58 352.723 L
451.448 352.627 L
452.316 353.155 L
453.185 353.09 L
454.052 352.626 L
454.92 353.014 L
455.788 352.65 L
456.656 352.757 L
457.524 353.04 L
458.393 352.896 L
459.26 352.851 L
460.129 352.625 L
460.997 353.216 L
461.864 352.905 L
462.732 353.105 L
463.601 353.25 L
464.47 352.781 L
465.338 352.939 L
466.204 352.923 L
467.073 352.563 L
467.94 352.748 L
468.809 353.33 L
469.677 352.937 L
470.544 352.681 L
471.412 353.016 L
472.281 352.573 L
473.148 352.85 L
474.017 352.81 L
474.885 353.154 L
475.752 352.703 L
476.622 353.028 L
477.488 352.739 L
478.356 352.808 L
479.224 353.156 L
480.092 353.124 L
480.96 353.208 L
481.83 352.988 L
482.696 352.936 L
483.565 352.595 L
484.432 353.04 L
485.3 352.622 L
486.168 352.945 L
487.036 352.917 L
487.904 352.794 L
488.772 352.982 L
489.642 352.883 L
490.509 352.563 L
491.378 353.285 L
492.244 352.563 L
493.112 353.558 L
493.98 352.989 L
494.848 352.964 L
495.716 352.802 L
496.585 352.886 L
497.452 352.784 L
498.321 352.563 L
499.189 353.172 L
500.056 353.301 L
500.925 353.254 L
501.793 352.9 L
502.66 352.748 L
503.528 353.249 L
504.397 352.714 L
505.264 352.629 L
506.132 353.3 L
507 352.956 L
S
GR
GS
[0.75 0 0 0.75 0 0] CT
1 GC
N
496 78 M
496 42 L
376 42 L
376 78 L
cp
f
GR
GS
[0.75 0 0 0.75 317.25 38.89726] CT
N
0.938 5 M
0.938 -3.594 L
4.75 -3.594 L
5.906 -3.594 6.5 -3.359 QT
7.094 -3.125 7.453 -2.539 QT
7.813 -1.953 7.813 -1.25 QT
7.813 -0.328 7.219 0.297 QT
6.625 0.922 5.391 1.094 QT
5.844 1.313 6.078 1.516 QT
6.578 1.969 7.016 2.656 QT
8.516 5 L
7.078 5 L
5.953 3.219 L
5.453 2.438 5.133 2.031 QT
4.813 1.625 4.555 1.461 QT
4.297 1.297 4.031 1.219 QT
3.844 1.188 3.406 1.188 QT
2.078 1.188 L
2.078 5 L
0.938 5 L
cp
2.078 0.203 M
4.531 0.203 L
5.297 0.203 5.742 0.039 QT
6.188 -0.125 6.414 -0.477 QT
6.641 -0.828 6.641 -1.25 QT
6.641 -1.859 6.195 -2.25 QT
5.75 -2.641 4.797 -2.641 QT
2.078 -2.641 L
2.078 0.203 L
cp
9.072 1.891 M
9.072 0.156 10.025 -0.672 QT
10.822 -1.359 11.979 -1.359 QT
13.26 -1.359 14.08 -0.523 QT
14.9 0.313 14.9 1.797 QT
14.9 3 14.541 3.688 QT
14.182 4.375 13.486 4.758 QT
12.791 5.141 11.979 5.141 QT
10.682 5.141 9.877 4.305 QT
9.072 3.469 9.072 1.891 QT
cp
10.15 1.891 M
10.15 3.078 10.674 3.672 QT
11.197 4.266 11.979 4.266 QT
12.775 4.266 13.291 3.672 QT
13.807 3.078 13.807 1.859 QT
13.807 0.703 13.283 0.109 QT
12.76 -0.484 11.979 -0.484 QT
11.197 -0.484 10.674 0.102 QT
10.15 0.688 10.15 1.891 QT
cp
15.715 3.141 M
16.746 2.984 L
16.84 3.609 17.238 3.938 QT
17.637 4.266 18.371 4.266 QT
19.09 4.266 19.441 3.977 QT
19.793 3.688 19.793 3.281 QT
19.793 2.922 19.48 2.719 QT
19.262 2.578 18.402 2.359 QT
17.246 2.063 16.801 1.852 QT
16.355 1.641 16.121 1.266 QT
15.887 0.891 15.887 0.422 QT
15.887 0.016 16.074 -0.344 QT
16.262 -0.703 16.59 -0.938 QT
16.84 -1.109 17.262 -1.234 QT
17.684 -1.359 18.184 -1.359 QT
18.902 -1.359 19.457 -1.148 QT
20.012 -0.938 20.277 -0.578 QT
20.543 -0.219 20.637 0.375 QT
19.605 0.516 L
19.543 0.047 19.207 -0.227 QT
18.871 -0.5 18.246 -0.5 QT
17.527 -0.5 17.215 -0.258 QT
16.902 -0.016 16.902 0.313 QT
16.902 0.516 17.027 0.672 QT
17.168 0.844 17.434 0.953 QT
17.59 1.016 18.371 1.219 QT
19.496 1.531 19.934 1.719 QT
20.371 1.906 20.621 2.266 QT
20.871 2.625 20.871 3.172 QT
20.871 3.703 20.566 4.164 QT
20.262 4.625 19.684 4.883 QT
19.105 5.141 18.371 5.141 QT
17.152 5.141 16.52 4.633 QT
15.887 4.125 15.715 3.141 QT
cp
17.465 -3 M
18.246 -4.641 L
19.637 -4.641 L
18.34 -3 L
17.465 -3 L
cp
22.105 5 M
22.105 -3.594 L
23.168 -3.594 L
23.168 5 L
22.105 5 L
cp
24.803 -2.375 M
24.803 -3.594 L
25.865 -3.594 L
25.865 -2.375 L
24.803 -2.375 L
cp
24.803 5 M
24.803 -1.219 L
25.865 -1.219 L
25.865 5 L
24.803 5 L
cp
27.469 5 M
27.469 -1.219 L
28.406 -1.219 L
28.406 -0.344 L
29.094 -1.359 30.391 -1.359 QT
30.953 -1.359 31.43 -1.156 QT
31.906 -0.953 32.141 -0.625 QT
32.375 -0.297 32.469 0.141 QT
32.516 0.438 32.516 1.172 QT
32.516 5 L
31.469 5 L
31.469 1.219 L
31.469 0.563 31.344 0.25 QT
31.219 -0.063 30.906 -0.258 QT
30.594 -0.453 30.172 -0.453 QT
29.5 -0.453 29.008 -0.023 QT
28.516 0.406 28.516 1.594 QT
28.516 5 L
27.469 5 L
cp
33.752 1.891 M
33.752 0.156 34.705 -0.672 QT
35.502 -1.359 36.658 -1.359 QT
37.939 -1.359 38.76 -0.523 QT
39.58 0.313 39.58 1.797 QT
39.58 3 39.221 3.688 QT
38.861 4.375 38.166 4.758 QT
37.471 5.141 36.658 5.141 QT
35.361 5.141 34.557 4.305 QT
33.752 3.469 33.752 1.891 QT
cp
34.83 1.891 M
34.83 3.078 35.354 3.672 QT
35.877 4.266 36.658 4.266 QT
37.455 4.266 37.971 3.672 QT
38.486 3.078 38.486 1.859 QT
38.486 0.703 37.963 0.109 QT
37.439 -0.484 36.658 -0.484 QT
35.877 -0.484 35.354 0.102 QT
34.83 0.688 34.83 1.891 QT
cp
40.254 5 M
40.254 4.141 L
44.223 -0.406 L
43.535 -0.375 43.02 -0.375 QT
40.488 -0.375 L
40.488 -1.219 L
45.582 -1.219 L
45.582 -0.531 L
42.207 3.422 L
41.551 4.141 L
42.27 4.094 42.879 4.094 QT
45.77 4.094 L
45.77 5 L
40.254 5 L
cp
42.02 -3 M
42.02 -4.313 L
43.332 -4.313 L
43.332 -3 L
42.02 -3 L
cp
51.066 3 M
52.16 3.125 L
51.91 4.078 51.207 4.609 QT
50.504 5.141 49.426 5.141 QT
48.066 5.141 47.262 4.297 QT
46.457 3.453 46.457 1.938 QT
46.457 0.375 47.27 -0.492 QT
48.082 -1.359 49.363 -1.359 QT
50.613 -1.359 51.402 -0.516 QT
52.191 0.328 52.191 1.875 QT
52.191 1.969 52.191 2.156 QT
47.551 2.156 L
47.613 3.188 48.129 3.727 QT
48.645 4.266 49.426 4.266 QT
50.004 4.266 50.418 3.961 QT
50.832 3.656 51.066 3 QT
cp
47.613 1.297 M
51.082 1.297 L
51.02 0.5 50.691 0.109 QT
50.176 -0.5 49.379 -0.5 QT
48.645 -0.5 48.152 -0.016 QT
47.66 0.469 47.613 1.297 QT
cp
53.475 5 M
53.475 -1.219 L
54.428 -1.219 L
54.428 -0.281 L
54.787 -0.938 55.092 -1.148 QT
55.396 -1.359 55.771 -1.359 QT
56.303 -1.359 56.85 -1.031 QT
56.49 -0.047 L
56.1 -0.281 55.725 -0.281 QT
55.365 -0.281 55.092 -0.07 QT
54.818 0.141 54.709 0.516 QT
54.521 1.078 54.521 1.734 QT
54.521 5 L
53.475 5 L
cp
61.549 2.719 M
62.58 2.859 L
62.408 3.922 61.705 4.531 QT
61.002 5.141 59.986 5.141 QT
58.705 5.141 57.932 4.305 QT
57.158 3.469 57.158 1.906 QT
57.158 0.906 57.494 0.148 QT
57.83 -0.609 58.51 -0.984 QT
59.189 -1.359 60.002 -1.359 QT
61.002 -1.359 61.65 -0.852 QT
62.299 -0.344 62.486 0.609 QT
61.455 0.766 L
61.314 0.141 60.939 -0.18 QT
60.564 -0.5 60.033 -0.5 QT
59.236 -0.5 58.736 0.07 QT
58.236 0.641 58.236 1.875 QT
58.236 3.141 58.721 3.703 QT
59.205 4.266 59.971 4.266 QT
60.596 4.266 61.01 3.891 QT
61.424 3.516 61.549 2.719 QT
cp
63.439 7.391 M
63.314 6.406 L
63.658 6.5 63.924 6.5 QT
64.268 6.5 64.479 6.383 QT
64.689 6.266 64.83 6.063 QT
64.924 5.891 65.158 5.266 QT
65.174 5.188 65.252 5.016 QT
62.877 -1.219 L
64.018 -1.219 L
65.314 2.375 L
65.564 3.063 65.768 3.828 QT
65.955 3.094 66.205 2.406 QT
67.533 -1.219 L
68.58 -1.219 L
66.221 5.109 L
65.83 6.125 65.627 6.516 QT
65.346 7.047 64.979 7.289 QT
64.611 7.531 64.111 7.531 QT
63.814 7.531 63.439 7.391 QT
cp
f
GR
GS
[0.75 0 0 0.75 0 0] CT
0 1 0 RC
1 LJ
0.667 LW
N
380 51.863 M
420 51.863 L
S
GR
GS
[0.75 0 0 0.75 317.25 51.10274] CT
N
0.891 5 M
0.891 -3.594 L
2.609 -3.594 L
4.641 2.484 L
4.922 3.344 5.047 3.766 QT
5.188 3.297 5.5 2.391 QT
7.563 -3.594 L
9.094 -3.594 L
9.094 5 L
8 5 L
8 -2.188 L
5.5 5 L
4.469 5 L
1.984 -2.313 L
1.984 5 L
0.891 5 L
cp
10.793 -2.375 M
10.793 -3.594 L
11.855 -3.594 L
11.855 -2.375 L
10.793 -2.375 L
cp
10.793 5 M
10.793 -1.219 L
11.855 -1.219 L
11.855 5 L
10.793 5 L
cp
17.709 3 M
18.803 3.125 L
18.553 4.078 17.85 4.609 QT
17.146 5.141 16.068 5.141 QT
14.709 5.141 13.904 4.297 QT
13.1 3.453 13.1 1.938 QT
13.1 0.375 13.912 -0.492 QT
14.725 -1.359 16.006 -1.359 QT
17.256 -1.359 18.045 -0.516 QT
18.834 0.328 18.834 1.875 QT
18.834 1.969 18.834 2.156 QT
14.193 2.156 L
14.256 3.188 14.771 3.727 QT
15.287 4.266 16.068 4.266 QT
16.646 4.266 17.061 3.961 QT
17.475 3.656 17.709 3 QT
cp
14.256 1.297 M
17.725 1.297 L
17.662 0.5 17.334 0.109 QT
16.818 -0.5 16.021 -0.5 QT
15.287 -0.5 14.795 -0.016 QT
14.303 0.469 14.256 1.297 QT
cp
17.678 5 M
17.35 5.203 17.162 5.508 QT
16.975 5.813 16.975 6.125 QT
16.975 6.359 17.115 6.531 QT
17.256 6.703 17.553 6.703 QT
17.693 6.703 17.834 6.664 QT
17.975 6.625 18.084 6.563 QT
18.084 7.313 L
17.662 7.516 17.287 7.516 QT
16.99 7.516 16.771 7.43 QT
16.553 7.344 16.404 7.195 QT
16.256 7.047 16.178 6.859 QT
16.1 6.672 16.1 6.438 QT
16.1 6.063 16.311 5.688 QT
16.521 5.313 16.912 5 QT
17.678 5 L
cp
19.711 3.141 M
20.742 2.984 L
20.836 3.609 21.234 3.938 QT
21.633 4.266 22.367 4.266 QT
23.086 4.266 23.438 3.977 QT
23.789 3.688 23.789 3.281 QT
23.789 2.922 23.477 2.719 QT
23.258 2.578 22.398 2.359 QT
21.242 2.063 20.797 1.852 QT
20.352 1.641 20.117 1.266 QT
19.883 0.891 19.883 0.422 QT
19.883 0.016 20.07 -0.344 QT
20.258 -0.703 20.586 -0.938 QT
20.836 -1.109 21.258 -1.234 QT
21.68 -1.359 22.18 -1.359 QT
22.898 -1.359 23.453 -1.148 QT
24.008 -0.938 24.273 -0.578 QT
24.539 -0.219 24.633 0.375 QT
23.602 0.516 L
23.539 0.047 23.203 -0.227 QT
22.867 -0.5 22.242 -0.5 QT
21.523 -0.5 21.211 -0.258 QT
20.898 -0.016 20.898 0.313 QT
20.898 0.516 21.023 0.672 QT
21.164 0.844 21.43 0.953 QT
21.586 1.016 22.367 1.219 QT
23.492 1.531 23.93 1.719 QT
24.367 1.906 24.617 2.266 QT
24.867 2.625 24.867 3.172 QT
24.867 3.703 24.563 4.164 QT
24.258 4.625 23.68 4.883 QT
23.102 5.141 22.367 5.141 QT
21.148 5.141 20.516 4.633 QT
19.883 4.125 19.711 3.141 QT
cp
25.742 1.891 M
25.742 0.156 26.695 -0.672 QT
27.492 -1.359 28.648 -1.359 QT
29.93 -1.359 30.75 -0.523 QT
31.57 0.313 31.57 1.797 QT
31.57 3 31.211 3.688 QT
30.852 4.375 30.156 4.758 QT
29.461 5.141 28.648 5.141 QT
27.352 5.141 26.547 4.305 QT
25.742 3.469 25.742 1.891 QT
cp
26.82 1.891 M
26.82 3.078 27.344 3.672 QT
27.867 4.266 28.648 4.266 QT
29.445 4.266 29.961 3.672 QT
30.477 3.078 30.477 1.859 QT
30.477 0.703 29.953 0.109 QT
29.43 -0.484 28.648 -0.484 QT
27.867 -0.484 27.344 0.102 QT
26.82 0.688 26.82 1.891 QT
cp
32.244 5 M
32.244 4.141 L
36.213 -0.406 L
35.525 -0.375 35.01 -0.375 QT
32.479 -0.375 L
32.479 -1.219 L
37.572 -1.219 L
37.572 -0.531 L
34.197 3.422 L
33.541 4.141 L
34.26 4.094 34.869 4.094 QT
37.76 4.094 L
37.76 5 L
32.244 5 L
cp
34.01 -3 M
34.01 -4.313 L
35.322 -4.313 L
35.322 -3 L
34.01 -3 L
cp
43.057 3 M
44.15 3.125 L
43.9 4.078 43.197 4.609 QT
42.494 5.141 41.416 5.141 QT
40.057 5.141 39.252 4.297 QT
38.447 3.453 38.447 1.938 QT
38.447 0.375 39.26 -0.492 QT
40.072 -1.359 41.354 -1.359 QT
42.604 -1.359 43.393 -0.516 QT
44.182 0.328 44.182 1.875 QT
44.182 1.969 44.182 2.156 QT
39.541 2.156 L
39.604 3.188 40.119 3.727 QT
40.635 4.266 41.416 4.266 QT
41.994 4.266 42.408 3.961 QT
42.822 3.656 43.057 3 QT
cp
39.604 1.297 M
43.072 1.297 L
43.01 0.5 42.682 0.109 QT
42.166 -0.5 41.369 -0.5 QT
40.635 -0.5 40.143 -0.016 QT
39.65 0.469 39.604 1.297 QT
cp
45.465 5 M
45.465 -1.219 L
46.418 -1.219 L
46.418 -0.281 L
46.777 -0.938 47.082 -1.148 QT
47.387 -1.359 47.762 -1.359 QT
48.293 -1.359 48.84 -1.031 QT
48.48 -0.047 L
48.09 -0.281 47.715 -0.281 QT
47.355 -0.281 47.082 -0.07 QT
46.809 0.141 46.699 0.516 QT
46.512 1.078 46.512 1.734 QT
46.512 5 L
45.465 5 L
cp
53.539 2.719 M
54.57 2.859 L
54.398 3.922 53.695 4.531 QT
52.992 5.141 51.977 5.141 QT
50.695 5.141 49.922 4.305 QT
49.148 3.469 49.148 1.906 QT
49.148 0.906 49.484 0.148 QT
49.82 -0.609 50.5 -0.984 QT
51.18 -1.359 51.992 -1.359 QT
52.992 -1.359 53.641 -0.852 QT
54.289 -0.344 54.477 0.609 QT
53.445 0.766 L
53.305 0.141 52.93 -0.18 QT
52.555 -0.5 52.023 -0.5 QT
51.227 -0.5 50.727 0.07 QT
50.227 0.641 50.227 1.875 QT
50.227 3.141 50.711 3.703 QT
51.195 4.266 51.961 4.266 QT
52.586 4.266 53 3.891 QT
53.414 3.516 53.539 2.719 QT
cp
55.43 7.391 M
55.305 6.406 L
55.648 6.5 55.914 6.5 QT
56.258 6.5 56.469 6.383 QT
56.68 6.266 56.82 6.063 QT
56.914 5.891 57.148 5.266 QT
57.164 5.188 57.242 5.016 QT
54.867 -1.219 L
56.008 -1.219 L
57.305 2.375 L
57.555 3.063 57.758 3.828 QT
57.945 3.094 58.195 2.406 QT
59.523 -1.219 L
60.57 -1.219 L
58.211 5.109 L
57.82 6.125 57.617 6.516 QT
57.336 7.047 56.969 7.289 QT
56.602 7.531 56.102 7.531 QT
55.805 7.531 55.43 7.391 QT
cp
f
GR
GS
[0.75 0 0 0.75 0 0] CT
1 0 0 RC
1 LJ
0.667 LW
N
380 68.137 M
420 68.137 L
S
GR
GS
[0.75 0 0 0.75 0 0] CT
0.149 GC
10.0 ML
0.667 LW
N
376 78 M
376 42 L
496 42 L
496 78 L
cp
S
GR
%%Trailer
%%Pages: 1
%%EOF
