%!PS-Adobe-3.0 EPSF-3.0
%%Creator: (MATLAB, The Mathworks, Inc. Version 9.5.0.1049112 \(R2018b\) Update 3. Operating System: Windows 10)
%%Title: learning/eps2/normalize2M.eps
%%CreationDate: 2020-01-07T20:26:29
%%Pages: (atend)
%%BoundingBox:    25     3   383   295
%%LanguageLevel: 3
%%EndComments
%%BeginProlog
%%BeginResource: procset (Apache XML Graphics Std ProcSet) 1.2 0
%%Version: 1.2 0
%%Copyright: (Copyright 2001-2003,2010 The Apache Software Foundation. License terms: http://www.apache.org/licenses/LICENSE-2.0)
/bd{bind def}bind def
/ld{load def}bd
/GR/grestore ld
/GS/gsave ld
/RM/rmoveto ld
/C/curveto ld
/t/show ld
/L/lineto ld
/ML/setmiterlimit ld
/CT/concat ld
/f/fill ld
/N/newpath ld
/S/stroke ld
/CC/setcmykcolor ld
/A/ashow ld
/cp/closepath ld
/RC/setrgbcolor ld
/LJ/setlinejoin ld
/GC/setgray ld
/LW/setlinewidth ld
/M/moveto ld
/re {4 2 roll M
1 index 0 rlineto
0 exch rlineto
neg 0 rlineto
cp } bd
/_ctm matrix def
/_tm matrix def
/BT { _ctm currentmatrix pop matrix _tm copy pop 0 0 moveto } bd
/ET { _ctm setmatrix } bd
/iTm { _ctm setmatrix _tm concat } bd
/Tm { _tm astore pop iTm 0 0 moveto } bd
/ux 0.0 def
/uy 0.0 def
/F {
  /Tp exch def
  /Tf exch def
  Tf findfont Tp scalefont setfont
  /cf Tf def  /cs Tp def
} bd
/ULS {currentpoint /uy exch def /ux exch def} bd
/ULE {
  /Tcx currentpoint pop def
  gsave
  newpath
  cf findfont cs scalefont dup
  /FontMatrix get 0 get /Ts exch def /FontInfo get dup
  /UnderlinePosition get Ts mul /To exch def
  /UnderlineThickness get Ts mul /Tt exch def
  ux uy To add moveto  Tcx uy To add lineto
  Tt setlinewidth stroke
  grestore
} bd
/OLE {
  /Tcx currentpoint pop def
  gsave
  newpath
  cf findfont cs scalefont dup
  /FontMatrix get 0 get /Ts exch def /FontInfo get dup
  /UnderlinePosition get Ts mul /To exch def
  /UnderlineThickness get Ts mul /Tt exch def
  ux uy To add cs add moveto Tcx uy To add cs add lineto
  Tt setlinewidth stroke
  grestore
} bd
/SOE {
  /Tcx currentpoint pop def
  gsave
  newpath
  cf findfont cs scalefont dup
  /FontMatrix get 0 get /Ts exch def /FontInfo get dup
  /UnderlinePosition get Ts mul /To exch def
  /UnderlineThickness get Ts mul /Tt exch def
  ux uy To add cs 10 mul 26 idiv add moveto Tcx uy To add cs 10 mul 26 idiv add lineto
  Tt setlinewidth stroke
  grestore
} bd
/QT {
/Y22 exch store
/X22 exch store
/Y21 exch store
/X21 exch store
currentpoint
/Y21 load 2 mul add 3 div exch
/X21 load 2 mul add 3 div exch
/X21 load 2 mul /X22 load add 3 div
/Y21 load 2 mul /Y22 load add 3 div
/X22 load /Y22 load curveto
} bd
/SSPD {
dup length /d exch dict def
{
/v exch def
/k exch def
currentpagedevice k known {
/cpdv currentpagedevice k get def
v cpdv ne {
/upd false def
/nullv v type /nulltype eq def
/nullcpdv cpdv type /nulltype eq def
nullv nullcpdv or
{
/upd true def
} {
/sametype v type cpdv type eq def
sametype {
v type /arraytype eq {
/vlen v length def
/cpdvlen cpdv length def
vlen cpdvlen eq {
0 1 vlen 1 sub {
/i exch def
/obj v i get def
/cpdobj cpdv i get def
obj cpdobj ne {
/upd true def
exit
} if
} for
} {
/upd true def
} ifelse
} {
v type /dicttype eq {
v {
/dv exch def
/dk exch def
/cpddv cpdv dk get def
dv cpddv ne {
/upd true def
exit
} if
} forall
} {
/upd true def
} ifelse
} ifelse
} if
} ifelse
upd true eq {
d k v put
} if
} if
} if
} forall
d length 0 gt {
d setpagedevice
} if
} bd
/RE { % /NewFontName [NewEncodingArray] /FontName RE -
  findfont dup length dict begin
  {
    1 index /FID ne
    {def} {pop pop} ifelse
  } forall
  /Encoding exch def
  /FontName 1 index def
  currentdict definefont pop
  end
} bind def
%%EndResource
%%BeginResource: procset (Apache XML Graphics EPS ProcSet) 1.0 0
%%Version: 1.0 0
%%Copyright: (Copyright 2002-2003 The Apache Software Foundation. License terms: http://www.apache.org/licenses/LICENSE-2.0)
/BeginEPSF { %def
/b4_Inc_state save def         % Save state for cleanup
/dict_count countdictstack def % Count objects on dict stack
/op_count count 1 sub def      % Count objects on operand stack
userdict begin                 % Push userdict on dict stack
/showpage { } def              % Redefine showpage, { } = null proc
0 setgray 0 setlinecap         % Prepare graphics state
1 setlinewidth 0 setlinejoin
10 setmiterlimit [ ] 0 setdash newpath
/languagelevel where           % If level not equal to 1 then
{pop languagelevel             % set strokeadjust and
1 ne                           % overprint to their defaults.
{false setstrokeadjust false setoverprint
} if
} if
} bd
/EndEPSF { %def
count op_count sub {pop} repeat            % Clean up stacks
countdictstack dict_count sub {end} repeat
b4_Inc_state restore
} bd
%%EndResource
%FOPBeginFontDict
%%IncludeResource: font Courier-Oblique
%%IncludeResource: font Courier-BoldOblique
%%IncludeResource: font Courier-Bold
%%IncludeResource: font ZapfDingbats
%%IncludeResource: font Symbol
%%IncludeResource: font Helvetica
%%IncludeResource: font Helvetica-Oblique
%%IncludeResource: font Helvetica-Bold
%%IncludeResource: font Helvetica-BoldOblique
%%IncludeResource: font Times-Roman
%%IncludeResource: font Times-Italic
%%IncludeResource: font Times-Bold
%%IncludeResource: font Times-BoldItalic
%%IncludeResource: font Courier
%FOPEndFontDict
%%BeginResource: encoding WinAnsiEncoding
/WinAnsiEncoding [
/.notdef /.notdef /.notdef /.notdef /.notdef
/.notdef /.notdef /.notdef /.notdef /.notdef
/.notdef /.notdef /.notdef /.notdef /.notdef
/.notdef /.notdef /.notdef /.notdef /.notdef
/.notdef /.notdef /.notdef /.notdef /.notdef
/.notdef /.notdef /.notdef /.notdef /.notdef
/.notdef /.notdef /space /exclam /quotedbl
/numbersign /dollar /percent /ampersand /quotesingle
/parenleft /parenright /asterisk /plus /comma
/hyphen /period /slash /zero /one
/two /three /four /five /six
/seven /eight /nine /colon /semicolon
/less /equal /greater /question /at
/A /B /C /D /E
/F /G /H /I /J
/K /L /M /N /O
/P /Q /R /S /T
/U /V /W /X /Y
/Z /bracketleft /backslash /bracketright /asciicircum
/underscore /quoteleft /a /b /c
/d /e /f /g /h
/i /j /k /l /m
/n /o /p /q /r
/s /t /u /v /w
/x /y /z /braceleft /bar
/braceright /asciitilde /bullet /Euro /bullet
/quotesinglbase /florin /quotedblbase /ellipsis /dagger
/daggerdbl /circumflex /perthousand /Scaron /guilsinglleft
/OE /bullet /Zcaron /bullet /bullet
/quoteleft /quoteright /quotedblleft /quotedblright /bullet
/endash /emdash /asciitilde /trademark /scaron
/guilsinglright /oe /bullet /zcaron /Ydieresis
/space /exclamdown /cent /sterling /currency
/yen /brokenbar /section /dieresis /copyright
/ordfeminine /guillemotleft /logicalnot /sfthyphen /registered
/macron /degree /plusminus /twosuperior /threesuperior
/acute /mu /paragraph /middot /cedilla
/onesuperior /ordmasculine /guillemotright /onequarter /onehalf
/threequarters /questiondown /Agrave /Aacute /Acircumflex
/Atilde /Adieresis /Aring /AE /Ccedilla
/Egrave /Eacute /Ecircumflex /Edieresis /Igrave
/Iacute /Icircumflex /Idieresis /Eth /Ntilde
/Ograve /Oacute /Ocircumflex /Otilde /Odieresis
/multiply /Oslash /Ugrave /Uacute /Ucircumflex
/Udieresis /Yacute /Thorn /germandbls /agrave
/aacute /acircumflex /atilde /adieresis /aring
/ae /ccedilla /egrave /eacute /ecircumflex
/edieresis /igrave /iacute /icircumflex /idieresis
/eth /ntilde /ograve /oacute /ocircumflex
/otilde /odieresis /divide /oslash /ugrave
/uacute /ucircumflex /udieresis /yacute /thorn
/ydieresis
] def
%%EndResource
%FOPBeginFontReencode
/Courier-Oblique findfont
dup length dict begin
  {1 index /FID ne {def} {pop pop} ifelse} forall
  /Encoding WinAnsiEncoding def
  currentdict
end
/Courier-Oblique exch definefont pop
/Courier-BoldOblique findfont
dup length dict begin
  {1 index /FID ne {def} {pop pop} ifelse} forall
  /Encoding WinAnsiEncoding def
  currentdict
end
/Courier-BoldOblique exch definefont pop
/Courier-Bold findfont
dup length dict begin
  {1 index /FID ne {def} {pop pop} ifelse} forall
  /Encoding WinAnsiEncoding def
  currentdict
end
/Courier-Bold exch definefont pop
/Helvetica findfont
dup length dict begin
  {1 index /FID ne {def} {pop pop} ifelse} forall
  /Encoding WinAnsiEncoding def
  currentdict
end
/Helvetica exch definefont pop
/Helvetica-Oblique findfont
dup length dict begin
  {1 index /FID ne {def} {pop pop} ifelse} forall
  /Encoding WinAnsiEncoding def
  currentdict
end
/Helvetica-Oblique exch definefont pop
/Helvetica-Bold findfont
dup length dict begin
  {1 index /FID ne {def} {pop pop} ifelse} forall
  /Encoding WinAnsiEncoding def
  currentdict
end
/Helvetica-Bold exch definefont pop
/Helvetica-BoldOblique findfont
dup length dict begin
  {1 index /FID ne {def} {pop pop} ifelse} forall
  /Encoding WinAnsiEncoding def
  currentdict
end
/Helvetica-BoldOblique exch definefont pop
/Times-Roman findfont
dup length dict begin
  {1 index /FID ne {def} {pop pop} ifelse} forall
  /Encoding WinAnsiEncoding def
  currentdict
end
/Times-Roman exch definefont pop
/Times-Italic findfont
dup length dict begin
  {1 index /FID ne {def} {pop pop} ifelse} forall
  /Encoding WinAnsiEncoding def
  currentdict
end
/Times-Italic exch definefont pop
/Times-Bold findfont
dup length dict begin
  {1 index /FID ne {def} {pop pop} ifelse} forall
  /Encoding WinAnsiEncoding def
  currentdict
end
/Times-Bold exch definefont pop
/Times-BoldItalic findfont
dup length dict begin
  {1 index /FID ne {def} {pop pop} ifelse} forall
  /Encoding WinAnsiEncoding def
  currentdict
end
/Times-BoldItalic exch definefont pop
/Courier findfont
dup length dict begin
  {1 index /FID ne {def} {pop pop} ifelse} forall
  /Encoding WinAnsiEncoding def
  currentdict
end
/Courier exch definefont pop
%FOPEndFontReencode
%%EndProlog
%%Page: 1 1
%%PageBoundingBox: 0 0 420 315
%%BeginPageSetup
[1 0 0 -1 0 315] CT
%%EndPageSetup
GS
[0.75 0 0 0.75 0 0] CT
1 GC
N
0 0 560 420 re
f
GR
GS
[0.75 0 0 0.75 0 0] CT
1 GC
N
0 0 560 420 re
f
GR
GS
[0.75 0 0 0.75 0 0] CT
1 GC
N
73 374 M
507 374 L
507 31 L
73 31 L
cp
f
GR
GS
[0.75 0 0 0.75 0 0] CT
0.149 GC
2 setlinecap
1 LJ
0.667 LW
N
73 374 M
507 374 L
S
GR
GS
[0.75 0 0 0.75 0 0] CT
0.149 GC
2 setlinecap
1 LJ
0.667 LW
N
73 31 M
507 31 L
S
GR
GS
[0.75 0 0 0.75 0 0] CT
0.149 GC
2 setlinecap
1 LJ
0.667 LW
N
73 374 M
73 369.66 L
S
GR
GS
[0.75 0 0 0.75 0 0] CT
0.149 GC
2 setlinecap
1 LJ
0.667 LW
N
116.4 374 M
116.4 369.66 L
S
GR
GS
[0.75 0 0 0.75 0 0] CT
0.149 GC
2 setlinecap
1 LJ
0.667 LW
N
159.8 374 M
159.8 369.66 L
S
GR
GS
[0.75 0 0 0.75 0 0] CT
0.149 GC
2 setlinecap
1 LJ
0.667 LW
N
203.2 374 M
203.2 369.66 L
S
GR
GS
[0.75 0 0 0.75 0 0] CT
0.149 GC
2 setlinecap
1 LJ
0.667 LW
N
246.6 374 M
246.6 369.66 L
S
GR
GS
[0.75 0 0 0.75 0 0] CT
0.149 GC
2 setlinecap
1 LJ
0.667 LW
N
290 374 M
290 369.66 L
S
GR
GS
[0.75 0 0 0.75 0 0] CT
0.149 GC
2 setlinecap
1 LJ
0.667 LW
N
333.4 374 M
333.4 369.66 L
S
GR
GS
[0.75 0 0 0.75 0 0] CT
0.149 GC
2 setlinecap
1 LJ
0.667 LW
N
376.8 374 M
376.8 369.66 L
S
GR
GS
[0.75 0 0 0.75 0 0] CT
0.149 GC
2 setlinecap
1 LJ
0.667 LW
N
420.2 374 M
420.2 369.66 L
S
GR
GS
[0.75 0 0 0.75 0 0] CT
0.149 GC
2 setlinecap
1 LJ
0.667 LW
N
463.6 374 M
463.6 369.66 L
S
GR
GS
[0.75 0 0 0.75 0 0] CT
0.149 GC
2 setlinecap
1 LJ
0.667 LW
N
507 374 M
507 369.66 L
S
GR
GS
[0.75 0 0 0.75 0 0] CT
0.149 GC
2 setlinecap
1 LJ
0.667 LW
N
73 31 M
73 35.34 L
S
GR
GS
[0.75 0 0 0.75 0 0] CT
0.149 GC
2 setlinecap
1 LJ
0.667 LW
N
116.4 31 M
116.4 35.34 L
S
GR
GS
[0.75 0 0 0.75 0 0] CT
0.149 GC
2 setlinecap
1 LJ
0.667 LW
N
159.8 31 M
159.8 35.34 L
S
GR
GS
[0.75 0 0 0.75 0 0] CT
0.149 GC
2 setlinecap
1 LJ
0.667 LW
N
203.2 31 M
203.2 35.34 L
S
GR
GS
[0.75 0 0 0.75 0 0] CT
0.149 GC
2 setlinecap
1 LJ
0.667 LW
N
246.6 31 M
246.6 35.34 L
S
GR
GS
[0.75 0 0 0.75 0 0] CT
0.149 GC
2 setlinecap
1 LJ
0.667 LW
N
290 31 M
290 35.34 L
S
GR
GS
[0.75 0 0 0.75 0 0] CT
0.149 GC
2 setlinecap
1 LJ
0.667 LW
N
333.4 31 M
333.4 35.34 L
S
GR
GS
[0.75 0 0 0.75 0 0] CT
0.149 GC
2 setlinecap
1 LJ
0.667 LW
N
376.8 31 M
376.8 35.34 L
S
GR
GS
[0.75 0 0 0.75 0 0] CT
0.149 GC
2 setlinecap
1 LJ
0.667 LW
N
420.2 31 M
420.2 35.34 L
S
GR
GS
[0.75 0 0 0.75 0 0] CT
0.149 GC
2 setlinecap
1 LJ
0.667 LW
N
463.6 31 M
463.6 35.34 L
S
GR
GS
[0.75 0 0 0.75 0 0] CT
0.149 GC
2 setlinecap
1 LJ
0.667 LW
N
507 31 M
507 35.34 L
S
GR
GS
[0.75 0 0 0.75 54.75 284.50001] CT
0.149 GC
/Helvetica 13.333 F
GS
[1 0 0 1 0 0] CT
-4 14 moveto 
1 -1 scale
(0) t 
GR
GR
GS
[0.75 0 0 0.75 87.3 284.50001] CT
0.149 GC
/Helvetica 13.333 F
GS
[1 0 0 1 0 0] CT
-9.5 14 moveto 
1 -1 scale
(0.2) t 
GR
GR
GS
[0.75 0 0 0.75 119.85 284.50001] CT
0.149 GC
/Helvetica 13.333 F
GS
[1 0 0 1 0 0] CT
-9.5 14 moveto 
1 -1 scale
(0.4) t 
GR
GR
GS
[0.75 0 0 0.75 152.4 284.50001] CT
0.149 GC
/Helvetica 13.333 F
GS
[1 0 0 1 0 0] CT
-9.5 14 moveto 
1 -1 scale
(0.6) t 
GR
GR
GS
[0.75 0 0 0.75 184.95 284.50001] CT
0.149 GC
/Helvetica 13.333 F
GS
[1 0 0 1 0 0] CT
-9.5 14 moveto 
1 -1 scale
(0.8) t 
GR
GR
GS
[0.75 0 0 0.75 217.5 284.50001] CT
0.149 GC
/Helvetica 13.333 F
GS
[1 0 0 1 0 0] CT
-4 14 moveto 
1 -1 scale
(1) t 
GR
GR
GS
[0.75 0 0 0.75 250.05 284.50001] CT
0.149 GC
/Helvetica 13.333 F
GS
[1 0 0 1 0 0] CT
-9.5 14 moveto 
1 -1 scale
(1.2) t 
GR
GR
GS
[0.75 0 0 0.75 282.59999 284.50001] CT
0.149 GC
/Helvetica 13.333 F
GS
[1 0 0 1 0 0] CT
-9.5 14 moveto 
1 -1 scale
(1.4) t 
GR
GR
GS
[0.75 0 0 0.75 315.15001 284.50001] CT
0.149 GC
/Helvetica 13.333 F
GS
[1 0 0 1 0 0] CT
-9.5 14 moveto 
1 -1 scale
(1.6) t 
GR
GR
GS
[0.75 0 0 0.75 347.7 284.50001] CT
0.149 GC
/Helvetica 13.333 F
GS
[1 0 0 1 0 0] CT
-9.5 14 moveto 
1 -1 scale
(1.8) t 
GR
GR
GS
[0.75 0 0 0.75 380.25 284.50001] CT
0.149 GC
/Helvetica 13.333 F
GS
[1 0 0 1 0 0] CT
-4 14 moveto 
1 -1 scale
(2) t 
GR
GR
GS
[0.75 0 0 0.75 217.50016 298.24999] CT
0.149 GC
/Helvetica 14.667 F
GS
[1 0 0 1 0 0] CT
-15.5 15 moveto 
1 -1 scale
(Krok) t 
GR
GR
GS
[0.75 0 0 0.75 356.25 311.25] CT
0.149 GC
N
1.906 -0.375 M
1.906 -0.469 1.969 -0.563 QT
4.672 -3.25 L
1.969 -5.953 L
1.906 -6.016 1.906 -6.125 QT
1.906 -6.219 1.984 -6.305 QT
2.063 -6.391 2.172 -6.391 QT
2.266 -6.391 2.375 -6.297 QT
5.063 -3.609 L
7.734 -6.297 L
7.844 -6.391 7.922 -6.391 QT
8.031 -6.391 8.109 -6.313 QT
8.188 -6.234 8.188 -6.125 QT
8.188 -6.016 8.125 -5.953 QT
5.422 -3.25 L
8.125 -0.563 L
8.188 -0.469 8.188 -0.375 QT
8.188 -0.266 8.109 -0.188 QT
8.031 -0.109 7.922 -0.109 QT
7.828 -0.109 7.734 -0.203 QT
5.063 -2.891 L
2.375 -0.203 L
2.266 -0.109 2.172 -0.109 QT
2.063 -0.109 1.984 -0.195 QT
1.906 -0.281 1.906 -0.375 QT
cp
f
GR
GS
[0.75 0 0 0.75 364.5 311.25] CT
0.149 GC
/Helvetica 13.333 F
GS
[1 0 0 1 0 0] CT
0 0 moveto 
1 -1 scale
(10) t 
GR
GR
GS
[0.75 0 0 0.75 375.75 306.75] CT
0.149 GC
/Helvetica 10.667 F
GS
[1 0 0 1 0 0] CT
0 0 moveto 
1 -1 scale
(6) t 
GR
GR
GS
[0.75 0 0 0.75 0 0] CT
0.149 GC
2 setlinecap
1 LJ
0.667 LW
N
73 374 M
73 31 L
S
GR
GS
[0.75 0 0 0.75 0 0] CT
0.149 GC
2 setlinecap
1 LJ
0.667 LW
N
507 374 M
507 31 L
S
GR
GS
[0.75 0 0 0.75 0 0] CT
0.149 GC
2 setlinecap
1 LJ
0.667 LW
N
73 374 M
77.34 374 L
S
GR
GS
[0.75 0 0 0.75 0 0] CT
0.149 GC
2 setlinecap
1 LJ
0.667 LW
N
73 335.889 M
77.34 335.889 L
S
GR
GS
[0.75 0 0 0.75 0 0] CT
0.149 GC
2 setlinecap
1 LJ
0.667 LW
N
73 297.778 M
77.34 297.778 L
S
GR
GS
[0.75 0 0 0.75 0 0] CT
0.149 GC
2 setlinecap
1 LJ
0.667 LW
N
73 259.667 M
77.34 259.667 L
S
GR
GS
[0.75 0 0 0.75 0 0] CT
0.149 GC
2 setlinecap
1 LJ
0.667 LW
N
73 221.556 M
77.34 221.556 L
S
GR
GS
[0.75 0 0 0.75 0 0] CT
0.149 GC
2 setlinecap
1 LJ
0.667 LW
N
73 183.444 M
77.34 183.444 L
S
GR
GS
[0.75 0 0 0.75 0 0] CT
0.149 GC
2 setlinecap
1 LJ
0.667 LW
N
73 145.333 M
77.34 145.333 L
S
GR
GS
[0.75 0 0 0.75 0 0] CT
0.149 GC
2 setlinecap
1 LJ
0.667 LW
N
73 107.222 M
77.34 107.222 L
S
GR
GS
[0.75 0 0 0.75 0 0] CT
0.149 GC
2 setlinecap
1 LJ
0.667 LW
N
73 69.111 M
77.34 69.111 L
S
GR
GS
[0.75 0 0 0.75 0 0] CT
0.149 GC
2 setlinecap
1 LJ
0.667 LW
N
73 31 M
77.34 31 L
S
GR
GS
[0.75 0 0 0.75 0 0] CT
0.149 GC
2 setlinecap
1 LJ
0.667 LW
N
507 374 M
502.66 374 L
S
GR
GS
[0.75 0 0 0.75 0 0] CT
0.149 GC
2 setlinecap
1 LJ
0.667 LW
N
507 335.889 M
502.66 335.889 L
S
GR
GS
[0.75 0 0 0.75 0 0] CT
0.149 GC
2 setlinecap
1 LJ
0.667 LW
N
507 297.778 M
502.66 297.778 L
S
GR
GS
[0.75 0 0 0.75 0 0] CT
0.149 GC
2 setlinecap
1 LJ
0.667 LW
N
507 259.667 M
502.66 259.667 L
S
GR
GS
[0.75 0 0 0.75 0 0] CT
0.149 GC
2 setlinecap
1 LJ
0.667 LW
N
507 221.556 M
502.66 221.556 L
S
GR
GS
[0.75 0 0 0.75 0 0] CT
0.149 GC
2 setlinecap
1 LJ
0.667 LW
N
507 183.444 M
502.66 183.444 L
S
GR
GS
[0.75 0 0 0.75 0 0] CT
0.149 GC
2 setlinecap
1 LJ
0.667 LW
N
507 145.333 M
502.66 145.333 L
S
GR
GS
[0.75 0 0 0.75 0 0] CT
0.149 GC
2 setlinecap
1 LJ
0.667 LW
N
507 107.222 M
502.66 107.222 L
S
GR
GS
[0.75 0 0 0.75 0 0] CT
0.149 GC
2 setlinecap
1 LJ
0.667 LW
N
507 69.111 M
502.66 69.111 L
S
GR
GS
[0.75 0 0 0.75 0 0] CT
0.149 GC
2 setlinecap
1 LJ
0.667 LW
N
507 31 M
502.66 31 L
S
GR
GS
[0.75 0 0 0.75 50.75 280.5] CT
0.149 GC
/Helvetica 13.333 F
GS
[1 0 0 1 0 0] CT
-8 5.5 moveto 
1 -1 scale
(0) t 
GR
GR
GS
[0.75 0 0 0.75 50.75 251.91666] CT
0.149 GC
/Helvetica 13.333 F
GS
[1 0 0 1 0 0] CT
-8 5.5 moveto 
1 -1 scale
(5) t 
GR
GR
GS
[0.75 0 0 0.75 50.75 223.33333] CT
0.149 GC
/Helvetica 13.333 F
GS
[1 0 0 1 0 0] CT
-15 5.5 moveto 
1 -1 scale
(10) t 
GR
GR
GS
[0.75 0 0 0.75 50.75 194.74999] CT
0.149 GC
/Helvetica 13.333 F
GS
[1 0 0 1 0 0] CT
-15 5.5 moveto 
1 -1 scale
(15) t 
GR
GR
GS
[0.75 0 0 0.75 50.75 166.16667] CT
0.149 GC
/Helvetica 13.333 F
GS
[1 0 0 1 0 0] CT
-15 5.5 moveto 
1 -1 scale
(20) t 
GR
GR
GS
[0.75 0 0 0.75 50.75 137.58333] CT
0.149 GC
/Helvetica 13.333 F
GS
[1 0 0 1 0 0] CT
-15 5.5 moveto 
1 -1 scale
(25) t 
GR
GR
GS
[0.75 0 0 0.75 50.75 109] CT
0.149 GC
/Helvetica 13.333 F
GS
[1 0 0 1 0 0] CT
-15 5.5 moveto 
1 -1 scale
(30) t 
GR
GR
GS
[0.75 0 0 0.75 50.75 80.41667] CT
0.149 GC
/Helvetica 13.333 F
GS
[1 0 0 1 0 0] CT
-15 5.5 moveto 
1 -1 scale
(35) t 
GR
GR
GS
[0.75 0 0 0.75 50.75 51.83334] CT
0.149 GC
/Helvetica 13.333 F
GS
[1 0 0 1 0 0] CT
-15 5.5 moveto 
1 -1 scale
(40) t 
GR
GR
GS
[0.75 0 0 0.75 50.75 23.25] CT
0.149 GC
/Helvetica 13.333 F
GS
[1 0 0 1 0 0] CT
-15 5.5 moveto 
1 -1 scale
(45) t 
GR
GR
GS
[0 -0.75 0.75 0 36.5 151.87489] CT
0.149 GC
N
-62.844 -4 M
-62.844 -14.734 L
-59.141 -14.734 L
-57.891 -14.734 -57.234 -14.578 QT
-56.313 -14.375 -55.656 -13.813 QT
-54.813 -13.094 -54.391 -11.977 QT
-53.969 -10.859 -53.969 -9.422 QT
-53.969 -8.203 -54.25 -7.258 QT
-54.531 -6.313 -54.984 -5.695 QT
-55.438 -5.078 -55.969 -4.719 QT
-56.5 -4.359 -57.25 -4.18 QT
-58 -4 -58.969 -4 QT
-62.844 -4 L
cp
-61.422 -5.266 M
-59.125 -5.266 L
-58.063 -5.266 -57.461 -5.461 QT
-56.859 -5.656 -56.5 -6.016 QT
-56 -6.531 -55.719 -7.383 QT
-55.438 -8.234 -55.438 -9.453 QT
-55.438 -11.141 -55.984 -12.039 QT
-56.531 -12.938 -57.328 -13.25 QT
-57.906 -13.469 -59.172 -13.469 QT
-61.422 -13.469 L
-61.422 -5.266 L
cp
-52.447 -8.203 M
-53.4 -7.406 L
-53.4 -8.563 L
-52.447 -9.359 L
-52.447 -14.734 L
-51.134 -14.734 L
-51.134 -10.469 L
-50.134 -11.313 L
-50.134 -10.172 L
-51.134 -9.328 L
-51.134 -4 L
-52.447 -4 L
-52.447 -8.203 L
cp
-44.066 -4 M
-44.066 -5.141 L
-44.988 -3.828 -46.535 -3.828 QT
-47.222 -3.828 -47.824 -4.094 QT
-48.425 -4.359 -48.714 -4.758 QT
-49.003 -5.156 -49.113 -5.734 QT
-49.206 -6.109 -49.206 -6.953 QT
-49.206 -11.781 L
-47.878 -11.781 L
-47.878 -7.469 L
-47.878 -6.438 -47.8 -6.078 QT
-47.675 -5.547 -47.277 -5.25 QT
-46.878 -4.953 -46.285 -4.953 QT
-45.691 -4.953 -45.167 -5.258 QT
-44.644 -5.563 -44.425 -6.086 QT
-44.206 -6.609 -44.206 -7.609 QT
-44.206 -11.781 L
-42.894 -11.781 L
-42.894 -4 L
-44.066 -4 L
cp
-41.258 -3.359 M
-39.977 -3.172 L
-39.899 -2.578 -39.54 -2.297 QT
-39.04 -1.938 -38.196 -1.938 QT
-37.274 -1.938 -36.774 -2.305 QT
-36.274 -2.672 -36.102 -3.328 QT
-36.008 -3.734 -36.008 -5.016 QT
-36.868 -4 -38.165 -4 QT
-39.774 -4 -40.649 -5.156 QT
-41.524 -6.313 -41.524 -7.938 QT
-41.524 -9.047 -41.118 -9.984 QT
-40.712 -10.922 -39.954 -11.438 QT
-39.196 -11.953 -38.149 -11.953 QT
-36.774 -11.953 -35.883 -10.844 QT
-35.883 -11.781 L
-34.665 -11.781 L
-34.665 -5.063 L
-34.665 -3.234 -35.04 -2.477 QT
-35.415 -1.719 -36.212 -1.281 QT
-37.008 -0.844 -38.18 -0.844 QT
-39.571 -0.844 -40.43 -1.469 QT
-41.29 -2.094 -41.258 -3.359 QT
cp
-40.165 -8.031 M
-40.165 -6.5 -39.563 -5.797 QT
-38.962 -5.094 -38.04 -5.094 QT
-37.133 -5.094 -36.516 -5.789 QT
-35.899 -6.484 -35.899 -7.984 QT
-35.899 -9.406 -36.532 -10.133 QT
-37.165 -10.859 -38.055 -10.859 QT
-38.946 -10.859 -39.555 -10.148 QT
-40.165 -9.438 -40.165 -8.031 QT
cp
-33.357 -7.891 M
-33.357 -10.047 -32.154 -11.094 QT
-31.154 -11.953 -29.717 -11.953 QT
-28.107 -11.953 -27.092 -10.906 QT
-26.076 -9.859 -26.076 -8 QT
-26.076 -6.5 -26.521 -5.641 QT
-26.967 -4.781 -27.834 -4.305 QT
-28.701 -3.828 -29.717 -3.828 QT
-31.342 -3.828 -32.35 -4.875 QT
-33.357 -5.922 -33.357 -7.891 QT
cp
-31.998 -7.891 M
-31.998 -6.391 -31.35 -5.648 QT
-30.701 -4.906 -29.717 -4.906 QT
-28.732 -4.906 -28.076 -5.656 QT
-27.42 -6.406 -27.42 -7.938 QT
-27.42 -9.375 -28.076 -10.117 QT
-28.732 -10.859 -29.717 -10.859 QT
-30.701 -10.859 -31.35 -10.125 QT
-31.998 -9.391 -31.998 -7.891 QT
cp
-25.238 -6.328 M
-23.941 -6.531 L
-23.831 -5.75 -23.331 -5.328 QT
-22.831 -4.906 -21.925 -4.906 QT
-21.019 -4.906 -20.581 -5.273 QT
-20.144 -5.641 -20.144 -6.141 QT
-20.144 -6.594 -20.534 -6.844 QT
-20.8 -7.031 -21.878 -7.297 QT
-23.331 -7.656 -23.886 -7.93 QT
-24.441 -8.203 -24.73 -8.672 QT
-25.019 -9.141 -25.019 -9.719 QT
-25.019 -10.234 -24.784 -10.68 QT
-24.55 -11.125 -24.144 -11.406 QT
-23.831 -11.641 -23.3 -11.797 QT
-22.769 -11.953 -22.159 -11.953 QT
-21.253 -11.953 -20.558 -11.688 QT
-19.863 -11.422 -19.534 -10.977 QT
-19.206 -10.531 -19.081 -9.766 QT
-20.363 -9.594 L
-20.456 -10.203 -20.878 -10.539 QT
-21.3 -10.875 -22.066 -10.875 QT
-22.972 -10.875 -23.363 -10.57 QT
-23.753 -10.266 -23.753 -9.859 QT
-23.753 -9.609 -23.597 -9.406 QT
-23.425 -9.188 -23.081 -9.047 QT
-22.894 -8.984 -21.925 -8.719 QT
-20.519 -8.344 -19.964 -8.109 QT
-19.409 -7.875 -19.097 -7.414 QT
-18.784 -6.953 -18.784 -6.281 QT
-18.784 -5.625 -19.167 -5.047 QT
-19.55 -4.469 -20.277 -4.148 QT
-21.003 -3.828 -21.925 -3.828 QT
-23.441 -3.828 -24.23 -4.453 QT
-25.019 -5.078 -25.238 -6.328 QT
cp
-22.8 -13 M
-21.831 -15.047 L
-20.097 -15.047 L
-21.706 -13 L
-22.8 -13 L
cp
-12.316 -6.844 M
-11.019 -6.688 L
-11.222 -5.344 -12.105 -4.586 QT
-12.988 -3.828 -14.253 -3.828 QT
-15.847 -3.828 -16.816 -4.867 QT
-17.784 -5.906 -17.784 -7.859 QT
-17.784 -9.125 -17.37 -10.07 QT
-16.956 -11.016 -16.105 -11.484 QT
-15.253 -11.953 -14.253 -11.953 QT
-12.988 -11.953 -12.175 -11.313 QT
-11.363 -10.672 -11.144 -9.5 QT
-12.425 -9.297 L
-12.613 -10.078 -13.073 -10.477 QT
-13.534 -10.875 -14.191 -10.875 QT
-15.191 -10.875 -15.816 -10.156 QT
-16.441 -9.438 -16.441 -7.891 QT
-16.441 -6.328 -15.839 -5.617 QT
-15.238 -4.906 -14.269 -4.906 QT
-13.488 -4.906 -12.972 -5.383 QT
-12.456 -5.859 -12.316 -6.844 QT
cp
-15.472 -13 M
-14.503 -15.047 L
-12.769 -15.047 L
-14.378 -13 L
-15.472 -13 L
cp
-0.666 -6.5 M
0.694 -6.344 L
0.381 -5.141 -0.494 -4.484 QT
-1.369 -3.828 -2.728 -3.828 QT
-4.431 -3.828 -5.431 -4.875 QT
-6.431 -5.922 -6.431 -7.828 QT
-6.431 -9.781 -5.416 -10.867 QT
-4.4 -11.953 -2.791 -11.953 QT
-1.228 -11.953 -0.244 -10.891 QT
0.741 -9.828 0.741 -7.906 QT
0.741 -7.781 0.741 -7.547 QT
-5.072 -7.547 L
-4.994 -6.266 -4.345 -5.586 QT
-3.697 -4.906 -2.712 -4.906 QT
-1.994 -4.906 -1.478 -5.289 QT
-0.962 -5.672 -0.666 -6.5 QT
cp
-4.994 -8.641 M
-0.65 -8.641 L
-0.744 -9.625 -1.15 -10.109 QT
-1.775 -10.875 -2.775 -10.875 QT
-3.697 -10.875 -4.314 -10.266 QT
-4.931 -9.656 -4.994 -8.641 QT
cp
2.157 -1.016 M
2.157 -11.781 L
3.361 -11.781 L
3.361 -10.766 L
3.782 -11.359 4.322 -11.656 QT
4.861 -11.953 5.626 -11.953 QT
6.611 -11.953 7.376 -11.438 QT
8.142 -10.922 8.525 -9.992 QT
8.907 -9.063 8.907 -7.953 QT
8.907 -6.75 8.486 -5.797 QT
8.064 -4.844 7.243 -4.336 QT
6.423 -3.828 5.517 -3.828 QT
4.861 -3.828 4.337 -4.102 QT
3.814 -4.375 3.486 -4.813 QT
3.486 -1.016 L
2.157 -1.016 L
cp
3.361 -7.844 M
3.361 -6.344 3.97 -5.625 QT
4.579 -4.906 5.439 -4.906 QT
6.314 -4.906 6.939 -5.648 QT
7.564 -6.391 7.564 -7.953 QT
7.564 -9.438 6.954 -10.18 QT
6.345 -10.922 5.501 -10.922 QT
4.657 -10.922 4.009 -10.133 QT
3.361 -9.344 3.361 -7.844 QT
cp
10.324 -13.219 M
10.324 -14.734 L
11.637 -14.734 L
11.637 -13.219 L
10.324 -13.219 L
cp
10.324 -4 M
10.324 -11.781 L
11.637 -11.781 L
11.637 -4 L
10.324 -4 L
cp
12.877 -4 M
12.877 -5.063 L
17.83 -10.75 L
16.987 -10.703 16.33 -10.703 QT
13.174 -10.703 L
13.174 -11.781 L
19.518 -11.781 L
19.518 -10.906 L
15.315 -5.969 L
14.502 -5.063 L
15.393 -5.141 16.158 -5.141 QT
19.752 -5.141 L
19.752 -4 L
12.877 -4 L
cp
20.408 -7.891 M
20.408 -10.047 21.612 -11.094 QT
22.612 -11.953 24.049 -11.953 QT
25.658 -11.953 26.674 -10.906 QT
27.69 -9.859 27.69 -8 QT
27.69 -6.5 27.244 -5.641 QT
26.799 -4.781 25.932 -4.305 QT
25.065 -3.828 24.049 -3.828 QT
22.424 -3.828 21.416 -4.875 QT
20.408 -5.922 20.408 -7.891 QT
cp
21.768 -7.891 M
21.768 -6.391 22.416 -5.648 QT
23.065 -4.906 24.049 -4.906 QT
25.033 -4.906 25.69 -5.656 QT
26.346 -6.406 26.346 -7.938 QT
26.346 -9.375 25.69 -10.117 QT
25.033 -10.859 24.049 -10.859 QT
23.065 -10.859 22.416 -10.125 QT
21.768 -9.391 21.768 -7.891 QT
cp
34.091 -4 M
34.091 -4.984 L
33.356 -3.828 31.919 -3.828 QT
30.997 -3.828 30.216 -4.336 QT
29.435 -4.844 29.005 -5.766 QT
28.575 -6.688 28.575 -7.875 QT
28.575 -9.047 28.966 -9.992 QT
29.356 -10.938 30.13 -11.445 QT
30.903 -11.953 31.856 -11.953 QT
32.56 -11.953 33.114 -11.656 QT
33.669 -11.359 34.013 -10.891 QT
34.013 -14.734 L
35.325 -14.734 L
35.325 -4 L
34.091 -4 L
cp
29.935 -7.875 M
29.935 -6.391 30.56 -5.648 QT
31.185 -4.906 32.044 -4.906 QT
32.903 -4.906 33.513 -5.617 QT
34.122 -6.328 34.122 -7.766 QT
34.122 -9.375 33.505 -10.117 QT
32.888 -10.859 31.981 -10.859 QT
31.106 -10.859 30.521 -10.141 QT
29.935 -9.422 29.935 -7.875 QT
cp
42.304 -4 M
42.304 -5.141 L
41.383 -3.828 39.836 -3.828 QT
39.148 -3.828 38.547 -4.094 QT
37.945 -4.359 37.656 -4.758 QT
37.367 -5.156 37.258 -5.734 QT
37.164 -6.109 37.164 -6.953 QT
37.164 -11.781 L
38.492 -11.781 L
38.492 -7.469 L
38.492 -6.438 38.57 -6.078 QT
38.695 -5.547 39.093 -5.25 QT
39.492 -4.953 40.086 -4.953 QT
40.679 -4.953 41.203 -5.258 QT
41.726 -5.563 41.945 -6.086 QT
42.164 -6.609 42.164 -7.609 QT
42.164 -11.781 L
43.476 -11.781 L
43.476 -4 L
42.304 -4 L
cp
49.449 -1.016 M
49.449 -14.734 L
52.356 -14.734 L
52.356 -13.641 L
50.778 -13.641 L
50.778 -2.109 L
52.356 -2.109 L
52.356 -1.016 L
49.449 -1.016 L
cp
52.974 -6.328 M
54.271 -6.531 L
54.381 -5.75 54.881 -5.328 QT
55.381 -4.906 56.287 -4.906 QT
57.193 -4.906 57.631 -5.273 QT
58.068 -5.641 58.068 -6.141 QT
58.068 -6.594 57.678 -6.844 QT
57.412 -7.031 56.334 -7.297 QT
54.881 -7.656 54.326 -7.93 QT
53.771 -8.203 53.482 -8.672 QT
53.193 -9.141 53.193 -9.719 QT
53.193 -10.234 53.428 -10.68 QT
53.662 -11.125 54.068 -11.406 QT
54.381 -11.641 54.912 -11.797 QT
55.443 -11.953 56.053 -11.953 QT
56.959 -11.953 57.654 -11.688 QT
58.349 -11.422 58.678 -10.977 QT
59.006 -10.531 59.131 -9.766 QT
57.849 -9.594 L
57.756 -10.203 57.334 -10.539 QT
56.912 -10.875 56.146 -10.875 QT
55.24 -10.875 54.849 -10.57 QT
54.459 -10.266 54.459 -9.859 QT
54.459 -9.609 54.615 -9.406 QT
54.787 -9.188 55.131 -9.047 QT
55.318 -8.984 56.287 -8.719 QT
57.693 -8.344 58.248 -8.109 QT
58.803 -7.875 59.115 -7.414 QT
59.428 -6.953 59.428 -6.281 QT
59.428 -5.625 59.045 -5.047 QT
58.662 -4.469 57.935 -4.148 QT
57.209 -3.828 56.287 -3.828 QT
54.771 -3.828 53.982 -4.453 QT
53.193 -5.078 52.974 -6.328 QT
cp
63.021 -1.016 M
60.115 -1.016 L
60.115 -2.109 L
61.709 -2.109 L
61.709 -13.641 L
60.115 -13.641 L
60.115 -14.734 L
63.021 -14.734 L
63.021 -1.016 L
cp
f
GR
GS
[0.75 0 0 0.75 0 0] CT
0 1 0 RC
1 LJ
0.667 LW
N
74.302 337.273 M
74.519 336.281 L
75.387 335.168 L
75.604 335.665 L
76.038 335.309 L
76.255 336.383 L
76.472 335.642 L
76.906 335.306 L
77.123 336.469 L
77.34 335.267 L
77.557 335.836 L
78.425 327.033 L
80.378 125.404 L
80.595 176.811 L
81.029 256.156 L
81.68 244.562 L
81.897 242.072 L
82.331 264.531 L
82.765 190.554 L
82.982 149.007 L
83.416 198.636 L
83.85 150.094 L
84.067 192.563 L
84.718 151.812 L
84.935 76.05 L
85.152 156.556 L
85.369 106.872 L
85.586 141.254 L
86.237 156.678 L
86.454 156.909 L
86.888 177.15 L
87.322 149.453 L
87.539 124.663 L
87.756 98.291 L
87.973 93.76 L
88.624 94.007 L
88.841 68.99 L
89.058 35.493 L
89.275 90.876 L
89.709 125.466 L
90.36 151.726 L
91.445 148.778 L
91.662 83.484 L
91.879 138.89 L
92.096 145.149 L
92.313 134.506 L
92.53 160.558 L
93.615 169.215 L
95.351 145.985 L
96.002 77.5 L
96.219 153.222 L
97.738 182.821 L
98.389 122.328 L
98.823 202.923 L
99.04 173.861 L
99.257 154.396 L
100.125 164.455 L
100.342 181.28 L
100.559 190.65 L
101.21 188.076 L
101.427 202.491 L
102.078 185.463 L
102.946 153.885 L
103.38 220.171 L
103.814 203.07 L
104.031 168.488 L
104.248 222.841 L
104.465 156.309 L
105.333 152.085 L
105.767 197.08 L
106.418 220.522 L
106.635 205.266 L
106.852 221.454 L
107.286 186.695 L
107.503 172.174 L
107.72 185 L
108.371 173.63 L
108.805 230.392 L
109.022 196.014 L
109.456 214.277 L
109.673 178.856 L
110.324 197.511 L
111.409 232.569 L
111.626 193.965 L
111.843 226.925 L
112.277 157.076 L
112.494 157.542 L
112.928 209.019 L
113.362 247.04 L
113.579 193.268 L
113.796 183.819 L
114.013 220.711 L
114.447 191.534 L
114.664 191.609 L
116.183 251.291 L
117.051 217.862 L
117.919 222.088 L
118.136 221.18 L
118.353 252.367 L
119.221 207.531 L
119.872 256.309 L
120.523 261.331 L
120.74 259.362 L
121.391 236.712 L
121.608 243.966 L
122.042 249.772 L
122.259 244.588 L
122.476 253.487 L
122.91 245.501 L
123.127 227.725 L
123.561 226.975 L
123.778 245.521 L
123.995 234.033 L
124.646 251.787 L
125.297 219.557 L
126.382 257.161 L
126.816 240.086 L
127.25 245.154 L
127.467 246.814 L
128.552 265.801 L
129.203 265.911 L
129.42 248.195 L
129.637 267.472 L
129.854 268.244 L
130.288 254.477 L
131.156 247.144 L
131.59 227.121 L
132.024 227.808 L
132.458 244.945 L
133.543 241.637 L
133.977 252.437 L
134.845 227.552 L
135.93 249.774 L
136.364 252.472 L
136.581 271.076 L
137.232 241.147 L
137.666 273.048 L
137.883 275.198 L
138.1 224.247 L
138.534 228.17 L
138.751 240.482 L
138.968 217.398 L
139.836 232.368 L
140.053 250.67 L
140.487 264.664 L
141.138 266.971 L
142.006 265.612 L
142.223 267.65 L
142.44 233.17 L
142.657 253.597 L
143.091 236.417 L
143.742 263.399 L
143.959 229.196 L
144.176 288.347 L
144.827 259.783 L
145.044 268.677 L
145.478 247.301 L
146.78 255.693 L
147.214 253.09 L
147.865 266.345 L
148.082 268.087 L
148.516 243.158 L
148.733 258.483 L
149.818 255.997 L
150.035 231.801 L
150.469 262.137 L
150.903 260.795 L
151.12 266.025 L
151.337 282.604 L
151.988 276.645 L
152.205 254.818 L
152.856 241.844 L
153.073 264.061 L
153.507 248.045 L
153.724 258.278 L
154.158 238.648 L
155.026 252.451 L
155.243 261.849 L
155.46 270.05 L
155.894 256.184 L
156.111 248.044 L
156.762 273.508 L
156.979 282.311 L
157.196 257.362 L
157.413 269.53 L
157.847 254.173 L
158.064 270 L
158.281 248.586 L
158.498 250.596 L
160.451 264.056 L
160.668 251.6 L
161.102 247.718 L
161.753 273.849 L
163.272 279.089 L
163.489 269.489 L
164.357 252.239 L
164.574 271.666 L
164.791 283.098 L
165.225 270.587 L
165.659 247.935 L
166.527 241.563 L
168.48 262.366 L
168.697 257.194 L
168.914 262.458 L
169.131 262.764 L
169.565 277.846 L
169.782 293.53 L
170.433 262.987 L
171.084 237.595 L
172.603 253.056 L
172.82 256.014 L
173.037 276.166 L
173.254 277.597 L
173.688 262.22 L
173.905 239.971 L
174.122 262.539 L
174.556 246.621 L
174.773 258.485 L
174.99 255.083 L
175.424 244.362 L
175.858 278.549 L
176.075 266.569 L
176.943 281.123 L
178.462 259.65 L
179.113 284.581 L
179.33 262.996 L
179.764 259.924 L
180.198 274.191 L
180.849 213.357 L
183.236 252.065 L
183.887 278.389 L
184.104 236.724 L
184.321 258.012 L
184.755 284.374 L
185.189 218.298 L
185.406 303.591 L
185.84 282.871 L
186.925 263.435 L
187.142 250.696 L
188.444 241.185 L
188.878 225.186 L
189.095 254.009 L
189.312 253.441 L
189.529 265.204 L
189.746 255.57 L
189.963 275.53 L
190.18 257.594 L
190.397 260.791 L
190.614 260.271 L
190.831 260.441 L
191.265 234.776 L
191.916 258.777 L
192.133 248.423 L
192.35 268.29 L
192.784 284.457 L
193.652 272.886 L
194.086 278.045 L
194.52 270.684 L
195.388 287.425 L
195.605 292.803 L
195.822 277.955 L
196.256 260.262 L
196.69 267.594 L
197.124 246.898 L
197.558 244.604 L
197.775 296.292 L
198.426 268.958 L
198.86 278.763 L
199.077 279.86 L
199.294 294.282 L
199.511 266.321 L
199.728 268.414 L
199.945 275.137 L
200.379 278.161 L
200.596 269.077 L
201.681 285.606 L
201.898 277.282 L
202.332 276.226 L
202.549 253.862 L
202.766 285.296 L
203.417 272.79 L
203.851 257.787 L
204.285 253.649 L
204.719 285.106 L
205.153 284.058 L
205.587 273.988 L
205.804 247.084 L
206.021 258.101 L
206.672 265.208 L
207.54 256.759 L
207.757 263.982 L
208.191 270.922 L
208.408 267.588 L
208.842 253.933 L
209.71 285.782 L
210.795 282.016 L
212.314 271.577 L
212.531 288.602 L
212.965 278.826 L
213.182 268.184 L
213.399 266.674 L
213.616 261.471 L
213.833 284.942 L
214.05 284.842 L
214.484 271.604 L
214.701 254.594 L
215.569 263.126 L
215.786 261.915 L
216.22 226.269 L
216.654 234.304 L
217.305 276.783 L
217.739 265.102 L
217.956 260.012 L
218.173 256.917 L
218.824 241.7 L
219.041 259.213 L
219.258 275.128 L
219.475 261.726 L
219.692 249.967 L
220.126 281.947 L
220.343 296.553 L
220.56 263.128 L
220.994 273.099 L
221.211 248.325 L
221.428 278.183 L
221.645 275.89 L
221.862 265.085 L
222.079 277.383 L
222.513 261.553 L
222.73 283.507 L
223.381 244.964 L
224.249 261.409 L
224.9 257.42 L
225.117 227.635 L
225.334 257.853 L
225.768 251.666 L
225.985 258.4 L
226.202 249.929 L
226.419 227.019 L
226.853 209.537 L
227.07 259.967 L
227.287 251.706 L
228.155 239.157 L
229.023 244.609 L
229.24 243.246 L
229.674 203.212 L
229.891 258.569 L
230.108 244.227 L
230.325 244.839 L
230.542 240.667 L
230.759 251.545 L
231.41 220.784 L
231.627 229.229 L
232.929 272.315 L
233.363 275.543 L
233.58 266.125 L
233.797 269.077 L
234.014 284.476 L
234.448 273.32 L
235.099 250.831 L
235.316 212.164 L
235.967 260.153 L
236.184 242.835 L
236.401 251.692 L
236.835 263.63 L
237.269 232.472 L
237.92 272.148 L
238.137 246.185 L
238.571 218.583 L
239.222 225.884 L
239.439 220.653 L
239.656 239.154 L
240.09 233.656 L
240.307 267.509 L
240.524 251.623 L
240.958 257.481 L
241.175 264.517 L
241.392 250.183 L
242.477 274.92 L
243.345 247.603 L
243.562 239.766 L
243.996 248.972 L
244.43 274.911 L
244.864 252.018 L
245.081 223.729 L
245.298 253.772 L
245.515 221.001 L
245.732 256.306 L
245.949 250.753 L
246.383 223.773 L
246.817 256.885 L
247.251 249.929 L
247.902 276.97 L
248.336 252.028 L
248.553 238.978 L
248.77 275.238 L
249.638 231.366 L
250.072 242.855 L
250.289 244.427 L
250.723 253.217 L
251.374 207.955 L
251.808 256.523 L
252.025 244.117 L
252.242 241.026 L
252.893 237.894 L
253.544 217.442 L
253.761 246.669 L
254.195 263.785 L
254.629 233.536 L
255.063 251.203 L
256.148 253.736 L
256.582 220.691 L
256.799 246.033 L
257.016 243.679 L
257.233 240.597 L
257.884 251.681 L
259.186 230.576 L
259.62 229.429 L
259.837 252.009 L
260.054 240.125 L
260.271 244.136 L
260.488 259.691 L
261.356 248.524 L
261.79 254.15 L
262.007 233.13 L
262.658 232.965 L
262.875 205.45 L
263.092 236.395 L
263.309 201.384 L
263.526 237.098 L
263.96 227.032 L
264.177 212.875 L
264.394 223.865 L
264.611 265.829 L
265.045 250.961 L
265.696 253.112 L
266.13 244.098 L
266.347 226.546 L
266.781 216.057 L
266.998 253.522 L
267.649 232.373 L
267.866 232.069 L
268.3 243.625 L
268.517 251.697 L
270.036 219.029 L
270.253 230.361 L
270.47 196.545 L
270.687 208.449 L
270.904 196.348 L
271.121 232.554 L
271.338 228.756 L
271.772 258.864 L
271.989 223.833 L
272.206 245.93 L
272.857 229.299 L
273.074 244.613 L
273.291 226.142 L
273.508 243.253 L
273.942 244.249 L
275.244 230.294 L
275.461 238.491 L
275.678 221.206 L
276.112 182.366 L
276.98 246.186 L
277.631 212.502 L
278.282 208.715 L
279.15 237.72 L
279.801 241.587 L
280.018 257.862 L
280.235 229.599 L
280.669 237.105 L
280.886 250.259 L
281.103 244.384 L
281.754 219.021 L
281.971 256.86 L
282.405 232.913 L
282.839 217.734 L
283.056 231.929 L
283.49 206.225 L
283.924 205.822 L
284.141 193.926 L
284.575 199.026 L
285.009 239.22 L
285.226 246.471 L
285.443 222.15 L
285.66 207.617 L
286.311 239.394 L
286.528 226.147 L
286.745 255.242 L
287.396 206.037 L
287.613 189.591 L
289.349 216.279 L
290 202.057 L
290.217 223.875 L
290.651 231.595 L
291.085 210.586 L
291.302 224.49 L
291.953 227.603 L
292.17 222.696 L
292.604 195.066 L
292.821 243.847 L
293.038 223.299 L
293.255 207.641 L
293.906 239.286 L
295.642 245.761 L
295.859 214.512 L
296.076 187.249 L
296.51 252.514 L
296.944 190.645 L
297.161 184.806 L
297.378 215.631 L
297.812 246.619 L
298.246 244.052 L
298.463 232.932 L
298.68 238.154 L
299.331 240.863 L
299.548 233.314 L
299.765 203.101 L
300.85 195.561 L
301.284 202.418 L
301.501 228.523 L
301.935 215.047 L
302.152 238.108 L
302.586 225.792 L
303.888 220.683 L
304.105 225.182 L
304.539 179.846 L
304.973 226.567 L
305.841 229.395 L
306.275 227.022 L
306.709 238.232 L
307.143 242.053 L
307.577 222.066 L
308.011 205.173 L
308.228 193.515 L
308.445 206.7 L
308.662 213.875 L
308.879 240.375 L
309.747 250.368 L
310.181 213.559 L
310.398 186.722 L
311.7 231.625 L
312.134 232.918 L
312.568 211.053 L
312.785 253.999 L
313.002 238.773 L
314.304 214.356 L
314.955 234.734 L
315.389 207.291 L
316.04 251.005 L
316.691 218.866 L
316.908 231.274 L
317.342 256.271 L
317.559 224.929 L
317.776 209.707 L
317.993 215.573 L
318.427 224.621 L
318.644 215.603 L
319.078 223.813 L
319.295 237.734 L
319.512 234.113 L
320.163 209.525 L
320.38 219.143 L
320.814 244.771 L
322.55 239.264 L
322.767 230.459 L
322.984 220.52 L
323.201 238.069 L
323.852 227.412 L
324.069 186.64 L
324.286 213.371 L
324.937 169.47 L
325.154 208.046 L
325.371 208.606 L
326.022 220.731 L
328.626 235.891 L
329.277 231.642 L
329.711 229.542 L
329.928 224.71 L
330.362 229.379 L
330.579 219.392 L
331.23 222.078 L
331.881 203.818 L
332.098 198.652 L
332.315 206.102 L
332.532 253.86 L
332.749 231.846 L
332.966 244.144 L
333.183 245.812 L
333.4 235.107 L
333.834 223.756 L
334.268 212.654 L
334.485 248.562 L
334.919 240.562 L
335.353 205.001 L
335.787 236.325 L
336.004 242.692 L
336.221 208.146 L
336.438 238.744 L
336.655 233.964 L
336.872 217.138 L
337.74 237.671 L
338.825 240.976 L
339.042 256.216 L
339.476 222.877 L
339.693 240.384 L
340.561 240.854 L
340.778 229.96 L
340.995 238.883 L
341.429 229.76 L
342.08 221.314 L
342.731 237.533 L
343.165 267.121 L
343.599 243.97 L
343.816 243.083 L
344.25 216.306 L
344.467 241.935 L
345.118 231.922 L
345.335 234.153 L
345.552 247.889 L
345.986 220.301 L
346.203 241.645 L
346.42 217.009 L
346.854 226.274 L
347.071 222.975 L
347.288 228.614 L
347.505 218.579 L
347.722 253.822 L
347.939 267.577 L
349.024 233.106 L
349.241 241.296 L
349.675 220.701 L
350.543 248.161 L
350.76 257.384 L
351.194 233.962 L
352.062 239.239 L
352.496 170.591 L
352.93 226.838 L
353.364 249.104 L
353.581 239.906 L
353.798 229.112 L
354.015 220.027 L
354.449 239.725 L
355.1 246.311 L
355.317 240.796 L
355.751 258.298 L
355.968 230.819 L
356.185 211.499 L
356.619 237.943 L
357.487 228.218 L
357.921 235 L
358.138 195.593 L
358.572 226.73 L
358.789 251.305 L
359.44 220.701 L
359.657 208.799 L
360.742 244.07 L
360.959 234.881 L
361.176 199.678 L
361.393 222.287 L
361.827 226.291 L
362.261 242.071 L
362.478 249.001 L
362.695 256.094 L
362.912 235.113 L
363.129 186.565 L
363.346 204.092 L
363.997 210.762 L
364.648 216.522 L
365.082 233.149 L
365.516 222.821 L
365.733 248.32 L
365.95 235.918 L
366.167 246.937 L
366.384 259.574 L
367.252 222.383 L
368.12 241.002 L
368.554 225.603 L
368.771 237.228 L
369.422 220.641 L
369.639 233.518 L
369.856 232.896 L
370.507 231.308 L
371.158 225.661 L
371.375 230.053 L
371.592 222.261 L
372.026 269.096 L
372.243 245.139 L
372.46 239.577 L
373.111 199.7 L
373.545 243.491 L
373.762 203.042 L
373.979 248.701 L
374.196 239.219 L
374.413 191.671 L
374.63 203.072 L
375.064 247.124 L
375.281 250.919 L
375.932 225.31 L
377.017 209.307 L
379.621 224.341 L
379.838 205.493 L
380.055 254.419 L
380.272 237.356 L
381.14 262.501 L
381.791 205.748 L
382.008 266.745 L
382.442 234.636 L
382.659 220.175 L
382.876 243.754 L
383.093 244.744 L
383.527 240.387 L
383.961 252.589 L
384.178 234.319 L
384.395 239.681 L
384.829 201.975 L
385.046 202.826 L
385.263 205.95 L
385.697 230.2 L
386.131 230.605 L
387.433 253.462 L
387.867 226.281 L
388.952 218.009 L
389.169 221.135 L
390.037 226.503 L
391.122 262.931 L
391.339 233.168 L
392.207 230.391 L
393.075 219.553 L
393.726 232.393 L
394.377 245.538 L
394.594 237.257 L
394.811 244.822 L
395.462 233.616 L
395.679 218.734 L
396.33 241.238 L
396.764 224.903 L
396.981 241.97 L
397.198 259.645 L
398.717 245.187 L
398.934 241.818 L
399.151 237.339 L
399.368 229.249 L
399.802 251.103 L
400.019 242.553 L
400.236 221.998 L
400.453 229.471 L
400.67 227.371 L
400.887 223.193 L
401.104 225.151 L
401.321 243.095 L
401.538 233.614 L
402.189 234.136 L
402.623 264.584 L
403.708 261.612 L
403.925 252.312 L
404.142 197.513 L
404.576 221.583 L
406.095 248.008 L
406.529 267.85 L
407.614 221.885 L
407.831 250.579 L
408.699 233.815 L
409.133 232.646 L
409.35 255.185 L
409.784 269.292 L
410.001 238.609 L
410.435 251.21 L
410.652 222.887 L
411.954 221.174 L
412.171 232.777 L
412.388 257.095 L
413.473 229.801 L
413.69 223.218 L
415.643 250.068 L
415.86 251.37 L
416.511 225.573 L
416.728 242.853 L
416.945 255.932 L
417.379 254.32 L
417.813 245.239 L
418.247 243.834 L
418.898 223.365 L
419.115 239.689 L
419.549 207.739 L
419.766 231.957 L
420.2 247.577 L
420.634 245.584 L
420.851 247.515 L
421.285 241.414 L
421.502 245.941 L
422.37 223.74 L
422.587 257.398 L
423.021 250.363 L
423.238 242.959 L
423.455 211.747 L
423.672 229.977 L
424.106 248.118 L
424.323 221.143 L
424.54 216.291 L
424.757 244.845 L
425.625 256.28 L
426.059 226.677 L
426.276 223.232 L
426.493 236.462 L
426.927 221.228 L
427.361 229.459 L
427.795 209.913 L
428.229 240.743 L
428.446 250.116 L
428.663 248.333 L
429.097 210.605 L
429.314 200.594 L
429.531 195.197 L
429.748 249.884 L
429.965 247.845 L
430.182 243.906 L
430.616 207.459 L
430.833 242.904 L
431.484 225.818 L
431.701 238.466 L
432.135 236.925 L
432.352 253.942 L
433.003 252.024 L
433.22 231.617 L
433.437 234.349 L
433.654 266.954 L
433.871 202.383 L
434.305 211.857 L
435.173 241.813 L
435.607 217.038 L
435.824 261.435 L
436.041 246.805 L
436.692 252.87 L
436.909 251.931 L
437.343 213.905 L
438.211 236.27 L
438.428 215.373 L
438.645 220.507 L
438.862 261.692 L
439.296 247.268 L
440.164 232.306 L
440.381 249.834 L
440.815 284.648 L
441.032 249.065 L
441.249 252.659 L
441.466 241.146 L
441.9 229.333 L
442.551 240.479 L
442.768 240.248 L
442.985 252.703 L
443.202 246.965 L
443.419 253.33 L
444.07 261.176 L
444.287 223.075 L
445.155 255.098 L
445.372 231.114 L
445.806 249.788 L
446.023 252.29 L
446.24 230.124 L
447.108 252.785 L
447.759 206.531 L
448.193 230.505 L
448.844 265.264 L
449.061 242.617 L
449.278 210.187 L
449.495 245.924 L
449.712 244.277 L
450.146 220.696 L
450.363 234.034 L
450.58 265.058 L
451.231 239.165 L
451.448 252.746 L
451.882 249.571 L
452.099 237.077 L
452.316 261.013 L
452.967 212.666 L
453.401 236.868 L
453.618 241.306 L
453.835 270.038 L
454.052 254.126 L
455.571 237.837 L
455.788 258.769 L
456.439 222.568 L
457.524 260.164 L
458.392 213.08 L
458.826 249.361 L
459.26 239.996 L
459.694 243.953 L
459.911 233.562 L
460.128 236.024 L
460.345 246.484 L
461.213 210.778 L
461.43 220.518 L
461.647 234.01 L
462.081 237.829 L
462.298 234.939 L
462.515 245.115 L
463.383 235.788 L
463.817 247.238 L
464.251 233.671 L
464.685 233.467 L
464.902 230.42 L
465.336 213.458 L
466.204 219.566 L
466.638 258.064 L
466.855 216.561 L
467.506 252.927 L
468.157 247.643 L
469.025 218.787 L
469.459 225.333 L
469.676 250.636 L
470.327 206.692 L
471.195 235.24 L
471.412 229.969 L
471.629 208.767 L
471.846 264.142 L
472.497 253.859 L
472.714 256.694 L
472.931 231.455 L
473.365 257.774 L
473.582 246.317 L
473.799 247.856 L
474.233 239.089 L
474.45 226.624 L
475.101 245.743 L
475.318 240.853 L
475.752 240.925 L
476.186 245.015 L
476.403 229.287 L
476.62 227.731 L
478.139 229.08 L
478.356 256.336 L
478.573 216.925 L
478.79 229.951 L
480.092 211.064 L
480.309 232.56 L
480.526 232.717 L
480.743 213.95 L
480.96 264.257 L
481.394 264.151 L
482.045 258.063 L
482.696 252.41 L
483.564 251.657 L
483.781 248.917 L
483.998 251.265 L
484.215 230.46 L
484.432 241.165 L
484.866 253.451 L
485.083 255.055 L
485.951 245.522 L
486.602 258.717 L
486.819 245.026 L
487.47 232.948 L
487.687 249.649 L
487.904 215.294 L
488.121 224.79 L
488.338 235.7 L
488.772 236.825 L
488.989 232.796 L
489.206 248.304 L
489.423 232.127 L
489.64 247.831 L
490.508 246.466 L
490.725 245.428 L
490.942 269.072 L
491.593 272.543 L
492.027 262.324 L
492.244 267.622 L
492.461 262.901 L
492.895 276.163 L
493.112 229.26 L
493.329 235.86 L
493.763 248.145 L
493.98 270.771 L
494.631 252.009 L
495.065 251.266 L
495.499 214.983 L
495.716 259.643 L
496.15 232.617 L
496.801 252.966 L
497.235 232.137 L
497.452 262.612 L
497.669 236.682 L
498.103 241.91 L
498.537 244.323 L
498.754 246.074 L
498.971 243.341 L
499.839 265.712 L
500.056 254.757 L
500.49 246.639 L
500.924 288.65 L
502.009 263.539 L
502.877 259.863 L
503.094 258.607 L
503.311 229.589 L
503.528 265.413 L
506.132 233.281 L
506.566 254.299 L
507 245.536 L
S
GR
GS
[0.75 0 0 0.75 0 0] CT
1 0 0 RC
1 LJ
0.667 LW
N
74.302 342.036 M
74.519 340.859 L
75.387 339.785 L
75.604 339.391 L
76.038 338.794 L
76.255 337.601 L
76.472 337.88 L
76.906 337.323 L
77.123 338.505 L
77.34 337.985 L
77.557 337.261 L
78.425 337.73 L
80.378 336.664 L
80.595 336.21 L
81.029 337.079 L
81.68 336.767 L
81.897 336.264 L
82.331 336.429 L
82.765 336.161 L
82.982 336.646 L
83.416 336.623 L
83.85 336.398 L
84.067 336.05 L
84.718 336.658 L
84.935 335.958 L
85.152 336.445 L
85.369 335.932 L
85.586 336.771 L
86.237 336.303 L
86.454 335.969 L
86.888 335.595 L
87.322 334.691 L
87.539 333.599 L
87.756 335.733 L
87.973 334.364 L
88.624 336.588 L
88.841 334.763 L
89.058 334.543 L
89.275 333.853 L
89.709 332.716 L
90.36 331.582 L
91.445 331.564 L
91.662 326.155 L
91.879 325.669 L
92.096 328.788 L
92.313 332.618 L
92.53 328.488 L
93.615 328.44 L
95.351 324.646 L
96.002 318.688 L
96.219 322.654 L
97.738 306.93 L
98.389 316.589 L
98.823 318.742 L
99.04 320.661 L
99.257 320.212 L
100.125 321.365 L
100.342 313.133 L
100.559 302.278 L
101.21 297.691 L
101.427 310.795 L
102.078 315.318 L
102.946 316.23 L
103.38 294.777 L
103.814 300.478 L
104.031 313.789 L
104.248 323.098 L
104.465 311.274 L
105.333 304.7 L
105.767 288.586 L
106.418 310.313 L
106.635 277.648 L
106.852 285.862 L
107.286 287.764 L
107.503 279.547 L
107.72 298.51 L
108.371 260.227 L
108.805 279.627 L
109.022 276.521 L
109.456 294.328 L
109.673 263.488 L
110.324 274.848 L
111.409 305.777 L
111.626 300.048 L
111.843 269.24 L
112.277 286.237 L
112.494 286.261 L
112.928 234.289 L
113.362 213.838 L
113.579 218.801 L
113.796 203.886 L
114.013 238.429 L
114.447 241.427 L
114.664 269.913 L
116.183 235.796 L
117.051 277.538 L
117.919 212.69 L
118.136 236.343 L
118.353 225.704 L
119.221 251.675 L
119.872 234.681 L
120.523 252.39 L
120.74 224.694 L
121.391 221.773 L
121.608 225.546 L
122.042 244.586 L
122.259 244.616 L
122.476 244.498 L
122.91 196.516 L
123.127 220.087 L
123.561 225.094 L
123.778 239.47 L
123.995 221.984 L
124.646 224.352 L
125.297 245.811 L
126.382 231.945 L
126.816 231.992 L
127.25 233.15 L
127.467 187.438 L
128.552 229.096 L
129.203 226.123 L
129.42 241.454 L
129.637 237.421 L
129.854 202.601 L
130.288 247.544 L
131.156 198.987 L
131.59 239.045 L
132.024 263.535 L
132.458 232.511 L
133.543 159.525 L
133.977 244.117 L
134.845 255.617 L
135.93 211.586 L
136.364 220.488 L
136.581 211.282 L
137.232 243.916 L
137.666 254.805 L
137.883 200.055 L
138.1 262.852 L
138.534 228.208 L
138.751 251.178 L
138.968 228.212 L
139.836 211.448 L
140.053 203.723 L
140.487 200.158 L
141.138 228.908 L
142.006 203.545 L
142.223 224.14 L
142.44 209.673 L
142.657 219.421 L
143.091 264.56 L
143.742 217.864 L
143.959 210.707 L
144.176 233.251 L
144.827 240.575 L
145.044 229.895 L
145.478 210.656 L
146.78 235.615 L
147.214 237.154 L
147.865 242.225 L
148.082 247.159 L
148.516 219.171 L
148.733 219.639 L
149.818 179.959 L
150.035 217.514 L
150.469 187.553 L
150.903 243.781 L
151.12 225.78 L
151.337 207.976 L
151.988 251.726 L
152.205 229.219 L
152.856 221.633 L
153.073 230.397 L
153.507 246.222 L
153.724 192.793 L
154.158 219.006 L
155.026 212.245 L
155.243 256.958 L
155.46 231.931 L
155.894 204.99 L
156.111 204.458 L
156.762 224.054 L
156.979 254.14 L
157.196 246.061 L
157.413 236.34 L
157.847 178.176 L
158.064 224.616 L
158.281 226.466 L
158.498 204.619 L
160.451 270.919 L
160.668 229.669 L
161.102 276.089 L
161.753 254.369 L
163.272 217.271 L
163.489 200.803 L
164.357 219.988 L
164.574 230.314 L
164.791 229.907 L
165.225 218.276 L
165.659 229.601 L
166.527 206.527 L
168.48 236.048 L
168.697 231.93 L
168.914 196.748 L
169.131 229.044 L
169.565 243.481 L
169.782 209.773 L
170.433 234.016 L
171.084 235.512 L
172.603 251.15 L
172.82 246.745 L
173.037 222.746 L
173.254 189.86 L
173.688 221.942 L
173.905 236.042 L
174.122 227.958 L
174.556 239.056 L
174.773 235.755 L
174.99 225.549 L
175.424 227.981 L
175.858 237.037 L
176.075 219.429 L
176.943 217.858 L
178.462 230.74 L
179.113 254.186 L
179.33 245.069 L
179.764 235.529 L
180.198 245.698 L
180.849 224.955 L
183.236 223.392 L
183.887 227.539 L
184.104 213.489 L
184.321 217.379 L
184.755 226.813 L
185.189 195.634 L
185.406 249.281 L
185.84 236.456 L
186.925 208.729 L
187.142 229.324 L
188.444 205.805 L
188.878 238.364 L
189.095 230.872 L
189.312 214.599 L
189.529 229.976 L
189.746 236.863 L
189.963 218.001 L
190.18 214.898 L
190.397 223.738 L
190.614 224.95 L
190.831 189.123 L
191.265 236.017 L
191.916 236.594 L
192.133 253.35 L
192.35 237.364 L
192.784 242.195 L
193.652 235.94 L
194.086 245.987 L
194.52 222.983 L
195.388 232.433 L
195.605 210.299 L
195.822 231.852 L
196.256 210.237 L
196.69 219.278 L
197.124 211.747 L
197.558 209.93 L
197.775 269.586 L
198.426 233.734 L
198.86 241.863 L
199.077 246.93 L
199.294 242.517 L
199.511 233.965 L
199.728 231.519 L
199.945 247.479 L
200.379 226.774 L
200.596 220.204 L
201.681 193.868 L
201.898 222.066 L
202.332 192.404 L
202.549 228.409 L
202.766 216.56 L
203.417 231.221 L
203.851 200.714 L
204.285 206.484 L
204.719 230.063 L
205.153 219.794 L
205.587 241.791 L
205.804 225.478 L
206.021 224.852 L
206.672 221.388 L
207.54 212.737 L
207.757 238.92 L
208.191 233.821 L
208.408 205.688 L
208.842 239.849 L
209.71 239.123 L
210.795 196.402 L
212.314 208.605 L
212.531 216.243 L
212.965 253.866 L
213.182 218.499 L
213.399 227.28 L
213.616 224.898 L
213.833 221.915 L
214.05 242.854 L
214.484 243.68 L
214.701 212.05 L
215.569 215.281 L
215.786 226.473 L
216.22 245.904 L
216.654 229.291 L
217.305 255.398 L
217.739 221.827 L
217.956 242.076 L
218.173 282.57 L
218.824 202.007 L
219.041 218.743 L
219.258 250.143 L
219.475 241.739 L
219.692 241.73 L
220.126 189.205 L
220.343 213.811 L
220.56 211.134 L
220.994 212.612 L
221.211 222.521 L
221.428 197.382 L
221.645 188.588 L
221.862 232.985 L
222.079 237.634 L
222.513 220.497 L
222.73 204.441 L
223.381 237.312 L
224.249 221.752 L
224.9 224.844 L
225.117 228.61 L
225.334 275.432 L
225.768 204.005 L
225.985 201.802 L
226.202 216.643 L
226.419 246.948 L
226.853 221.029 L
227.07 193.134 L
227.287 227.987 L
228.155 176.341 L
229.023 201.388 L
229.24 249.463 L
229.674 264.443 L
229.891 237.856 L
230.108 220.324 L
230.325 249.109 L
230.542 220.41 L
230.759 249.827 L
231.41 189.148 L
231.627 230.924 L
232.929 221.518 L
233.363 254.441 L
233.58 235.56 L
233.797 226.365 L
234.014 190.779 L
234.448 203.994 L
235.099 204.35 L
235.316 252.426 L
235.967 188.52 L
236.184 230.341 L
236.401 205.739 L
236.835 251.221 L
237.269 231.088 L
237.92 233.98 L
238.137 179.515 L
238.571 231.221 L
239.222 243.33 L
239.439 218.385 L
239.656 202.767 L
240.09 239.174 L
240.307 207.795 L
240.524 188.514 L
240.958 240.141 L
241.175 208.233 L
241.392 245.421 L
242.477 210.049 L
243.345 262.763 L
243.562 243.676 L
243.996 203.704 L
244.43 258.099 L
244.864 195.798 L
245.081 259.077 L
245.298 225.271 L
245.515 212.815 L
245.732 245.736 L
245.949 204.048 L
246.383 213.707 L
246.817 198.317 L
247.251 219.488 L
247.902 209.2 L
248.336 258.203 L
248.553 280.899 L
248.77 200.243 L
249.638 203.477 L
250.072 233.965 L
250.289 213.413 L
250.723 201.325 L
251.374 234.657 L
251.808 263.081 L
252.025 208.213 L
252.242 216.483 L
252.893 207.775 L
253.544 200.603 L
253.761 241.145 L
254.195 201.956 L
254.629 183.336 L
255.063 222.513 L
256.148 213.825 L
256.582 219.579 L
256.799 241.338 L
257.016 217.501 L
257.233 214.889 L
257.884 243.598 L
259.186 236.938 L
259.62 197.125 L
259.837 237.703 L
260.054 197.063 L
260.271 189.053 L
260.488 233.163 L
261.356 230.755 L
261.79 248.567 L
262.007 204.712 L
262.658 212.67 L
262.875 196.729 L
263.092 182.785 L
263.309 245.015 L
263.526 197.894 L
263.96 217.113 L
264.177 239.822 L
264.394 218.942 L
264.611 219.903 L
265.045 192.845 L
265.696 212.674 L
266.13 232.16 L
266.347 224.852 L
266.781 196.315 L
266.998 219.459 L
267.649 243.706 L
267.866 198.908 L
268.3 216.246 L
268.517 222.597 L
270.036 177.866 L
270.253 150.463 L
270.47 150.153 L
270.687 179.091 L
270.904 262.271 L
271.121 287.14 L
271.338 267.226 L
271.772 236.952 L
271.989 187.252 L
272.206 178.221 L
272.857 188.116 L
273.074 187.857 L
273.291 248.516 L
273.508 205.501 L
273.942 243.616 L
275.244 242.579 L
275.461 230.837 L
275.678 231.198 L
276.112 232.916 L
276.98 246.744 L
277.631 249.082 L
278.282 230.113 L
279.15 251.782 L
279.801 233.33 L
280.018 229.033 L
280.235 235.964 L
280.669 230.042 L
280.886 213.88 L
281.103 233.965 L
281.754 253.228 L
281.971 187.75 L
282.405 207.597 L
282.839 221.738 L
283.056 202.966 L
283.49 232.056 L
283.924 258.727 L
284.141 187.426 L
284.575 261.083 L
285.009 254.216 L
285.226 219.461 L
285.443 218.812 L
285.66 235.948 L
286.311 209.806 L
286.528 235.538 L
286.745 236.47 L
287.396 165.97 L
287.613 199.961 L
289.349 166.82 L
290 189.444 L
290.217 184.77 L
290.651 238.246 L
291.085 240.483 L
291.302 197.991 L
291.953 216.031 L
292.17 125.386 L
292.604 217.905 L
292.821 219.228 L
293.038 209.319 L
293.255 221.556 L
293.906 195.407 L
295.642 219.959 L
295.859 202.17 L
296.076 175.904 L
296.51 232.712 L
296.944 227.169 L
297.161 217.592 L
297.378 281.672 L
297.812 208.321 L
298.246 203.429 L
298.463 238.241 L
298.68 242.842 L
299.331 245.405 L
299.548 239.753 L
299.765 243.366 L
300.85 119.011 L
301.284 195.729 L
301.501 199.255 L
301.935 171.964 L
302.152 185.817 L
302.586 230.277 L
303.888 173.281 L
304.105 253.674 L
304.539 200.882 L
304.973 195.03 L
305.841 206.946 L
306.275 218.976 L
306.709 214.275 L
307.143 178.544 L
307.577 132.295 L
308.011 221.821 L
308.228 250.611 L
308.445 194.957 L
308.662 253.772 L
308.879 238.103 L
309.747 193.445 L
310.181 208.638 L
310.398 264.215 L
311.7 242.999 L
312.134 248.26 L
312.568 189.577 L
312.785 232.027 L
313.002 181.182 L
314.304 185.613 L
314.955 200.169 L
315.389 214.042 L
316.04 201.963 L
316.691 253.127 L
316.908 239.141 L
317.342 262.522 L
317.559 208.062 L
317.776 257.613 L
317.993 215.393 L
318.427 228.855 L
318.644 127.414 L
319.078 232.174 L
319.295 195.07 L
319.512 177.758 L
320.163 226.967 L
320.38 224.779 L
320.814 186.235 L
322.55 276.131 L
322.767 264.473 L
322.984 173.707 L
323.201 286.046 L
323.852 212.962 L
324.069 202.183 L
324.286 199.637 L
324.937 257.816 L
325.154 206.269 L
325.371 224.407 L
326.022 225.206 L
328.626 191.479 L
329.277 164.722 L
329.711 189.316 L
329.928 229.262 L
330.362 204.118 L
330.579 224.946 L
331.23 182.869 L
331.881 206.026 L
332.098 161.627 L
332.315 185.905 L
332.532 237.339 L
332.749 246.699 L
332.966 197.883 L
333.183 230.01 L
333.4 206.906 L
333.834 184.002 L
334.268 185.972 L
334.485 203.77 L
334.919 233.194 L
335.353 149.535 L
335.787 217.156 L
336.004 228.617 L
336.221 183.552 L
336.438 200.823 L
336.655 203.513 L
336.872 218.679 L
337.74 236.78 L
338.825 227.294 L
339.042 200.608 L
339.476 215.181 L
339.693 210.727 L
340.561 222.04 L
340.778 227.411 L
340.995 248.64 L
341.429 278.644 L
342.08 175.812 L
342.731 205.405 L
343.165 225.381 L
343.599 159.146 L
343.816 162.98 L
344.25 217.313 L
344.467 217.223 L
345.118 240.829 L
345.335 221.146 L
345.552 218.109 L
345.986 151.622 L
346.203 208.369 L
346.42 190.248 L
346.854 205.052 L
347.071 219.015 L
347.288 265.015 L
347.505 240.009 L
347.722 200.114 L
347.939 228.978 L
349.024 171.808 L
349.241 181.466 L
349.675 235.215 L
350.543 237.279 L
350.76 226.093 L
351.194 243.679 L
352.062 192.329 L
352.496 186.466 L
352.93 231.742 L
353.364 206.086 L
353.581 221.298 L
353.798 194.198 L
354.015 154.344 L
354.449 217.019 L
355.1 166.146 L
355.317 227.967 L
355.751 177.347 L
355.968 221.166 L
356.185 227.64 L
356.619 194.106 L
357.487 235.47 L
357.921 201.683 L
358.138 241.426 L
358.572 196.142 L
358.789 229.243 L
359.44 218.393 L
359.657 190.433 L
360.742 190.92 L
360.959 255.053 L
361.176 206.526 L
361.393 273.204 L
361.827 207.635 L
362.261 157.657 L
362.478 196.744 L
362.695 259.878 L
362.912 223.884 L
363.129 288.69 L
363.346 227.415 L
363.997 229.223 L
364.648 200.583 L
365.082 218.555 L
365.516 209.252 L
365.733 204.949 L
365.95 185.904 L
366.167 197.66 L
366.384 248.806 L
367.252 217.787 L
368.12 190.514 L
368.554 222.462 L
368.771 247.73 L
369.422 203.936 L
369.639 198.821 L
369.856 214.585 L
370.507 209.56 L
371.158 191.896 L
371.375 221.117 L
371.592 212.638 L
372.026 200.137 L
372.243 182.581 L
372.46 188.288 L
373.111 199.731 L
373.545 141.402 L
373.762 188.789 L
373.979 203.652 L
374.196 195.532 L
374.413 217.036 L
374.63 222.028 L
375.064 150.154 L
375.281 181.356 L
375.932 204.659 L
377.017 212.239 L
379.621 223.802 L
379.838 203.471 L
380.055 206.067 L
380.272 243.995 L
381.14 197.501 L
381.791 235.234 L
382.008 237.936 L
382.442 220.107 L
382.659 261.522 L
382.876 210.478 L
383.093 196.038 L
383.527 260.851 L
383.961 211.369 L
384.178 196.347 L
384.395 203.77 L
384.829 187.201 L
385.046 261.376 L
385.263 179.339 L
385.697 224.016 L
386.131 212.815 L
387.433 246.213 L
387.867 219.92 L
388.952 218.202 L
389.169 179.196 L
390.037 155.357 L
391.122 226.988 L
391.339 215.994 L
392.207 189.115 L
393.075 247.845 L
393.726 211.211 L
394.377 208.547 L
394.594 210.939 L
394.811 181.361 L
395.462 184.445 L
395.679 190.561 L
396.33 221.871 L
396.764 207.133 L
396.981 221.132 L
397.198 201.502 L
398.717 208.522 L
398.934 218.361 L
399.151 243.39 L
399.368 153.788 L
399.802 201.936 L
400.019 185.017 L
400.236 215.356 L
400.453 182.431 L
400.67 236.361 L
400.887 233.199 L
401.104 210.904 L
401.321 223.537 L
401.538 209.737 L
402.189 253.244 L
402.623 183.268 L
403.708 239.786 L
403.925 226.647 L
404.142 260.718 L
404.576 211.342 L
406.095 232.402 L
406.529 241.135 L
407.614 253.588 L
407.831 213.353 L
408.699 190.044 L
409.133 268.118 L
409.35 225.202 L
409.784 242.772 L
410.001 200.518 L
410.435 239.614 L
410.652 244.202 L
411.954 200.142 L
412.171 249.979 L
412.388 264.631 L
413.473 192.53 L
413.69 190.681 L
415.643 226.518 L
415.86 207.754 L
416.511 141.531 L
416.728 180.853 L
416.945 187.393 L
417.379 234.277 L
417.813 259.257 L
418.247 215.524 L
418.898 174.672 L
419.115 211.614 L
419.549 187.639 L
419.766 228.991 L
420.2 201.839 L
420.634 231.86 L
420.851 195.823 L
421.285 243.122 L
421.502 247.535 L
422.37 218.537 L
422.587 193.329 L
423.021 227.886 L
423.238 251.348 L
423.455 211.329 L
423.672 211.214 L
424.106 235.106 L
424.323 245.328 L
424.54 199.65 L
424.757 199.759 L
425.625 221.942 L
426.059 150.396 L
426.276 191.134 L
426.493 262.983 L
426.927 197.626 L
427.361 243.257 L
427.795 206.03 L
428.229 181.629 L
428.446 227.226 L
428.663 222.287 L
429.097 248.526 L
429.314 188.826 L
429.531 198.079 L
429.748 211.573 L
429.965 193.706 L
430.182 181.45 L
430.616 192.341 L
430.833 222.882 L
431.484 181.023 L
431.701 262.411 L
432.135 242.944 L
432.352 223.454 L
433.003 221.098 L
433.22 190.081 L
433.437 239.569 L
433.654 236.249 L
433.871 233.61 L
434.305 249.013 L
435.173 218.133 L
435.607 211.547 L
435.824 185.447 L
436.041 269.493 L
436.692 174.702 L
436.909 210.783 L
437.343 199.772 L
438.211 270.633 L
438.428 256.608 L
438.645 189.316 L
438.862 212.763 L
439.296 204.258 L
440.164 252.654 L
440.381 243.921 L
440.815 179.664 L
441.032 258.436 L
441.249 197.434 L
441.466 200.204 L
441.9 179.942 L
442.551 215.161 L
442.768 198.414 L
442.985 249.919 L
443.202 209.079 L
443.419 195.64 L
444.07 183.667 L
444.287 206.68 L
445.155 211.113 L
445.372 218.533 L
445.806 220.328 L
446.023 241.69 L
446.24 258.969 L
447.108 154.769 L
447.759 193.955 L
448.193 243.203 L
448.844 207.944 L
449.061 211.002 L
449.278 211.97 L
449.495 157.258 L
449.712 188.207 L
450.146 244.431 L
450.363 235.58 L
450.58 239.63 L
451.231 234.477 L
451.448 261.836 L
451.882 224.233 L
452.099 232.836 L
452.316 264.885 L
452.967 249.311 L
453.401 241.863 L
453.618 222.775 L
453.835 247.244 L
454.052 210.884 L
455.571 199.444 L
455.788 205.24 L
456.439 246.503 L
457.524 211.075 L
458.392 249.424 L
458.826 233.284 L
459.26 253.467 L
459.694 209.506 L
459.911 196.585 L
460.128 190.777 L
460.345 171.581 L
461.213 220.073 L
461.43 182.064 L
461.647 191.425 L
462.081 230.999 L
462.298 256.275 L
462.515 232.391 L
463.383 266.632 L
463.817 212.142 L
464.251 224.779 L
464.685 268.883 L
464.902 224.057 L
465.336 189.491 L
466.204 228.317 L
466.638 220.267 L
466.855 212.631 L
467.506 204.285 L
468.157 191.544 L
469.025 188.258 L
469.459 178.324 L
469.676 218.112 L
470.327 200.992 L
471.195 206.841 L
471.412 178.59 L
471.629 249.731 L
471.846 182.35 L
472.497 244.537 L
472.714 219.872 L
472.931 225.742 L
473.365 214.391 L
473.582 187.183 L
473.799 213.566 L
474.233 243.482 L
474.45 270.83 L
475.101 216.384 L
475.318 230.481 L
475.752 162.855 L
476.186 190.196 L
476.403 200.213 L
476.62 203.415 L
478.139 200.927 L
478.356 255.398 L
478.573 154.099 L
478.79 164.972 L
480.092 234.709 L
480.309 240.611 L
480.526 264.159 L
480.743 202.948 L
480.96 193.793 L
481.394 204.883 L
482.045 211.775 L
482.696 234.244 L
483.564 200.361 L
483.781 231.347 L
483.998 177.033 L
484.215 251.011 L
484.432 233.476 L
484.866 225.992 L
485.083 225.624 L
485.951 186.996 L
486.602 256.909 L
486.819 227.582 L
487.47 217.395 L
487.687 205.501 L
487.904 225.904 L
488.121 184.159 L
488.338 233.172 L
488.772 241.54 L
488.989 185.357 L
489.206 233.259 L
489.423 252.338 L
489.64 223.177 L
490.508 215.435 L
490.725 190.048 L
490.942 224.446 L
491.593 224.833 L
492.027 214.285 L
492.244 249.006 L
492.461 149.721 L
492.895 219.394 L
493.112 185.9 L
493.329 240.349 L
493.763 228.159 L
493.98 215.266 L
494.631 190.701 L
495.065 192.267 L
495.499 160.912 L
495.716 224.471 L
496.15 219.648 L
496.801 209.777 L
497.235 196.189 L
497.452 233.649 L
497.669 187.846 L
498.103 209.906 L
498.537 243.264 L
498.754 223.766 L
498.971 220.513 L
499.839 247.081 L
500.056 239.514 L
500.49 211.758 L
500.924 242.831 L
502.009 244.822 L
502.877 232.183 L
503.094 227.257 L
503.311 211.893 L
503.528 232.572 L
506.132 266.845 L
506.566 203.618 L
507 195.434 L
S
GR
GS
[0.75 0 0 0.75 0 0] CT
1 GC
N
496 78 M
496 42 L
376 42 L
376 78 L
cp
f
GR
GS
[0.75 0 0 0.75 317.25 38.89726] CT
N
0.938 5 M
0.938 -3.594 L
4.75 -3.594 L
5.906 -3.594 6.5 -3.359 QT
7.094 -3.125 7.453 -2.539 QT
7.813 -1.953 7.813 -1.25 QT
7.813 -0.328 7.219 0.297 QT
6.625 0.922 5.391 1.094 QT
5.844 1.313 6.078 1.516 QT
6.578 1.969 7.016 2.656 QT
8.516 5 L
7.078 5 L
5.953 3.219 L
5.453 2.438 5.133 2.031 QT
4.813 1.625 4.555 1.461 QT
4.297 1.297 4.031 1.219 QT
3.844 1.188 3.406 1.188 QT
2.078 1.188 L
2.078 5 L
0.938 5 L
cp
2.078 0.203 M
4.531 0.203 L
5.297 0.203 5.742 0.039 QT
6.188 -0.125 6.414 -0.477 QT
6.641 -0.828 6.641 -1.25 QT
6.641 -1.859 6.195 -2.25 QT
5.75 -2.641 4.797 -2.641 QT
2.078 -2.641 L
2.078 0.203 L
cp
9.072 1.891 M
9.072 0.156 10.025 -0.672 QT
10.822 -1.359 11.979 -1.359 QT
13.26 -1.359 14.08 -0.523 QT
14.9 0.313 14.9 1.797 QT
14.9 3 14.541 3.688 QT
14.182 4.375 13.486 4.758 QT
12.791 5.141 11.979 5.141 QT
10.682 5.141 9.877 4.305 QT
9.072 3.469 9.072 1.891 QT
cp
10.15 1.891 M
10.15 3.078 10.674 3.672 QT
11.197 4.266 11.979 4.266 QT
12.775 4.266 13.291 3.672 QT
13.807 3.078 13.807 1.859 QT
13.807 0.703 13.283 0.109 QT
12.76 -0.484 11.979 -0.484 QT
11.197 -0.484 10.674 0.102 QT
10.15 0.688 10.15 1.891 QT
cp
15.715 3.141 M
16.746 2.984 L
16.84 3.609 17.238 3.938 QT
17.637 4.266 18.371 4.266 QT
19.09 4.266 19.441 3.977 QT
19.793 3.688 19.793 3.281 QT
19.793 2.922 19.48 2.719 QT
19.262 2.578 18.402 2.359 QT
17.246 2.063 16.801 1.852 QT
16.355 1.641 16.121 1.266 QT
15.887 0.891 15.887 0.422 QT
15.887 0.016 16.074 -0.344 QT
16.262 -0.703 16.59 -0.938 QT
16.84 -1.109 17.262 -1.234 QT
17.684 -1.359 18.184 -1.359 QT
18.902 -1.359 19.457 -1.148 QT
20.012 -0.938 20.277 -0.578 QT
20.543 -0.219 20.637 0.375 QT
19.605 0.516 L
19.543 0.047 19.207 -0.227 QT
18.871 -0.5 18.246 -0.5 QT
17.527 -0.5 17.215 -0.258 QT
16.902 -0.016 16.902 0.313 QT
16.902 0.516 17.027 0.672 QT
17.168 0.844 17.434 0.953 QT
17.59 1.016 18.371 1.219 QT
19.496 1.531 19.934 1.719 QT
20.371 1.906 20.621 2.266 QT
20.871 2.625 20.871 3.172 QT
20.871 3.703 20.566 4.164 QT
20.262 4.625 19.684 4.883 QT
19.105 5.141 18.371 5.141 QT
17.152 5.141 16.52 4.633 QT
15.887 4.125 15.715 3.141 QT
cp
17.465 -3 M
18.246 -4.641 L
19.637 -4.641 L
18.34 -3 L
17.465 -3 L
cp
22.105 5 M
22.105 -3.594 L
23.168 -3.594 L
23.168 5 L
22.105 5 L
cp
24.803 -2.375 M
24.803 -3.594 L
25.865 -3.594 L
25.865 -2.375 L
24.803 -2.375 L
cp
24.803 5 M
24.803 -1.219 L
25.865 -1.219 L
25.865 5 L
24.803 5 L
cp
27.469 5 M
27.469 -1.219 L
28.406 -1.219 L
28.406 -0.344 L
29.094 -1.359 30.391 -1.359 QT
30.953 -1.359 31.43 -1.156 QT
31.906 -0.953 32.141 -0.625 QT
32.375 -0.297 32.469 0.141 QT
32.516 0.438 32.516 1.172 QT
32.516 5 L
31.469 5 L
31.469 1.219 L
31.469 0.563 31.344 0.25 QT
31.219 -0.063 30.906 -0.258 QT
30.594 -0.453 30.172 -0.453 QT
29.5 -0.453 29.008 -0.023 QT
28.516 0.406 28.516 1.594 QT
28.516 5 L
27.469 5 L
cp
33.752 1.891 M
33.752 0.156 34.705 -0.672 QT
35.502 -1.359 36.658 -1.359 QT
37.939 -1.359 38.76 -0.523 QT
39.58 0.313 39.58 1.797 QT
39.58 3 39.221 3.688 QT
38.861 4.375 38.166 4.758 QT
37.471 5.141 36.658 5.141 QT
35.361 5.141 34.557 4.305 QT
33.752 3.469 33.752 1.891 QT
cp
34.83 1.891 M
34.83 3.078 35.354 3.672 QT
35.877 4.266 36.658 4.266 QT
37.455 4.266 37.971 3.672 QT
38.486 3.078 38.486 1.859 QT
38.486 0.703 37.963 0.109 QT
37.439 -0.484 36.658 -0.484 QT
35.877 -0.484 35.354 0.102 QT
34.83 0.688 34.83 1.891 QT
cp
40.254 5 M
40.254 4.141 L
44.223 -0.406 L
43.535 -0.375 43.02 -0.375 QT
40.488 -0.375 L
40.488 -1.219 L
45.582 -1.219 L
45.582 -0.531 L
42.207 3.422 L
41.551 4.141 L
42.27 4.094 42.879 4.094 QT
45.77 4.094 L
45.77 5 L
40.254 5 L
cp
42.02 -3 M
42.02 -4.313 L
43.332 -4.313 L
43.332 -3 L
42.02 -3 L
cp
51.066 3 M
52.16 3.125 L
51.91 4.078 51.207 4.609 QT
50.504 5.141 49.426 5.141 QT
48.066 5.141 47.262 4.297 QT
46.457 3.453 46.457 1.938 QT
46.457 0.375 47.27 -0.492 QT
48.082 -1.359 49.363 -1.359 QT
50.613 -1.359 51.402 -0.516 QT
52.191 0.328 52.191 1.875 QT
52.191 1.969 52.191 2.156 QT
47.551 2.156 L
47.613 3.188 48.129 3.727 QT
48.645 4.266 49.426 4.266 QT
50.004 4.266 50.418 3.961 QT
50.832 3.656 51.066 3 QT
cp
47.613 1.297 M
51.082 1.297 L
51.02 0.5 50.691 0.109 QT
50.176 -0.5 49.379 -0.5 QT
48.645 -0.5 48.152 -0.016 QT
47.66 0.469 47.613 1.297 QT
cp
53.475 5 M
53.475 -1.219 L
54.428 -1.219 L
54.428 -0.281 L
54.787 -0.938 55.092 -1.148 QT
55.396 -1.359 55.771 -1.359 QT
56.303 -1.359 56.85 -1.031 QT
56.49 -0.047 L
56.1 -0.281 55.725 -0.281 QT
55.365 -0.281 55.092 -0.07 QT
54.818 0.141 54.709 0.516 QT
54.521 1.078 54.521 1.734 QT
54.521 5 L
53.475 5 L
cp
61.549 2.719 M
62.58 2.859 L
62.408 3.922 61.705 4.531 QT
61.002 5.141 59.986 5.141 QT
58.705 5.141 57.932 4.305 QT
57.158 3.469 57.158 1.906 QT
57.158 0.906 57.494 0.148 QT
57.83 -0.609 58.51 -0.984 QT
59.189 -1.359 60.002 -1.359 QT
61.002 -1.359 61.65 -0.852 QT
62.299 -0.344 62.486 0.609 QT
61.455 0.766 L
61.314 0.141 60.939 -0.18 QT
60.564 -0.5 60.033 -0.5 QT
59.236 -0.5 58.736 0.07 QT
58.236 0.641 58.236 1.875 QT
58.236 3.141 58.721 3.703 QT
59.205 4.266 59.971 4.266 QT
60.596 4.266 61.01 3.891 QT
61.424 3.516 61.549 2.719 QT
cp
63.439 7.391 M
63.314 6.406 L
63.658 6.5 63.924 6.5 QT
64.268 6.5 64.479 6.383 QT
64.689 6.266 64.83 6.063 QT
64.924 5.891 65.158 5.266 QT
65.174 5.188 65.252 5.016 QT
62.877 -1.219 L
64.018 -1.219 L
65.314 2.375 L
65.564 3.063 65.768 3.828 QT
65.955 3.094 66.205 2.406 QT
67.533 -1.219 L
68.58 -1.219 L
66.221 5.109 L
65.83 6.125 65.627 6.516 QT
65.346 7.047 64.979 7.289 QT
64.611 7.531 64.111 7.531 QT
63.814 7.531 63.439 7.391 QT
cp
f
GR
GS
[0.75 0 0 0.75 0 0] CT
0 1 0 RC
1 LJ
0.667 LW
N
380 51.863 M
420 51.863 L
S
GR
GS
[0.75 0 0 0.75 317.25 51.10274] CT
N
0.891 5 M
0.891 -3.594 L
2.609 -3.594 L
4.641 2.484 L
4.922 3.344 5.047 3.766 QT
5.188 3.297 5.5 2.391 QT
7.563 -3.594 L
9.094 -3.594 L
9.094 5 L
8 5 L
8 -2.188 L
5.5 5 L
4.469 5 L
1.984 -2.313 L
1.984 5 L
0.891 5 L
cp
10.793 -2.375 M
10.793 -3.594 L
11.855 -3.594 L
11.855 -2.375 L
10.793 -2.375 L
cp
10.793 5 M
10.793 -1.219 L
11.855 -1.219 L
11.855 5 L
10.793 5 L
cp
17.709 3 M
18.803 3.125 L
18.553 4.078 17.85 4.609 QT
17.146 5.141 16.068 5.141 QT
14.709 5.141 13.904 4.297 QT
13.1 3.453 13.1 1.938 QT
13.1 0.375 13.912 -0.492 QT
14.725 -1.359 16.006 -1.359 QT
17.256 -1.359 18.045 -0.516 QT
18.834 0.328 18.834 1.875 QT
18.834 1.969 18.834 2.156 QT
14.193 2.156 L
14.256 3.188 14.771 3.727 QT
15.287 4.266 16.068 4.266 QT
16.646 4.266 17.061 3.961 QT
17.475 3.656 17.709 3 QT
cp
14.256 1.297 M
17.725 1.297 L
17.662 0.5 17.334 0.109 QT
16.818 -0.5 16.021 -0.5 QT
15.287 -0.5 14.795 -0.016 QT
14.303 0.469 14.256 1.297 QT
cp
17.678 5 M
17.35 5.203 17.162 5.508 QT
16.975 5.813 16.975 6.125 QT
16.975 6.359 17.115 6.531 QT
17.256 6.703 17.553 6.703 QT
17.693 6.703 17.834 6.664 QT
17.975 6.625 18.084 6.563 QT
18.084 7.313 L
17.662 7.516 17.287 7.516 QT
16.99 7.516 16.771 7.43 QT
16.553 7.344 16.404 7.195 QT
16.256 7.047 16.178 6.859 QT
16.1 6.672 16.1 6.438 QT
16.1 6.063 16.311 5.688 QT
16.521 5.313 16.912 5 QT
17.678 5 L
cp
19.711 3.141 M
20.742 2.984 L
20.836 3.609 21.234 3.938 QT
21.633 4.266 22.367 4.266 QT
23.086 4.266 23.438 3.977 QT
23.789 3.688 23.789 3.281 QT
23.789 2.922 23.477 2.719 QT
23.258 2.578 22.398 2.359 QT
21.242 2.063 20.797 1.852 QT
20.352 1.641 20.117 1.266 QT
19.883 0.891 19.883 0.422 QT
19.883 0.016 20.07 -0.344 QT
20.258 -0.703 20.586 -0.938 QT
20.836 -1.109 21.258 -1.234 QT
21.68 -1.359 22.18 -1.359 QT
22.898 -1.359 23.453 -1.148 QT
24.008 -0.938 24.273 -0.578 QT
24.539 -0.219 24.633 0.375 QT
23.602 0.516 L
23.539 0.047 23.203 -0.227 QT
22.867 -0.5 22.242 -0.5 QT
21.523 -0.5 21.211 -0.258 QT
20.898 -0.016 20.898 0.313 QT
20.898 0.516 21.023 0.672 QT
21.164 0.844 21.43 0.953 QT
21.586 1.016 22.367 1.219 QT
23.492 1.531 23.93 1.719 QT
24.367 1.906 24.617 2.266 QT
24.867 2.625 24.867 3.172 QT
24.867 3.703 24.563 4.164 QT
24.258 4.625 23.68 4.883 QT
23.102 5.141 22.367 5.141 QT
21.148 5.141 20.516 4.633 QT
19.883 4.125 19.711 3.141 QT
cp
25.742 1.891 M
25.742 0.156 26.695 -0.672 QT
27.492 -1.359 28.648 -1.359 QT
29.93 -1.359 30.75 -0.523 QT
31.57 0.313 31.57 1.797 QT
31.57 3 31.211 3.688 QT
30.852 4.375 30.156 4.758 QT
29.461 5.141 28.648 5.141 QT
27.352 5.141 26.547 4.305 QT
25.742 3.469 25.742 1.891 QT
cp
26.82 1.891 M
26.82 3.078 27.344 3.672 QT
27.867 4.266 28.648 4.266 QT
29.445 4.266 29.961 3.672 QT
30.477 3.078 30.477 1.859 QT
30.477 0.703 29.953 0.109 QT
29.43 -0.484 28.648 -0.484 QT
27.867 -0.484 27.344 0.102 QT
26.82 0.688 26.82 1.891 QT
cp
32.244 5 M
32.244 4.141 L
36.213 -0.406 L
35.525 -0.375 35.01 -0.375 QT
32.479 -0.375 L
32.479 -1.219 L
37.572 -1.219 L
37.572 -0.531 L
34.197 3.422 L
33.541 4.141 L
34.26 4.094 34.869 4.094 QT
37.76 4.094 L
37.76 5 L
32.244 5 L
cp
34.01 -3 M
34.01 -4.313 L
35.322 -4.313 L
35.322 -3 L
34.01 -3 L
cp
43.057 3 M
44.15 3.125 L
43.9 4.078 43.197 4.609 QT
42.494 5.141 41.416 5.141 QT
40.057 5.141 39.252 4.297 QT
38.447 3.453 38.447 1.938 QT
38.447 0.375 39.26 -0.492 QT
40.072 -1.359 41.354 -1.359 QT
42.604 -1.359 43.393 -0.516 QT
44.182 0.328 44.182 1.875 QT
44.182 1.969 44.182 2.156 QT
39.541 2.156 L
39.604 3.188 40.119 3.727 QT
40.635 4.266 41.416 4.266 QT
41.994 4.266 42.408 3.961 QT
42.822 3.656 43.057 3 QT
cp
39.604 1.297 M
43.072 1.297 L
43.01 0.5 42.682 0.109 QT
42.166 -0.5 41.369 -0.5 QT
40.635 -0.5 40.143 -0.016 QT
39.65 0.469 39.604 1.297 QT
cp
45.465 5 M
45.465 -1.219 L
46.418 -1.219 L
46.418 -0.281 L
46.777 -0.938 47.082 -1.148 QT
47.387 -1.359 47.762 -1.359 QT
48.293 -1.359 48.84 -1.031 QT
48.48 -0.047 L
48.09 -0.281 47.715 -0.281 QT
47.355 -0.281 47.082 -0.07 QT
46.809 0.141 46.699 0.516 QT
46.512 1.078 46.512 1.734 QT
46.512 5 L
45.465 5 L
cp
53.539 2.719 M
54.57 2.859 L
54.398 3.922 53.695 4.531 QT
52.992 5.141 51.977 5.141 QT
50.695 5.141 49.922 4.305 QT
49.148 3.469 49.148 1.906 QT
49.148 0.906 49.484 0.148 QT
49.82 -0.609 50.5 -0.984 QT
51.18 -1.359 51.992 -1.359 QT
52.992 -1.359 53.641 -0.852 QT
54.289 -0.344 54.477 0.609 QT
53.445 0.766 L
53.305 0.141 52.93 -0.18 QT
52.555 -0.5 52.023 -0.5 QT
51.227 -0.5 50.727 0.07 QT
50.227 0.641 50.227 1.875 QT
50.227 3.141 50.711 3.703 QT
51.195 4.266 51.961 4.266 QT
52.586 4.266 53 3.891 QT
53.414 3.516 53.539 2.719 QT
cp
55.43 7.391 M
55.305 6.406 L
55.648 6.5 55.914 6.5 QT
56.258 6.5 56.469 6.383 QT
56.68 6.266 56.82 6.063 QT
56.914 5.891 57.148 5.266 QT
57.164 5.188 57.242 5.016 QT
54.867 -1.219 L
56.008 -1.219 L
57.305 2.375 L
57.555 3.063 57.758 3.828 QT
57.945 3.094 58.195 2.406 QT
59.523 -1.219 L
60.57 -1.219 L
58.211 5.109 L
57.82 6.125 57.617 6.516 QT
57.336 7.047 56.969 7.289 QT
56.602 7.531 56.102 7.531 QT
55.805 7.531 55.43 7.391 QT
cp
f
GR
GS
[0.75 0 0 0.75 0 0] CT
1 0 0 RC
1 LJ
0.667 LW
N
380 68.137 M
420 68.137 L
S
GR
GS
[0.75 0 0 0.75 0 0] CT
0.149 GC
10.0 ML
0.667 LW
N
376 78 M
376 42 L
496 42 L
496 78 L
cp
S
GR
%%Trailer
%%Pages: 1
%%EOF
