%!PS-Adobe-3.0 EPSF-3.0
%%Creator: (MATLAB, The Mathworks, Inc. Version 9.5.0.1049112 \(R2018b\) Update 3. Operating System: Windows 10)
%%Title: learning/eps/Engineering_base_existentialReward.eps
%%CreationDate: 2020-01-18T12:54:08
%%Pages: (atend)
%%BoundingBox:    25     3   383   295
%%LanguageLevel: 3
%%EndComments
%%BeginProlog
%%BeginResource: procset (Apache XML Graphics Std ProcSet) 1.2 0
%%Version: 1.2 0
%%Copyright: (Copyright 2001-2003,2010 The Apache Software Foundation. License terms: http://www.apache.org/licenses/LICENSE-2.0)
/bd{bind def}bind def
/ld{load def}bd
/GR/grestore ld
/GS/gsave ld
/RM/rmoveto ld
/C/curveto ld
/t/show ld
/L/lineto ld
/ML/setmiterlimit ld
/CT/concat ld
/f/fill ld
/N/newpath ld
/S/stroke ld
/CC/setcmykcolor ld
/A/ashow ld
/cp/closepath ld
/RC/setrgbcolor ld
/LJ/setlinejoin ld
/GC/setgray ld
/LW/setlinewidth ld
/M/moveto ld
/re {4 2 roll M
1 index 0 rlineto
0 exch rlineto
neg 0 rlineto
cp } bd
/_ctm matrix def
/_tm matrix def
/BT { _ctm currentmatrix pop matrix _tm copy pop 0 0 moveto } bd
/ET { _ctm setmatrix } bd
/iTm { _ctm setmatrix _tm concat } bd
/Tm { _tm astore pop iTm 0 0 moveto } bd
/ux 0.0 def
/uy 0.0 def
/F {
  /Tp exch def
  /Tf exch def
  Tf findfont Tp scalefont setfont
  /cf Tf def  /cs Tp def
} bd
/ULS {currentpoint /uy exch def /ux exch def} bd
/ULE {
  /Tcx currentpoint pop def
  gsave
  newpath
  cf findfont cs scalefont dup
  /FontMatrix get 0 get /Ts exch def /FontInfo get dup
  /UnderlinePosition get Ts mul /To exch def
  /UnderlineThickness get Ts mul /Tt exch def
  ux uy To add moveto  Tcx uy To add lineto
  Tt setlinewidth stroke
  grestore
} bd
/OLE {
  /Tcx currentpoint pop def
  gsave
  newpath
  cf findfont cs scalefont dup
  /FontMatrix get 0 get /Ts exch def /FontInfo get dup
  /UnderlinePosition get Ts mul /To exch def
  /UnderlineThickness get Ts mul /Tt exch def
  ux uy To add cs add moveto Tcx uy To add cs add lineto
  Tt setlinewidth stroke
  grestore
} bd
/SOE {
  /Tcx currentpoint pop def
  gsave
  newpath
  cf findfont cs scalefont dup
  /FontMatrix get 0 get /Ts exch def /FontInfo get dup
  /UnderlinePosition get Ts mul /To exch def
  /UnderlineThickness get Ts mul /Tt exch def
  ux uy To add cs 10 mul 26 idiv add moveto Tcx uy To add cs 10 mul 26 idiv add lineto
  Tt setlinewidth stroke
  grestore
} bd
/QT {
/Y22 exch store
/X22 exch store
/Y21 exch store
/X21 exch store
currentpoint
/Y21 load 2 mul add 3 div exch
/X21 load 2 mul add 3 div exch
/X21 load 2 mul /X22 load add 3 div
/Y21 load 2 mul /Y22 load add 3 div
/X22 load /Y22 load curveto
} bd
/SSPD {
dup length /d exch dict def
{
/v exch def
/k exch def
currentpagedevice k known {
/cpdv currentpagedevice k get def
v cpdv ne {
/upd false def
/nullv v type /nulltype eq def
/nullcpdv cpdv type /nulltype eq def
nullv nullcpdv or
{
/upd true def
} {
/sametype v type cpdv type eq def
sametype {
v type /arraytype eq {
/vlen v length def
/cpdvlen cpdv length def
vlen cpdvlen eq {
0 1 vlen 1 sub {
/i exch def
/obj v i get def
/cpdobj cpdv i get def
obj cpdobj ne {
/upd true def
exit
} if
} for
} {
/upd true def
} ifelse
} {
v type /dicttype eq {
v {
/dv exch def
/dk exch def
/cpddv cpdv dk get def
dv cpddv ne {
/upd true def
exit
} if
} forall
} {
/upd true def
} ifelse
} ifelse
} if
} ifelse
upd true eq {
d k v put
} if
} if
} if
} forall
d length 0 gt {
d setpagedevice
} if
} bd
/RE { % /NewFontName [NewEncodingArray] /FontName RE -
  findfont dup length dict begin
  {
    1 index /FID ne
    {def} {pop pop} ifelse
  } forall
  /Encoding exch def
  /FontName 1 index def
  currentdict definefont pop
  end
} bind def
%%EndResource
%%BeginResource: procset (Apache XML Graphics EPS ProcSet) 1.0 0
%%Version: 1.0 0
%%Copyright: (Copyright 2002-2003 The Apache Software Foundation. License terms: http://www.apache.org/licenses/LICENSE-2.0)
/BeginEPSF { %def
/b4_Inc_state save def         % Save state for cleanup
/dict_count countdictstack def % Count objects on dict stack
/op_count count 1 sub def      % Count objects on operand stack
userdict begin                 % Push userdict on dict stack
/showpage { } def              % Redefine showpage, { } = null proc
0 setgray 0 setlinecap         % Prepare graphics state
1 setlinewidth 0 setlinejoin
10 setmiterlimit [ ] 0 setdash newpath
/languagelevel where           % If level not equal to 1 then
{pop languagelevel             % set strokeadjust and
1 ne                           % overprint to their defaults.
{false setstrokeadjust false setoverprint
} if
} if
} bd
/EndEPSF { %def
count op_count sub {pop} repeat            % Clean up stacks
countdictstack dict_count sub {end} repeat
b4_Inc_state restore
} bd
%%EndResource
%FOPBeginFontDict
%%IncludeResource: font Courier-Oblique
%%IncludeResource: font Courier-BoldOblique
%%IncludeResource: font Courier-Bold
%%IncludeResource: font ZapfDingbats
%%IncludeResource: font Symbol
%%IncludeResource: font Helvetica
%%IncludeResource: font Helvetica-Oblique
%%IncludeResource: font Helvetica-Bold
%%IncludeResource: font Helvetica-BoldOblique
%%IncludeResource: font Times-Roman
%%IncludeResource: font Times-Italic
%%IncludeResource: font Times-Bold
%%IncludeResource: font Times-BoldItalic
%%IncludeResource: font Courier
%FOPEndFontDict
%%BeginResource: encoding WinAnsiEncoding
/WinAnsiEncoding [
/.notdef /.notdef /.notdef /.notdef /.notdef
/.notdef /.notdef /.notdef /.notdef /.notdef
/.notdef /.notdef /.notdef /.notdef /.notdef
/.notdef /.notdef /.notdef /.notdef /.notdef
/.notdef /.notdef /.notdef /.notdef /.notdef
/.notdef /.notdef /.notdef /.notdef /.notdef
/.notdef /.notdef /space /exclam /quotedbl
/numbersign /dollar /percent /ampersand /quotesingle
/parenleft /parenright /asterisk /plus /comma
/hyphen /period /slash /zero /one
/two /three /four /five /six
/seven /eight /nine /colon /semicolon
/less /equal /greater /question /at
/A /B /C /D /E
/F /G /H /I /J
/K /L /M /N /O
/P /Q /R /S /T
/U /V /W /X /Y
/Z /bracketleft /backslash /bracketright /asciicircum
/underscore /quoteleft /a /b /c
/d /e /f /g /h
/i /j /k /l /m
/n /o /p /q /r
/s /t /u /v /w
/x /y /z /braceleft /bar
/braceright /asciitilde /bullet /Euro /bullet
/quotesinglbase /florin /quotedblbase /ellipsis /dagger
/daggerdbl /circumflex /perthousand /Scaron /guilsinglleft
/OE /bullet /Zcaron /bullet /bullet
/quoteleft /quoteright /quotedblleft /quotedblright /bullet
/endash /emdash /asciitilde /trademark /scaron
/guilsinglright /oe /bullet /zcaron /Ydieresis
/space /exclamdown /cent /sterling /currency
/yen /brokenbar /section /dieresis /copyright
/ordfeminine /guillemotleft /logicalnot /sfthyphen /registered
/macron /degree /plusminus /twosuperior /threesuperior
/acute /mu /paragraph /middot /cedilla
/onesuperior /ordmasculine /guillemotright /onequarter /onehalf
/threequarters /questiondown /Agrave /Aacute /Acircumflex
/Atilde /Adieresis /Aring /AE /Ccedilla
/Egrave /Eacute /Ecircumflex /Edieresis /Igrave
/Iacute /Icircumflex /Idieresis /Eth /Ntilde
/Ograve /Oacute /Ocircumflex /Otilde /Odieresis
/multiply /Oslash /Ugrave /Uacute /Ucircumflex
/Udieresis /Yacute /Thorn /germandbls /agrave
/aacute /acircumflex /atilde /adieresis /aring
/ae /ccedilla /egrave /eacute /ecircumflex
/edieresis /igrave /iacute /icircumflex /idieresis
/eth /ntilde /ograve /oacute /ocircumflex
/otilde /odieresis /divide /oslash /ugrave
/uacute /ucircumflex /udieresis /yacute /thorn
/ydieresis
] def
%%EndResource
%FOPBeginFontReencode
/Courier-Oblique findfont
dup length dict begin
  {1 index /FID ne {def} {pop pop} ifelse} forall
  /Encoding WinAnsiEncoding def
  currentdict
end
/Courier-Oblique exch definefont pop
/Courier-BoldOblique findfont
dup length dict begin
  {1 index /FID ne {def} {pop pop} ifelse} forall
  /Encoding WinAnsiEncoding def
  currentdict
end
/Courier-BoldOblique exch definefont pop
/Courier-Bold findfont
dup length dict begin
  {1 index /FID ne {def} {pop pop} ifelse} forall
  /Encoding WinAnsiEncoding def
  currentdict
end
/Courier-Bold exch definefont pop
/Helvetica findfont
dup length dict begin
  {1 index /FID ne {def} {pop pop} ifelse} forall
  /Encoding WinAnsiEncoding def
  currentdict
end
/Helvetica exch definefont pop
/Helvetica-Oblique findfont
dup length dict begin
  {1 index /FID ne {def} {pop pop} ifelse} forall
  /Encoding WinAnsiEncoding def
  currentdict
end
/Helvetica-Oblique exch definefont pop
/Helvetica-Bold findfont
dup length dict begin
  {1 index /FID ne {def} {pop pop} ifelse} forall
  /Encoding WinAnsiEncoding def
  currentdict
end
/Helvetica-Bold exch definefont pop
/Helvetica-BoldOblique findfont
dup length dict begin
  {1 index /FID ne {def} {pop pop} ifelse} forall
  /Encoding WinAnsiEncoding def
  currentdict
end
/Helvetica-BoldOblique exch definefont pop
/Times-Roman findfont
dup length dict begin
  {1 index /FID ne {def} {pop pop} ifelse} forall
  /Encoding WinAnsiEncoding def
  currentdict
end
/Times-Roman exch definefont pop
/Times-Italic findfont
dup length dict begin
  {1 index /FID ne {def} {pop pop} ifelse} forall
  /Encoding WinAnsiEncoding def
  currentdict
end
/Times-Italic exch definefont pop
/Times-Bold findfont
dup length dict begin
  {1 index /FID ne {def} {pop pop} ifelse} forall
  /Encoding WinAnsiEncoding def
  currentdict
end
/Times-Bold exch definefont pop
/Times-BoldItalic findfont
dup length dict begin
  {1 index /FID ne {def} {pop pop} ifelse} forall
  /Encoding WinAnsiEncoding def
  currentdict
end
/Times-BoldItalic exch definefont pop
/Courier findfont
dup length dict begin
  {1 index /FID ne {def} {pop pop} ifelse} forall
  /Encoding WinAnsiEncoding def
  currentdict
end
/Courier exch definefont pop
%FOPEndFontReencode
%%EndProlog
%%Page: 1 1
%%PageBoundingBox: 0 0 420 315
%%BeginPageSetup
[1 0 0 -1 0 315] CT
%%EndPageSetup
GS
[0.75 0 0 0.75 0 0] CT
1 GC
N
0 0 560 420 re
f
GR
GS
[0.75 0 0 0.75 0 0] CT
1 GC
N
0 0 560 420 re
f
GR
GS
[0.75 0 0 0.75 0 0] CT
1 GC
N
73 374 M
507 374 L
507 31 L
73 31 L
cp
f
GR
GS
[0.75 0 0 0.75 0 0] CT
0.149 GC
2 setlinecap
1 LJ
0.667 LW
N
73 374 M
507 374 L
S
GR
GS
[0.75 0 0 0.75 0 0] CT
0.149 GC
2 setlinecap
1 LJ
0.667 LW
N
73 31 M
507 31 L
S
GR
GS
[0.75 0 0 0.75 0 0] CT
0.149 GC
2 setlinecap
1 LJ
0.667 LW
N
73 374 M
73 369.66 L
S
GR
GS
[0.75 0 0 0.75 0 0] CT
0.149 GC
2 setlinecap
1 LJ
0.667 LW
N
116.4 374 M
116.4 369.66 L
S
GR
GS
[0.75 0 0 0.75 0 0] CT
0.149 GC
2 setlinecap
1 LJ
0.667 LW
N
159.8 374 M
159.8 369.66 L
S
GR
GS
[0.75 0 0 0.75 0 0] CT
0.149 GC
2 setlinecap
1 LJ
0.667 LW
N
203.2 374 M
203.2 369.66 L
S
GR
GS
[0.75 0 0 0.75 0 0] CT
0.149 GC
2 setlinecap
1 LJ
0.667 LW
N
246.6 374 M
246.6 369.66 L
S
GR
GS
[0.75 0 0 0.75 0 0] CT
0.149 GC
2 setlinecap
1 LJ
0.667 LW
N
290 374 M
290 369.66 L
S
GR
GS
[0.75 0 0 0.75 0 0] CT
0.149 GC
2 setlinecap
1 LJ
0.667 LW
N
333.4 374 M
333.4 369.66 L
S
GR
GS
[0.75 0 0 0.75 0 0] CT
0.149 GC
2 setlinecap
1 LJ
0.667 LW
N
376.8 374 M
376.8 369.66 L
S
GR
GS
[0.75 0 0 0.75 0 0] CT
0.149 GC
2 setlinecap
1 LJ
0.667 LW
N
420.2 374 M
420.2 369.66 L
S
GR
GS
[0.75 0 0 0.75 0 0] CT
0.149 GC
2 setlinecap
1 LJ
0.667 LW
N
463.6 374 M
463.6 369.66 L
S
GR
GS
[0.75 0 0 0.75 0 0] CT
0.149 GC
2 setlinecap
1 LJ
0.667 LW
N
507 374 M
507 369.66 L
S
GR
GS
[0.75 0 0 0.75 0 0] CT
0.149 GC
2 setlinecap
1 LJ
0.667 LW
N
73 31 M
73 35.34 L
S
GR
GS
[0.75 0 0 0.75 0 0] CT
0.149 GC
2 setlinecap
1 LJ
0.667 LW
N
116.4 31 M
116.4 35.34 L
S
GR
GS
[0.75 0 0 0.75 0 0] CT
0.149 GC
2 setlinecap
1 LJ
0.667 LW
N
159.8 31 M
159.8 35.34 L
S
GR
GS
[0.75 0 0 0.75 0 0] CT
0.149 GC
2 setlinecap
1 LJ
0.667 LW
N
203.2 31 M
203.2 35.34 L
S
GR
GS
[0.75 0 0 0.75 0 0] CT
0.149 GC
2 setlinecap
1 LJ
0.667 LW
N
246.6 31 M
246.6 35.34 L
S
GR
GS
[0.75 0 0 0.75 0 0] CT
0.149 GC
2 setlinecap
1 LJ
0.667 LW
N
290 31 M
290 35.34 L
S
GR
GS
[0.75 0 0 0.75 0 0] CT
0.149 GC
2 setlinecap
1 LJ
0.667 LW
N
333.4 31 M
333.4 35.34 L
S
GR
GS
[0.75 0 0 0.75 0 0] CT
0.149 GC
2 setlinecap
1 LJ
0.667 LW
N
376.8 31 M
376.8 35.34 L
S
GR
GS
[0.75 0 0 0.75 0 0] CT
0.149 GC
2 setlinecap
1 LJ
0.667 LW
N
420.2 31 M
420.2 35.34 L
S
GR
GS
[0.75 0 0 0.75 0 0] CT
0.149 GC
2 setlinecap
1 LJ
0.667 LW
N
463.6 31 M
463.6 35.34 L
S
GR
GS
[0.75 0 0 0.75 0 0] CT
0.149 GC
2 setlinecap
1 LJ
0.667 LW
N
507 31 M
507 35.34 L
S
GR
GS
[0.75 0 0 0.75 54.75 284.50001] CT
0.149 GC
/Helvetica 13.333 F
GS
[1 0 0 1 0 0] CT
-4 14 moveto 
1 -1 scale
(0) t 
GR
GR
GS
[0.75 0 0 0.75 87.3 284.50001] CT
0.149 GC
/Helvetica 13.333 F
GS
[1 0 0 1 0 0] CT
-9.5 14 moveto 
1 -1 scale
(0.5) t 
GR
GR
GS
[0.75 0 0 0.75 119.85 284.50001] CT
0.149 GC
/Helvetica 13.333 F
GS
[1 0 0 1 0 0] CT
-4 14 moveto 
1 -1 scale
(1) t 
GR
GR
GS
[0.75 0 0 0.75 152.4 284.50001] CT
0.149 GC
/Helvetica 13.333 F
GS
[1 0 0 1 0 0] CT
-9.5 14 moveto 
1 -1 scale
(1.5) t 
GR
GR
GS
[0.75 0 0 0.75 184.95 284.50001] CT
0.149 GC
/Helvetica 13.333 F
GS
[1 0 0 1 0 0] CT
-4 14 moveto 
1 -1 scale
(2) t 
GR
GR
GS
[0.75 0 0 0.75 217.5 284.50001] CT
0.149 GC
/Helvetica 13.333 F
GS
[1 0 0 1 0 0] CT
-9.5 14 moveto 
1 -1 scale
(2.5) t 
GR
GR
GS
[0.75 0 0 0.75 250.05 284.50001] CT
0.149 GC
/Helvetica 13.333 F
GS
[1 0 0 1 0 0] CT
-4 14 moveto 
1 -1 scale
(3) t 
GR
GR
GS
[0.75 0 0 0.75 282.59999 284.50001] CT
0.149 GC
/Helvetica 13.333 F
GS
[1 0 0 1 0 0] CT
-9.5 14 moveto 
1 -1 scale
(3.5) t 
GR
GR
GS
[0.75 0 0 0.75 315.15001 284.50001] CT
0.149 GC
/Helvetica 13.333 F
GS
[1 0 0 1 0 0] CT
-4 14 moveto 
1 -1 scale
(4) t 
GR
GR
GS
[0.75 0 0 0.75 347.7 284.50001] CT
0.149 GC
/Helvetica 13.333 F
GS
[1 0 0 1 0 0] CT
-9.5 14 moveto 
1 -1 scale
(4.5) t 
GR
GR
GS
[0.75 0 0 0.75 380.25 284.50001] CT
0.149 GC
/Helvetica 13.333 F
GS
[1 0 0 1 0 0] CT
-4 14 moveto 
1 -1 scale
(5) t 
GR
GR
GS
[0.75 0 0 0.75 217.50016 298.24999] CT
0.149 GC
/Helvetica 14.667 F
GS
[1 0 0 1 0 0] CT
-15.5 15 moveto 
1 -1 scale
(Krok) t 
GR
GR
GS
[0.75 0 0 0.75 356.25 311.25] CT
0.149 GC
N
1.906 -0.375 M
1.906 -0.469 1.969 -0.563 QT
4.672 -3.25 L
1.969 -5.953 L
1.906 -6.016 1.906 -6.125 QT
1.906 -6.219 1.984 -6.305 QT
2.063 -6.391 2.172 -6.391 QT
2.266 -6.391 2.375 -6.297 QT
5.063 -3.609 L
7.734 -6.297 L
7.844 -6.391 7.922 -6.391 QT
8.031 -6.391 8.109 -6.313 QT
8.188 -6.234 8.188 -6.125 QT
8.188 -6.016 8.125 -5.953 QT
5.422 -3.25 L
8.125 -0.563 L
8.188 -0.469 8.188 -0.375 QT
8.188 -0.266 8.109 -0.188 QT
8.031 -0.109 7.922 -0.109 QT
7.828 -0.109 7.734 -0.203 QT
5.063 -2.891 L
2.375 -0.203 L
2.266 -0.109 2.172 -0.109 QT
2.063 -0.109 1.984 -0.195 QT
1.906 -0.281 1.906 -0.375 QT
cp
f
GR
GS
[0.75 0 0 0.75 364.5 311.25] CT
0.149 GC
/Helvetica 13.333 F
GS
[1 0 0 1 0 0] CT
0 0 moveto 
1 -1 scale
(10) t 
GR
GR
GS
[0.75 0 0 0.75 375.75 306.75] CT
0.149 GC
/Helvetica 10.667 F
GS
[1 0 0 1 0 0] CT
0 0 moveto 
1 -1 scale
(5) t 
GR
GR
GS
[0.75 0 0 0.75 0 0] CT
0.149 GC
2 setlinecap
1 LJ
0.667 LW
N
73 374 M
73 31 L
S
GR
GS
[0.75 0 0 0.75 0 0] CT
0.149 GC
2 setlinecap
1 LJ
0.667 LW
N
507 374 M
507 31 L
S
GR
GS
[0.75 0 0 0.75 0 0] CT
0.149 GC
2 setlinecap
1 LJ
0.667 LW
N
73 374 M
77.34 374 L
S
GR
GS
[0.75 0 0 0.75 0 0] CT
0.149 GC
2 setlinecap
1 LJ
0.667 LW
N
73 339.7 M
77.34 339.7 L
S
GR
GS
[0.75 0 0 0.75 0 0] CT
0.149 GC
2 setlinecap
1 LJ
0.667 LW
N
73 305.4 M
77.34 305.4 L
S
GR
GS
[0.75 0 0 0.75 0 0] CT
0.149 GC
2 setlinecap
1 LJ
0.667 LW
N
73 271.1 M
77.34 271.1 L
S
GR
GS
[0.75 0 0 0.75 0 0] CT
0.149 GC
2 setlinecap
1 LJ
0.667 LW
N
73 236.8 M
77.34 236.8 L
S
GR
GS
[0.75 0 0 0.75 0 0] CT
0.149 GC
2 setlinecap
1 LJ
0.667 LW
N
73 202.5 M
77.34 202.5 L
S
GR
GS
[0.75 0 0 0.75 0 0] CT
0.149 GC
2 setlinecap
1 LJ
0.667 LW
N
73 168.2 M
77.34 168.2 L
S
GR
GS
[0.75 0 0 0.75 0 0] CT
0.149 GC
2 setlinecap
1 LJ
0.667 LW
N
73 133.9 M
77.34 133.9 L
S
GR
GS
[0.75 0 0 0.75 0 0] CT
0.149 GC
2 setlinecap
1 LJ
0.667 LW
N
73 99.6 M
77.34 99.6 L
S
GR
GS
[0.75 0 0 0.75 0 0] CT
0.149 GC
2 setlinecap
1 LJ
0.667 LW
N
73 65.3 M
77.34 65.3 L
S
GR
GS
[0.75 0 0 0.75 0 0] CT
0.149 GC
2 setlinecap
1 LJ
0.667 LW
N
73 31 M
77.34 31 L
S
GR
GS
[0.75 0 0 0.75 0 0] CT
0.149 GC
2 setlinecap
1 LJ
0.667 LW
N
507 374 M
502.66 374 L
S
GR
GS
[0.75 0 0 0.75 0 0] CT
0.149 GC
2 setlinecap
1 LJ
0.667 LW
N
507 339.7 M
502.66 339.7 L
S
GR
GS
[0.75 0 0 0.75 0 0] CT
0.149 GC
2 setlinecap
1 LJ
0.667 LW
N
507 305.4 M
502.66 305.4 L
S
GR
GS
[0.75 0 0 0.75 0 0] CT
0.149 GC
2 setlinecap
1 LJ
0.667 LW
N
507 271.1 M
502.66 271.1 L
S
GR
GS
[0.75 0 0 0.75 0 0] CT
0.149 GC
2 setlinecap
1 LJ
0.667 LW
N
507 236.8 M
502.66 236.8 L
S
GR
GS
[0.75 0 0 0.75 0 0] CT
0.149 GC
2 setlinecap
1 LJ
0.667 LW
N
507 202.5 M
502.66 202.5 L
S
GR
GS
[0.75 0 0 0.75 0 0] CT
0.149 GC
2 setlinecap
1 LJ
0.667 LW
N
507 168.2 M
502.66 168.2 L
S
GR
GS
[0.75 0 0 0.75 0 0] CT
0.149 GC
2 setlinecap
1 LJ
0.667 LW
N
507 133.9 M
502.66 133.9 L
S
GR
GS
[0.75 0 0 0.75 0 0] CT
0.149 GC
2 setlinecap
1 LJ
0.667 LW
N
507 99.6 M
502.66 99.6 L
S
GR
GS
[0.75 0 0 0.75 0 0] CT
0.149 GC
2 setlinecap
1 LJ
0.667 LW
N
507 65.3 M
502.66 65.3 L
S
GR
GS
[0.75 0 0 0.75 0 0] CT
0.149 GC
2 setlinecap
1 LJ
0.667 LW
N
507 31 M
502.66 31 L
S
GR
GS
[0.75 0 0 0.75 50.75 280.5] CT
0.149 GC
/Helvetica 13.333 F
GS
[1 0 0 1 0 0] CT
-8 5.5 moveto 
1 -1 scale
(0) t 
GR
GR
GS
[0.75 0 0 0.75 50.75 254.77501] CT
0.149 GC
/Helvetica 13.333 F
GS
[1 0 0 1 0 0] CT
-8 5.5 moveto 
1 -1 scale
(5) t 
GR
GR
GS
[0.75 0 0 0.75 50.75 229.05] CT
0.149 GC
/Helvetica 13.333 F
GS
[1 0 0 1 0 0] CT
-15 5.5 moveto 
1 -1 scale
(10) t 
GR
GR
GS
[0.75 0 0 0.75 50.75 203.325] CT
0.149 GC
/Helvetica 13.333 F
GS
[1 0 0 1 0 0] CT
-15 5.5 moveto 
1 -1 scale
(15) t 
GR
GR
GS
[0.75 0 0 0.75 50.75 177.6] CT
0.149 GC
/Helvetica 13.333 F
GS
[1 0 0 1 0 0] CT
-15 5.5 moveto 
1 -1 scale
(20) t 
GR
GR
GS
[0.75 0 0 0.75 50.75 151.875] CT
0.149 GC
/Helvetica 13.333 F
GS
[1 0 0 1 0 0] CT
-15 5.5 moveto 
1 -1 scale
(25) t 
GR
GR
GS
[0.75 0 0 0.75 50.75 126.15] CT
0.149 GC
/Helvetica 13.333 F
GS
[1 0 0 1 0 0] CT
-15 5.5 moveto 
1 -1 scale
(30) t 
GR
GR
GS
[0.75 0 0 0.75 50.75 100.425] CT
0.149 GC
/Helvetica 13.333 F
GS
[1 0 0 1 0 0] CT
-15 5.5 moveto 
1 -1 scale
(35) t 
GR
GR
GS
[0.75 0 0 0.75 50.75 74.7] CT
0.149 GC
/Helvetica 13.333 F
GS
[1 0 0 1 0 0] CT
-15 5.5 moveto 
1 -1 scale
(40) t 
GR
GR
GS
[0.75 0 0 0.75 50.75 48.975] CT
0.149 GC
/Helvetica 13.333 F
GS
[1 0 0 1 0 0] CT
-15 5.5 moveto 
1 -1 scale
(45) t 
GR
GR
GS
[0.75 0 0 0.75 50.75 23.25] CT
0.149 GC
/Helvetica 13.333 F
GS
[1 0 0 1 0 0] CT
-15 5.5 moveto 
1 -1 scale
(50) t 
GR
GR
GS
[0 -0.75 0.75 0 36.5 151.87487] CT
0.149 GC
N
-36.688 -7.766 M
-35.266 -7.406 L
-35.703 -5.656 -36.867 -4.734 QT
-38.031 -3.813 -39.703 -3.813 QT
-41.438 -3.813 -42.531 -4.523 QT
-43.625 -5.234 -44.188 -6.57 QT
-44.75 -7.906 -44.75 -9.453 QT
-44.75 -11.125 -44.109 -12.375 QT
-43.469 -13.625 -42.289 -14.273 QT
-41.109 -14.922 -39.688 -14.922 QT
-38.078 -14.922 -36.977 -14.102 QT
-35.875 -13.281 -35.438 -11.797 QT
-36.844 -11.469 L
-37.219 -12.641 -37.93 -13.172 QT
-38.641 -13.703 -39.719 -13.703 QT
-40.953 -13.703 -41.781 -13.109 QT
-42.609 -12.516 -42.945 -11.516 QT
-43.281 -10.516 -43.281 -9.453 QT
-43.281 -8.094 -42.883 -7.07 QT
-42.484 -6.047 -41.648 -5.539 QT
-40.813 -5.031 -39.828 -5.031 QT
-38.625 -5.031 -37.797 -5.719 QT
-36.969 -6.406 -36.688 -7.766 QT
cp
-34.619 -4 M
-34.619 -5.063 L
-29.666 -10.75 L
-30.509 -10.703 -31.166 -10.703 QT
-34.322 -10.703 L
-34.322 -11.781 L
-27.978 -11.781 L
-27.978 -10.906 L
-32.181 -5.969 L
-32.994 -5.063 L
-32.103 -5.141 -31.338 -5.141 QT
-27.744 -5.141 L
-27.744 -4 L
-34.619 -4 L
cp
-21.525 -4.953 M
-22.259 -4.344 -22.931 -4.086 QT
-23.603 -3.828 -24.384 -3.828 QT
-25.666 -3.828 -26.353 -4.453 QT
-27.041 -5.078 -27.041 -6.047 QT
-27.041 -6.625 -26.783 -7.094 QT
-26.525 -7.563 -26.103 -7.852 QT
-25.681 -8.141 -25.15 -8.281 QT
-24.775 -8.391 -23.978 -8.484 QT
-22.384 -8.672 -21.634 -8.938 QT
-21.619 -9.203 -21.619 -9.281 QT
-21.619 -10.094 -21.994 -10.422 QT
-22.509 -10.859 -23.494 -10.859 QT
-24.431 -10.859 -24.877 -10.539 QT
-25.322 -10.219 -25.525 -9.391 QT
-26.822 -9.563 L
-26.65 -10.391 -26.244 -10.898 QT
-25.838 -11.406 -25.072 -11.68 QT
-24.306 -11.953 -23.306 -11.953 QT
-22.306 -11.953 -21.689 -11.719 QT
-21.072 -11.484 -20.775 -11.133 QT
-20.478 -10.781 -20.369 -10.234 QT
-20.306 -9.891 -20.306 -9.016 QT
-20.306 -7.266 L
-20.306 -5.422 -20.22 -4.938 QT
-20.134 -4.453 -19.884 -4 QT
-21.259 -4 L
-21.463 -4.406 -21.525 -4.953 QT
cp
-21.634 -7.906 M
-22.353 -7.609 -23.791 -7.406 QT
-24.603 -7.281 -24.939 -7.141 QT
-25.275 -7 -25.455 -6.719 QT
-25.634 -6.438 -25.634 -6.094 QT
-25.634 -5.563 -25.236 -5.211 QT
-24.838 -4.859 -24.072 -4.859 QT
-23.306 -4.859 -22.713 -5.195 QT
-22.119 -5.531 -21.838 -6.109 QT
-21.634 -6.547 -21.634 -7.422 QT
-21.634 -7.906 L
cp
-18.968 -6.328 M
-17.671 -6.531 L
-17.561 -5.75 -17.061 -5.328 QT
-16.561 -4.906 -15.655 -4.906 QT
-14.749 -4.906 -14.311 -5.273 QT
-13.874 -5.641 -13.874 -6.141 QT
-13.874 -6.594 -14.265 -6.844 QT
-14.53 -7.031 -15.608 -7.297 QT
-17.061 -7.656 -17.616 -7.93 QT
-18.171 -8.203 -18.46 -8.672 QT
-18.749 -9.141 -18.749 -9.719 QT
-18.749 -10.234 -18.515 -10.68 QT
-18.28 -11.125 -17.874 -11.406 QT
-17.561 -11.641 -17.03 -11.797 QT
-16.499 -11.953 -15.89 -11.953 QT
-14.983 -11.953 -14.288 -11.688 QT
-13.593 -11.422 -13.265 -10.977 QT
-12.936 -10.531 -12.811 -9.766 QT
-14.093 -9.594 L
-14.186 -10.203 -14.608 -10.539 QT
-15.03 -10.875 -15.796 -10.875 QT
-16.702 -10.875 -17.093 -10.57 QT
-17.483 -10.266 -17.483 -9.859 QT
-17.483 -9.609 -17.327 -9.406 QT
-17.155 -9.188 -16.811 -9.047 QT
-16.624 -8.984 -15.655 -8.719 QT
-14.249 -8.344 -13.694 -8.109 QT
-13.14 -7.875 -12.827 -7.414 QT
-12.515 -6.953 -12.515 -6.281 QT
-12.515 -5.625 -12.897 -5.047 QT
-13.28 -4.469 -14.007 -4.148 QT
-14.733 -3.828 -15.655 -3.828 QT
-17.171 -3.828 -17.96 -4.453 QT
-18.749 -5.078 -18.968 -6.328 QT
cp
-7.74 -4 M
-7.74 -5.063 L
-2.786 -10.75 L
-3.63 -10.703 -4.286 -10.703 QT
-7.443 -10.703 L
-7.443 -11.781 L
-1.099 -11.781 L
-1.099 -10.906 L
-5.302 -5.969 L
-6.115 -5.063 L
-5.224 -5.141 -4.458 -5.141 QT
-0.865 -5.141 L
-0.865 -4 L
-7.74 -4 L
cp
-5.036 -13 M
-5.036 -14.641 L
-3.396 -14.641 L
-3.396 -13 L
-5.036 -13 L
cp
0.229 -1 M
0.073 -2.234 L
0.51 -2.125 0.823 -2.125 QT
1.276 -2.125 1.534 -2.273 QT
1.792 -2.422 1.964 -2.688 QT
2.089 -2.875 2.37 -3.656 QT
2.401 -3.766 2.479 -3.984 QT
-0.474 -11.781 L
0.948 -11.781 L
2.573 -7.281 L
2.885 -6.422 3.135 -5.469 QT
3.37 -6.375 3.682 -7.25 QT
5.339 -11.781 L
6.667 -11.781 L
3.698 -3.875 L
3.229 -2.594 2.964 -2.109 QT
2.604 -1.453 2.151 -1.148 QT
1.698 -0.844 1.073 -0.844 QT
0.698 -0.844 0.229 -1 QT
cp
12.682 -6.844 M
13.979 -6.688 L
13.776 -5.344 12.893 -4.586 QT
12.01 -3.828 10.745 -3.828 QT
9.151 -3.828 8.182 -4.867 QT
7.214 -5.906 7.214 -7.859 QT
7.214 -9.125 7.628 -10.07 QT
8.042 -11.016 8.893 -11.484 QT
9.745 -11.953 10.745 -11.953 QT
12.01 -11.953 12.823 -11.313 QT
13.635 -10.672 13.854 -9.5 QT
12.573 -9.297 L
12.385 -10.078 11.925 -10.477 QT
11.464 -10.875 10.807 -10.875 QT
9.807 -10.875 9.182 -10.156 QT
8.557 -9.438 8.557 -7.891 QT
8.557 -6.328 9.159 -5.617 QT
9.76 -4.906 10.729 -4.906 QT
11.51 -4.906 12.026 -5.383 QT
12.542 -5.859 12.682 -6.844 QT
cp
14.948 -13.219 M
14.948 -14.734 L
16.26 -14.734 L
16.26 -13.219 L
14.948 -13.219 L
cp
14.948 -4 M
14.948 -11.781 L
16.26 -11.781 L
16.26 -4 L
14.948 -4 L
cp
23.267 -4.953 M
22.532 -4.344 21.86 -4.086 QT
21.189 -3.828 20.407 -3.828 QT
19.126 -3.828 18.439 -4.453 QT
17.751 -5.078 17.751 -6.047 QT
17.751 -6.625 18.009 -7.094 QT
18.267 -7.563 18.689 -7.852 QT
19.11 -8.141 19.642 -8.281 QT
20.017 -8.391 20.814 -8.484 QT
22.407 -8.672 23.157 -8.938 QT
23.173 -9.203 23.173 -9.281 QT
23.173 -10.094 22.798 -10.422 QT
22.282 -10.859 21.298 -10.859 QT
20.36 -10.859 19.915 -10.539 QT
19.47 -10.219 19.267 -9.391 QT
17.97 -9.563 L
18.142 -10.391 18.548 -10.898 QT
18.954 -11.406 19.72 -11.68 QT
20.485 -11.953 21.485 -11.953 QT
22.485 -11.953 23.103 -11.719 QT
23.72 -11.484 24.017 -11.133 QT
24.314 -10.781 24.423 -10.234 QT
24.485 -9.891 24.485 -9.016 QT
24.485 -7.266 L
24.485 -5.422 24.571 -4.938 QT
24.657 -4.453 24.907 -4 QT
23.532 -4 L
23.329 -4.406 23.267 -4.953 QT
cp
23.157 -7.906 M
22.439 -7.609 21.001 -7.406 QT
20.189 -7.281 19.853 -7.141 QT
19.517 -7 19.337 -6.719 QT
19.157 -6.438 19.157 -6.094 QT
19.157 -5.563 19.556 -5.211 QT
19.954 -4.859 20.72 -4.859 QT
21.485 -4.859 22.079 -5.195 QT
22.673 -5.531 22.954 -6.109 QT
23.157 -6.547 23.157 -7.422 QT
23.157 -7.906 L
cp
30.443 -1.016 M
30.443 -14.734 L
33.349 -14.734 L
33.349 -13.641 L
31.771 -13.641 L
31.771 -2.109 L
33.349 -2.109 L
33.349 -1.016 L
30.443 -1.016 L
cp
33.968 -6.328 M
35.265 -6.531 L
35.374 -5.75 35.874 -5.328 QT
36.374 -4.906 37.28 -4.906 QT
38.187 -4.906 38.624 -5.273 QT
39.062 -5.641 39.062 -6.141 QT
39.062 -6.594 38.671 -6.844 QT
38.405 -7.031 37.327 -7.297 QT
35.874 -7.656 35.32 -7.93 QT
34.765 -8.203 34.476 -8.672 QT
34.187 -9.141 34.187 -9.719 QT
34.187 -10.234 34.421 -10.68 QT
34.655 -11.125 35.062 -11.406 QT
35.374 -11.641 35.905 -11.797 QT
36.437 -11.953 37.046 -11.953 QT
37.952 -11.953 38.648 -11.688 QT
39.343 -11.422 39.671 -10.977 QT
39.999 -10.531 40.124 -9.766 QT
38.843 -9.594 L
38.749 -10.203 38.327 -10.539 QT
37.905 -10.875 37.14 -10.875 QT
36.234 -10.875 35.843 -10.57 QT
35.452 -10.266 35.452 -9.859 QT
35.452 -9.609 35.609 -9.406 QT
35.78 -9.188 36.124 -9.047 QT
36.312 -8.984 37.28 -8.719 QT
38.687 -8.344 39.241 -8.109 QT
39.796 -7.875 40.109 -7.414 QT
40.421 -6.953 40.421 -6.281 QT
40.421 -5.625 40.038 -5.047 QT
39.655 -4.469 38.929 -4.148 QT
38.202 -3.828 37.28 -3.828 QT
35.765 -3.828 34.976 -4.453 QT
34.187 -5.078 33.968 -6.328 QT
cp
44.015 -1.016 M
41.109 -1.016 L
41.109 -2.109 L
42.702 -2.109 L
42.702 -13.641 L
41.109 -13.641 L
41.109 -14.734 L
44.015 -14.734 L
44.015 -1.016 L
cp
f
GR
GS
[0.75 0 0 0.75 0 0] CT
1 1 0.8 RC
1 LJ
0.667 LW
N
73.868 340.023 M
74.737 339.816 L
75.604 339.645 L
76.473 339.829 L
77.34 339.563 L
78.208 339.293 L
79.076 339.723 L
79.945 339.521 L
80.812 339.619 L
81.681 339.726 L
82.548 339.542 L
83.417 339.341 L
84.285 339.268 L
85.152 340.485 L
86.02 339.329 L
86.888 338.421 L
87.757 339.113 L
88.624 338.548 L
89.493 338.085 L
90.361 336.077 L
91.228 331.919 L
92.098 329.828 L
92.964 329.943 L
93.832 335.641 L
94.7 331.194 L
95.569 111.783 L
96.436 172.664 L
97.306 192.333 L
98.173 158.369 L
99.04 98.411 L
99.909 188.907 L
100.777 155.669 L
101.645 147.792 L
102.512 106.003 L
103.38 106.102 L
104.248 217.381 L
105.116 152.639 L
105.984 135.238 L
106.852 169.125 L
107.72 165.396 L
108.588 175.571 L
109.456 114.395 L
110.324 165.47 L
111.193 174.789 L
112.06 143.07 L
112.929 170.109 L
113.796 103.327 L
114.664 95.83 L
115.533 42.609 L
116.401 100.398 L
117.268 100.659 L
118.137 113.105 L
119.004 121.034 L
119.872 149.17 L
120.74 165.269 L
121.609 132.034 L
122.476 140.182 L
123.344 146.465 L
124.213 108.39 L
125.08 128.921 L
125.949 114.12 L
126.816 162.644 L
127.685 135.211 L
128.552 196.738 L
129.421 199.251 L
130.288 107.144 L
131.156 144.896 L
132.024 130.556 L
132.892 122.394 L
133.76 121.371 L
134.628 176.643 L
135.497 123.73 L
136.364 183.667 L
137.233 156.264 L
138.101 136.669 L
138.969 153.557 L
139.836 147.579 L
140.705 149.456 L
141.572 139.79 L
142.441 135.255 L
143.308 174.302 L
144.176 126.48 L
145.044 187.803 L
145.912 196.8 L
146.781 167.643 L
147.648 171.095 L
148.518 153.94 L
149.384 126.562 L
150.252 161.97 L
151.12 208.79 L
151.989 184.491 L
152.856 155.825 L
153.725 172.229 L
154.593 137.023 L
155.46 192.787 L
156.328 151.648 L
157.196 128.343 L
158.065 199.276 L
158.932 165.237 L
159.8 149.508 L
160.668 206.607 L
161.537 181.685 L
162.405 185.595 L
163.273 198.523 L
164.141 167.841 L
165.009 191.972 L
165.877 212.915 L
166.744 220.9 L
167.613 156.716 L
168.48 190.032 L
169.348 161.797 L
170.217 176.048 L
171.084 220.372 L
171.953 208.348 L
172.82 171.33 L
173.69 158.586 L
174.557 218.713 L
175.424 162.402 L
176.292 217.444 L
177.16 181.935 L
178.028 192.217 L
178.896 240.403 L
179.764 143.717 L
180.632 194.838 L
181.501 166.953 L
182.37 165.388 L
183.236 196.467 L
184.106 219.345 L
184.973 187.682 L
185.841 218.49 L
186.708 170.733 L
187.576 221.779 L
188.444 199.14 L
189.312 207.914 L
190.18 181.817 L
191.049 173.913 L
191.916 196.145 L
192.784 249.508 L
193.653 221.755 L
194.521 204.352 L
195.389 209.873 L
196.257 203.478 L
197.125 199.357 L
197.994 209.273 L
198.86 205.859 L
199.728 183.258 L
200.596 159.207 L
201.464 229.963 L
202.332 214.68 L
203.2 225.8 L
204.069 222.608 L
204.937 154.182 L
205.804 195.711 L
206.673 237.134 L
207.54 259.33 L
208.409 191.391 L
209.276 229.886 L
210.144 203.027 L
211.012 229.328 L
211.882 214.721 L
212.749 178.108 L
213.617 160.234 L
214.485 234.678 L
215.354 211.291 L
216.22 201.408 L
217.089 208.176 L
217.957 220.045 L
218.825 196.926 L
219.692 210.14 L
220.56 210.315 L
221.428 240.239 L
222.297 229.419 L
223.165 248.354 L
224.032 222.379 L
224.9 207.503 L
225.768 242.154 L
226.636 228.469 L
227.505 204.293 L
228.373 222.714 L
229.241 189.385 L
230.109 230.615 L
230.977 253.29 L
231.845 209.343 L
232.713 205.438 L
233.582 221.33 L
234.448 235.986 L
235.317 206.707 L
236.184 218.33 L
237.053 222.371 L
237.921 189.894 L
238.789 201.794 L
239.656 251.356 L
240.526 229.666 L
241.393 236.461 L
242.26 197.216 L
243.128 242.121 L
243.996 216.562 L
244.865 217.718 L
245.732 197.751 L
246.6 216.129 L
247.468 235.156 L
248.336 265.803 L
249.205 240.771 L
250.073 211.071 L
250.941 241.083 L
251.808 253.992 L
252.676 221.249 L
253.544 241.028 L
254.413 190.549 L
255.282 204.323 L
256.148 222.192 L
257.017 233.199 L
257.884 255.071 L
258.752 254.915 L
259.62 229.452 L
260.489 221.74 L
261.356 202.984 L
262.224 213.498 L
263.092 208.656 L
263.961 229.525 L
264.829 205.997 L
265.697 222.714 L
266.564 230.065 L
267.432 232.815 L
268.3 230.682 L
269.168 230.529 L
270.037 244.558 L
270.904 203.633 L
271.772 209.814 L
272.64 241.136 L
273.51 250.312 L
274.376 227.33 L
275.245 230.834 L
276.112 255.361 L
276.981 220.228 L
277.848 251.609 L
278.717 234.016 L
279.584 233.25 L
280.452 251.902 L
281.322 241.094 L
282.189 246.066 L
283.057 245.016 L
283.925 249.781 L
284.792 224.722 L
285.66 217.464 L
286.528 211.674 L
287.397 243.178 L
288.264 245.671 L
289.132 241.078 L
290.001 283.309 L
290.869 245.622 L
291.736 257.085 L
292.605 232.097 L
293.472 237.639 L
294.341 228.351 L
295.208 233.925 L
296.076 215.954 L
296.944 226.213 L
297.812 233.958 L
298.682 252.016 L
299.548 249.932 L
300.417 261.652 L
301.284 247.751 L
302.153 222.033 L
303.02 220.752 L
303.888 242.489 L
304.756 257.816 L
305.624 263.76 L
306.492 254.567 L
307.36 246.13 L
308.228 235.415 L
309.096 229.853 L
309.965 244.186 L
310.832 244.442 L
311.701 252.417 L
312.57 248.306 L
313.436 231.945 L
314.304 261.932 L
315.174 234.187 L
316.041 234.686 L
316.909 223.981 L
317.776 219.831 L
318.644 265.769 L
319.512 270.922 L
320.38 249.653 L
321.248 249.915 L
322.116 221.65 L
322.986 249.162 L
323.853 228.237 L
324.721 240.153 L
325.59 204.389 L
326.457 255.086 L
327.324 244.61 L
328.194 238.923 L
329.06 255.614 L
329.929 252.4 L
330.796 233.188 L
331.665 239.32 L
332.533 255.987 L
333.401 256.942 L
334.268 265.296 L
335.136 237.425 L
336.005 245.08 L
336.873 261.034 L
337.741 276.347 L
338.608 245.057 L
339.476 233.248 L
340.344 269.479 L
341.213 249.519 L
342.08 257.218 L
342.948 224.584 L
343.816 273.249 L
344.684 265.694 L
345.552 247.613 L
346.421 234.14 L
347.288 271.025 L
348.158 256.547 L
349.024 226.339 L
349.892 227.964 L
350.76 234.133 L
351.628 244.035 L
352.497 239.037 L
353.365 239.447 L
354.232 262.696 L
355.101 282.223 L
355.969 261.876 L
356.836 244.406 L
357.705 241.585 L
358.572 244.475 L
359.44 271.308 L
360.31 242.926 L
361.176 248.368 L
362.045 247.05 L
362.912 227.939 L
363.782 250.278 L
364.648 258.586 L
365.516 260.168 L
366.384 243.412 L
367.252 261.324 L
368.12 241.323 L
368.99 226.353 L
369.856 262.46 L
370.725 221.535 L
371.592 237.753 L
372.46 250.197 L
373.33 259.63 L
374.196 271.564 L
375.065 272.597 L
375.932 254.974 L
376.8 264.074 L
377.669 251.929 L
378.537 246.188 L
379.405 278.332 L
380.274 253.813 L
381.14 254.971 L
382.008 269.197 L
382.876 249.968 L
383.745 240.402 L
384.612 255.063 L
385.48 280.135 L
386.349 261.157 L
387.217 284.845 L
388.084 270.853 L
388.953 230.257 L
389.82 261.388 L
390.688 253.687 L
391.557 257.448 L
392.424 265.25 L
393.292 246.328 L
394.16 256.464 L
395.028 248.079 L
395.897 245.986 L
396.765 248.383 L
397.632 243.757 L
398.501 245.072 L
399.369 263.542 L
400.237 263.417 L
401.105 239.182 L
401.972 251.577 L
402.841 275.879 L
403.708 273.596 L
404.576 285.487 L
405.444 268.892 L
406.312 281.544 L
407.18 270.324 L
408.048 257.885 L
408.917 273.915 L
409.784 242.703 L
410.652 259.376 L
411.52 250.989 L
412.388 244.358 L
413.257 200.59 L
414.125 278.629 L
414.992 255.217 L
415.86 280.399 L
416.729 250.772 L
417.596 270.787 L
418.464 243.43 L
419.332 276.008 L
420.201 270.848 L
421.068 270.002 L
421.936 263.475 L
422.804 243.673 L
423.672 243.503 L
424.54 265.369 L
425.408 273.269 L
426.277 286.582 L
427.144 264.277 L
428.014 248.844 L
428.88 286.304 L
429.749 250.594 L
430.616 246.578 L
431.485 240.493 L
432.353 255.979 L
433.22 272.632 L
434.088 276.728 L
434.956 283.322 L
435.826 256.348 L
436.692 277.452 L
437.56 261.156 L
438.428 284.715 L
439.297 246.32 L
440.165 241.574 L
441.032 238.652 L
441.9 265.333 L
442.769 234.747 L
443.637 250.299 L
444.505 272.83 L
445.372 253.615 L
446.241 251.928 L
447.108 278.23 L
447.978 260.112 L
448.844 278.606 L
449.712 266.206 L
450.581 258.792 L
451.448 261.464 L
452.317 270.298 L
453.186 249.64 L
454.052 251.506 L
454.92 272.362 L
455.788 246.619 L
456.657 258.942 L
457.524 260.007 L
458.394 247.839 L
459.261 253.282 L
460.128 255.165 L
460.996 238.616 L
461.864 279.832 L
462.732 266.03 L
463.6 277.514 L
464.468 261.746 L
465.336 262.041 L
466.204 242.776 L
467.072 263.33 L
467.94 263.473 L
468.808 264.211 L
469.676 244.943 L
470.544 271.75 L
471.412 262.755 L
472.281 228.766 L
473.148 270.289 L
474.018 243.495 L
474.884 274.035 L
475.752 266.021 L
476.62 260.065 L
477.489 276.191 L
478.356 264.153 L
479.224 226.73 L
480.092 250.742 L
480.96 241.203 L
481.828 286.329 L
482.697 277.12 L
483.565 260.504 L
484.432 278.748 L
485.3 243.216 L
486.169 280.29 L
487.037 253.565 L
487.905 240.049 L
488.773 265.309 L
489.64 229.745 L
490.509 262.252 L
491.376 294.325 L
492.246 268.744 L
493.112 263.515 L
493.98 262.946 L
494.848 267.545 L
495.717 240.405 L
496.585 246.743 L
497.453 264.826 L
498.321 264.39 L
499.189 267.772 L
500.057 276.134 L
500.925 281.398 L
501.792 247.287 L
502.661 253.925 L
503.528 276.288 L
504.396 261.817 L
505.264 266.229 L
506.132 266.809 L
507 269.457 L
S
GR
GS
[0.75 0 0 0.75 0 0] CT
1 0.8 0.8 RC
1 LJ
0.667 LW
N
73.868 346.949 M
74.737 347.252 L
75.604 345.95 L
76.473 344.939 L
77.34 344.433 L
78.208 344.323 L
79.076 342.93 L
79.945 344.696 L
80.812 343.19 L
81.681 343.937 L
82.548 342.301 L
83.417 342.162 L
84.285 342.397 L
85.152 341.821 L
86.02 342.993 L
86.888 341.624 L
87.757 342.104 L
88.624 342.291 L
89.493 342.476 L
90.361 341.165 L
91.228 341.456 L
92.098 341.925 L
92.964 342.456 L
93.832 340.729 L
94.7 340.993 L
95.569 342.034 L
96.436 341.36 L
97.306 340.418 L
98.173 341.337 L
99.04 341.413 L
99.909 341.25 L
100.777 340.6 L
101.645 340.772 L
102.512 340.526 L
103.38 340.559 L
104.248 340.75 L
105.116 340.56 L
105.984 339.972 L
106.852 340.261 L
107.72 340.275 L
108.588 340.918 L
109.456 340.52 L
110.324 339.933 L
111.193 337.964 L
112.06 339.188 L
112.929 339.732 L
113.796 340.194 L
114.664 340.053 L
115.533 339.81 L
116.401 340.355 L
117.268 339.42 L
118.137 340.374 L
119.004 340.767 L
119.872 339.896 L
120.74 340.331 L
121.609 340.366 L
122.476 340.198 L
123.344 340.363 L
124.213 339.841 L
125.08 339.839 L
125.949 340.3 L
126.816 340.346 L
127.685 339.992 L
128.552 339.594 L
129.421 338.419 L
130.288 339.736 L
131.156 339.989 L
132.024 339.763 L
132.892 339.238 L
133.76 339.7 L
134.628 338.94 L
135.497 338.642 L
136.364 338.903 L
137.233 338.927 L
138.101 339.657 L
138.969 337.59 L
139.836 337.446 L
140.705 336.615 L
141.572 338.871 L
142.441 336.482 L
143.308 339.506 L
144.176 334.653 L
145.044 332.55 L
145.912 324.82 L
146.781 332.552 L
147.648 326.383 L
148.518 334.209 L
149.384 335.252 L
150.252 338.334 L
151.12 337.233 L
151.989 337.387 L
152.856 333.607 L
153.725 335.236 L
154.593 338.115 L
155.46 330.861 L
156.328 331.398 L
157.196 331.719 L
158.065 331.223 L
158.932 329.259 L
159.8 329.494 L
160.668 324.425 L
161.537 327.565 L
162.405 308.684 L
163.273 319.535 L
164.141 332.177 L
165.009 322.981 L
165.877 333.663 L
166.744 314.373 L
167.613 320.121 L
168.48 326.266 L
169.348 329.103 L
170.217 327.697 L
171.084 330.725 L
171.953 320.886 L
172.82 320.792 L
173.69 338.454 L
174.557 322.731 L
175.424 307.059 L
176.292 299.407 L
177.16 294.447 L
178.028 317.199 L
178.896 319.364 L
179.764 318.533 L
180.632 326.482 L
181.501 331.433 L
182.37 320.151 L
183.236 325.059 L
184.106 313.831 L
184.973 299.837 L
185.841 309.309 L
186.708 308.351 L
187.576 299.799 L
188.444 323.748 L
189.312 320.385 L
190.18 308.835 L
191.049 301.876 L
191.916 302.799 L
192.784 312.479 L
193.653 305.325 L
194.521 315.751 L
195.389 325.137 L
196.257 306.888 L
197.125 314.792 L
197.994 319.589 L
198.86 323.791 L
199.728 298.864 L
200.596 304.828 L
201.464 321.845 L
202.332 308.832 L
203.2 304.763 L
204.069 315.278 L
204.937 304.302 L
205.804 292.956 L
206.673 295.362 L
207.54 262.226 L
208.409 299.568 L
209.276 299.736 L
210.144 314.741 L
211.012 328.149 L
211.882 327.885 L
212.749 316.394 L
213.617 284.679 L
214.485 281.344 L
215.354 285.81 L
216.22 298.526 L
217.089 302.661 L
217.957 296.367 L
218.825 312.926 L
219.692 325.748 L
220.56 318.022 L
221.428 323.446 L
222.297 307.204 L
223.165 266.435 L
224.032 256.364 L
224.9 298.727 L
225.768 283.579 L
226.636 297.758 L
227.505 285.336 L
228.373 294.561 L
229.241 302.537 L
230.109 302.335 L
230.977 265.512 L
231.845 305.987 L
232.713 288.015 L
233.582 285.715 L
234.448 283.864 L
235.317 290.739 L
236.184 301.33 L
237.053 290.183 L
237.921 285.458 L
238.789 298.747 L
239.656 279.642 L
240.526 267.38 L
241.393 276.497 L
242.26 275.165 L
243.128 292.03 L
243.996 281.064 L
244.865 288.339 L
245.732 268.276 L
246.6 290.565 L
247.468 272.018 L
248.336 303.787 L
249.205 225.244 L
250.073 230.998 L
250.941 238.55 L
251.808 211.202 L
252.676 257.36 L
253.544 280.477 L
254.413 321.521 L
255.282 293.892 L
256.148 304.052 L
257.017 292.821 L
257.884 290.37 L
258.752 285.587 L
259.62 262.52 L
260.489 285.801 L
261.356 303.082 L
262.224 288.867 L
263.092 295.425 L
263.961 287.395 L
264.829 259.057 L
265.697 245.604 L
266.564 245.811 L
267.432 253.521 L
268.3 277.363 L
269.168 276.32 L
270.037 254.777 L
270.904 258.672 L
271.772 257.545 L
272.64 246.025 L
273.51 243.273 L
274.376 225.165 L
275.245 195.83 L
276.112 219.976 L
276.981 261.254 L
277.848 255.626 L
278.717 250.127 L
279.584 214.565 L
280.452 241.317 L
281.322 243.048 L
282.189 244.626 L
283.057 251.18 L
283.925 284.192 L
284.792 261.349 L
285.66 288.433 L
286.528 236.009 L
287.397 226.197 L
288.264 254.346 L
289.132 277.603 L
290.001 285.625 L
290.869 233.906 L
291.736 246.484 L
292.605 212.204 L
293.472 197.441 L
294.341 223.968 L
295.208 256.619 L
296.076 233.183 L
296.944 245.396 L
297.812 270.06 L
298.682 241.9 L
299.548 202.419 L
300.417 232.818 L
301.284 228.631 L
302.153 237.052 L
303.02 221.457 L
303.888 253.612 L
304.756 250.829 L
305.624 246.976 L
306.492 268.175 L
307.36 241.357 L
308.228 234.777 L
309.096 242.428 L
309.965 252.811 L
310.832 277.197 L
311.701 280.718 L
312.57 248.489 L
313.436 214.606 L
314.304 222.723 L
315.174 267.654 L
316.041 279.052 L
316.909 208.451 L
317.776 217.681 L
318.644 261.568 L
319.512 267.611 L
320.38 268.743 L
321.248 249.336 L
322.116 280.456 L
322.986 244.14 L
323.853 230.535 L
324.721 265.829 L
325.59 240.268 L
326.457 264.24 L
327.324 276.314 L
328.194 264.012 L
329.06 244.25 L
329.929 237.872 L
330.796 236.37 L
331.665 218.148 L
332.533 264.132 L
333.401 249.197 L
334.268 239.686 L
335.136 178.008 L
336.005 262.333 L
336.873 235.136 L
337.741 262.246 L
338.608 259.335 L
339.476 234.428 L
340.344 198.572 L
341.213 240.286 L
342.08 192.838 L
342.948 224.127 L
343.816 194.965 L
344.684 238.979 L
345.552 268.05 L
346.421 280.213 L
347.288 278.328 L
348.158 268.88 L
349.024 218.471 L
349.892 237.886 L
350.76 224.139 L
351.628 245.811 L
352.497 279.39 L
353.365 268.405 L
354.232 239.22 L
355.101 255.19 L
355.969 258.008 L
356.836 254.024 L
357.705 222.735 L
358.572 256.897 L
359.44 241.54 L
360.31 208.713 L
361.176 218.653 L
362.045 258.217 L
362.912 220.097 L
363.782 238.417 L
364.648 257.474 L
365.516 226.899 L
366.384 253.727 L
367.252 193.737 L
368.12 215.381 L
368.99 254.588 L
369.856 238.01 L
370.725 236.347 L
371.592 245.607 L
372.46 251.228 L
373.33 257.896 L
374.196 191.642 L
375.065 238.623 L
375.932 247.867 L
376.8 204.521 L
377.669 235.683 L
378.537 240.075 L
379.405 248.955 L
380.274 242.803 L
381.14 243.899 L
382.008 261.792 L
382.876 246.296 L
383.745 248.497 L
384.612 242.455 L
385.48 225.293 L
386.349 262.073 L
387.217 261.337 L
388.084 259.339 L
388.953 243.979 L
389.82 199.803 L
390.688 245.377 L
391.557 224.649 L
392.424 246.776 L
393.292 260.566 L
394.16 263.551 L
395.028 240.622 L
395.897 248.564 L
396.765 243 L
397.632 264.795 L
398.501 235.505 L
399.369 235.766 L
400.237 208.016 L
401.105 236.062 L
401.972 240.244 L
402.841 243.66 L
403.708 249.49 L
404.576 251.731 L
405.444 220.401 L
406.312 264.851 L
407.18 257.195 L
408.048 252.13 L
408.917 261.851 L
409.784 195.605 L
410.652 261.202 L
411.52 235.48 L
412.388 238.665 L
413.257 250.299 L
414.125 212.991 L
414.992 216.118 L
415.86 267.328 L
416.729 258.203 L
417.596 264.933 L
418.464 247.656 L
419.332 251.867 L
420.201 227.001 L
421.068 208.337 L
421.936 228.028 L
422.804 240.351 L
423.672 261.234 L
424.54 294.195 L
425.408 247.644 L
426.277 261.182 L
427.144 272.517 L
428.014 239.664 L
428.88 221.057 L
429.749 194.276 L
430.616 199.344 L
431.485 232.085 L
432.353 223.718 L
433.22 229.923 L
434.088 243.414 L
434.956 244.194 L
435.826 238.558 L
436.692 269.929 L
437.56 249.564 L
438.428 254.499 L
439.297 216.166 L
440.165 210.931 L
441.032 202.918 L
441.9 257.689 L
442.769 213.234 L
443.637 225.378 L
444.505 249.887 L
445.372 236.138 L
446.241 202.634 L
447.108 259.511 L
447.978 239.205 L
448.844 247.006 L
449.712 256.595 L
450.581 254.538 L
451.448 238.42 L
452.317 230.769 L
453.186 228.904 L
454.052 226.908 L
454.92 227.964 L
455.788 232.706 L
456.657 255.773 L
457.524 246.009 L
458.394 253.524 L
459.261 209.598 L
460.128 270.295 L
460.996 236.355 L
461.864 233.119 L
462.732 262.456 L
463.6 241.119 L
464.468 234.613 L
465.336 228.857 L
466.204 215.724 L
467.072 258.941 L
467.94 244.785 L
468.808 232.141 L
469.676 250.296 L
470.544 258.504 L
471.412 275.198 L
472.281 243.627 L
473.148 252.821 L
474.018 233.061 L
474.884 278.945 L
475.752 254.641 L
476.62 245.102 L
477.489 232.802 L
478.356 243.167 L
479.224 247.591 L
480.092 183.818 L
480.96 198.315 L
481.828 258.834 L
482.697 253.673 L
483.565 249.119 L
484.432 239.308 L
485.3 244.06 L
486.169 264.269 L
487.037 234.772 L
487.905 238.158 L
488.773 217.128 L
489.64 240.544 L
490.509 259.815 L
491.376 255.728 L
492.246 244.988 L
493.112 244.225 L
493.98 212.038 L
494.848 261.826 L
495.717 244.241 L
496.585 222.43 L
497.453 258.237 L
498.321 232.72 L
499.189 244.612 L
500.057 258.046 L
500.925 252.01 L
501.792 256.07 L
502.661 229.306 L
503.528 245.404 L
504.396 217.414 L
505.264 247.909 L
506.132 253.352 L
507 223.128 L
S
GR
GS
[0.75 0 0 0.75 0 0] CT
1 1 0 RC
1 LJ
0.667 LW
N
73.868 340.023 M
74.737 339.981 L
75.604 339.914 L
76.473 339.897 L
77.34 339.83 L
78.208 339.723 L
79.076 339.723 L
79.945 339.682 L
80.812 339.67 L
81.681 339.681 L
82.548 339.653 L
83.417 339.591 L
84.285 339.526 L
85.152 339.718 L
86.02 339.64 L
86.888 339.396 L
87.757 339.34 L
88.624 339.181 L
89.493 338.962 L
90.361 338.385 L
91.228 337.092 L
92.098 335.639 L
92.964 334.5 L
93.832 334.728 L
94.7 334.021 L
95.569 289.574 L
96.436 266.192 L
97.306 251.42 L
98.173 232.81 L
99.04 205.93 L
99.909 202.526 L
100.777 193.154 L
101.645 184.082 L
102.512 168.466 L
103.38 155.993 L
104.248 168.271 L
105.116 165.144 L
105.984 159.163 L
106.852 161.155 L
107.72 162.003 L
108.588 164.717 L
109.456 154.652 L
110.324 156.816 L
111.193 160.411 L
112.06 156.943 L
112.929 159.576 L
113.796 148.326 L
114.664 137.827 L
115.533 118.783 L
116.401 115.106 L
117.268 112.217 L
118.137 112.395 L
119.004 114.122 L
119.872 121.132 L
120.74 129.959 L
121.609 130.374 L
122.476 132.336 L
123.344 135.162 L
124.213 129.807 L
125.08 129.63 L
125.949 126.528 L
126.816 133.751 L
127.685 134.043 L
128.552 146.582 L
129.421 157.116 L
130.288 147.121 L
131.156 146.676 L
132.024 143.452 L
132.892 139.241 L
133.76 135.667 L
134.628 143.862 L
135.497 139.835 L
136.364 148.602 L
137.233 150.134 L
138.101 147.441 L
138.969 148.664 L
139.836 148.447 L
140.705 148.649 L
141.572 146.877 L
142.441 144.553 L
143.308 150.503 L
144.176 145.698 L
145.044 154.119 L
145.912 162.655 L
146.781 163.653 L
147.648 165.141 L
148.518 162.901 L
149.384 155.633 L
150.252 156.901 L
151.12 167.278 L
151.989 170.721 L
152.856 167.742 L
153.725 168.639 L
154.593 162.316 L
155.46 168.41 L
156.328 165.058 L
157.196 157.715 L
158.065 166.027 L
158.932 165.869 L
159.8 162.597 L
160.668 171.399 L
161.537 173.456 L
162.405 175.884 L
163.273 180.412 L
164.141 177.898 L
165.009 180.713 L
165.877 187.153 L
166.744 193.902 L
167.613 186.465 L
168.48 187.179 L
169.348 182.102 L
170.217 180.891 L
171.084 188.788 L
171.953 192.7 L
172.82 188.426 L
173.69 182.458 L
174.557 189.709 L
175.424 184.247 L
176.292 190.887 L
177.16 189.096 L
178.028 189.72 L
178.896 199.857 L
179.764 188.629 L
180.632 189.871 L
181.501 185.287 L
182.37 181.307 L
183.236 184.339 L
184.106 191.341 L
184.973 190.609 L
185.841 196.185 L
186.708 191.095 L
187.576 197.231 L
188.444 197.613 L
189.312 199.673 L
190.18 196.102 L
191.049 191.664 L
191.916 192.561 L
192.784 203.95 L
193.653 207.511 L
194.521 206.879 L
195.389 207.478 L
196.257 206.678 L
197.125 205.214 L
197.994 206.026 L
198.86 205.992 L
199.728 201.446 L
200.596 192.998 L
201.464 200.391 L
202.332 203.249 L
203.2 207.759 L
204.069 210.729 L
204.937 199.419 L
205.804 198.678 L
206.673 206.369 L
207.54 216.961 L
208.409 211.847 L
209.276 215.455 L
210.144 212.969 L
211.012 216.241 L
211.882 215.937 L
212.749 208.371 L
213.617 198.744 L
214.485 205.931 L
215.354 207.003 L
216.22 205.884 L
217.089 206.342 L
217.957 209.083 L
218.825 206.651 L
219.692 207.349 L
220.56 207.942 L
221.428 214.402 L
222.297 217.405 L
223.165 223.595 L
224.032 223.352 L
224.9 220.182 L
225.768 224.576 L
226.636 225.355 L
227.505 221.142 L
228.373 221.457 L
229.241 215.042 L
230.109 218.157 L
230.977 225.184 L
231.845 222.016 L
232.713 218.7 L
233.582 219.226 L
234.448 222.578 L
235.317 219.404 L
236.184 219.189 L
237.053 219.826 L
237.921 213.839 L
238.789 211.43 L
239.656 219.415 L
240.526 221.465 L
241.393 224.464 L
242.26 219.015 L
243.128 223.636 L
243.996 222.221 L
244.865 221.32 L
245.732 216.607 L
246.6 216.511 L
247.468 220.24 L
248.336 229.353 L
249.205 231.636 L
250.073 227.523 L
250.941 230.235 L
251.808 234.987 L
252.676 232.239 L
253.544 233.997 L
254.413 225.307 L
255.282 221.111 L
256.148 221.327 L
257.017 223.701 L
257.884 229.975 L
258.752 234.963 L
259.62 233.861 L
260.489 231.437 L
261.356 225.746 L
262.224 223.297 L
263.092 220.369 L
263.961 222.2 L
264.829 218.959 L
265.697 219.71 L
266.564 221.781 L
267.432 223.988 L
268.3 225.327 L
269.168 226.367 L
270.037 230.005 L
270.904 224.731 L
271.772 221.747 L
272.64 225.625 L
273.51 230.562 L
274.376 229.916 L
275.245 230.1 L
276.112 235.152 L
276.981 232.167 L
277.848 236.055 L
278.717 235.648 L
279.584 235.168 L
280.452 238.515 L
281.322 239.031 L
282.189 240.438 L
283.057 241.354 L
283.925 243.039 L
284.792 239.376 L
285.66 234.993 L
286.528 230.33 L
287.397 232.899 L
288.264 235.454 L
289.132 236.578 L
290.001 245.924 L
290.869 245.864 L
291.736 248.108 L
292.605 244.906 L
293.472 243.453 L
294.341 240.432 L
295.208 239.131 L
296.076 234.496 L
296.944 232.839 L
297.812 233.063 L
298.682 236.854 L
299.548 239.469 L
300.417 243.906 L
301.284 244.675 L
302.153 240.146 L
303.02 236.268 L
303.888 237.512 L
304.756 241.573 L
305.624 246.01 L
306.492 247.722 L
307.36 247.403 L
308.228 245.006 L
309.096 241.975 L
309.965 242.417 L
310.832 242.822 L
311.701 244.741 L
312.57 245.454 L
313.436 242.752 L
314.304 246.588 L
315.174 244.108 L
316.041 242.224 L
316.909 238.575 L
317.776 234.826 L
318.644 241.015 L
319.512 246.996 L
320.38 247.528 L
321.248 248.005 L
322.116 242.734 L
322.986 244.02 L
323.853 240.863 L
324.721 240.721 L
325.59 233.455 L
326.457 237.781 L
327.324 239.147 L
328.194 239.102 L
329.06 242.404 L
329.929 244.403 L
330.796 242.16 L
331.665 241.592 L
332.533 244.471 L
333.401 246.965 L
334.268 250.632 L
335.136 247.99 L
336.005 247.408 L
336.873 250.133 L
337.741 255.376 L
338.608 253.312 L
339.476 249.299 L
340.344 253.335 L
341.213 252.572 L
342.08 253.501 L
342.948 247.718 L
343.816 252.824 L
344.684 255.398 L
345.552 253.841 L
346.421 249.901 L
347.288 254.126 L
348.158 254.61 L
349.024 248.956 L
349.892 244.757 L
350.76 242.632 L
351.628 242.913 L
352.497 242.138 L
353.365 241.599 L
354.232 245.819 L
355.101 253.1 L
355.969 254.855 L
356.836 252.765 L
357.705 250.529 L
358.572 249.318 L
359.44 253.716 L
360.31 251.558 L
361.176 250.92 L
362.045 250.146 L
362.912 245.705 L
363.782 246.619 L
364.648 249.013 L
365.516 251.244 L
366.384 249.677 L
367.252 252.007 L
368.12 249.87 L
368.99 245.167 L
369.856 248.625 L
370.725 243.207 L
371.592 242.116 L
372.46 243.733 L
373.33 246.912 L
374.196 251.842 L
375.065 255.993 L
375.932 255.789 L
376.8 257.446 L
377.669 256.343 L
378.537 254.312 L
379.405 259.116 L
380.274 258.055 L
381.14 257.439 L
382.008 259.79 L
382.876 257.826 L
383.745 254.341 L
384.612 254.485 L
385.48 259.615 L
386.349 259.924 L
387.217 264.908 L
388.084 266.097 L
388.953 258.929 L
389.82 259.421 L
390.688 258.274 L
391.557 258.109 L
392.424 259.537 L
393.292 256.895 L
394.16 256.809 L
395.028 255.063 L
395.897 253.247 L
396.765 252.275 L
397.632 250.571 L
398.501 249.471 L
399.369 252.285 L
400.237 254.512 L
401.105 251.446 L
401.972 251.472 L
402.841 256.353 L
403.708 259.802 L
404.576 264.939 L
405.444 265.73 L
406.312 268.892 L
407.18 269.179 L
408.048 266.92 L
408.917 268.319 L
409.784 263.196 L
410.652 262.432 L
411.52 260.143 L
412.388 256.986 L
413.257 245.707 L
414.125 252.291 L
414.992 252.877 L
415.86 258.381 L
416.729 256.859 L
417.596 259.645 L
418.464 256.402 L
419.332 260.323 L
420.201 262.428 L
421.068 263.943 L
421.936 263.849 L
422.804 259.814 L
423.672 256.552 L
424.54 258.315 L
425.408 261.306 L
426.277 266.361 L
427.144 265.944 L
428.014 262.524 L
428.88 267.28 L
429.749 263.943 L
430.616 260.47 L
431.485 256.475 L
432.353 256.376 L
433.22 259.627 L
434.088 263.047 L
434.956 267.102 L
435.826 264.951 L
436.692 267.451 L
437.56 266.192 L
438.428 269.897 L
439.297 265.181 L
440.165 260.46 L
441.032 256.098 L
441.9 257.945 L
442.769 253.306 L
443.637 252.704 L
444.505 256.73 L
445.372 256.107 L
446.241 255.271 L
447.108 259.863 L
447.978 259.913 L
448.844 263.651 L
449.712 264.162 L
450.581 263.088 L
451.448 262.763 L
452.317 264.27 L
453.186 261.344 L
454.052 259.377 L
454.92 261.974 L
455.788 258.903 L
456.657 258.911 L
457.524 259.13 L
458.394 256.872 L
459.261 256.154 L
460.128 255.956 L
460.996 252.488 L
461.864 257.957 L
462.732 259.571 L
463.6 263.16 L
464.468 262.877 L
465.336 262.71 L
466.204 258.723 L
467.072 259.645 L
467.94 260.41 L
468.808 261.17 L
469.676 257.925 L
470.544 260.69 L
471.412 261.103 L
472.281 254.636 L
473.148 257.766 L
474.018 254.912 L
474.884 258.737 L
475.752 260.194 L
476.62 260.168 L
477.489 263.373 L
478.356 263.529 L
479.224 256.169 L
480.092 255.083 L
480.96 252.307 L
481.828 259.112 L
482.697 262.713 L
483.565 262.272 L
484.432 265.567 L
485.3 261.097 L
486.169 264.935 L
487.037 262.661 L
487.905 258.139 L
488.773 259.573 L
489.64 253.607 L
490.509 255.336 L
491.376 263.134 L
492.246 264.256 L
493.112 264.108 L
493.98 263.876 L
494.848 264.609 L
495.717 259.769 L
496.585 257.163 L
497.453 258.696 L
498.321 259.835 L
499.189 261.422 L
500.057 264.365 L
500.925 267.771 L
501.792 263.675 L
502.661 261.725 L
503.528 264.637 L
504.396 264.073 L
505.264 264.504 L
506.132 264.965 L
507 265.864 L
S
GR
GS
[0.75 0 0 0.75 0 0] CT
1 0 0 RC
1 LJ
0.667 LW
N
73.868 346.949 M
74.737 347.01 L
75.604 346.798 L
76.473 346.426 L
77.34 346.027 L
78.208 345.686 L
79.076 345.135 L
79.945 345.047 L
80.812 344.676 L
81.681 344.528 L
82.548 344.083 L
83.417 343.699 L
84.285 343.438 L
85.152 343.115 L
86.02 343.09 L
86.888 342.797 L
87.757 342.658 L
88.624 342.585 L
89.493 342.563 L
90.361 342.284 L
91.228 342.118 L
92.098 342.08 L
92.964 342.155 L
93.832 341.87 L
94.7 341.694 L
95.569 341.762 L
96.436 341.682 L
97.306 341.429 L
98.173 341.411 L
99.04 341.411 L
99.909 341.379 L
100.777 341.223 L
101.645 341.133 L
102.512 341.011 L
103.38 340.921 L
104.248 340.887 L
105.116 340.821 L
105.984 340.651 L
106.852 340.573 L
107.72 340.514 L
108.588 340.595 L
109.456 340.58 L
110.324 340.45 L
111.193 339.953 L
112.06 339.8 L
112.929 339.786 L
113.796 339.868 L
114.664 339.905 L
115.533 339.886 L
116.401 339.98 L
117.268 339.868 L
118.137 339.969 L
119.004 340.129 L
119.872 340.082 L
120.74 340.132 L
121.609 340.179 L
122.476 340.182 L
123.344 340.219 L
124.213 340.143 L
125.08 340.082 L
125.949 340.126 L
126.816 340.17 L
127.685 340.134 L
128.552 340.026 L
129.421 339.705 L
130.288 339.711 L
131.156 339.767 L
132.024 339.766 L
132.892 339.66 L
133.76 339.668 L
134.628 339.523 L
135.497 339.347 L
136.364 339.258 L
137.233 339.192 L
138.101 339.285 L
138.969 338.946 L
139.836 338.646 L
140.705 338.24 L
141.572 338.366 L
142.441 337.989 L
143.308 338.292 L
144.176 337.565 L
145.044 336.562 L
145.912 334.213 L
146.781 333.881 L
147.648 332.381 L
148.518 332.747 L
149.384 333.248 L
150.252 334.265 L
151.12 334.859 L
151.989 335.364 L
152.856 335.013 L
153.725 335.057 L
154.593 335.669 L
155.46 334.707 L
156.328 334.045 L
157.196 333.58 L
158.065 333.109 L
158.932 332.339 L
159.8 331.77 L
160.668 330.301 L
161.537 329.754 L
162.405 325.54 L
163.273 324.339 L
164.141 325.906 L
165.009 325.321 L
165.877 326.99 L
166.744 324.466 L
167.613 323.597 L
168.48 324.131 L
169.348 325.126 L
170.217 325.64 L
171.084 326.657 L
171.953 325.503 L
172.82 324.561 L
173.69 327.339 L
174.557 326.418 L
175.424 322.546 L
176.292 317.918 L
177.16 313.224 L
178.028 314.019 L
178.896 315.088 L
179.764 315.777 L
180.632 317.918 L
181.501 320.621 L
182.37 320.527 L
183.236 321.434 L
184.106 319.913 L
184.973 315.898 L
185.841 314.58 L
186.708 313.334 L
187.576 310.627 L
188.444 313.251 L
189.312 314.678 L
190.18 313.509 L
191.049 311.183 L
191.916 309.506 L
192.784 310.101 L
193.653 309.145 L
194.521 310.466 L
195.389 313.401 L
196.257 312.098 L
197.125 312.637 L
197.994 314.027 L
198.86 315.98 L
199.728 312.557 L
200.596 311.011 L
201.464 313.178 L
202.332 312.309 L
203.2 310.8 L
204.069 311.695 L
204.937 310.217 L
205.804 306.765 L
206.673 304.484 L
207.54 296.032 L
208.409 296.739 L
209.276 297.339 L
210.144 300.819 L
211.012 306.285 L
211.882 310.605 L
212.749 311.763 L
213.617 306.346 L
214.485 301.346 L
215.354 298.239 L
216.22 298.296 L
217.089 299.169 L
217.957 298.609 L
218.825 301.472 L
219.692 306.327 L
220.56 308.666 L
221.428 311.622 L
222.297 310.739 L
223.165 301.878 L
224.032 292.775 L
224.9 293.966 L
225.768 291.888 L
226.636 293.062 L
227.505 291.517 L
228.373 292.126 L
229.241 294.208 L
230.109 295.833 L
230.977 289.769 L
231.845 293.013 L
232.713 292.013 L
233.582 290.754 L
234.448 289.376 L
235.317 289.648 L
236.184 291.985 L
237.053 291.624 L
237.921 290.391 L
238.789 292.062 L
239.656 289.578 L
240.526 285.138 L
241.393 283.41 L
242.26 281.761 L
243.128 283.815 L
243.996 283.265 L
244.865 284.28 L
245.732 281.079 L
246.6 282.976 L
247.468 280.785 L
248.336 285.385 L
249.205 273.357 L
250.073 264.885 L
250.941 259.618 L
251.808 249.935 L
252.676 251.42 L
253.544 257.231 L
254.413 270.089 L
255.282 274.85 L
256.148 280.69 L
257.017 283.116 L
257.884 284.567 L
258.752 284.771 L
259.62 280.321 L
260.489 281.417 L
261.356 285.75 L
262.224 286.373 L
263.092 288.184 L
263.961 288.026 L
264.829 282.232 L
265.697 274.906 L
266.564 269.087 L
267.432 265.974 L
268.3 268.252 L
269.168 269.866 L
270.037 266.848 L
270.904 265.213 L
271.772 263.679 L
272.64 260.148 L
273.51 256.773 L
274.376 250.452 L
275.245 239.527 L
276.112 235.617 L
276.981 240.744 L
277.848 243.721 L
278.717 245.002 L
279.584 238.915 L
280.452 239.395 L
281.322 240.126 L
282.189 241.026 L
283.057 243.057 L
283.925 251.284 L
284.792 253.297 L
285.66 260.324 L
286.528 255.461 L
287.397 249.608 L
288.264 250.556 L
289.132 255.965 L
290.001 261.897 L
290.869 256.299 L
291.736 254.336 L
292.605 245.91 L
293.472 236.216 L
294.341 233.766 L
295.208 238.337 L
296.076 237.306 L
296.944 238.924 L
297.812 245.151 L
298.682 244.501 L
299.548 236.085 L
300.417 235.431 L
301.284 234.071 L
302.153 234.667 L
303.02 232.025 L
303.888 236.343 L
304.756 239.24 L
305.624 240.787 L
306.492 246.265 L
307.36 245.283 L
308.228 243.182 L
309.096 243.031 L
309.965 244.987 L
310.832 251.429 L
311.701 257.287 L
312.57 255.527 L
313.436 247.343 L
314.304 242.419 L
315.174 247.466 L
316.041 253.783 L
316.909 244.717 L
317.776 239.31 L
318.644 243.761 L
319.512 248.531 L
320.38 252.574 L
321.248 251.926 L
322.116 257.632 L
322.986 254.934 L
323.853 250.054 L
324.721 253.209 L
325.59 250.621 L
326.457 253.345 L
327.324 257.938 L
328.194 259.153 L
329.06 256.173 L
329.929 252.512 L
330.796 249.284 L
331.665 243.057 L
332.533 247.272 L
333.401 247.657 L
334.268 246.063 L
335.136 232.452 L
336.005 238.428 L
336.873 237.77 L
337.741 242.665 L
338.608 245.999 L
339.476 243.685 L
340.344 234.662 L
341.213 235.787 L
342.08 227.197 L
342.948 226.583 L
343.816 220.26 L
344.684 224.003 L
345.552 232.813 L
346.421 242.293 L
347.288 249.5 L
348.158 253.376 L
349.024 246.395 L
349.892 244.693 L
350.76 240.582 L
351.628 241.628 L
352.497 249.181 L
353.365 253.025 L
354.232 250.264 L
355.101 251.249 L
355.969 252.601 L
356.836 252.886 L
357.705 246.856 L
358.572 248.864 L
359.44 247.399 L
360.31 239.662 L
361.176 235.46 L
362.045 240.012 L
362.912 236.029 L
363.782 236.506 L
364.648 240.7 L
365.516 237.94 L
366.384 241.097 L
367.252 231.625 L
368.12 228.376 L
368.99 233.619 L
369.856 234.497 L
370.725 234.867 L
371.592 237.015 L
372.46 239.857 L
373.33 243.465 L
374.196 233.1 L
375.065 234.205 L
375.932 236.937 L
376.8 230.454 L
377.669 231.5 L
378.537 233.215 L
379.405 236.363 L
380.274 237.651 L
381.14 238.901 L
382.008 243.479 L
382.876 244.042 L
383.745 244.933 L
384.612 244.438 L
385.48 240.609 L
386.349 244.902 L
387.217 248.189 L
388.084 250.419 L
388.953 249.131 L
389.82 239.265 L
390.688 240.487 L
391.557 237.32 L
392.424 239.211 L
393.292 243.482 L
394.16 247.496 L
395.028 246.121 L
395.897 246.61 L
396.765 245.888 L
397.632 249.669 L
398.501 246.836 L
399.369 244.622 L
400.237 237.301 L
401.105 237.053 L
401.972 237.692 L
402.841 238.885 L
403.708 241.006 L
404.576 243.151 L
405.444 238.601 L
406.312 243.851 L
407.18 246.52 L
408.048 247.642 L
408.917 250.484 L
409.784 239.508 L
410.652 243.847 L
411.52 242.174 L
412.388 241.472 L
413.257 243.237 L
414.125 237.188 L
414.992 232.974 L
415.86 239.845 L
416.729 243.517 L
417.596 247.8 L
418.464 247.771 L
419.332 248.59 L
420.201 244.272 L
421.068 237.085 L
421.936 235.274 L
422.804 236.289 L
423.672 241.278 L
424.54 251.862 L
425.408 251.018 L
426.277 253.051 L
427.144 256.944 L
428.014 253.488 L
428.88 247.002 L
429.749 236.457 L
430.616 229.034 L
431.485 229.644 L
432.353 228.459 L
433.22 228.752 L
434.088 231.684 L
434.956 234.186 L
435.826 235.061 L
436.692 242.034 L
437.56 243.54 L
438.428 245.732 L
439.297 239.819 L
440.165 234.041 L
441.032 227.816 L
441.9 233.791 L
442.769 229.68 L
443.637 228.819 L
444.505 233.033 L
445.372 233.654 L
446.241 227.45 L
447.108 233.862 L
447.978 234.931 L
448.844 237.346 L
449.712 241.196 L
450.581 243.864 L
451.448 242.775 L
452.317 240.374 L
453.186 238.08 L
454.052 235.846 L
454.92 234.269 L
455.788 233.957 L
456.657 238.32 L
457.524 239.858 L
458.394 242.591 L
459.261 235.992 L
460.128 242.853 L
460.996 241.553 L
461.864 239.867 L
462.732 244.385 L
463.6 243.732 L
464.468 241.908 L
465.336 239.298 L
466.204 234.583 L
467.072 239.455 L
467.94 240.521 L
468.808 238.845 L
469.676 241.135 L
470.544 244.609 L
471.412 250.727 L
472.281 249.307 L
473.148 250.009 L
474.018 246.62 L
474.884 253.085 L
475.752 253.396 L
476.62 251.737 L
477.489 247.95 L
478.356 246.994 L
479.224 247.113 L
480.092 234.454 L
480.96 227.226 L
481.828 233.548 L
482.697 237.573 L
483.565 239.882 L
484.432 239.767 L
485.3 240.626 L
486.169 245.354 L
487.037 243.238 L
487.905 242.222 L
488.773 237.203 L
489.64 237.871 L
490.509 242.26 L
491.376 244.954 L
492.246 244.96 L
493.112 244.813 L
493.98 238.258 L
494.848 242.972 L
495.717 243.226 L
496.585 239.067 L
497.453 242.901 L
498.321 240.865 L
499.189 241.614 L
500.057 244.9 L
500.925 246.322 L
501.792 248.272 L
502.661 244.479 L
503.528 244.664 L
504.396 239.214 L
505.264 240.953 L
506.132 243.433 L
507 239.372 L
S
GR
GS
[0.75 0 0 0.75 0 0] CT
1 GC
N
496 78 M
496 42 L
376 42 L
376 78 L
cp
f
GR
GS
[0.75 0 0 0.75 317.25 38.89726] CT
N
0.938 5 M
0.938 -3.594 L
4.75 -3.594 L
5.906 -3.594 6.5 -3.359 QT
7.094 -3.125 7.453 -2.539 QT
7.813 -1.953 7.813 -1.25 QT
7.813 -0.328 7.219 0.297 QT
6.625 0.922 5.391 1.094 QT
5.844 1.313 6.078 1.516 QT
6.578 1.969 7.016 2.656 QT
8.516 5 L
7.078 5 L
5.953 3.219 L
5.453 2.438 5.133 2.031 QT
4.813 1.625 4.555 1.461 QT
4.297 1.297 4.031 1.219 QT
3.844 1.188 3.406 1.188 QT
2.078 1.188 L
2.078 5 L
0.938 5 L
cp
2.078 0.203 M
4.531 0.203 L
5.297 0.203 5.742 0.039 QT
6.188 -0.125 6.414 -0.477 QT
6.641 -0.828 6.641 -1.25 QT
6.641 -1.859 6.195 -2.25 QT
5.75 -2.641 4.797 -2.641 QT
2.078 -2.641 L
2.078 0.203 L
cp
9.072 1.891 M
9.072 0.156 10.025 -0.672 QT
10.822 -1.359 11.979 -1.359 QT
13.26 -1.359 14.08 -0.523 QT
14.9 0.313 14.9 1.797 QT
14.9 3 14.541 3.688 QT
14.182 4.375 13.486 4.758 QT
12.791 5.141 11.979 5.141 QT
10.682 5.141 9.877 4.305 QT
9.072 3.469 9.072 1.891 QT
cp
10.15 1.891 M
10.15 3.078 10.674 3.672 QT
11.197 4.266 11.979 4.266 QT
12.775 4.266 13.291 3.672 QT
13.807 3.078 13.807 1.859 QT
13.807 0.703 13.283 0.109 QT
12.76 -0.484 11.979 -0.484 QT
11.197 -0.484 10.674 0.102 QT
10.15 0.688 10.15 1.891 QT
cp
15.715 3.141 M
16.746 2.984 L
16.84 3.609 17.238 3.938 QT
17.637 4.266 18.371 4.266 QT
19.09 4.266 19.441 3.977 QT
19.793 3.688 19.793 3.281 QT
19.793 2.922 19.48 2.719 QT
19.262 2.578 18.402 2.359 QT
17.246 2.063 16.801 1.852 QT
16.355 1.641 16.121 1.266 QT
15.887 0.891 15.887 0.422 QT
15.887 0.016 16.074 -0.344 QT
16.262 -0.703 16.59 -0.938 QT
16.84 -1.109 17.262 -1.234 QT
17.684 -1.359 18.184 -1.359 QT
18.902 -1.359 19.457 -1.148 QT
20.012 -0.938 20.277 -0.578 QT
20.543 -0.219 20.637 0.375 QT
19.605 0.516 L
19.543 0.047 19.207 -0.227 QT
18.871 -0.5 18.246 -0.5 QT
17.527 -0.5 17.215 -0.258 QT
16.902 -0.016 16.902 0.313 QT
16.902 0.516 17.027 0.672 QT
17.168 0.844 17.434 0.953 QT
17.59 1.016 18.371 1.219 QT
19.496 1.531 19.934 1.719 QT
20.371 1.906 20.621 2.266 QT
20.871 2.625 20.871 3.172 QT
20.871 3.703 20.566 4.164 QT
20.262 4.625 19.684 4.883 QT
19.105 5.141 18.371 5.141 QT
17.152 5.141 16.52 4.633 QT
15.887 4.125 15.715 3.141 QT
cp
17.465 -3 M
18.246 -4.641 L
19.637 -4.641 L
18.34 -3 L
17.465 -3 L
cp
22.105 5 M
22.105 -3.594 L
23.168 -3.594 L
23.168 5 L
22.105 5 L
cp
24.803 -2.375 M
24.803 -3.594 L
25.865 -3.594 L
25.865 -2.375 L
24.803 -2.375 L
cp
24.803 5 M
24.803 -1.219 L
25.865 -1.219 L
25.865 5 L
24.803 5 L
cp
27.469 5 M
27.469 -1.219 L
28.406 -1.219 L
28.406 -0.344 L
29.094 -1.359 30.391 -1.359 QT
30.953 -1.359 31.43 -1.156 QT
31.906 -0.953 32.141 -0.625 QT
32.375 -0.297 32.469 0.141 QT
32.516 0.438 32.516 1.172 QT
32.516 5 L
31.469 5 L
31.469 1.219 L
31.469 0.563 31.344 0.25 QT
31.219 -0.063 30.906 -0.258 QT
30.594 -0.453 30.172 -0.453 QT
29.5 -0.453 29.008 -0.023 QT
28.516 0.406 28.516 1.594 QT
28.516 5 L
27.469 5 L
cp
33.752 1.891 M
33.752 0.156 34.705 -0.672 QT
35.502 -1.359 36.658 -1.359 QT
37.939 -1.359 38.76 -0.523 QT
39.58 0.313 39.58 1.797 QT
39.58 3 39.221 3.688 QT
38.861 4.375 38.166 4.758 QT
37.471 5.141 36.658 5.141 QT
35.361 5.141 34.557 4.305 QT
33.752 3.469 33.752 1.891 QT
cp
34.83 1.891 M
34.83 3.078 35.354 3.672 QT
35.877 4.266 36.658 4.266 QT
37.455 4.266 37.971 3.672 QT
38.486 3.078 38.486 1.859 QT
38.486 0.703 37.963 0.109 QT
37.439 -0.484 36.658 -0.484 QT
35.877 -0.484 35.354 0.102 QT
34.83 0.688 34.83 1.891 QT
cp
40.254 5 M
40.254 4.141 L
44.223 -0.406 L
43.535 -0.375 43.02 -0.375 QT
40.488 -0.375 L
40.488 -1.219 L
45.582 -1.219 L
45.582 -0.531 L
42.207 3.422 L
41.551 4.141 L
42.27 4.094 42.879 4.094 QT
45.77 4.094 L
45.77 5 L
40.254 5 L
cp
42.02 -3 M
42.02 -4.313 L
43.332 -4.313 L
43.332 -3 L
42.02 -3 L
cp
51.066 3 M
52.16 3.125 L
51.91 4.078 51.207 4.609 QT
50.504 5.141 49.426 5.141 QT
48.066 5.141 47.262 4.297 QT
46.457 3.453 46.457 1.938 QT
46.457 0.375 47.27 -0.492 QT
48.082 -1.359 49.363 -1.359 QT
50.613 -1.359 51.402 -0.516 QT
52.191 0.328 52.191 1.875 QT
52.191 1.969 52.191 2.156 QT
47.551 2.156 L
47.613 3.188 48.129 3.727 QT
48.645 4.266 49.426 4.266 QT
50.004 4.266 50.418 3.961 QT
50.832 3.656 51.066 3 QT
cp
47.613 1.297 M
51.082 1.297 L
51.02 0.5 50.691 0.109 QT
50.176 -0.5 49.379 -0.5 QT
48.645 -0.5 48.152 -0.016 QT
47.66 0.469 47.613 1.297 QT
cp
53.475 5 M
53.475 -1.219 L
54.428 -1.219 L
54.428 -0.281 L
54.787 -0.938 55.092 -1.148 QT
55.396 -1.359 55.771 -1.359 QT
56.303 -1.359 56.85 -1.031 QT
56.49 -0.047 L
56.1 -0.281 55.725 -0.281 QT
55.365 -0.281 55.092 -0.07 QT
54.818 0.141 54.709 0.516 QT
54.521 1.078 54.521 1.734 QT
54.521 5 L
53.475 5 L
cp
61.549 2.719 M
62.58 2.859 L
62.408 3.922 61.705 4.531 QT
61.002 5.141 59.986 5.141 QT
58.705 5.141 57.932 4.305 QT
57.158 3.469 57.158 1.906 QT
57.158 0.906 57.494 0.148 QT
57.83 -0.609 58.51 -0.984 QT
59.189 -1.359 60.002 -1.359 QT
61.002 -1.359 61.65 -0.852 QT
62.299 -0.344 62.486 0.609 QT
61.455 0.766 L
61.314 0.141 60.939 -0.18 QT
60.564 -0.5 60.033 -0.5 QT
59.236 -0.5 58.736 0.07 QT
58.236 0.641 58.236 1.875 QT
58.236 3.141 58.721 3.703 QT
59.205 4.266 59.971 4.266 QT
60.596 4.266 61.01 3.891 QT
61.424 3.516 61.549 2.719 QT
cp
63.439 7.391 M
63.314 6.406 L
63.658 6.5 63.924 6.5 QT
64.268 6.5 64.479 6.383 QT
64.689 6.266 64.83 6.063 QT
64.924 5.891 65.158 5.266 QT
65.174 5.188 65.252 5.016 QT
62.877 -1.219 L
64.018 -1.219 L
65.314 2.375 L
65.564 3.063 65.768 3.828 QT
65.955 3.094 66.205 2.406 QT
67.533 -1.219 L
68.58 -1.219 L
66.221 5.109 L
65.83 6.125 65.627 6.516 QT
65.346 7.047 64.979 7.289 QT
64.611 7.531 64.111 7.531 QT
63.814 7.531 63.439 7.391 QT
cp
f
GR
GS
[0.75 0 0 0.75 0 0] CT
1 1 0 RC
1 LJ
0.667 LW
N
380 51.863 M
420 51.863 L
S
GR
GS
[0.75 0 0 0.75 317.25 51.10274] CT
N
0.891 5 M
0.891 -3.594 L
2.609 -3.594 L
4.641 2.484 L
4.922 3.344 5.047 3.766 QT
5.188 3.297 5.5 2.391 QT
7.563 -3.594 L
9.094 -3.594 L
9.094 5 L
8 5 L
8 -2.188 L
5.5 5 L
4.469 5 L
1.984 -2.313 L
1.984 5 L
0.891 5 L
cp
10.793 -2.375 M
10.793 -3.594 L
11.855 -3.594 L
11.855 -2.375 L
10.793 -2.375 L
cp
10.793 5 M
10.793 -1.219 L
11.855 -1.219 L
11.855 5 L
10.793 5 L
cp
17.709 3 M
18.803 3.125 L
18.553 4.078 17.85 4.609 QT
17.146 5.141 16.068 5.141 QT
14.709 5.141 13.904 4.297 QT
13.1 3.453 13.1 1.938 QT
13.1 0.375 13.912 -0.492 QT
14.725 -1.359 16.006 -1.359 QT
17.256 -1.359 18.045 -0.516 QT
18.834 0.328 18.834 1.875 QT
18.834 1.969 18.834 2.156 QT
14.193 2.156 L
14.256 3.188 14.771 3.727 QT
15.287 4.266 16.068 4.266 QT
16.646 4.266 17.061 3.961 QT
17.475 3.656 17.709 3 QT
cp
14.256 1.297 M
17.725 1.297 L
17.662 0.5 17.334 0.109 QT
16.818 -0.5 16.021 -0.5 QT
15.287 -0.5 14.795 -0.016 QT
14.303 0.469 14.256 1.297 QT
cp
17.678 5 M
17.35 5.203 17.162 5.508 QT
16.975 5.813 16.975 6.125 QT
16.975 6.359 17.115 6.531 QT
17.256 6.703 17.553 6.703 QT
17.693 6.703 17.834 6.664 QT
17.975 6.625 18.084 6.563 QT
18.084 7.313 L
17.662 7.516 17.287 7.516 QT
16.99 7.516 16.771 7.43 QT
16.553 7.344 16.404 7.195 QT
16.256 7.047 16.178 6.859 QT
16.1 6.672 16.1 6.438 QT
16.1 6.063 16.311 5.688 QT
16.521 5.313 16.912 5 QT
17.678 5 L
cp
19.711 3.141 M
20.742 2.984 L
20.836 3.609 21.234 3.938 QT
21.633 4.266 22.367 4.266 QT
23.086 4.266 23.438 3.977 QT
23.789 3.688 23.789 3.281 QT
23.789 2.922 23.477 2.719 QT
23.258 2.578 22.398 2.359 QT
21.242 2.063 20.797 1.852 QT
20.352 1.641 20.117 1.266 QT
19.883 0.891 19.883 0.422 QT
19.883 0.016 20.07 -0.344 QT
20.258 -0.703 20.586 -0.938 QT
20.836 -1.109 21.258 -1.234 QT
21.68 -1.359 22.18 -1.359 QT
22.898 -1.359 23.453 -1.148 QT
24.008 -0.938 24.273 -0.578 QT
24.539 -0.219 24.633 0.375 QT
23.602 0.516 L
23.539 0.047 23.203 -0.227 QT
22.867 -0.5 22.242 -0.5 QT
21.523 -0.5 21.211 -0.258 QT
20.898 -0.016 20.898 0.313 QT
20.898 0.516 21.023 0.672 QT
21.164 0.844 21.43 0.953 QT
21.586 1.016 22.367 1.219 QT
23.492 1.531 23.93 1.719 QT
24.367 1.906 24.617 2.266 QT
24.867 2.625 24.867 3.172 QT
24.867 3.703 24.563 4.164 QT
24.258 4.625 23.68 4.883 QT
23.102 5.141 22.367 5.141 QT
21.148 5.141 20.516 4.633 QT
19.883 4.125 19.711 3.141 QT
cp
25.742 1.891 M
25.742 0.156 26.695 -0.672 QT
27.492 -1.359 28.648 -1.359 QT
29.93 -1.359 30.75 -0.523 QT
31.57 0.313 31.57 1.797 QT
31.57 3 31.211 3.688 QT
30.852 4.375 30.156 4.758 QT
29.461 5.141 28.648 5.141 QT
27.352 5.141 26.547 4.305 QT
25.742 3.469 25.742 1.891 QT
cp
26.82 1.891 M
26.82 3.078 27.344 3.672 QT
27.867 4.266 28.648 4.266 QT
29.445 4.266 29.961 3.672 QT
30.477 3.078 30.477 1.859 QT
30.477 0.703 29.953 0.109 QT
29.43 -0.484 28.648 -0.484 QT
27.867 -0.484 27.344 0.102 QT
26.82 0.688 26.82 1.891 QT
cp
32.244 5 M
32.244 4.141 L
36.213 -0.406 L
35.525 -0.375 35.01 -0.375 QT
32.479 -0.375 L
32.479 -1.219 L
37.572 -1.219 L
37.572 -0.531 L
34.197 3.422 L
33.541 4.141 L
34.26 4.094 34.869 4.094 QT
37.76 4.094 L
37.76 5 L
32.244 5 L
cp
34.01 -3 M
34.01 -4.313 L
35.322 -4.313 L
35.322 -3 L
34.01 -3 L
cp
43.057 3 M
44.15 3.125 L
43.9 4.078 43.197 4.609 QT
42.494 5.141 41.416 5.141 QT
40.057 5.141 39.252 4.297 QT
38.447 3.453 38.447 1.938 QT
38.447 0.375 39.26 -0.492 QT
40.072 -1.359 41.354 -1.359 QT
42.604 -1.359 43.393 -0.516 QT
44.182 0.328 44.182 1.875 QT
44.182 1.969 44.182 2.156 QT
39.541 2.156 L
39.604 3.188 40.119 3.727 QT
40.635 4.266 41.416 4.266 QT
41.994 4.266 42.408 3.961 QT
42.822 3.656 43.057 3 QT
cp
39.604 1.297 M
43.072 1.297 L
43.01 0.5 42.682 0.109 QT
42.166 -0.5 41.369 -0.5 QT
40.635 -0.5 40.143 -0.016 QT
39.65 0.469 39.604 1.297 QT
cp
45.465 5 M
45.465 -1.219 L
46.418 -1.219 L
46.418 -0.281 L
46.777 -0.938 47.082 -1.148 QT
47.387 -1.359 47.762 -1.359 QT
48.293 -1.359 48.84 -1.031 QT
48.48 -0.047 L
48.09 -0.281 47.715 -0.281 QT
47.355 -0.281 47.082 -0.07 QT
46.809 0.141 46.699 0.516 QT
46.512 1.078 46.512 1.734 QT
46.512 5 L
45.465 5 L
cp
53.539 2.719 M
54.57 2.859 L
54.398 3.922 53.695 4.531 QT
52.992 5.141 51.977 5.141 QT
50.695 5.141 49.922 4.305 QT
49.148 3.469 49.148 1.906 QT
49.148 0.906 49.484 0.148 QT
49.82 -0.609 50.5 -0.984 QT
51.18 -1.359 51.992 -1.359 QT
52.992 -1.359 53.641 -0.852 QT
54.289 -0.344 54.477 0.609 QT
53.445 0.766 L
53.305 0.141 52.93 -0.18 QT
52.555 -0.5 52.023 -0.5 QT
51.227 -0.5 50.727 0.07 QT
50.227 0.641 50.227 1.875 QT
50.227 3.141 50.711 3.703 QT
51.195 4.266 51.961 4.266 QT
52.586 4.266 53 3.891 QT
53.414 3.516 53.539 2.719 QT
cp
55.43 7.391 M
55.305 6.406 L
55.648 6.5 55.914 6.5 QT
56.258 6.5 56.469 6.383 QT
56.68 6.266 56.82 6.063 QT
56.914 5.891 57.148 5.266 QT
57.164 5.188 57.242 5.016 QT
54.867 -1.219 L
56.008 -1.219 L
57.305 2.375 L
57.555 3.063 57.758 3.828 QT
57.945 3.094 58.195 2.406 QT
59.523 -1.219 L
60.57 -1.219 L
58.211 5.109 L
57.82 6.125 57.617 6.516 QT
57.336 7.047 56.969 7.289 QT
56.602 7.531 56.102 7.531 QT
55.805 7.531 55.43 7.391 QT
cp
f
GR
GS
[0.75 0 0 0.75 0 0] CT
1 0 0 RC
1 LJ
0.667 LW
N
380 68.137 M
420 68.137 L
S
GR
GS
[0.75 0 0 0.75 0 0] CT
0.149 GC
10.0 ML
0.667 LW
N
376 78 M
376 42 L
496 42 L
496 78 L
cp
S
GR
%%Trailer
%%Pages: 1
%%EOF
