%!PS-Adobe-3.0 EPSF-3.0
%%Creator: (MATLAB, The Mathworks, Inc. Version 9.5.0.1049112 \(R2018b\) Update 3. Operating System: Windows 10)
%%Title: ./Linear.eps
%%CreationDate: 2020-01-05T15:51:02
%%Pages: (atend)
%%BoundingBox:    36    19   385   293
%%LanguageLevel: 3
%%EndComments
%%BeginProlog
%%BeginResource: procset (Apache XML Graphics Std ProcSet) 1.2 0
%%Version: 1.2 0
%%Copyright: (Copyright 2001-2003,2010 The Apache Software Foundation. License terms: http://www.apache.org/licenses/LICENSE-2.0)
/bd{bind def}bind def
/ld{load def}bd
/GR/grestore ld
/GS/gsave ld
/RM/rmoveto ld
/C/curveto ld
/t/show ld
/L/lineto ld
/ML/setmiterlimit ld
/CT/concat ld
/f/fill ld
/N/newpath ld
/S/stroke ld
/CC/setcmykcolor ld
/A/ashow ld
/cp/closepath ld
/RC/setrgbcolor ld
/LJ/setlinejoin ld
/GC/setgray ld
/LW/setlinewidth ld
/M/moveto ld
/re {4 2 roll M
1 index 0 rlineto
0 exch rlineto
neg 0 rlineto
cp } bd
/_ctm matrix def
/_tm matrix def
/BT { _ctm currentmatrix pop matrix _tm copy pop 0 0 moveto } bd
/ET { _ctm setmatrix } bd
/iTm { _ctm setmatrix _tm concat } bd
/Tm { _tm astore pop iTm 0 0 moveto } bd
/ux 0.0 def
/uy 0.0 def
/F {
  /Tp exch def
  /Tf exch def
  Tf findfont Tp scalefont setfont
  /cf Tf def  /cs Tp def
} bd
/ULS {currentpoint /uy exch def /ux exch def} bd
/ULE {
  /Tcx currentpoint pop def
  gsave
  newpath
  cf findfont cs scalefont dup
  /FontMatrix get 0 get /Ts exch def /FontInfo get dup
  /UnderlinePosition get Ts mul /To exch def
  /UnderlineThickness get Ts mul /Tt exch def
  ux uy To add moveto  Tcx uy To add lineto
  Tt setlinewidth stroke
  grestore
} bd
/OLE {
  /Tcx currentpoint pop def
  gsave
  newpath
  cf findfont cs scalefont dup
  /FontMatrix get 0 get /Ts exch def /FontInfo get dup
  /UnderlinePosition get Ts mul /To exch def
  /UnderlineThickness get Ts mul /Tt exch def
  ux uy To add cs add moveto Tcx uy To add cs add lineto
  Tt setlinewidth stroke
  grestore
} bd
/SOE {
  /Tcx currentpoint pop def
  gsave
  newpath
  cf findfont cs scalefont dup
  /FontMatrix get 0 get /Ts exch def /FontInfo get dup
  /UnderlinePosition get Ts mul /To exch def
  /UnderlineThickness get Ts mul /Tt exch def
  ux uy To add cs 10 mul 26 idiv add moveto Tcx uy To add cs 10 mul 26 idiv add lineto
  Tt setlinewidth stroke
  grestore
} bd
/QT {
/Y22 exch store
/X22 exch store
/Y21 exch store
/X21 exch store
currentpoint
/Y21 load 2 mul add 3 div exch
/X21 load 2 mul add 3 div exch
/X21 load 2 mul /X22 load add 3 div
/Y21 load 2 mul /Y22 load add 3 div
/X22 load /Y22 load curveto
} bd
/SSPD {
dup length /d exch dict def
{
/v exch def
/k exch def
currentpagedevice k known {
/cpdv currentpagedevice k get def
v cpdv ne {
/upd false def
/nullv v type /nulltype eq def
/nullcpdv cpdv type /nulltype eq def
nullv nullcpdv or
{
/upd true def
} {
/sametype v type cpdv type eq def
sametype {
v type /arraytype eq {
/vlen v length def
/cpdvlen cpdv length def
vlen cpdvlen eq {
0 1 vlen 1 sub {
/i exch def
/obj v i get def
/cpdobj cpdv i get def
obj cpdobj ne {
/upd true def
exit
} if
} for
} {
/upd true def
} ifelse
} {
v type /dicttype eq {
v {
/dv exch def
/dk exch def
/cpddv cpdv dk get def
dv cpddv ne {
/upd true def
exit
} if
} forall
} {
/upd true def
} ifelse
} ifelse
} if
} ifelse
upd true eq {
d k v put
} if
} if
} if
} forall
d length 0 gt {
d setpagedevice
} if
} bd
/RE { % /NewFontName [NewEncodingArray] /FontName RE -
  findfont dup length dict begin
  {
    1 index /FID ne
    {def} {pop pop} ifelse
  } forall
  /Encoding exch def
  /FontName 1 index def
  currentdict definefont pop
  end
} bind def
%%EndResource
%%BeginResource: procset (Apache XML Graphics EPS ProcSet) 1.0 0
%%Version: 1.0 0
%%Copyright: (Copyright 2002-2003 The Apache Software Foundation. License terms: http://www.apache.org/licenses/LICENSE-2.0)
/BeginEPSF { %def
/b4_Inc_state save def         % Save state for cleanup
/dict_count countdictstack def % Count objects on dict stack
/op_count count 1 sub def      % Count objects on operand stack
userdict begin                 % Push userdict on dict stack
/showpage { } def              % Redefine showpage, { } = null proc
0 setgray 0 setlinecap         % Prepare graphics state
1 setlinewidth 0 setlinejoin
10 setmiterlimit [ ] 0 setdash newpath
/languagelevel where           % If level not equal to 1 then
{pop languagelevel             % set strokeadjust and
1 ne                           % overprint to their defaults.
{false setstrokeadjust false setoverprint
} if
} if
} bd
/EndEPSF { %def
count op_count sub {pop} repeat            % Clean up stacks
countdictstack dict_count sub {end} repeat
b4_Inc_state restore
} bd
%%EndResource
%FOPBeginFontDict
%%IncludeResource: font Courier-Oblique
%%IncludeResource: font Courier-BoldOblique
%%IncludeResource: font Courier-Bold
%%IncludeResource: font ZapfDingbats
%%IncludeResource: font Symbol
%%IncludeResource: font Helvetica
%%IncludeResource: font Helvetica-Oblique
%%IncludeResource: font Helvetica-Bold
%%IncludeResource: font Helvetica-BoldOblique
%%IncludeResource: font Times-Roman
%%IncludeResource: font Times-Italic
%%IncludeResource: font Times-Bold
%%IncludeResource: font Times-BoldItalic
%%IncludeResource: font Courier
%FOPEndFontDict
%%BeginResource: encoding WinAnsiEncoding
/WinAnsiEncoding [
/.notdef /.notdef /.notdef /.notdef /.notdef
/.notdef /.notdef /.notdef /.notdef /.notdef
/.notdef /.notdef /.notdef /.notdef /.notdef
/.notdef /.notdef /.notdef /.notdef /.notdef
/.notdef /.notdef /.notdef /.notdef /.notdef
/.notdef /.notdef /.notdef /.notdef /.notdef
/.notdef /.notdef /space /exclam /quotedbl
/numbersign /dollar /percent /ampersand /quotesingle
/parenleft /parenright /asterisk /plus /comma
/hyphen /period /slash /zero /one
/two /three /four /five /six
/seven /eight /nine /colon /semicolon
/less /equal /greater /question /at
/A /B /C /D /E
/F /G /H /I /J
/K /L /M /N /O
/P /Q /R /S /T
/U /V /W /X /Y
/Z /bracketleft /backslash /bracketright /asciicircum
/underscore /quoteleft /a /b /c
/d /e /f /g /h
/i /j /k /l /m
/n /o /p /q /r
/s /t /u /v /w
/x /y /z /braceleft /bar
/braceright /asciitilde /bullet /Euro /bullet
/quotesinglbase /florin /quotedblbase /ellipsis /dagger
/daggerdbl /circumflex /perthousand /Scaron /guilsinglleft
/OE /bullet /Zcaron /bullet /bullet
/quoteleft /quoteright /quotedblleft /quotedblright /bullet
/endash /emdash /asciitilde /trademark /scaron
/guilsinglright /oe /bullet /zcaron /Ydieresis
/space /exclamdown /cent /sterling /currency
/yen /brokenbar /section /dieresis /copyright
/ordfeminine /guillemotleft /logicalnot /sfthyphen /registered
/macron /degree /plusminus /twosuperior /threesuperior
/acute /mu /paragraph /middot /cedilla
/onesuperior /ordmasculine /guillemotright /onequarter /onehalf
/threequarters /questiondown /Agrave /Aacute /Acircumflex
/Atilde /Adieresis /Aring /AE /Ccedilla
/Egrave /Eacute /Ecircumflex /Edieresis /Igrave
/Iacute /Icircumflex /Idieresis /Eth /Ntilde
/Ograve /Oacute /Ocircumflex /Otilde /Odieresis
/multiply /Oslash /Ugrave /Uacute /Ucircumflex
/Udieresis /Yacute /Thorn /germandbls /agrave
/aacute /acircumflex /atilde /adieresis /aring
/ae /ccedilla /egrave /eacute /ecircumflex
/edieresis /igrave /iacute /icircumflex /idieresis
/eth /ntilde /ograve /oacute /ocircumflex
/otilde /odieresis /divide /oslash /ugrave
/uacute /ucircumflex /udieresis /yacute /thorn
/ydieresis
] def
%%EndResource
%FOPBeginFontReencode
/Courier-Oblique findfont
dup length dict begin
  {1 index /FID ne {def} {pop pop} ifelse} forall
  /Encoding WinAnsiEncoding def
  currentdict
end
/Courier-Oblique exch definefont pop
/Courier-BoldOblique findfont
dup length dict begin
  {1 index /FID ne {def} {pop pop} ifelse} forall
  /Encoding WinAnsiEncoding def
  currentdict
end
/Courier-BoldOblique exch definefont pop
/Courier-Bold findfont
dup length dict begin
  {1 index /FID ne {def} {pop pop} ifelse} forall
  /Encoding WinAnsiEncoding def
  currentdict
end
/Courier-Bold exch definefont pop
/Helvetica findfont
dup length dict begin
  {1 index /FID ne {def} {pop pop} ifelse} forall
  /Encoding WinAnsiEncoding def
  currentdict
end
/Helvetica exch definefont pop
/Helvetica-Oblique findfont
dup length dict begin
  {1 index /FID ne {def} {pop pop} ifelse} forall
  /Encoding WinAnsiEncoding def
  currentdict
end
/Helvetica-Oblique exch definefont pop
/Helvetica-Bold findfont
dup length dict begin
  {1 index /FID ne {def} {pop pop} ifelse} forall
  /Encoding WinAnsiEncoding def
  currentdict
end
/Helvetica-Bold exch definefont pop
/Helvetica-BoldOblique findfont
dup length dict begin
  {1 index /FID ne {def} {pop pop} ifelse} forall
  /Encoding WinAnsiEncoding def
  currentdict
end
/Helvetica-BoldOblique exch definefont pop
/Times-Roman findfont
dup length dict begin
  {1 index /FID ne {def} {pop pop} ifelse} forall
  /Encoding WinAnsiEncoding def
  currentdict
end
/Times-Roman exch definefont pop
/Times-Italic findfont
dup length dict begin
  {1 index /FID ne {def} {pop pop} ifelse} forall
  /Encoding WinAnsiEncoding def
  currentdict
end
/Times-Italic exch definefont pop
/Times-Bold findfont
dup length dict begin
  {1 index /FID ne {def} {pop pop} ifelse} forall
  /Encoding WinAnsiEncoding def
  currentdict
end
/Times-Bold exch definefont pop
/Times-BoldItalic findfont
dup length dict begin
  {1 index /FID ne {def} {pop pop} ifelse} forall
  /Encoding WinAnsiEncoding def
  currentdict
end
/Times-BoldItalic exch definefont pop
/Courier findfont
dup length dict begin
  {1 index /FID ne {def} {pop pop} ifelse} forall
  /Encoding WinAnsiEncoding def
  currentdict
end
/Courier exch definefont pop
%FOPEndFontReencode
%%EndProlog
%%Page: 1 1
%%PageBoundingBox: 0 0 420 315
%%BeginPageSetup
[1 0 0 -1 0 315] CT
%%EndPageSetup
GS
[0.75 0 0 0.75 0 0] CT
1 GC
N
0 0 560 420 re
f
GR
GS
[0.75 0 0 0.75 0 0] CT
1 GC
N
0 0 560 420 re
f
GR
GS
[0.75 0 0 0.75 0 0] CT
1 GC
N
73 374 M
507 374 L
507 31 L
73 31 L
cp
f
GR
GS
[0.75 0 0 0.75 0 0] CT
0.149 GC
2 setlinecap
1 LJ
0.667 LW
N
73 374 M
507 374 L
S
GR
GS
[0.75 0 0 0.75 0 0] CT
0.149 GC
2 setlinecap
1 LJ
0.667 LW
N
73 31 M
507 31 L
S
GR
GS
[0.75 0 0 0.75 0 0] CT
0.149 GC
2 setlinecap
1 LJ
0.667 LW
N
73 374 M
73 369.66 L
S
GR
GS
[0.75 0 0 0.75 0 0] CT
0.149 GC
2 setlinecap
1 LJ
0.667 LW
N
116.4 374 M
116.4 369.66 L
S
GR
GS
[0.75 0 0 0.75 0 0] CT
0.149 GC
2 setlinecap
1 LJ
0.667 LW
N
159.8 374 M
159.8 369.66 L
S
GR
GS
[0.75 0 0 0.75 0 0] CT
0.149 GC
2 setlinecap
1 LJ
0.667 LW
N
203.2 374 M
203.2 369.66 L
S
GR
GS
[0.75 0 0 0.75 0 0] CT
0.149 GC
2 setlinecap
1 LJ
0.667 LW
N
246.6 374 M
246.6 369.66 L
S
GR
GS
[0.75 0 0 0.75 0 0] CT
0.149 GC
2 setlinecap
1 LJ
0.667 LW
N
290 374 M
290 369.66 L
S
GR
GS
[0.75 0 0 0.75 0 0] CT
0.149 GC
2 setlinecap
1 LJ
0.667 LW
N
333.4 374 M
333.4 369.66 L
S
GR
GS
[0.75 0 0 0.75 0 0] CT
0.149 GC
2 setlinecap
1 LJ
0.667 LW
N
376.8 374 M
376.8 369.66 L
S
GR
GS
[0.75 0 0 0.75 0 0] CT
0.149 GC
2 setlinecap
1 LJ
0.667 LW
N
420.2 374 M
420.2 369.66 L
S
GR
GS
[0.75 0 0 0.75 0 0] CT
0.149 GC
2 setlinecap
1 LJ
0.667 LW
N
463.6 374 M
463.6 369.66 L
S
GR
GS
[0.75 0 0 0.75 0 0] CT
0.149 GC
2 setlinecap
1 LJ
0.667 LW
N
507 374 M
507 369.66 L
S
GR
GS
[0.75 0 0 0.75 0 0] CT
0.149 GC
2 setlinecap
1 LJ
0.667 LW
N
73 31 M
73 35.34 L
S
GR
GS
[0.75 0 0 0.75 0 0] CT
0.149 GC
2 setlinecap
1 LJ
0.667 LW
N
116.4 31 M
116.4 35.34 L
S
GR
GS
[0.75 0 0 0.75 0 0] CT
0.149 GC
2 setlinecap
1 LJ
0.667 LW
N
159.8 31 M
159.8 35.34 L
S
GR
GS
[0.75 0 0 0.75 0 0] CT
0.149 GC
2 setlinecap
1 LJ
0.667 LW
N
203.2 31 M
203.2 35.34 L
S
GR
GS
[0.75 0 0 0.75 0 0] CT
0.149 GC
2 setlinecap
1 LJ
0.667 LW
N
246.6 31 M
246.6 35.34 L
S
GR
GS
[0.75 0 0 0.75 0 0] CT
0.149 GC
2 setlinecap
1 LJ
0.667 LW
N
290 31 M
290 35.34 L
S
GR
GS
[0.75 0 0 0.75 0 0] CT
0.149 GC
2 setlinecap
1 LJ
0.667 LW
N
333.4 31 M
333.4 35.34 L
S
GR
GS
[0.75 0 0 0.75 0 0] CT
0.149 GC
2 setlinecap
1 LJ
0.667 LW
N
376.8 31 M
376.8 35.34 L
S
GR
GS
[0.75 0 0 0.75 0 0] CT
0.149 GC
2 setlinecap
1 LJ
0.667 LW
N
420.2 31 M
420.2 35.34 L
S
GR
GS
[0.75 0 0 0.75 0 0] CT
0.149 GC
2 setlinecap
1 LJ
0.667 LW
N
463.6 31 M
463.6 35.34 L
S
GR
GS
[0.75 0 0 0.75 0 0] CT
0.149 GC
2 setlinecap
1 LJ
0.667 LW
N
507 31 M
507 35.34 L
S
GR
GS
[0.75 0 0 0.75 54.75 284.49998] CT
0.149 GC
/Helvetica 13.333 F
GS
[1 0 0 1 0 0] CT
-10 14 moveto 
1 -1 scale
(-10) t 
GR
GR
GS
[0.75 0 0 0.75 87.3 284.49998] CT
0.149 GC
/Helvetica 13.333 F
GS
[1 0 0 1 0 0] CT
-6 14 moveto 
1 -1 scale
(-8) t 
GR
GR
GS
[0.75 0 0 0.75 119.85 284.49998] CT
0.149 GC
/Helvetica 13.333 F
GS
[1 0 0 1 0 0] CT
-6 14 moveto 
1 -1 scale
(-6) t 
GR
GR
GS
[0.75 0 0 0.75 152.4 284.49998] CT
0.149 GC
/Helvetica 13.333 F
GS
[1 0 0 1 0 0] CT
-6 14 moveto 
1 -1 scale
(-4) t 
GR
GR
GS
[0.75 0 0 0.75 184.95 284.49998] CT
0.149 GC
/Helvetica 13.333 F
GS
[1 0 0 1 0 0] CT
-6 14 moveto 
1 -1 scale
(-2) t 
GR
GR
GS
[0.75 0 0 0.75 217.5 284.49998] CT
0.149 GC
/Helvetica 13.333 F
GS
[1 0 0 1 0 0] CT
-4 14 moveto 
1 -1 scale
(0) t 
GR
GR
GS
[0.75 0 0 0.75 250.05 284.49998] CT
0.149 GC
/Helvetica 13.333 F
GS
[1 0 0 1 0 0] CT
-4 14 moveto 
1 -1 scale
(2) t 
GR
GR
GS
[0.75 0 0 0.75 282.59999 284.49998] CT
0.149 GC
/Helvetica 13.333 F
GS
[1 0 0 1 0 0] CT
-4 14 moveto 
1 -1 scale
(4) t 
GR
GR
GS
[0.75 0 0 0.75 315.15001 284.49998] CT
0.149 GC
/Helvetica 13.333 F
GS
[1 0 0 1 0 0] CT
-4 14 moveto 
1 -1 scale
(6) t 
GR
GR
GS
[0.75 0 0 0.75 347.7 284.49998] CT
0.149 GC
/Helvetica 13.333 F
GS
[1 0 0 1 0 0] CT
-4 14 moveto 
1 -1 scale
(8) t 
GR
GR
GS
[0.75 0 0 0.75 380.25 284.49998] CT
0.149 GC
/Helvetica 13.333 F
GS
[1 0 0 1 0 0] CT
-7.5 14 moveto 
1 -1 scale
(10) t 
GR
GR
GS
[0.75 0 0 0.75 0 0] CT
0.149 GC
2 setlinecap
1 LJ
0.667 LW
N
73 374 M
73 31 L
S
GR
GS
[0.75 0 0 0.75 0 0] CT
0.149 GC
2 setlinecap
1 LJ
0.667 LW
N
507 374 M
507 31 L
S
GR
GS
[0.75 0 0 0.75 0 0] CT
0.149 GC
2 setlinecap
1 LJ
0.667 LW
N
73 367.404 M
77.34 367.404 L
S
GR
GS
[0.75 0 0 0.75 0 0] CT
0.149 GC
2 setlinecap
1 LJ
0.667 LW
N
73 334.423 M
77.34 334.423 L
S
GR
GS
[0.75 0 0 0.75 0 0] CT
0.149 GC
2 setlinecap
1 LJ
0.667 LW
N
73 301.442 M
77.34 301.442 L
S
GR
GS
[0.75 0 0 0.75 0 0] CT
0.149 GC
2 setlinecap
1 LJ
0.667 LW
N
73 268.462 M
77.34 268.462 L
S
GR
GS
[0.75 0 0 0.75 0 0] CT
0.149 GC
2 setlinecap
1 LJ
0.667 LW
N
73 235.481 M
77.34 235.481 L
S
GR
GS
[0.75 0 0 0.75 0 0] CT
0.149 GC
2 setlinecap
1 LJ
0.667 LW
N
73 202.5 M
77.34 202.5 L
S
GR
GS
[0.75 0 0 0.75 0 0] CT
0.149 GC
2 setlinecap
1 LJ
0.667 LW
N
73 169.519 M
77.34 169.519 L
S
GR
GS
[0.75 0 0 0.75 0 0] CT
0.149 GC
2 setlinecap
1 LJ
0.667 LW
N
73 136.538 M
77.34 136.538 L
S
GR
GS
[0.75 0 0 0.75 0 0] CT
0.149 GC
2 setlinecap
1 LJ
0.667 LW
N
73 103.558 M
77.34 103.558 L
S
GR
GS
[0.75 0 0 0.75 0 0] CT
0.149 GC
2 setlinecap
1 LJ
0.667 LW
N
73 70.577 M
77.34 70.577 L
S
GR
GS
[0.75 0 0 0.75 0 0] CT
0.149 GC
2 setlinecap
1 LJ
0.667 LW
N
73 37.596 M
77.34 37.596 L
S
GR
GS
[0.75 0 0 0.75 0 0] CT
0.149 GC
2 setlinecap
1 LJ
0.667 LW
N
507 367.404 M
502.66 367.404 L
S
GR
GS
[0.75 0 0 0.75 0 0] CT
0.149 GC
2 setlinecap
1 LJ
0.667 LW
N
507 334.423 M
502.66 334.423 L
S
GR
GS
[0.75 0 0 0.75 0 0] CT
0.149 GC
2 setlinecap
1 LJ
0.667 LW
N
507 301.442 M
502.66 301.442 L
S
GR
GS
[0.75 0 0 0.75 0 0] CT
0.149 GC
2 setlinecap
1 LJ
0.667 LW
N
507 268.462 M
502.66 268.462 L
S
GR
GS
[0.75 0 0 0.75 0 0] CT
0.149 GC
2 setlinecap
1 LJ
0.667 LW
N
507 235.481 M
502.66 235.481 L
S
GR
GS
[0.75 0 0 0.75 0 0] CT
0.149 GC
2 setlinecap
1 LJ
0.667 LW
N
507 202.5 M
502.66 202.5 L
S
GR
GS
[0.75 0 0 0.75 0 0] CT
0.149 GC
2 setlinecap
1 LJ
0.667 LW
N
507 169.519 M
502.66 169.519 L
S
GR
GS
[0.75 0 0 0.75 0 0] CT
0.149 GC
2 setlinecap
1 LJ
0.667 LW
N
507 136.538 M
502.66 136.538 L
S
GR
GS
[0.75 0 0 0.75 0 0] CT
0.149 GC
2 setlinecap
1 LJ
0.667 LW
N
507 103.558 M
502.66 103.558 L
S
GR
GS
[0.75 0 0 0.75 0 0] CT
0.149 GC
2 setlinecap
1 LJ
0.667 LW
N
507 70.577 M
502.66 70.577 L
S
GR
GS
[0.75 0 0 0.75 0 0] CT
0.149 GC
2 setlinecap
1 LJ
0.667 LW
N
507 37.596 M
502.66 37.596 L
S
GR
GS
[0.75 0 0 0.75 50.74999 275.55288] CT
0.149 GC
/Helvetica 13.333 F
GS
[1 0 0 1 0 0] CT
-20 5.5 moveto 
1 -1 scale
(-10) t 
GR
GR
GS
[0.75 0 0 0.75 50.74999 250.8173] CT
0.149 GC
/Helvetica 13.333 F
GS
[1 0 0 1 0 0] CT
-12 5.5 moveto 
1 -1 scale
(-8) t 
GR
GR
GS
[0.75 0 0 0.75 50.74999 226.08174] CT
0.149 GC
/Helvetica 13.333 F
GS
[1 0 0 1 0 0] CT
-12 5.5 moveto 
1 -1 scale
(-6) t 
GR
GR
GS
[0.75 0 0 0.75 50.74999 201.34616] CT
0.149 GC
/Helvetica 13.333 F
GS
[1 0 0 1 0 0] CT
-12 5.5 moveto 
1 -1 scale
(-4) t 
GR
GR
GS
[0.75 0 0 0.75 50.74999 176.61058] CT
0.149 GC
/Helvetica 13.333 F
GS
[1 0 0 1 0 0] CT
-12 5.5 moveto 
1 -1 scale
(-2) t 
GR
GR
GS
[0.75 0 0 0.75 50.74999 151.875] CT
0.149 GC
/Helvetica 13.333 F
GS
[1 0 0 1 0 0] CT
-8 5.5 moveto 
1 -1 scale
(0) t 
GR
GR
GS
[0.75 0 0 0.75 50.74999 127.13942] CT
0.149 GC
/Helvetica 13.333 F
GS
[1 0 0 1 0 0] CT
-8 5.5 moveto 
1 -1 scale
(2) t 
GR
GR
GS
[0.75 0 0 0.75 50.74999 102.40385] CT
0.149 GC
/Helvetica 13.333 F
GS
[1 0 0 1 0 0] CT
-8 5.5 moveto 
1 -1 scale
(4) t 
GR
GR
GS
[0.75 0 0 0.75 50.74999 77.66827] CT
0.149 GC
/Helvetica 13.333 F
GS
[1 0 0 1 0 0] CT
-8 5.5 moveto 
1 -1 scale
(6) t 
GR
GR
GS
[0.75 0 0 0.75 50.74999 52.93269] CT
0.149 GC
/Helvetica 13.333 F
GS
[1 0 0 1 0 0] CT
-8 5.5 moveto 
1 -1 scale
(8) t 
GR
GR
GS
[0.75 0 0 0.75 50.74999 28.19711] CT
0.149 GC
/Helvetica 13.333 F
GS
[1 0 0 1 0 0] CT
-15 5.5 moveto 
1 -1 scale
(10) t 
GR
GR
GS
[0.75 0 0 0.75 0 0] CT
0 0.447 0.741 RC
1 LJ
0.667 LW
N
73 367.404 M
73.434 367.074 L
73.869 366.744 L
74.303 366.413 L
74.738 366.083 L
75.172 365.753 L
75.607 365.423 L
76.041 365.093 L
76.475 364.763 L
76.91 364.433 L
77.344 364.102 L
77.779 363.772 L
78.213 363.442 L
78.648 363.112 L
79.082 362.782 L
79.517 362.452 L
79.951 362.122 L
80.385 361.792 L
80.82 361.461 L
81.254 361.131 L
81.689 360.801 L
82.123 360.471 L
82.558 360.141 L
82.992 359.811 L
83.426 359.481 L
83.861 359.15 L
84.295 358.82 L
84.73 358.49 L
85.164 358.16 L
85.599 357.83 L
86.033 357.5 L
86.467 357.17 L
86.902 356.839 L
87.336 356.509 L
87.771 356.179 L
88.205 355.849 L
88.64 355.519 L
89.074 355.189 L
89.508 354.859 L
89.943 354.528 L
90.377 354.198 L
90.812 353.868 L
91.246 353.538 L
91.681 353.208 L
92.115 352.878 L
92.55 352.548 L
92.984 352.217 L
93.418 351.887 L
93.853 351.557 L
94.287 351.227 L
94.722 350.897 L
95.156 350.567 L
95.591 350.237 L
96.025 349.907 L
96.459 349.576 L
96.894 349.246 L
97.328 348.916 L
97.763 348.586 L
98.197 348.256 L
98.632 347.926 L
99.066 347.596 L
99.5 347.265 L
99.935 346.935 L
100.369 346.605 L
100.804 346.275 L
101.238 345.945 L
101.673 345.615 L
102.107 345.285 L
102.542 344.954 L
102.976 344.624 L
103.41 344.294 L
103.845 343.964 L
104.279 343.634 L
104.714 343.304 L
105.148 342.974 L
105.583 342.644 L
106.017 342.313 L
106.451 341.983 L
106.886 341.653 L
107.32 341.323 L
107.755 340.993 L
108.189 340.663 L
108.624 340.333 L
109.058 340.002 L
109.492 339.672 L
109.927 339.342 L
110.361 339.012 L
110.796 338.682 L
111.23 338.352 L
111.665 338.022 L
112.099 337.691 L
112.534 337.361 L
112.968 337.031 L
113.402 336.701 L
113.837 336.371 L
114.271 336.041 L
114.706 335.711 L
115.14 335.38 L
115.575 335.05 L
116.009 334.72 L
116.443 334.39 L
116.878 334.06 L
117.312 333.73 L
117.747 333.4 L
118.181 333.07 L
118.616 332.739 L
119.05 332.409 L
119.484 332.079 L
119.919 331.749 L
120.353 331.419 L
120.788 331.089 L
121.222 330.759 L
121.657 330.428 L
122.091 330.098 L
122.526 329.768 L
122.96 329.438 L
123.394 329.108 L
123.829 328.778 L
124.263 328.448 L
124.698 328.117 L
125.132 327.787 L
125.567 327.457 L
126.001 327.127 L
126.435 326.797 L
126.87 326.467 L
127.304 326.137 L
127.739 325.806 L
128.173 325.476 L
128.608 325.146 L
129.042 324.816 L
129.476 324.486 L
129.911 324.156 L
130.345 323.826 L
130.78 323.496 L
131.214 323.165 L
131.649 322.835 L
132.083 322.505 L
132.518 322.175 L
132.952 321.845 L
133.386 321.515 L
133.821 321.185 L
134.255 320.854 L
134.69 320.524 L
135.124 320.194 L
135.559 319.864 L
135.993 319.534 L
136.427 319.204 L
136.862 318.874 L
137.296 318.543 L
137.731 318.213 L
138.165 317.883 L
138.6 317.553 L
139.034 317.223 L
139.468 316.893 L
139.903 316.563 L
140.337 316.232 L
140.772 315.902 L
141.206 315.572 L
141.641 315.242 L
142.075 314.912 L
142.51 314.582 L
142.944 314.252 L
143.378 313.922 L
143.813 313.591 L
144.247 313.261 L
144.682 312.931 L
145.116 312.601 L
145.551 312.271 L
145.985 311.941 L
146.419 311.611 L
146.854 311.28 L
147.288 310.95 L
147.723 310.62 L
148.157 310.29 L
148.592 309.96 L
149.026 309.63 L
149.46 309.3 L
149.895 308.969 L
150.329 308.639 L
150.764 308.309 L
151.198 307.979 L
151.633 307.649 L
152.067 307.319 L
152.502 306.989 L
152.936 306.658 L
153.37 306.328 L
153.805 305.998 L
154.239 305.668 L
154.674 305.338 L
155.108 305.008 L
155.543 304.678 L
155.977 304.348 L
156.411 304.017 L
156.846 303.687 L
157.28 303.357 L
157.715 303.027 L
158.149 302.697 L
158.584 302.367 L
159.018 302.037 L
159.452 301.706 L
159.887 301.376 L
160.321 301.046 L
160.756 300.716 L
161.19 300.386 L
161.625 300.056 L
162.059 299.726 L
162.493 299.395 L
162.928 299.065 L
163.362 298.735 L
163.797 298.405 L
164.231 298.075 L
164.666 297.745 L
165.1 297.415 L
165.535 297.085 L
165.969 296.754 L
166.403 296.424 L
166.838 296.094 L
167.272 295.764 L
167.707 295.434 L
168.141 295.104 L
168.576 294.774 L
169.01 294.443 L
169.444 294.113 L
169.879 293.783 L
170.313 293.453 L
170.748 293.123 L
171.182 292.793 L
171.617 292.463 L
172.051 292.132 L
172.485 291.802 L
172.92 291.472 L
173.354 291.142 L
173.789 290.812 L
174.223 290.482 L
174.658 290.152 L
175.092 289.821 L
175.527 289.491 L
175.961 289.161 L
176.395 288.831 L
176.83 288.501 L
177.264 288.171 L
177.699 287.841 L
178.133 287.51 L
178.568 287.18 L
179.002 286.85 L
179.436 286.52 L
179.871 286.19 L
180.305 285.86 L
180.74 285.53 L
181.174 285.2 L
181.609 284.869 L
182.043 284.539 L
182.477 284.209 L
182.912 283.879 L
183.346 283.549 L
183.781 283.219 L
184.215 282.889 L
184.65 282.558 L
185.084 282.228 L
185.519 281.898 L
185.953 281.568 L
186.387 281.238 L
186.822 280.908 L
187.256 280.578 L
187.691 280.247 L
188.125 279.917 L
188.56 279.587 L
188.994 279.257 L
189.428 278.927 L
189.863 278.597 L
190.297 278.267 L
190.732 277.936 L
191.166 277.606 L
191.601 277.276 L
192.035 276.946 L
192.469 276.616 L
192.904 276.286 L
193.338 275.956 L
193.773 275.626 L
194.207 275.295 L
194.642 274.965 L
195.076 274.635 L
195.511 274.305 L
195.945 273.975 L
196.379 273.645 L
196.814 273.315 L
197.248 272.984 L
197.683 272.654 L
198.117 272.324 L
198.552 271.994 L
198.986 271.664 L
199.42 271.334 L
199.855 271.004 L
200.289 270.673 L
200.724 270.343 L
201.158 270.013 L
201.593 269.683 L
202.027 269.353 L
202.461 269.023 L
202.896 268.693 L
203.33 268.362 L
203.765 268.032 L
204.199 267.702 L
204.634 267.372 L
205.068 267.042 L
205.503 266.712 L
205.937 266.382 L
206.371 266.052 L
206.806 265.721 L
207.24 265.391 L
207.675 265.061 L
208.109 264.731 L
208.544 264.401 L
208.978 264.071 L
209.412 263.741 L
209.847 263.41 L
210.281 263.08 L
210.716 262.75 L
211.15 262.42 L
211.585 262.09 L
212.019 261.76 L
212.453 261.43 L
212.888 261.099 L
213.322 260.769 L
213.757 260.439 L
214.191 260.109 L
214.626 259.779 L
215.06 259.449 L
215.494 259.119 L
215.929 258.789 L
216.363 258.458 L
216.798 258.128 L
217.232 257.798 L
217.667 257.468 L
218.101 257.138 L
218.536 256.808 L
218.97 256.478 L
219.404 256.147 L
219.839 255.817 L
220.273 255.487 L
220.708 255.157 L
221.142 254.827 L
221.577 254.497 L
222.011 254.167 L
222.445 253.836 L
222.88 253.506 L
223.314 253.176 L
223.749 252.846 L
224.183 252.516 L
224.618 252.186 L
225.052 251.856 L
225.486 251.525 L
225.921 251.195 L
226.355 250.865 L
226.79 250.535 L
227.224 250.205 L
227.659 249.875 L
228.093 249.545 L
228.528 249.215 L
228.962 248.884 L
229.396 248.554 L
229.831 248.224 L
230.265 247.894 L
230.7 247.564 L
231.134 247.234 L
231.569 246.904 L
232.003 246.573 L
232.437 246.243 L
232.872 245.913 L
233.306 245.583 L
233.741 245.253 L
234.175 244.923 L
234.61 244.593 L
235.044 244.262 L
235.478 243.932 L
235.913 243.602 L
236.347 243.272 L
236.782 242.942 L
237.216 242.612 L
237.651 242.282 L
238.085 241.951 L
238.52 241.621 L
238.954 241.291 L
239.388 240.961 L
239.823 240.631 L
240.257 240.301 L
240.692 239.971 L
241.126 239.641 L
241.561 239.31 L
241.995 238.98 L
242.429 238.65 L
242.864 238.32 L
243.298 237.99 L
243.733 237.66 L
244.167 237.33 L
244.602 236.999 L
245.036 236.669 L
245.47 236.339 L
245.905 236.009 L
246.339 235.679 L
246.774 235.349 L
247.208 235.019 L
247.643 234.688 L
248.077 234.358 L
248.512 234.028 L
248.946 233.698 L
249.38 233.368 L
249.815 233.038 L
250.249 232.708 L
250.684 232.377 L
251.118 232.047 L
251.553 231.717 L
251.987 231.387 L
252.421 231.057 L
252.856 230.727 L
253.29 230.397 L
253.725 230.067 L
254.159 229.736 L
254.594 229.406 L
255.028 229.076 L
255.462 228.746 L
255.897 228.416 L
256.331 228.086 L
256.766 227.756 L
257.2 227.425 L
257.635 227.095 L
258.069 226.765 L
258.504 226.435 L
258.938 226.105 L
259.372 225.775 L
259.807 225.445 L
260.241 225.114 L
260.676 224.784 L
261.11 224.454 L
261.545 224.124 L
261.979 223.794 L
262.413 223.464 L
262.848 223.134 L
263.282 222.803 L
263.717 222.473 L
264.151 222.143 L
264.586 221.813 L
265.02 221.483 L
265.454 221.153 L
265.889 220.823 L
266.323 220.493 L
266.758 220.162 L
267.192 219.832 L
267.627 219.502 L
268.061 219.172 L
268.495 218.842 L
268.93 218.512 L
269.364 218.182 L
269.799 217.851 L
270.233 217.521 L
270.668 217.191 L
271.102 216.861 L
271.537 216.531 L
271.971 216.201 L
272.405 215.871 L
272.84 215.54 L
273.274 215.21 L
273.709 214.88 L
274.143 214.55 L
274.578 214.22 L
275.012 213.89 L
275.446 213.56 L
275.881 213.229 L
276.315 212.899 L
276.75 212.569 L
277.184 212.239 L
277.619 211.909 L
278.053 211.579 L
278.487 211.249 L
278.922 210.919 L
279.356 210.588 L
279.791 210.258 L
280.225 209.928 L
280.66 209.598 L
281.094 209.268 L
281.529 208.938 L
281.963 208.608 L
282.397 208.277 L
282.832 207.947 L
283.266 207.617 L
283.701 207.287 L
284.135 206.957 L
284.57 206.627 L
285.004 206.297 L
285.438 205.966 L
285.873 205.636 L
286.307 205.306 L
286.742 204.976 L
287.176 204.646 L
287.611 204.316 L
288.045 203.986 L
288.479 203.655 L
288.914 203.325 L
289.348 202.995 L
289.783 202.665 L
290.217 202.335 L
290.652 202.005 L
291.086 201.675 L
291.521 201.345 L
291.955 201.014 L
292.389 200.684 L
292.824 200.354 L
293.258 200.024 L
293.693 199.694 L
294.127 199.364 L
294.562 199.034 L
294.996 198.703 L
295.43 198.373 L
295.865 198.043 L
296.299 197.713 L
296.734 197.383 L
297.168 197.053 L
297.603 196.723 L
298.037 196.392 L
298.471 196.062 L
298.906 195.732 L
299.34 195.402 L
299.775 195.072 L
300.209 194.742 L
300.644 194.412 L
301.078 194.081 L
301.513 193.751 L
301.947 193.421 L
302.381 193.091 L
302.816 192.761 L
303.25 192.431 L
303.685 192.101 L
304.119 191.771 L
304.554 191.44 L
304.988 191.11 L
305.422 190.78 L
305.857 190.45 L
306.291 190.12 L
306.726 189.79 L
307.16 189.46 L
307.595 189.129 L
308.029 188.799 L
308.463 188.469 L
308.898 188.139 L
309.332 187.809 L
309.767 187.479 L
310.201 187.149 L
310.636 186.818 L
311.07 186.488 L
311.505 186.158 L
311.939 185.828 L
312.373 185.498 L
312.808 185.168 L
313.242 184.838 L
313.677 184.507 L
314.111 184.177 L
314.546 183.847 L
314.98 183.517 L
315.414 183.187 L
315.849 182.857 L
316.283 182.527 L
316.718 182.197 L
317.152 181.866 L
317.587 181.536 L
318.021 181.206 L
318.455 180.876 L
318.89 180.546 L
319.324 180.216 L
319.759 179.886 L
320.193 179.555 L
320.628 179.225 L
321.062 178.895 L
321.496 178.565 L
321.931 178.235 L
322.365 177.905 L
322.8 177.575 L
323.234 177.244 L
323.669 176.914 L
324.103 176.584 L
324.538 176.254 L
324.972 175.924 L
325.406 175.594 L
325.841 175.264 L
326.275 174.933 L
326.71 174.603 L
327.144 174.273 L
327.579 173.943 L
328.013 173.613 L
328.447 173.283 L
328.882 172.953 L
329.316 172.623 L
329.751 172.292 L
330.185 171.962 L
330.62 171.632 L
331.054 171.302 L
331.488 170.972 L
331.923 170.642 L
332.357 170.312 L
332.792 169.981 L
333.226 169.651 L
333.661 169.321 L
334.095 168.991 L
334.53 168.661 L
334.964 168.331 L
335.398 168.001 L
335.833 167.67 L
336.267 167.34 L
336.702 167.01 L
337.136 166.68 L
337.571 166.35 L
338.005 166.02 L
338.439 165.69 L
338.874 165.359 L
339.308 165.029 L
339.743 164.699 L
340.177 164.369 L
340.612 164.039 L
341.046 163.709 L
341.48 163.379 L
341.915 163.049 L
342.349 162.718 L
342.784 162.388 L
343.218 162.058 L
343.653 161.728 L
344.087 161.398 L
344.522 161.068 L
344.956 160.738 L
345.39 160.407 L
345.825 160.077 L
346.259 159.747 L
346.694 159.417 L
347.128 159.087 L
347.563 158.757 L
347.997 158.427 L
348.431 158.096 L
348.866 157.766 L
349.3 157.436 L
349.735 157.106 L
350.169 156.776 L
350.604 156.446 L
351.038 156.116 L
351.472 155.785 L
351.907 155.455 L
352.341 155.125 L
352.776 154.795 L
353.21 154.465 L
353.645 154.135 L
354.079 153.805 L
354.514 153.475 L
354.948 153.144 L
355.382 152.814 L
355.817 152.484 L
356.251 152.154 L
356.686 151.824 L
357.12 151.494 L
357.555 151.164 L
357.989 150.833 L
358.423 150.503 L
358.858 150.173 L
359.292 149.843 L
359.727 149.513 L
360.161 149.183 L
360.596 148.853 L
361.03 148.522 L
361.464 148.192 L
361.899 147.862 L
362.333 147.532 L
362.768 147.202 L
363.202 146.872 L
363.637 146.542 L
364.071 146.212 L
364.505 145.881 L
364.94 145.551 L
365.374 145.221 L
365.809 144.891 L
366.243 144.561 L
366.678 144.231 L
367.112 143.901 L
367.547 143.57 L
367.981 143.24 L
368.415 142.91 L
368.85 142.58 L
369.284 142.25 L
369.719 141.92 L
370.153 141.59 L
370.588 141.259 L
371.022 140.929 L
371.456 140.599 L
371.891 140.269 L
372.325 139.939 L
372.76 139.609 L
373.194 139.279 L
373.629 138.948 L
374.063 138.618 L
374.497 138.288 L
374.932 137.958 L
375.366 137.628 L
375.801 137.298 L
376.235 136.968 L
376.67 136.637 L
377.104 136.307 L
377.539 135.977 L
377.973 135.647 L
378.407 135.317 L
378.842 134.987 L
379.276 134.657 L
379.711 134.327 L
380.145 133.996 L
380.58 133.666 L
381.014 133.336 L
381.448 133.006 L
381.883 132.676 L
382.317 132.346 L
382.752 132.016 L
383.186 131.685 L
383.621 131.355 L
384.055 131.025 L
384.49 130.695 L
384.924 130.365 L
385.358 130.035 L
385.793 129.705 L
386.227 129.374 L
386.662 129.044 L
387.096 128.714 L
387.531 128.384 L
387.965 128.054 L
388.399 127.724 L
388.834 127.394 L
389.268 127.064 L
389.703 126.733 L
390.137 126.403 L
390.572 126.073 L
391.006 125.743 L
391.44 125.413 L
391.875 125.083 L
392.309 124.753 L
392.744 124.422 L
393.178 124.092 L
393.613 123.762 L
394.047 123.432 L
394.481 123.102 L
394.916 122.772 L
395.35 122.442 L
395.785 122.111 L
396.219 121.781 L
396.654 121.451 L
397.088 121.121 L
397.523 120.791 L
397.957 120.461 L
398.391 120.131 L
398.826 119.8 L
399.26 119.47 L
399.695 119.14 L
400.129 118.81 L
400.564 118.48 L
400.998 118.15 L
401.432 117.82 L
401.867 117.49 L
402.301 117.159 L
402.736 116.829 L
403.17 116.499 L
403.605 116.169 L
404.039 115.839 L
404.473 115.509 L
404.908 115.179 L
405.342 114.848 L
405.777 114.518 L
406.211 114.188 L
406.646 113.858 L
407.08 113.528 L
407.515 113.198 L
407.949 112.868 L
408.383 112.537 L
408.818 112.207 L
409.252 111.877 L
409.687 111.547 L
410.121 111.217 L
410.556 110.887 L
410.99 110.557 L
411.424 110.226 L
411.859 109.896 L
412.293 109.566 L
412.728 109.236 L
413.162 108.906 L
413.597 108.576 L
414.031 108.246 L
414.465 107.916 L
414.9 107.585 L
415.334 107.255 L
415.769 106.925 L
416.203 106.595 L
416.638 106.265 L
417.072 105.935 L
417.507 105.605 L
417.941 105.274 L
418.375 104.944 L
418.81 104.614 L
419.244 104.284 L
419.679 103.954 L
420.113 103.624 L
420.548 103.294 L
420.982 102.963 L
421.416 102.633 L
421.851 102.303 L
422.285 101.973 L
422.72 101.643 L
423.154 101.313 L
423.589 100.983 L
424.023 100.652 L
424.457 100.322 L
424.892 99.992 L
425.326 99.662 L
425.761 99.332 L
426.195 99.002 L
426.63 98.672 L
427.064 98.342 L
427.499 98.011 L
427.933 97.681 L
428.367 97.351 L
428.802 97.021 L
429.236 96.691 L
429.671 96.361 L
430.105 96.031 L
430.54 95.7 L
430.974 95.37 L
431.408 95.04 L
431.843 94.71 L
432.277 94.38 L
432.712 94.05 L
433.146 93.72 L
433.581 93.389 L
434.015 93.059 L
434.449 92.729 L
434.884 92.399 L
435.318 92.069 L
435.753 91.739 L
436.187 91.409 L
436.622 91.078 L
437.056 90.748 L
437.49 90.418 L
437.925 90.088 L
438.359 89.758 L
438.794 89.428 L
439.228 89.098 L
439.663 88.768 L
440.097 88.437 L
440.532 88.107 L
440.966 87.777 L
441.4 87.447 L
441.835 87.117 L
442.269 86.787 L
442.704 86.457 L
443.138 86.126 L
443.573 85.796 L
444.007 85.466 L
444.441 85.136 L
444.876 84.806 L
445.31 84.476 L
445.745 84.146 L
446.179 83.815 L
446.614 83.485 L
447.048 83.155 L
447.482 82.825 L
447.917 82.495 L
448.351 82.165 L
448.786 81.835 L
449.22 81.504 L
449.655 81.174 L
450.089 80.844 L
450.524 80.514 L
450.958 80.184 L
451.392 79.854 L
451.827 79.524 L
452.261 79.194 L
452.696 78.863 L
453.13 78.533 L
453.565 78.203 L
453.999 77.873 L
454.433 77.543 L
454.868 77.213 L
455.302 76.883 L
455.737 76.552 L
456.171 76.222 L
456.606 75.892 L
457.04 75.562 L
457.474 75.232 L
457.909 74.902 L
458.343 74.572 L
458.778 74.241 L
459.212 73.911 L
459.647 73.581 L
460.081 73.251 L
460.516 72.921 L
460.95 72.591 L
461.384 72.261 L
461.819 71.93 L
462.253 71.6 L
462.688 71.27 L
463.122 70.94 L
463.557 70.61 L
463.991 70.28 L
464.425 69.95 L
464.86 69.62 L
465.294 69.289 L
465.729 68.959 L
466.163 68.629 L
466.598 68.299 L
467.032 67.969 L
467.466 67.639 L
467.901 67.309 L
468.335 66.978 L
468.77 66.648 L
469.204 66.318 L
469.639 65.988 L
470.073 65.658 L
470.508 65.328 L
470.942 64.998 L
471.376 64.667 L
471.811 64.337 L
472.245 64.007 L
472.68 63.677 L
473.114 63.347 L
473.549 63.017 L
473.983 62.687 L
474.417 62.356 L
474.852 62.026 L
475.286 61.696 L
475.721 61.366 L
476.155 61.036 L
476.59 60.706 L
477.024 60.376 L
477.458 60.046 L
477.893 59.715 L
478.327 59.385 L
478.762 59.055 L
479.196 58.725 L
479.631 58.395 L
480.065 58.065 L
480.5 57.735 L
480.934 57.404 L
481.368 57.074 L
481.803 56.744 L
482.237 56.414 L
482.672 56.084 L
483.106 55.754 L
483.541 55.424 L
483.975 55.093 L
484.409 54.763 L
484.844 54.433 L
485.278 54.103 L
485.713 53.773 L
486.147 53.443 L
486.582 53.113 L
487.016 52.783 L
487.45 52.452 L
487.885 52.122 L
488.319 51.792 L
488.754 51.462 L
489.188 51.132 L
489.623 50.802 L
490.057 50.472 L
490.492 50.141 L
490.926 49.811 L
491.36 49.481 L
491.795 49.151 L
492.229 48.821 L
492.664 48.491 L
493.098 48.161 L
493.533 47.83 L
493.967 47.5 L
494.401 47.17 L
494.836 46.84 L
495.27 46.51 L
495.705 46.18 L
496.139 45.85 L
496.574 45.519 L
497.008 45.189 L
497.442 44.859 L
497.877 44.529 L
498.311 44.199 L
498.746 43.869 L
499.18 43.539 L
499.615 43.208 L
500.049 42.878 L
500.483 42.548 L
500.918 42.218 L
501.352 41.888 L
501.787 41.558 L
502.221 41.228 L
502.656 40.898 L
503.09 40.567 L
503.525 40.237 L
503.959 39.907 L
504.393 39.577 L
504.828 39.247 L
505.262 38.917 L
505.697 38.587 L
506.131 38.256 L
506.566 37.926 L
507 37.596 L
S
GR
%%Trailer
%%Pages: 1
%%EOF
