%!PS-Adobe-3.0 EPSF-3.0
%%Creator: (MATLAB, The Mathworks, Inc. Version 9.5.0.1049112 \(R2018b\) Update 3. Operating System: Windows 10)
%%Title: ./ReLU.eps
%%CreationDate: 2020-01-05T15:50:34
%%Pages: (atend)
%%BoundingBox:    40    19   385   293
%%LanguageLevel: 3
%%EndComments
%%BeginProlog
%%BeginResource: procset (Apache XML Graphics Std ProcSet) 1.2 0
%%Version: 1.2 0
%%Copyright: (Copyright 2001-2003,2010 The Apache Software Foundation. License terms: http://www.apache.org/licenses/LICENSE-2.0)
/bd{bind def}bind def
/ld{load def}bd
/GR/grestore ld
/GS/gsave ld
/RM/rmoveto ld
/C/curveto ld
/t/show ld
/L/lineto ld
/ML/setmiterlimit ld
/CT/concat ld
/f/fill ld
/N/newpath ld
/S/stroke ld
/CC/setcmykcolor ld
/A/ashow ld
/cp/closepath ld
/RC/setrgbcolor ld
/LJ/setlinejoin ld
/GC/setgray ld
/LW/setlinewidth ld
/M/moveto ld
/re {4 2 roll M
1 index 0 rlineto
0 exch rlineto
neg 0 rlineto
cp } bd
/_ctm matrix def
/_tm matrix def
/BT { _ctm currentmatrix pop matrix _tm copy pop 0 0 moveto } bd
/ET { _ctm setmatrix } bd
/iTm { _ctm setmatrix _tm concat } bd
/Tm { _tm astore pop iTm 0 0 moveto } bd
/ux 0.0 def
/uy 0.0 def
/F {
  /Tp exch def
  /Tf exch def
  Tf findfont Tp scalefont setfont
  /cf Tf def  /cs Tp def
} bd
/ULS {currentpoint /uy exch def /ux exch def} bd
/ULE {
  /Tcx currentpoint pop def
  gsave
  newpath
  cf findfont cs scalefont dup
  /FontMatrix get 0 get /Ts exch def /FontInfo get dup
  /UnderlinePosition get Ts mul /To exch def
  /UnderlineThickness get Ts mul /Tt exch def
  ux uy To add moveto  Tcx uy To add lineto
  Tt setlinewidth stroke
  grestore
} bd
/OLE {
  /Tcx currentpoint pop def
  gsave
  newpath
  cf findfont cs scalefont dup
  /FontMatrix get 0 get /Ts exch def /FontInfo get dup
  /UnderlinePosition get Ts mul /To exch def
  /UnderlineThickness get Ts mul /Tt exch def
  ux uy To add cs add moveto Tcx uy To add cs add lineto
  Tt setlinewidth stroke
  grestore
} bd
/SOE {
  /Tcx currentpoint pop def
  gsave
  newpath
  cf findfont cs scalefont dup
  /FontMatrix get 0 get /Ts exch def /FontInfo get dup
  /UnderlinePosition get Ts mul /To exch def
  /UnderlineThickness get Ts mul /Tt exch def
  ux uy To add cs 10 mul 26 idiv add moveto Tcx uy To add cs 10 mul 26 idiv add lineto
  Tt setlinewidth stroke
  grestore
} bd
/QT {
/Y22 exch store
/X22 exch store
/Y21 exch store
/X21 exch store
currentpoint
/Y21 load 2 mul add 3 div exch
/X21 load 2 mul add 3 div exch
/X21 load 2 mul /X22 load add 3 div
/Y21 load 2 mul /Y22 load add 3 div
/X22 load /Y22 load curveto
} bd
/SSPD {
dup length /d exch dict def
{
/v exch def
/k exch def
currentpagedevice k known {
/cpdv currentpagedevice k get def
v cpdv ne {
/upd false def
/nullv v type /nulltype eq def
/nullcpdv cpdv type /nulltype eq def
nullv nullcpdv or
{
/upd true def
} {
/sametype v type cpdv type eq def
sametype {
v type /arraytype eq {
/vlen v length def
/cpdvlen cpdv length def
vlen cpdvlen eq {
0 1 vlen 1 sub {
/i exch def
/obj v i get def
/cpdobj cpdv i get def
obj cpdobj ne {
/upd true def
exit
} if
} for
} {
/upd true def
} ifelse
} {
v type /dicttype eq {
v {
/dv exch def
/dk exch def
/cpddv cpdv dk get def
dv cpddv ne {
/upd true def
exit
} if
} forall
} {
/upd true def
} ifelse
} ifelse
} if
} ifelse
upd true eq {
d k v put
} if
} if
} if
} forall
d length 0 gt {
d setpagedevice
} if
} bd
/RE { % /NewFontName [NewEncodingArray] /FontName RE -
  findfont dup length dict begin
  {
    1 index /FID ne
    {def} {pop pop} ifelse
  } forall
  /Encoding exch def
  /FontName 1 index def
  currentdict definefont pop
  end
} bind def
%%EndResource
%%BeginResource: procset (Apache XML Graphics EPS ProcSet) 1.0 0
%%Version: 1.0 0
%%Copyright: (Copyright 2002-2003 The Apache Software Foundation. License terms: http://www.apache.org/licenses/LICENSE-2.0)
/BeginEPSF { %def
/b4_Inc_state save def         % Save state for cleanup
/dict_count countdictstack def % Count objects on dict stack
/op_count count 1 sub def      % Count objects on operand stack
userdict begin                 % Push userdict on dict stack
/showpage { } def              % Redefine showpage, { } = null proc
0 setgray 0 setlinecap         % Prepare graphics state
1 setlinewidth 0 setlinejoin
10 setmiterlimit [ ] 0 setdash newpath
/languagelevel where           % If level not equal to 1 then
{pop languagelevel             % set strokeadjust and
1 ne                           % overprint to their defaults.
{false setstrokeadjust false setoverprint
} if
} if
} bd
/EndEPSF { %def
count op_count sub {pop} repeat            % Clean up stacks
countdictstack dict_count sub {end} repeat
b4_Inc_state restore
} bd
%%EndResource
%FOPBeginFontDict
%%IncludeResource: font Courier-Oblique
%%IncludeResource: font Courier-BoldOblique
%%IncludeResource: font Courier-Bold
%%IncludeResource: font ZapfDingbats
%%IncludeResource: font Symbol
%%IncludeResource: font Helvetica
%%IncludeResource: font Helvetica-Oblique
%%IncludeResource: font Helvetica-Bold
%%IncludeResource: font Helvetica-BoldOblique
%%IncludeResource: font Times-Roman
%%IncludeResource: font Times-Italic
%%IncludeResource: font Times-Bold
%%IncludeResource: font Times-BoldItalic
%%IncludeResource: font Courier
%FOPEndFontDict
%%BeginResource: encoding WinAnsiEncoding
/WinAnsiEncoding [
/.notdef /.notdef /.notdef /.notdef /.notdef
/.notdef /.notdef /.notdef /.notdef /.notdef
/.notdef /.notdef /.notdef /.notdef /.notdef
/.notdef /.notdef /.notdef /.notdef /.notdef
/.notdef /.notdef /.notdef /.notdef /.notdef
/.notdef /.notdef /.notdef /.notdef /.notdef
/.notdef /.notdef /space /exclam /quotedbl
/numbersign /dollar /percent /ampersand /quotesingle
/parenleft /parenright /asterisk /plus /comma
/hyphen /period /slash /zero /one
/two /three /four /five /six
/seven /eight /nine /colon /semicolon
/less /equal /greater /question /at
/A /B /C /D /E
/F /G /H /I /J
/K /L /M /N /O
/P /Q /R /S /T
/U /V /W /X /Y
/Z /bracketleft /backslash /bracketright /asciicircum
/underscore /quoteleft /a /b /c
/d /e /f /g /h
/i /j /k /l /m
/n /o /p /q /r
/s /t /u /v /w
/x /y /z /braceleft /bar
/braceright /asciitilde /bullet /Euro /bullet
/quotesinglbase /florin /quotedblbase /ellipsis /dagger
/daggerdbl /circumflex /perthousand /Scaron /guilsinglleft
/OE /bullet /Zcaron /bullet /bullet
/quoteleft /quoteright /quotedblleft /quotedblright /bullet
/endash /emdash /asciitilde /trademark /scaron
/guilsinglright /oe /bullet /zcaron /Ydieresis
/space /exclamdown /cent /sterling /currency
/yen /brokenbar /section /dieresis /copyright
/ordfeminine /guillemotleft /logicalnot /sfthyphen /registered
/macron /degree /plusminus /twosuperior /threesuperior
/acute /mu /paragraph /middot /cedilla
/onesuperior /ordmasculine /guillemotright /onequarter /onehalf
/threequarters /questiondown /Agrave /Aacute /Acircumflex
/Atilde /Adieresis /Aring /AE /Ccedilla
/Egrave /Eacute /Ecircumflex /Edieresis /Igrave
/Iacute /Icircumflex /Idieresis /Eth /Ntilde
/Ograve /Oacute /Ocircumflex /Otilde /Odieresis
/multiply /Oslash /Ugrave /Uacute /Ucircumflex
/Udieresis /Yacute /Thorn /germandbls /agrave
/aacute /acircumflex /atilde /adieresis /aring
/ae /ccedilla /egrave /eacute /ecircumflex
/edieresis /igrave /iacute /icircumflex /idieresis
/eth /ntilde /ograve /oacute /ocircumflex
/otilde /odieresis /divide /oslash /ugrave
/uacute /ucircumflex /udieresis /yacute /thorn
/ydieresis
] def
%%EndResource
%FOPBeginFontReencode
/Courier-Oblique findfont
dup length dict begin
  {1 index /FID ne {def} {pop pop} ifelse} forall
  /Encoding WinAnsiEncoding def
  currentdict
end
/Courier-Oblique exch definefont pop
/Courier-BoldOblique findfont
dup length dict begin
  {1 index /FID ne {def} {pop pop} ifelse} forall
  /Encoding WinAnsiEncoding def
  currentdict
end
/Courier-BoldOblique exch definefont pop
/Courier-Bold findfont
dup length dict begin
  {1 index /FID ne {def} {pop pop} ifelse} forall
  /Encoding WinAnsiEncoding def
  currentdict
end
/Courier-Bold exch definefont pop
/Helvetica findfont
dup length dict begin
  {1 index /FID ne {def} {pop pop} ifelse} forall
  /Encoding WinAnsiEncoding def
  currentdict
end
/Helvetica exch definefont pop
/Helvetica-Oblique findfont
dup length dict begin
  {1 index /FID ne {def} {pop pop} ifelse} forall
  /Encoding WinAnsiEncoding def
  currentdict
end
/Helvetica-Oblique exch definefont pop
/Helvetica-Bold findfont
dup length dict begin
  {1 index /FID ne {def} {pop pop} ifelse} forall
  /Encoding WinAnsiEncoding def
  currentdict
end
/Helvetica-Bold exch definefont pop
/Helvetica-BoldOblique findfont
dup length dict begin
  {1 index /FID ne {def} {pop pop} ifelse} forall
  /Encoding WinAnsiEncoding def
  currentdict
end
/Helvetica-BoldOblique exch definefont pop
/Times-Roman findfont
dup length dict begin
  {1 index /FID ne {def} {pop pop} ifelse} forall
  /Encoding WinAnsiEncoding def
  currentdict
end
/Times-Roman exch definefont pop
/Times-Italic findfont
dup length dict begin
  {1 index /FID ne {def} {pop pop} ifelse} forall
  /Encoding WinAnsiEncoding def
  currentdict
end
/Times-Italic exch definefont pop
/Times-Bold findfont
dup length dict begin
  {1 index /FID ne {def} {pop pop} ifelse} forall
  /Encoding WinAnsiEncoding def
  currentdict
end
/Times-Bold exch definefont pop
/Times-BoldItalic findfont
dup length dict begin
  {1 index /FID ne {def} {pop pop} ifelse} forall
  /Encoding WinAnsiEncoding def
  currentdict
end
/Times-BoldItalic exch definefont pop
/Courier findfont
dup length dict begin
  {1 index /FID ne {def} {pop pop} ifelse} forall
  /Encoding WinAnsiEncoding def
  currentdict
end
/Courier exch definefont pop
%FOPEndFontReencode
%%EndProlog
%%Page: 1 1
%%PageBoundingBox: 0 0 420 315
%%BeginPageSetup
[1 0 0 -1 0 315] CT
%%EndPageSetup
GS
[0.75 0 0 0.75 0 0] CT
1 GC
N
0 0 560 420 re
f
GR
GS
[0.75 0 0 0.75 0 0] CT
1 GC
N
0 0 560 420 re
f
GR
GS
[0.75 0 0 0.75 0 0] CT
1 GC
N
73 374 M
507 374 L
507 31 L
73 31 L
cp
f
GR
GS
[0.75 0 0 0.75 0 0] CT
0.149 GC
2 setlinecap
1 LJ
0.667 LW
N
73 374 M
507 374 L
S
GR
GS
[0.75 0 0 0.75 0 0] CT
0.149 GC
2 setlinecap
1 LJ
0.667 LW
N
73 31 M
507 31 L
S
GR
GS
[0.75 0 0 0.75 0 0] CT
0.149 GC
2 setlinecap
1 LJ
0.667 LW
N
73 374 M
73 369.66 L
S
GR
GS
[0.75 0 0 0.75 0 0] CT
0.149 GC
2 setlinecap
1 LJ
0.667 LW
N
116.4 374 M
116.4 369.66 L
S
GR
GS
[0.75 0 0 0.75 0 0] CT
0.149 GC
2 setlinecap
1 LJ
0.667 LW
N
159.8 374 M
159.8 369.66 L
S
GR
GS
[0.75 0 0 0.75 0 0] CT
0.149 GC
2 setlinecap
1 LJ
0.667 LW
N
203.2 374 M
203.2 369.66 L
S
GR
GS
[0.75 0 0 0.75 0 0] CT
0.149 GC
2 setlinecap
1 LJ
0.667 LW
N
246.6 374 M
246.6 369.66 L
S
GR
GS
[0.75 0 0 0.75 0 0] CT
0.149 GC
2 setlinecap
1 LJ
0.667 LW
N
290 374 M
290 369.66 L
S
GR
GS
[0.75 0 0 0.75 0 0] CT
0.149 GC
2 setlinecap
1 LJ
0.667 LW
N
333.4 374 M
333.4 369.66 L
S
GR
GS
[0.75 0 0 0.75 0 0] CT
0.149 GC
2 setlinecap
1 LJ
0.667 LW
N
376.8 374 M
376.8 369.66 L
S
GR
GS
[0.75 0 0 0.75 0 0] CT
0.149 GC
2 setlinecap
1 LJ
0.667 LW
N
420.2 374 M
420.2 369.66 L
S
GR
GS
[0.75 0 0 0.75 0 0] CT
0.149 GC
2 setlinecap
1 LJ
0.667 LW
N
463.6 374 M
463.6 369.66 L
S
GR
GS
[0.75 0 0 0.75 0 0] CT
0.149 GC
2 setlinecap
1 LJ
0.667 LW
N
507 374 M
507 369.66 L
S
GR
GS
[0.75 0 0 0.75 0 0] CT
0.149 GC
2 setlinecap
1 LJ
0.667 LW
N
73 31 M
73 35.34 L
S
GR
GS
[0.75 0 0 0.75 0 0] CT
0.149 GC
2 setlinecap
1 LJ
0.667 LW
N
116.4 31 M
116.4 35.34 L
S
GR
GS
[0.75 0 0 0.75 0 0] CT
0.149 GC
2 setlinecap
1 LJ
0.667 LW
N
159.8 31 M
159.8 35.34 L
S
GR
GS
[0.75 0 0 0.75 0 0] CT
0.149 GC
2 setlinecap
1 LJ
0.667 LW
N
203.2 31 M
203.2 35.34 L
S
GR
GS
[0.75 0 0 0.75 0 0] CT
0.149 GC
2 setlinecap
1 LJ
0.667 LW
N
246.6 31 M
246.6 35.34 L
S
GR
GS
[0.75 0 0 0.75 0 0] CT
0.149 GC
2 setlinecap
1 LJ
0.667 LW
N
290 31 M
290 35.34 L
S
GR
GS
[0.75 0 0 0.75 0 0] CT
0.149 GC
2 setlinecap
1 LJ
0.667 LW
N
333.4 31 M
333.4 35.34 L
S
GR
GS
[0.75 0 0 0.75 0 0] CT
0.149 GC
2 setlinecap
1 LJ
0.667 LW
N
376.8 31 M
376.8 35.34 L
S
GR
GS
[0.75 0 0 0.75 0 0] CT
0.149 GC
2 setlinecap
1 LJ
0.667 LW
N
420.2 31 M
420.2 35.34 L
S
GR
GS
[0.75 0 0 0.75 0 0] CT
0.149 GC
2 setlinecap
1 LJ
0.667 LW
N
463.6 31 M
463.6 35.34 L
S
GR
GS
[0.75 0 0 0.75 0 0] CT
0.149 GC
2 setlinecap
1 LJ
0.667 LW
N
507 31 M
507 35.34 L
S
GR
GS
[0.75 0 0 0.75 54.75 284.50001] CT
0.149 GC
/Helvetica 13.333 F
GS
[1 0 0 1 0 0] CT
-10 14 moveto 
1 -1 scale
(-10) t 
GR
GR
GS
[0.75 0 0 0.75 87.3 284.50001] CT
0.149 GC
/Helvetica 13.333 F
GS
[1 0 0 1 0 0] CT
-6 14 moveto 
1 -1 scale
(-8) t 
GR
GR
GS
[0.75 0 0 0.75 119.85 284.50001] CT
0.149 GC
/Helvetica 13.333 F
GS
[1 0 0 1 0 0] CT
-6 14 moveto 
1 -1 scale
(-6) t 
GR
GR
GS
[0.75 0 0 0.75 152.4 284.50001] CT
0.149 GC
/Helvetica 13.333 F
GS
[1 0 0 1 0 0] CT
-6 14 moveto 
1 -1 scale
(-4) t 
GR
GR
GS
[0.75 0 0 0.75 184.95 284.50001] CT
0.149 GC
/Helvetica 13.333 F
GS
[1 0 0 1 0 0] CT
-6 14 moveto 
1 -1 scale
(-2) t 
GR
GR
GS
[0.75 0 0 0.75 217.5 284.50001] CT
0.149 GC
/Helvetica 13.333 F
GS
[1 0 0 1 0 0] CT
-4 14 moveto 
1 -1 scale
(0) t 
GR
GR
GS
[0.75 0 0 0.75 250.05 284.50001] CT
0.149 GC
/Helvetica 13.333 F
GS
[1 0 0 1 0 0] CT
-4 14 moveto 
1 -1 scale
(2) t 
GR
GR
GS
[0.75 0 0 0.75 282.59999 284.50001] CT
0.149 GC
/Helvetica 13.333 F
GS
[1 0 0 1 0 0] CT
-4 14 moveto 
1 -1 scale
(4) t 
GR
GR
GS
[0.75 0 0 0.75 315.15001 284.50001] CT
0.149 GC
/Helvetica 13.333 F
GS
[1 0 0 1 0 0] CT
-4 14 moveto 
1 -1 scale
(6) t 
GR
GR
GS
[0.75 0 0 0.75 347.7 284.50001] CT
0.149 GC
/Helvetica 13.333 F
GS
[1 0 0 1 0 0] CT
-4 14 moveto 
1 -1 scale
(8) t 
GR
GR
GS
[0.75 0 0 0.75 380.25 284.50001] CT
0.149 GC
/Helvetica 13.333 F
GS
[1 0 0 1 0 0] CT
-7.5 14 moveto 
1 -1 scale
(10) t 
GR
GR
GS
[0.75 0 0 0.75 0 0] CT
0.149 GC
2 setlinecap
1 LJ
0.667 LW
N
73 374 M
73 31 L
S
GR
GS
[0.75 0 0 0.75 0 0] CT
0.149 GC
2 setlinecap
1 LJ
0.667 LW
N
507 374 M
507 31 L
S
GR
GS
[0.75 0 0 0.75 0 0] CT
0.149 GC
2 setlinecap
1 LJ
0.667 LW
N
73 367.404 M
77.34 367.404 L
S
GR
GS
[0.75 0 0 0.75 0 0] CT
0.149 GC
2 setlinecap
1 LJ
0.667 LW
N
73 334.423 M
77.34 334.423 L
S
GR
GS
[0.75 0 0 0.75 0 0] CT
0.149 GC
2 setlinecap
1 LJ
0.667 LW
N
73 301.442 M
77.34 301.442 L
S
GR
GS
[0.75 0 0 0.75 0 0] CT
0.149 GC
2 setlinecap
1 LJ
0.667 LW
N
73 268.462 M
77.34 268.462 L
S
GR
GS
[0.75 0 0 0.75 0 0] CT
0.149 GC
2 setlinecap
1 LJ
0.667 LW
N
73 235.481 M
77.34 235.481 L
S
GR
GS
[0.75 0 0 0.75 0 0] CT
0.149 GC
2 setlinecap
1 LJ
0.667 LW
N
73 202.5 M
77.34 202.5 L
S
GR
GS
[0.75 0 0 0.75 0 0] CT
0.149 GC
2 setlinecap
1 LJ
0.667 LW
N
73 169.519 M
77.34 169.519 L
S
GR
GS
[0.75 0 0 0.75 0 0] CT
0.149 GC
2 setlinecap
1 LJ
0.667 LW
N
73 136.538 M
77.34 136.538 L
S
GR
GS
[0.75 0 0 0.75 0 0] CT
0.149 GC
2 setlinecap
1 LJ
0.667 LW
N
73 103.558 M
77.34 103.558 L
S
GR
GS
[0.75 0 0 0.75 0 0] CT
0.149 GC
2 setlinecap
1 LJ
0.667 LW
N
73 70.577 M
77.34 70.577 L
S
GR
GS
[0.75 0 0 0.75 0 0] CT
0.149 GC
2 setlinecap
1 LJ
0.667 LW
N
73 37.596 M
77.34 37.596 L
S
GR
GS
[0.75 0 0 0.75 0 0] CT
0.149 GC
2 setlinecap
1 LJ
0.667 LW
N
507 367.404 M
502.66 367.404 L
S
GR
GS
[0.75 0 0 0.75 0 0] CT
0.149 GC
2 setlinecap
1 LJ
0.667 LW
N
507 334.423 M
502.66 334.423 L
S
GR
GS
[0.75 0 0 0.75 0 0] CT
0.149 GC
2 setlinecap
1 LJ
0.667 LW
N
507 301.442 M
502.66 301.442 L
S
GR
GS
[0.75 0 0 0.75 0 0] CT
0.149 GC
2 setlinecap
1 LJ
0.667 LW
N
507 268.462 M
502.66 268.462 L
S
GR
GS
[0.75 0 0 0.75 0 0] CT
0.149 GC
2 setlinecap
1 LJ
0.667 LW
N
507 235.481 M
502.66 235.481 L
S
GR
GS
[0.75 0 0 0.75 0 0] CT
0.149 GC
2 setlinecap
1 LJ
0.667 LW
N
507 202.5 M
502.66 202.5 L
S
GR
GS
[0.75 0 0 0.75 0 0] CT
0.149 GC
2 setlinecap
1 LJ
0.667 LW
N
507 169.519 M
502.66 169.519 L
S
GR
GS
[0.75 0 0 0.75 0 0] CT
0.149 GC
2 setlinecap
1 LJ
0.667 LW
N
507 136.538 M
502.66 136.538 L
S
GR
GS
[0.75 0 0 0.75 0 0] CT
0.149 GC
2 setlinecap
1 LJ
0.667 LW
N
507 103.558 M
502.66 103.558 L
S
GR
GS
[0.75 0 0 0.75 0 0] CT
0.149 GC
2 setlinecap
1 LJ
0.667 LW
N
507 70.577 M
502.66 70.577 L
S
GR
GS
[0.75 0 0 0.75 0 0] CT
0.149 GC
2 setlinecap
1 LJ
0.667 LW
N
507 37.596 M
502.66 37.596 L
S
GR
GS
[0.75 0 0 0.75 50.74999 275.55288] CT
0.149 GC
/Helvetica 13.333 F
GS
[1 0 0 1 0 0] CT
-8 5.5 moveto 
1 -1 scale
(0) t 
GR
GR
GS
[0.75 0 0 0.75 50.74999 250.8173] CT
0.149 GC
/Helvetica 13.333 F
GS
[1 0 0 1 0 0] CT
-8 5.5 moveto 
1 -1 scale
(1) t 
GR
GR
GS
[0.75 0 0 0.75 50.74999 226.08174] CT
0.149 GC
/Helvetica 13.333 F
GS
[1 0 0 1 0 0] CT
-8 5.5 moveto 
1 -1 scale
(2) t 
GR
GR
GS
[0.75 0 0 0.75 50.74999 201.34616] CT
0.149 GC
/Helvetica 13.333 F
GS
[1 0 0 1 0 0] CT
-8 5.5 moveto 
1 -1 scale
(3) t 
GR
GR
GS
[0.75 0 0 0.75 50.74999 176.61058] CT
0.149 GC
/Helvetica 13.333 F
GS
[1 0 0 1 0 0] CT
-8 5.5 moveto 
1 -1 scale
(4) t 
GR
GR
GS
[0.75 0 0 0.75 50.74999 151.875] CT
0.149 GC
/Helvetica 13.333 F
GS
[1 0 0 1 0 0] CT
-8 5.5 moveto 
1 -1 scale
(5) t 
GR
GR
GS
[0.75 0 0 0.75 50.74999 127.13942] CT
0.149 GC
/Helvetica 13.333 F
GS
[1 0 0 1 0 0] CT
-8 5.5 moveto 
1 -1 scale
(6) t 
GR
GR
GS
[0.75 0 0 0.75 50.74999 102.40385] CT
0.149 GC
/Helvetica 13.333 F
GS
[1 0 0 1 0 0] CT
-8 5.5 moveto 
1 -1 scale
(7) t 
GR
GR
GS
[0.75 0 0 0.75 50.74999 77.66827] CT
0.149 GC
/Helvetica 13.333 F
GS
[1 0 0 1 0 0] CT
-8 5.5 moveto 
1 -1 scale
(8) t 
GR
GR
GS
[0.75 0 0 0.75 50.74999 52.93269] CT
0.149 GC
/Helvetica 13.333 F
GS
[1 0 0 1 0 0] CT
-8 5.5 moveto 
1 -1 scale
(9) t 
GR
GR
GS
[0.75 0 0 0.75 50.74999 28.19711] CT
0.149 GC
/Helvetica 13.333 F
GS
[1 0 0 1 0 0] CT
-15 5.5 moveto 
1 -1 scale
(10) t 
GR
GR
GS
[0.75 0 0 0.75 0 0] CT
0 0.447 0.741 RC
1 LJ
0.667 LW
N
73 367.404 M
73.434 367.404 L
73.869 367.404 L
74.303 367.404 L
74.738 367.404 L
75.172 367.404 L
75.607 367.404 L
76.041 367.404 L
76.475 367.404 L
76.91 367.404 L
77.344 367.404 L
77.779 367.404 L
78.213 367.404 L
78.648 367.404 L
79.082 367.404 L
79.517 367.404 L
79.951 367.404 L
80.385 367.404 L
80.82 367.404 L
81.254 367.404 L
81.689 367.404 L
82.123 367.404 L
82.558 367.404 L
82.992 367.404 L
83.426 367.404 L
83.861 367.404 L
84.295 367.404 L
84.73 367.404 L
85.164 367.404 L
85.599 367.404 L
86.033 367.404 L
86.467 367.404 L
86.902 367.404 L
87.336 367.404 L
87.771 367.404 L
88.205 367.404 L
88.64 367.404 L
89.074 367.404 L
89.508 367.404 L
89.943 367.404 L
90.377 367.404 L
90.812 367.404 L
91.246 367.404 L
91.681 367.404 L
92.115 367.404 L
92.55 367.404 L
92.984 367.404 L
93.418 367.404 L
93.853 367.404 L
94.287 367.404 L
94.722 367.404 L
95.156 367.404 L
95.591 367.404 L
96.025 367.404 L
96.459 367.404 L
96.894 367.404 L
97.328 367.404 L
97.763 367.404 L
98.197 367.404 L
98.632 367.404 L
99.066 367.404 L
99.5 367.404 L
99.935 367.404 L
100.369 367.404 L
100.804 367.404 L
101.238 367.404 L
101.673 367.404 L
102.107 367.404 L
102.542 367.404 L
102.976 367.404 L
103.41 367.404 L
103.845 367.404 L
104.279 367.404 L
104.714 367.404 L
105.148 367.404 L
105.583 367.404 L
106.017 367.404 L
106.451 367.404 L
106.886 367.404 L
107.32 367.404 L
107.755 367.404 L
108.189 367.404 L
108.624 367.404 L
109.058 367.404 L
109.492 367.404 L
109.927 367.404 L
110.361 367.404 L
110.796 367.404 L
111.23 367.404 L
111.665 367.404 L
112.099 367.404 L
112.534 367.404 L
112.968 367.404 L
113.402 367.404 L
113.837 367.404 L
114.271 367.404 L
114.706 367.404 L
115.14 367.404 L
115.575 367.404 L
116.009 367.404 L
116.443 367.404 L
116.878 367.404 L
117.312 367.404 L
117.747 367.404 L
118.181 367.404 L
118.616 367.404 L
119.05 367.404 L
119.484 367.404 L
119.919 367.404 L
120.353 367.404 L
120.788 367.404 L
121.222 367.404 L
121.657 367.404 L
122.091 367.404 L
122.526 367.404 L
122.96 367.404 L
123.394 367.404 L
123.829 367.404 L
124.263 367.404 L
124.698 367.404 L
125.132 367.404 L
125.567 367.404 L
126.001 367.404 L
126.435 367.404 L
126.87 367.404 L
127.304 367.404 L
127.739 367.404 L
128.173 367.404 L
128.608 367.404 L
129.042 367.404 L
129.476 367.404 L
129.911 367.404 L
130.345 367.404 L
130.78 367.404 L
131.214 367.404 L
131.649 367.404 L
132.083 367.404 L
132.518 367.404 L
132.952 367.404 L
133.386 367.404 L
133.821 367.404 L
134.255 367.404 L
134.69 367.404 L
135.124 367.404 L
135.559 367.404 L
135.993 367.404 L
136.427 367.404 L
136.862 367.404 L
137.296 367.404 L
137.731 367.404 L
138.165 367.404 L
138.6 367.404 L
139.034 367.404 L
139.468 367.404 L
139.903 367.404 L
140.337 367.404 L
140.772 367.404 L
141.206 367.404 L
141.641 367.404 L
142.075 367.404 L
142.51 367.404 L
142.944 367.404 L
143.378 367.404 L
143.813 367.404 L
144.247 367.404 L
144.682 367.404 L
145.116 367.404 L
145.551 367.404 L
145.985 367.404 L
146.419 367.404 L
146.854 367.404 L
147.288 367.404 L
147.723 367.404 L
148.157 367.404 L
148.592 367.404 L
149.026 367.404 L
149.46 367.404 L
149.895 367.404 L
150.329 367.404 L
150.764 367.404 L
151.198 367.404 L
151.633 367.404 L
152.067 367.404 L
152.502 367.404 L
152.936 367.404 L
153.37 367.404 L
153.805 367.404 L
154.239 367.404 L
154.674 367.404 L
155.108 367.404 L
155.543 367.404 L
155.977 367.404 L
156.411 367.404 L
156.846 367.404 L
157.28 367.404 L
157.715 367.404 L
158.149 367.404 L
158.584 367.404 L
159.018 367.404 L
159.452 367.404 L
159.887 367.404 L
160.321 367.404 L
160.756 367.404 L
161.19 367.404 L
161.625 367.404 L
162.059 367.404 L
162.493 367.404 L
162.928 367.404 L
163.362 367.404 L
163.797 367.404 L
164.231 367.404 L
164.666 367.404 L
165.1 367.404 L
165.535 367.404 L
165.969 367.404 L
166.403 367.404 L
166.838 367.404 L
167.272 367.404 L
167.707 367.404 L
168.141 367.404 L
168.576 367.404 L
169.01 367.404 L
169.444 367.404 L
169.879 367.404 L
170.313 367.404 L
170.748 367.404 L
171.182 367.404 L
171.617 367.404 L
172.051 367.404 L
172.485 367.404 L
172.92 367.404 L
173.354 367.404 L
173.789 367.404 L
174.223 367.404 L
174.658 367.404 L
175.092 367.404 L
175.527 367.404 L
175.961 367.404 L
176.395 367.404 L
176.83 367.404 L
177.264 367.404 L
177.699 367.404 L
178.133 367.404 L
178.568 367.404 L
179.002 367.404 L
179.436 367.404 L
179.871 367.404 L
180.305 367.404 L
180.74 367.404 L
181.174 367.404 L
181.609 367.404 L
182.043 367.404 L
182.477 367.404 L
182.912 367.404 L
183.346 367.404 L
183.781 367.404 L
184.215 367.404 L
184.65 367.404 L
185.084 367.404 L
185.519 367.404 L
185.953 367.404 L
186.387 367.404 L
186.822 367.404 L
187.256 367.404 L
187.691 367.404 L
188.125 367.404 L
188.56 367.404 L
188.994 367.404 L
189.428 367.404 L
189.863 367.404 L
190.297 367.404 L
190.732 367.404 L
191.166 367.404 L
191.601 367.404 L
192.035 367.404 L
192.469 367.404 L
192.904 367.404 L
193.338 367.404 L
193.773 367.404 L
194.207 367.404 L
194.642 367.404 L
195.076 367.404 L
195.511 367.404 L
195.945 367.404 L
196.379 367.404 L
196.814 367.404 L
197.248 367.404 L
197.683 367.404 L
198.117 367.404 L
198.552 367.404 L
198.986 367.404 L
199.42 367.404 L
199.855 367.404 L
200.289 367.404 L
200.724 367.404 L
201.158 367.404 L
201.593 367.404 L
202.027 367.404 L
202.461 367.404 L
202.896 367.404 L
203.33 367.404 L
203.765 367.404 L
204.199 367.404 L
204.634 367.404 L
205.068 367.404 L
205.503 367.404 L
205.937 367.404 L
206.371 367.404 L
206.806 367.404 L
207.24 367.404 L
207.675 367.404 L
208.109 367.404 L
208.544 367.404 L
208.978 367.404 L
209.412 367.404 L
209.847 367.404 L
210.281 367.404 L
210.716 367.404 L
211.15 367.404 L
211.585 367.404 L
212.019 367.404 L
212.453 367.404 L
212.888 367.404 L
213.322 367.404 L
213.757 367.404 L
214.191 367.404 L
214.626 367.404 L
215.06 367.404 L
215.494 367.404 L
215.929 367.404 L
216.363 367.404 L
216.798 367.404 L
217.232 367.404 L
217.667 367.404 L
218.101 367.404 L
218.536 367.404 L
218.97 367.404 L
219.404 367.404 L
219.839 367.404 L
220.273 367.404 L
220.708 367.404 L
221.142 367.404 L
221.577 367.404 L
222.011 367.404 L
222.445 367.404 L
222.88 367.404 L
223.314 367.404 L
223.749 367.404 L
224.183 367.404 L
224.618 367.404 L
225.052 367.404 L
225.486 367.404 L
225.921 367.404 L
226.355 367.404 L
226.79 367.404 L
227.224 367.404 L
227.659 367.404 L
228.093 367.404 L
228.528 367.404 L
228.962 367.404 L
229.396 367.404 L
229.831 367.404 L
230.265 367.404 L
230.7 367.404 L
231.134 367.404 L
231.569 367.404 L
232.003 367.404 L
232.437 367.404 L
232.872 367.404 L
233.306 367.404 L
233.741 367.404 L
234.175 367.404 L
234.61 367.404 L
235.044 367.404 L
235.478 367.404 L
235.913 367.404 L
236.347 367.404 L
236.782 367.404 L
237.216 367.404 L
237.651 367.404 L
238.085 367.404 L
238.52 367.404 L
238.954 367.404 L
239.388 367.404 L
239.823 367.404 L
240.257 367.404 L
240.692 367.404 L
241.126 367.404 L
241.561 367.404 L
241.995 367.404 L
242.429 367.404 L
242.864 367.404 L
243.298 367.404 L
243.733 367.404 L
244.167 367.404 L
244.602 367.404 L
245.036 367.404 L
245.47 367.404 L
245.905 367.404 L
246.339 367.404 L
246.774 367.404 L
247.208 367.404 L
247.643 367.404 L
248.077 367.404 L
248.512 367.404 L
248.946 367.404 L
249.38 367.404 L
249.815 367.404 L
250.249 367.404 L
250.684 367.404 L
251.118 367.404 L
251.553 367.404 L
251.987 367.404 L
252.421 367.404 L
252.856 367.404 L
253.29 367.404 L
253.725 367.404 L
254.159 367.404 L
254.594 367.404 L
255.028 367.404 L
255.462 367.404 L
255.897 367.404 L
256.331 367.404 L
256.766 367.404 L
257.2 367.404 L
257.635 367.404 L
258.069 367.404 L
258.504 367.404 L
258.938 367.404 L
259.372 367.404 L
259.807 367.404 L
260.241 367.404 L
260.676 367.404 L
261.11 367.404 L
261.545 367.404 L
261.979 367.404 L
262.413 367.404 L
262.848 367.404 L
263.282 367.404 L
263.717 367.404 L
264.151 367.404 L
264.586 367.404 L
265.02 367.404 L
265.454 367.404 L
265.889 367.404 L
266.323 367.404 L
266.758 367.404 L
267.192 367.404 L
267.627 367.404 L
268.061 367.404 L
268.495 367.404 L
268.93 367.404 L
269.364 367.404 L
269.799 367.404 L
270.233 367.404 L
270.668 367.404 L
271.102 367.404 L
271.537 367.404 L
271.971 367.404 L
272.405 367.404 L
272.84 367.404 L
273.274 367.404 L
273.709 367.404 L
274.143 367.404 L
274.578 367.404 L
275.012 367.404 L
275.446 367.404 L
275.881 367.404 L
276.315 367.404 L
276.75 367.404 L
277.184 367.404 L
277.619 367.404 L
278.053 367.404 L
278.487 367.404 L
278.922 367.404 L
279.356 367.404 L
279.791 367.404 L
280.225 367.404 L
280.66 367.404 L
281.094 367.404 L
281.529 367.404 L
281.963 367.404 L
282.397 367.404 L
282.832 367.404 L
283.266 367.404 L
283.701 367.404 L
284.135 367.404 L
284.57 367.404 L
285.004 367.404 L
285.438 367.404 L
285.873 367.404 L
286.307 367.404 L
286.742 367.404 L
287.176 367.404 L
287.611 367.404 L
288.045 367.404 L
288.479 367.404 L
288.914 367.404 L
289.348 367.404 L
289.783 367.404 L
290.217 367.074 L
290.652 366.413 L
291.086 365.753 L
291.521 365.093 L
291.955 364.433 L
292.389 363.772 L
292.824 363.112 L
293.258 362.452 L
293.693 361.792 L
294.127 361.131 L
294.562 360.471 L
294.996 359.811 L
295.43 359.15 L
295.865 358.49 L
296.299 357.83 L
296.734 357.17 L
297.168 356.509 L
297.603 355.849 L
298.037 355.189 L
298.471 354.528 L
298.906 353.868 L
299.34 353.208 L
299.775 352.548 L
300.209 351.887 L
300.644 351.227 L
301.078 350.567 L
301.513 349.907 L
301.947 349.246 L
302.381 348.586 L
302.816 347.926 L
303.25 347.265 L
303.685 346.605 L
304.119 345.945 L
304.554 345.285 L
304.988 344.624 L
305.422 343.964 L
305.857 343.304 L
306.291 342.643 L
306.726 341.983 L
307.16 341.323 L
307.595 340.663 L
308.029 340.002 L
308.463 339.342 L
308.898 338.682 L
309.332 338.022 L
309.767 337.361 L
310.201 336.701 L
310.636 336.041 L
311.07 335.38 L
311.505 334.72 L
311.939 334.06 L
312.373 333.4 L
312.808 332.739 L
313.242 332.079 L
313.677 331.419 L
314.111 330.759 L
314.546 330.098 L
314.98 329.438 L
315.414 328.778 L
315.849 328.117 L
316.283 327.457 L
316.718 326.797 L
317.152 326.137 L
317.587 325.476 L
318.021 324.816 L
318.455 324.156 L
318.89 323.496 L
319.324 322.835 L
319.759 322.175 L
320.193 321.515 L
320.628 320.854 L
321.062 320.194 L
321.496 319.534 L
321.931 318.874 L
322.365 318.213 L
322.8 317.553 L
323.234 316.893 L
323.669 316.232 L
324.103 315.572 L
324.538 314.912 L
324.972 314.252 L
325.406 313.591 L
325.841 312.931 L
326.275 312.271 L
326.71 311.611 L
327.144 310.95 L
327.579 310.29 L
328.013 309.63 L
328.447 308.969 L
328.882 308.309 L
329.316 307.649 L
329.751 306.989 L
330.185 306.328 L
330.62 305.668 L
331.054 305.008 L
331.488 304.348 L
331.923 303.687 L
332.357 303.027 L
332.792 302.367 L
333.226 301.706 L
333.661 301.046 L
334.095 300.386 L
334.53 299.726 L
334.964 299.065 L
335.398 298.405 L
335.833 297.745 L
336.267 297.085 L
336.702 296.424 L
337.136 295.764 L
337.571 295.104 L
338.005 294.443 L
338.439 293.783 L
338.874 293.123 L
339.308 292.463 L
339.743 291.802 L
340.177 291.142 L
340.612 290.482 L
341.046 289.821 L
341.48 289.161 L
341.915 288.501 L
342.349 287.841 L
342.784 287.18 L
343.218 286.52 L
343.653 285.86 L
344.087 285.2 L
344.522 284.539 L
344.956 283.879 L
345.39 283.219 L
345.825 282.558 L
346.259 281.898 L
346.694 281.238 L
347.128 280.578 L
347.563 279.917 L
347.997 279.257 L
348.431 278.597 L
348.866 277.936 L
349.3 277.276 L
349.735 276.616 L
350.169 275.956 L
350.604 275.295 L
351.038 274.635 L
351.472 273.975 L
351.907 273.315 L
352.341 272.654 L
352.776 271.994 L
353.21 271.334 L
353.645 270.673 L
354.079 270.013 L
354.514 269.353 L
354.948 268.693 L
355.382 268.032 L
355.817 267.372 L
356.251 266.712 L
356.686 266.052 L
357.12 265.391 L
357.555 264.731 L
357.989 264.071 L
358.423 263.41 L
358.858 262.75 L
359.292 262.09 L
359.727 261.43 L
360.161 260.769 L
360.596 260.109 L
361.03 259.449 L
361.464 258.789 L
361.899 258.128 L
362.333 257.468 L
362.768 256.808 L
363.202 256.147 L
363.637 255.487 L
364.071 254.827 L
364.505 254.167 L
364.94 253.506 L
365.374 252.846 L
365.809 252.186 L
366.243 251.525 L
366.678 250.865 L
367.112 250.205 L
367.547 249.545 L
367.981 248.884 L
368.415 248.224 L
368.85 247.564 L
369.284 246.904 L
369.719 246.243 L
370.153 245.583 L
370.588 244.923 L
371.022 244.262 L
371.456 243.602 L
371.891 242.942 L
372.325 242.282 L
372.76 241.621 L
373.194 240.961 L
373.629 240.301 L
374.063 239.641 L
374.497 238.98 L
374.932 238.32 L
375.366 237.66 L
375.801 236.999 L
376.235 236.339 L
376.67 235.679 L
377.104 235.019 L
377.539 234.358 L
377.973 233.698 L
378.407 233.038 L
378.842 232.377 L
379.276 231.717 L
379.711 231.057 L
380.145 230.397 L
380.58 229.736 L
381.014 229.076 L
381.448 228.416 L
381.883 227.756 L
382.317 227.095 L
382.752 226.435 L
383.186 225.775 L
383.621 225.114 L
384.055 224.454 L
384.49 223.794 L
384.924 223.134 L
385.358 222.473 L
385.793 221.813 L
386.227 221.153 L
386.662 220.493 L
387.096 219.832 L
387.531 219.172 L
387.965 218.512 L
388.399 217.851 L
388.834 217.191 L
389.268 216.531 L
389.703 215.871 L
390.137 215.21 L
390.572 214.55 L
391.006 213.89 L
391.44 213.229 L
391.875 212.569 L
392.309 211.909 L
392.744 211.249 L
393.178 210.588 L
393.613 209.928 L
394.047 209.268 L
394.481 208.608 L
394.916 207.947 L
395.35 207.287 L
395.785 206.627 L
396.219 205.966 L
396.654 205.306 L
397.088 204.646 L
397.523 203.986 L
397.957 203.325 L
398.391 202.665 L
398.826 202.005 L
399.26 201.345 L
399.695 200.684 L
400.129 200.024 L
400.564 199.364 L
400.998 198.703 L
401.432 198.043 L
401.867 197.383 L
402.301 196.723 L
402.736 196.062 L
403.17 195.402 L
403.605 194.742 L
404.039 194.081 L
404.473 193.421 L
404.908 192.761 L
405.342 192.101 L
405.777 191.44 L
406.211 190.78 L
406.646 190.12 L
407.08 189.46 L
407.515 188.799 L
407.949 188.139 L
408.383 187.479 L
408.818 186.818 L
409.252 186.158 L
409.687 185.498 L
410.121 184.838 L
410.556 184.177 L
410.99 183.517 L
411.424 182.857 L
411.859 182.197 L
412.293 181.536 L
412.728 180.876 L
413.162 180.216 L
413.597 179.555 L
414.031 178.895 L
414.465 178.235 L
414.9 177.575 L
415.334 176.914 L
415.769 176.254 L
416.203 175.594 L
416.638 174.933 L
417.072 174.273 L
417.507 173.613 L
417.941 172.953 L
418.375 172.292 L
418.81 171.632 L
419.244 170.972 L
419.679 170.312 L
420.113 169.651 L
420.548 168.991 L
420.982 168.331 L
421.416 167.67 L
421.851 167.01 L
422.285 166.35 L
422.72 165.69 L
423.154 165.029 L
423.589 164.369 L
424.023 163.709 L
424.457 163.049 L
424.892 162.388 L
425.326 161.728 L
425.761 161.068 L
426.195 160.407 L
426.63 159.747 L
427.064 159.087 L
427.499 158.427 L
427.933 157.766 L
428.367 157.106 L
428.802 156.446 L
429.236 155.785 L
429.671 155.125 L
430.105 154.465 L
430.54 153.805 L
430.974 153.144 L
431.408 152.484 L
431.843 151.824 L
432.277 151.164 L
432.712 150.503 L
433.146 149.843 L
433.581 149.183 L
434.015 148.522 L
434.449 147.862 L
434.884 147.202 L
435.318 146.542 L
435.753 145.881 L
436.187 145.221 L
436.622 144.561 L
437.056 143.901 L
437.49 143.24 L
437.925 142.58 L
438.359 141.92 L
438.794 141.259 L
439.228 140.599 L
439.663 139.939 L
440.097 139.279 L
440.532 138.618 L
440.966 137.958 L
441.4 137.298 L
441.835 136.638 L
442.269 135.977 L
442.704 135.317 L
443.138 134.657 L
443.573 133.996 L
444.007 133.336 L
444.441 132.676 L
444.876 132.016 L
445.31 131.355 L
445.745 130.695 L
446.179 130.035 L
446.614 129.374 L
447.048 128.714 L
447.482 128.054 L
447.917 127.394 L
448.351 126.733 L
448.786 126.073 L
449.22 125.413 L
449.655 124.753 L
450.089 124.092 L
450.524 123.432 L
450.958 122.772 L
451.392 122.111 L
451.827 121.451 L
452.261 120.791 L
452.696 120.131 L
453.13 119.47 L
453.565 118.81 L
453.999 118.15 L
454.433 117.49 L
454.868 116.829 L
455.302 116.169 L
455.737 115.509 L
456.171 114.848 L
456.606 114.188 L
457.04 113.528 L
457.474 112.868 L
457.909 112.207 L
458.343 111.547 L
458.778 110.887 L
459.212 110.226 L
459.647 109.566 L
460.081 108.906 L
460.516 108.246 L
460.95 107.585 L
461.384 106.925 L
461.819 106.265 L
462.253 105.605 L
462.688 104.944 L
463.122 104.284 L
463.557 103.624 L
463.991 102.963 L
464.425 102.303 L
464.86 101.643 L
465.294 100.983 L
465.729 100.322 L
466.163 99.662 L
466.598 99.002 L
467.032 98.342 L
467.466 97.681 L
467.901 97.021 L
468.335 96.361 L
468.77 95.7 L
469.204 95.04 L
469.639 94.38 L
470.073 93.72 L
470.508 93.059 L
470.942 92.399 L
471.376 91.739 L
471.811 91.078 L
472.245 90.418 L
472.68 89.758 L
473.114 89.098 L
473.549 88.437 L
473.983 87.777 L
474.417 87.117 L
474.852 86.457 L
475.286 85.796 L
475.721 85.136 L
476.155 84.476 L
476.59 83.815 L
477.024 83.155 L
477.458 82.495 L
477.893 81.835 L
478.327 81.174 L
478.762 80.514 L
479.196 79.854 L
479.631 79.194 L
480.065 78.533 L
480.5 77.873 L
480.934 77.213 L
481.368 76.552 L
481.803 75.892 L
482.237 75.232 L
482.672 74.572 L
483.106 73.911 L
483.541 73.251 L
483.975 72.591 L
484.409 71.93 L
484.844 71.27 L
485.278 70.61 L
485.713 69.95 L
486.147 69.289 L
486.582 68.629 L
487.016 67.969 L
487.45 67.309 L
487.885 66.648 L
488.319 65.988 L
488.754 65.328 L
489.188 64.667 L
489.623 64.007 L
490.057 63.347 L
490.492 62.687 L
490.926 62.026 L
491.36 61.366 L
491.795 60.706 L
492.229 60.046 L
492.664 59.385 L
493.098 58.725 L
493.533 58.065 L
493.967 57.404 L
494.401 56.744 L
494.836 56.084 L
495.27 55.424 L
495.705 54.763 L
496.139 54.103 L
496.574 53.443 L
497.008 52.783 L
497.442 52.122 L
497.877 51.462 L
498.311 50.802 L
498.746 50.141 L
499.18 49.481 L
499.615 48.821 L
500.049 48.161 L
500.483 47.5 L
500.918 46.84 L
501.352 46.18 L
501.787 45.519 L
502.221 44.859 L
502.656 44.199 L
503.09 43.539 L
503.525 42.878 L
503.959 42.218 L
504.393 41.558 L
504.828 40.898 L
505.262 40.237 L
505.697 39.577 L
506.131 38.917 L
506.566 38.256 L
507 37.596 L
S
GR
%%Trailer
%%Pages: 1
%%EOF
