%!PS-Adobe-3.0 EPSF-3.0
%%Creator: (MATLAB, The Mathworks, Inc. Version 9.5.0.1049112 \(R2018b\) Update 3. Operating System: Windows 10)
%%Title: ./Sigmoid.eps
%%CreationDate: 2020-01-05T15:49:24
%%Pages: (atend)
%%BoundingBox:    36    19   385   293
%%LanguageLevel: 3
%%EndComments
%%BeginProlog
%%BeginResource: procset (Apache XML Graphics Std ProcSet) 1.2 0
%%Version: 1.2 0
%%Copyright: (Copyright 2001-2003,2010 The Apache Software Foundation. License terms: http://www.apache.org/licenses/LICENSE-2.0)
/bd{bind def}bind def
/ld{load def}bd
/GR/grestore ld
/GS/gsave ld
/RM/rmoveto ld
/C/curveto ld
/t/show ld
/L/lineto ld
/ML/setmiterlimit ld
/CT/concat ld
/f/fill ld
/N/newpath ld
/S/stroke ld
/CC/setcmykcolor ld
/A/ashow ld
/cp/closepath ld
/RC/setrgbcolor ld
/LJ/setlinejoin ld
/GC/setgray ld
/LW/setlinewidth ld
/M/moveto ld
/re {4 2 roll M
1 index 0 rlineto
0 exch rlineto
neg 0 rlineto
cp } bd
/_ctm matrix def
/_tm matrix def
/BT { _ctm currentmatrix pop matrix _tm copy pop 0 0 moveto } bd
/ET { _ctm setmatrix } bd
/iTm { _ctm setmatrix _tm concat } bd
/Tm { _tm astore pop iTm 0 0 moveto } bd
/ux 0.0 def
/uy 0.0 def
/F {
  /Tp exch def
  /Tf exch def
  Tf findfont Tp scalefont setfont
  /cf Tf def  /cs Tp def
} bd
/ULS {currentpoint /uy exch def /ux exch def} bd
/ULE {
  /Tcx currentpoint pop def
  gsave
  newpath
  cf findfont cs scalefont dup
  /FontMatrix get 0 get /Ts exch def /FontInfo get dup
  /UnderlinePosition get Ts mul /To exch def
  /UnderlineThickness get Ts mul /Tt exch def
  ux uy To add moveto  Tcx uy To add lineto
  Tt setlinewidth stroke
  grestore
} bd
/OLE {
  /Tcx currentpoint pop def
  gsave
  newpath
  cf findfont cs scalefont dup
  /FontMatrix get 0 get /Ts exch def /FontInfo get dup
  /UnderlinePosition get Ts mul /To exch def
  /UnderlineThickness get Ts mul /Tt exch def
  ux uy To add cs add moveto Tcx uy To add cs add lineto
  Tt setlinewidth stroke
  grestore
} bd
/SOE {
  /Tcx currentpoint pop def
  gsave
  newpath
  cf findfont cs scalefont dup
  /FontMatrix get 0 get /Ts exch def /FontInfo get dup
  /UnderlinePosition get Ts mul /To exch def
  /UnderlineThickness get Ts mul /Tt exch def
  ux uy To add cs 10 mul 26 idiv add moveto Tcx uy To add cs 10 mul 26 idiv add lineto
  Tt setlinewidth stroke
  grestore
} bd
/QT {
/Y22 exch store
/X22 exch store
/Y21 exch store
/X21 exch store
currentpoint
/Y21 load 2 mul add 3 div exch
/X21 load 2 mul add 3 div exch
/X21 load 2 mul /X22 load add 3 div
/Y21 load 2 mul /Y22 load add 3 div
/X22 load /Y22 load curveto
} bd
/SSPD {
dup length /d exch dict def
{
/v exch def
/k exch def
currentpagedevice k known {
/cpdv currentpagedevice k get def
v cpdv ne {
/upd false def
/nullv v type /nulltype eq def
/nullcpdv cpdv type /nulltype eq def
nullv nullcpdv or
{
/upd true def
} {
/sametype v type cpdv type eq def
sametype {
v type /arraytype eq {
/vlen v length def
/cpdvlen cpdv length def
vlen cpdvlen eq {
0 1 vlen 1 sub {
/i exch def
/obj v i get def
/cpdobj cpdv i get def
obj cpdobj ne {
/upd true def
exit
} if
} for
} {
/upd true def
} ifelse
} {
v type /dicttype eq {
v {
/dv exch def
/dk exch def
/cpddv cpdv dk get def
dv cpddv ne {
/upd true def
exit
} if
} forall
} {
/upd true def
} ifelse
} ifelse
} if
} ifelse
upd true eq {
d k v put
} if
} if
} if
} forall
d length 0 gt {
d setpagedevice
} if
} bd
/RE { % /NewFontName [NewEncodingArray] /FontName RE -
  findfont dup length dict begin
  {
    1 index /FID ne
    {def} {pop pop} ifelse
  } forall
  /Encoding exch def
  /FontName 1 index def
  currentdict definefont pop
  end
} bind def
%%EndResource
%%BeginResource: procset (Apache XML Graphics EPS ProcSet) 1.0 0
%%Version: 1.0 0
%%Copyright: (Copyright 2002-2003 The Apache Software Foundation. License terms: http://www.apache.org/licenses/LICENSE-2.0)
/BeginEPSF { %def
/b4_Inc_state save def         % Save state for cleanup
/dict_count countdictstack def % Count objects on dict stack
/op_count count 1 sub def      % Count objects on operand stack
userdict begin                 % Push userdict on dict stack
/showpage { } def              % Redefine showpage, { } = null proc
0 setgray 0 setlinecap         % Prepare graphics state
1 setlinewidth 0 setlinejoin
10 setmiterlimit [ ] 0 setdash newpath
/languagelevel where           % If level not equal to 1 then
{pop languagelevel             % set strokeadjust and
1 ne                           % overprint to their defaults.
{false setstrokeadjust false setoverprint
} if
} if
} bd
/EndEPSF { %def
count op_count sub {pop} repeat            % Clean up stacks
countdictstack dict_count sub {end} repeat
b4_Inc_state restore
} bd
%%EndResource
%FOPBeginFontDict
%%IncludeResource: font Courier-Oblique
%%IncludeResource: font Courier-BoldOblique
%%IncludeResource: font Courier-Bold
%%IncludeResource: font ZapfDingbats
%%IncludeResource: font Symbol
%%IncludeResource: font Helvetica
%%IncludeResource: font Helvetica-Oblique
%%IncludeResource: font Helvetica-Bold
%%IncludeResource: font Helvetica-BoldOblique
%%IncludeResource: font Times-Roman
%%IncludeResource: font Times-Italic
%%IncludeResource: font Times-Bold
%%IncludeResource: font Times-BoldItalic
%%IncludeResource: font Courier
%FOPEndFontDict
%%BeginResource: encoding WinAnsiEncoding
/WinAnsiEncoding [
/.notdef /.notdef /.notdef /.notdef /.notdef
/.notdef /.notdef /.notdef /.notdef /.notdef
/.notdef /.notdef /.notdef /.notdef /.notdef
/.notdef /.notdef /.notdef /.notdef /.notdef
/.notdef /.notdef /.notdef /.notdef /.notdef
/.notdef /.notdef /.notdef /.notdef /.notdef
/.notdef /.notdef /space /exclam /quotedbl
/numbersign /dollar /percent /ampersand /quotesingle
/parenleft /parenright /asterisk /plus /comma
/hyphen /period /slash /zero /one
/two /three /four /five /six
/seven /eight /nine /colon /semicolon
/less /equal /greater /question /at
/A /B /C /D /E
/F /G /H /I /J
/K /L /M /N /O
/P /Q /R /S /T
/U /V /W /X /Y
/Z /bracketleft /backslash /bracketright /asciicircum
/underscore /quoteleft /a /b /c
/d /e /f /g /h
/i /j /k /l /m
/n /o /p /q /r
/s /t /u /v /w
/x /y /z /braceleft /bar
/braceright /asciitilde /bullet /Euro /bullet
/quotesinglbase /florin /quotedblbase /ellipsis /dagger
/daggerdbl /circumflex /perthousand /Scaron /guilsinglleft
/OE /bullet /Zcaron /bullet /bullet
/quoteleft /quoteright /quotedblleft /quotedblright /bullet
/endash /emdash /asciitilde /trademark /scaron
/guilsinglright /oe /bullet /zcaron /Ydieresis
/space /exclamdown /cent /sterling /currency
/yen /brokenbar /section /dieresis /copyright
/ordfeminine /guillemotleft /logicalnot /sfthyphen /registered
/macron /degree /plusminus /twosuperior /threesuperior
/acute /mu /paragraph /middot /cedilla
/onesuperior /ordmasculine /guillemotright /onequarter /onehalf
/threequarters /questiondown /Agrave /Aacute /Acircumflex
/Atilde /Adieresis /Aring /AE /Ccedilla
/Egrave /Eacute /Ecircumflex /Edieresis /Igrave
/Iacute /Icircumflex /Idieresis /Eth /Ntilde
/Ograve /Oacute /Ocircumflex /Otilde /Odieresis
/multiply /Oslash /Ugrave /Uacute /Ucircumflex
/Udieresis /Yacute /Thorn /germandbls /agrave
/aacute /acircumflex /atilde /adieresis /aring
/ae /ccedilla /egrave /eacute /ecircumflex
/edieresis /igrave /iacute /icircumflex /idieresis
/eth /ntilde /ograve /oacute /ocircumflex
/otilde /odieresis /divide /oslash /ugrave
/uacute /ucircumflex /udieresis /yacute /thorn
/ydieresis
] def
%%EndResource
%FOPBeginFontReencode
/Courier-Oblique findfont
dup length dict begin
  {1 index /FID ne {def} {pop pop} ifelse} forall
  /Encoding WinAnsiEncoding def
  currentdict
end
/Courier-Oblique exch definefont pop
/Courier-BoldOblique findfont
dup length dict begin
  {1 index /FID ne {def} {pop pop} ifelse} forall
  /Encoding WinAnsiEncoding def
  currentdict
end
/Courier-BoldOblique exch definefont pop
/Courier-Bold findfont
dup length dict begin
  {1 index /FID ne {def} {pop pop} ifelse} forall
  /Encoding WinAnsiEncoding def
  currentdict
end
/Courier-Bold exch definefont pop
/Helvetica findfont
dup length dict begin
  {1 index /FID ne {def} {pop pop} ifelse} forall
  /Encoding WinAnsiEncoding def
  currentdict
end
/Helvetica exch definefont pop
/Helvetica-Oblique findfont
dup length dict begin
  {1 index /FID ne {def} {pop pop} ifelse} forall
  /Encoding WinAnsiEncoding def
  currentdict
end
/Helvetica-Oblique exch definefont pop
/Helvetica-Bold findfont
dup length dict begin
  {1 index /FID ne {def} {pop pop} ifelse} forall
  /Encoding WinAnsiEncoding def
  currentdict
end
/Helvetica-Bold exch definefont pop
/Helvetica-BoldOblique findfont
dup length dict begin
  {1 index /FID ne {def} {pop pop} ifelse} forall
  /Encoding WinAnsiEncoding def
  currentdict
end
/Helvetica-BoldOblique exch definefont pop
/Times-Roman findfont
dup length dict begin
  {1 index /FID ne {def} {pop pop} ifelse} forall
  /Encoding WinAnsiEncoding def
  currentdict
end
/Times-Roman exch definefont pop
/Times-Italic findfont
dup length dict begin
  {1 index /FID ne {def} {pop pop} ifelse} forall
  /Encoding WinAnsiEncoding def
  currentdict
end
/Times-Italic exch definefont pop
/Times-Bold findfont
dup length dict begin
  {1 index /FID ne {def} {pop pop} ifelse} forall
  /Encoding WinAnsiEncoding def
  currentdict
end
/Times-Bold exch definefont pop
/Times-BoldItalic findfont
dup length dict begin
  {1 index /FID ne {def} {pop pop} ifelse} forall
  /Encoding WinAnsiEncoding def
  currentdict
end
/Times-BoldItalic exch definefont pop
/Courier findfont
dup length dict begin
  {1 index /FID ne {def} {pop pop} ifelse} forall
  /Encoding WinAnsiEncoding def
  currentdict
end
/Courier exch definefont pop
%FOPEndFontReencode
%%EndProlog
%%Page: 1 1
%%PageBoundingBox: 0 0 420 315
%%BeginPageSetup
[1 0 0 -1 0 315] CT
%%EndPageSetup
GS
[0.75 0 0 0.75 0 0] CT
1 GC
N
0 0 560 420 re
f
GR
GS
[0.75 0 0 0.75 0 0] CT
1 GC
N
0 0 560 420 re
f
GR
GS
[0.75 0 0 0.75 0 0] CT
1 GC
N
73 374 M
507 374 L
507 31 L
73 31 L
cp
f
GR
GS
[0.75 0 0 0.75 0 0] CT
0.149 GC
2 setlinecap
1 LJ
0.667 LW
N
73 374 M
507 374 L
S
GR
GS
[0.75 0 0 0.75 0 0] CT
0.149 GC
2 setlinecap
1 LJ
0.667 LW
N
73 31 M
507 31 L
S
GR
GS
[0.75 0 0 0.75 0 0] CT
0.149 GC
2 setlinecap
1 LJ
0.667 LW
N
73 374 M
73 369.66 L
S
GR
GS
[0.75 0 0 0.75 0 0] CT
0.149 GC
2 setlinecap
1 LJ
0.667 LW
N
116.4 374 M
116.4 369.66 L
S
GR
GS
[0.75 0 0 0.75 0 0] CT
0.149 GC
2 setlinecap
1 LJ
0.667 LW
N
159.8 374 M
159.8 369.66 L
S
GR
GS
[0.75 0 0 0.75 0 0] CT
0.149 GC
2 setlinecap
1 LJ
0.667 LW
N
203.2 374 M
203.2 369.66 L
S
GR
GS
[0.75 0 0 0.75 0 0] CT
0.149 GC
2 setlinecap
1 LJ
0.667 LW
N
246.6 374 M
246.6 369.66 L
S
GR
GS
[0.75 0 0 0.75 0 0] CT
0.149 GC
2 setlinecap
1 LJ
0.667 LW
N
290 374 M
290 369.66 L
S
GR
GS
[0.75 0 0 0.75 0 0] CT
0.149 GC
2 setlinecap
1 LJ
0.667 LW
N
333.4 374 M
333.4 369.66 L
S
GR
GS
[0.75 0 0 0.75 0 0] CT
0.149 GC
2 setlinecap
1 LJ
0.667 LW
N
376.8 374 M
376.8 369.66 L
S
GR
GS
[0.75 0 0 0.75 0 0] CT
0.149 GC
2 setlinecap
1 LJ
0.667 LW
N
420.2 374 M
420.2 369.66 L
S
GR
GS
[0.75 0 0 0.75 0 0] CT
0.149 GC
2 setlinecap
1 LJ
0.667 LW
N
463.6 374 M
463.6 369.66 L
S
GR
GS
[0.75 0 0 0.75 0 0] CT
0.149 GC
2 setlinecap
1 LJ
0.667 LW
N
507 374 M
507 369.66 L
S
GR
GS
[0.75 0 0 0.75 0 0] CT
0.149 GC
2 setlinecap
1 LJ
0.667 LW
N
73 31 M
73 35.34 L
S
GR
GS
[0.75 0 0 0.75 0 0] CT
0.149 GC
2 setlinecap
1 LJ
0.667 LW
N
116.4 31 M
116.4 35.34 L
S
GR
GS
[0.75 0 0 0.75 0 0] CT
0.149 GC
2 setlinecap
1 LJ
0.667 LW
N
159.8 31 M
159.8 35.34 L
S
GR
GS
[0.75 0 0 0.75 0 0] CT
0.149 GC
2 setlinecap
1 LJ
0.667 LW
N
203.2 31 M
203.2 35.34 L
S
GR
GS
[0.75 0 0 0.75 0 0] CT
0.149 GC
2 setlinecap
1 LJ
0.667 LW
N
246.6 31 M
246.6 35.34 L
S
GR
GS
[0.75 0 0 0.75 0 0] CT
0.149 GC
2 setlinecap
1 LJ
0.667 LW
N
290 31 M
290 35.34 L
S
GR
GS
[0.75 0 0 0.75 0 0] CT
0.149 GC
2 setlinecap
1 LJ
0.667 LW
N
333.4 31 M
333.4 35.34 L
S
GR
GS
[0.75 0 0 0.75 0 0] CT
0.149 GC
2 setlinecap
1 LJ
0.667 LW
N
376.8 31 M
376.8 35.34 L
S
GR
GS
[0.75 0 0 0.75 0 0] CT
0.149 GC
2 setlinecap
1 LJ
0.667 LW
N
420.2 31 M
420.2 35.34 L
S
GR
GS
[0.75 0 0 0.75 0 0] CT
0.149 GC
2 setlinecap
1 LJ
0.667 LW
N
463.6 31 M
463.6 35.34 L
S
GR
GS
[0.75 0 0 0.75 0 0] CT
0.149 GC
2 setlinecap
1 LJ
0.667 LW
N
507 31 M
507 35.34 L
S
GR
GS
[0.75 0 0 0.75 54.75 284.50001] CT
0.149 GC
/Helvetica 13.333 F
GS
[1 0 0 1 0 0] CT
-10 14 moveto 
1 -1 scale
(-10) t 
GR
GR
GS
[0.75 0 0 0.75 87.3 284.50001] CT
0.149 GC
/Helvetica 13.333 F
GS
[1 0 0 1 0 0] CT
-6 14 moveto 
1 -1 scale
(-8) t 
GR
GR
GS
[0.75 0 0 0.75 119.85 284.50001] CT
0.149 GC
/Helvetica 13.333 F
GS
[1 0 0 1 0 0] CT
-6 14 moveto 
1 -1 scale
(-6) t 
GR
GR
GS
[0.75 0 0 0.75 152.4 284.50001] CT
0.149 GC
/Helvetica 13.333 F
GS
[1 0 0 1 0 0] CT
-6 14 moveto 
1 -1 scale
(-4) t 
GR
GR
GS
[0.75 0 0 0.75 184.95 284.50001] CT
0.149 GC
/Helvetica 13.333 F
GS
[1 0 0 1 0 0] CT
-6 14 moveto 
1 -1 scale
(-2) t 
GR
GR
GS
[0.75 0 0 0.75 217.5 284.50001] CT
0.149 GC
/Helvetica 13.333 F
GS
[1 0 0 1 0 0] CT
-4 14 moveto 
1 -1 scale
(0) t 
GR
GR
GS
[0.75 0 0 0.75 250.05 284.50001] CT
0.149 GC
/Helvetica 13.333 F
GS
[1 0 0 1 0 0] CT
-4 14 moveto 
1 -1 scale
(2) t 
GR
GR
GS
[0.75 0 0 0.75 282.59999 284.50001] CT
0.149 GC
/Helvetica 13.333 F
GS
[1 0 0 1 0 0] CT
-4 14 moveto 
1 -1 scale
(4) t 
GR
GR
GS
[0.75 0 0 0.75 315.15001 284.50001] CT
0.149 GC
/Helvetica 13.333 F
GS
[1 0 0 1 0 0] CT
-4 14 moveto 
1 -1 scale
(6) t 
GR
GR
GS
[0.75 0 0 0.75 347.7 284.50001] CT
0.149 GC
/Helvetica 13.333 F
GS
[1 0 0 1 0 0] CT
-4 14 moveto 
1 -1 scale
(8) t 
GR
GR
GS
[0.75 0 0 0.75 380.25 284.50001] CT
0.149 GC
/Helvetica 13.333 F
GS
[1 0 0 1 0 0] CT
-7.5 14 moveto 
1 -1 scale
(10) t 
GR
GR
GS
[0.75 0 0 0.75 0 0] CT
0.149 GC
2 setlinecap
1 LJ
0.667 LW
N
73 374 M
73 31 L
S
GR
GS
[0.75 0 0 0.75 0 0] CT
0.149 GC
2 setlinecap
1 LJ
0.667 LW
N
507 374 M
507 31 L
S
GR
GS
[0.75 0 0 0.75 0 0] CT
0.149 GC
2 setlinecap
1 LJ
0.667 LW
N
73 367.404 M
77.34 367.404 L
S
GR
GS
[0.75 0 0 0.75 0 0] CT
0.149 GC
2 setlinecap
1 LJ
0.667 LW
N
73 334.423 M
77.34 334.423 L
S
GR
GS
[0.75 0 0 0.75 0 0] CT
0.149 GC
2 setlinecap
1 LJ
0.667 LW
N
73 301.442 M
77.34 301.442 L
S
GR
GS
[0.75 0 0 0.75 0 0] CT
0.149 GC
2 setlinecap
1 LJ
0.667 LW
N
73 268.462 M
77.34 268.462 L
S
GR
GS
[0.75 0 0 0.75 0 0] CT
0.149 GC
2 setlinecap
1 LJ
0.667 LW
N
73 235.481 M
77.34 235.481 L
S
GR
GS
[0.75 0 0 0.75 0 0] CT
0.149 GC
2 setlinecap
1 LJ
0.667 LW
N
73 202.5 M
77.34 202.5 L
S
GR
GS
[0.75 0 0 0.75 0 0] CT
0.149 GC
2 setlinecap
1 LJ
0.667 LW
N
73 169.519 M
77.34 169.519 L
S
GR
GS
[0.75 0 0 0.75 0 0] CT
0.149 GC
2 setlinecap
1 LJ
0.667 LW
N
73 136.538 M
77.34 136.538 L
S
GR
GS
[0.75 0 0 0.75 0 0] CT
0.149 GC
2 setlinecap
1 LJ
0.667 LW
N
73 103.558 M
77.34 103.558 L
S
GR
GS
[0.75 0 0 0.75 0 0] CT
0.149 GC
2 setlinecap
1 LJ
0.667 LW
N
73 70.577 M
77.34 70.577 L
S
GR
GS
[0.75 0 0 0.75 0 0] CT
0.149 GC
2 setlinecap
1 LJ
0.667 LW
N
73 37.596 M
77.34 37.596 L
S
GR
GS
[0.75 0 0 0.75 0 0] CT
0.149 GC
2 setlinecap
1 LJ
0.667 LW
N
507 367.404 M
502.66 367.404 L
S
GR
GS
[0.75 0 0 0.75 0 0] CT
0.149 GC
2 setlinecap
1 LJ
0.667 LW
N
507 334.423 M
502.66 334.423 L
S
GR
GS
[0.75 0 0 0.75 0 0] CT
0.149 GC
2 setlinecap
1 LJ
0.667 LW
N
507 301.442 M
502.66 301.442 L
S
GR
GS
[0.75 0 0 0.75 0 0] CT
0.149 GC
2 setlinecap
1 LJ
0.667 LW
N
507 268.462 M
502.66 268.462 L
S
GR
GS
[0.75 0 0 0.75 0 0] CT
0.149 GC
2 setlinecap
1 LJ
0.667 LW
N
507 235.481 M
502.66 235.481 L
S
GR
GS
[0.75 0 0 0.75 0 0] CT
0.149 GC
2 setlinecap
1 LJ
0.667 LW
N
507 202.5 M
502.66 202.5 L
S
GR
GS
[0.75 0 0 0.75 0 0] CT
0.149 GC
2 setlinecap
1 LJ
0.667 LW
N
507 169.519 M
502.66 169.519 L
S
GR
GS
[0.75 0 0 0.75 0 0] CT
0.149 GC
2 setlinecap
1 LJ
0.667 LW
N
507 136.538 M
502.66 136.538 L
S
GR
GS
[0.75 0 0 0.75 0 0] CT
0.149 GC
2 setlinecap
1 LJ
0.667 LW
N
507 103.558 M
502.66 103.558 L
S
GR
GS
[0.75 0 0 0.75 0 0] CT
0.149 GC
2 setlinecap
1 LJ
0.667 LW
N
507 70.577 M
502.66 70.577 L
S
GR
GS
[0.75 0 0 0.75 0 0] CT
0.149 GC
2 setlinecap
1 LJ
0.667 LW
N
507 37.596 M
502.66 37.596 L
S
GR
GS
[0.75 0 0 0.75 50.74999 275.55288] CT
0.149 GC
/Helvetica 13.333 F
GS
[1 0 0 1 0 0] CT
-8 5.5 moveto 
1 -1 scale
(0) t 
GR
GR
GS
[0.75 0 0 0.75 50.74999 250.8173] CT
0.149 GC
/Helvetica 13.333 F
GS
[1 0 0 1 0 0] CT
-19 5.5 moveto 
1 -1 scale
(0.1) t 
GR
GR
GS
[0.75 0 0 0.75 50.74999 226.08174] CT
0.149 GC
/Helvetica 13.333 F
GS
[1 0 0 1 0 0] CT
-19 5.5 moveto 
1 -1 scale
(0.2) t 
GR
GR
GS
[0.75 0 0 0.75 50.74999 201.34616] CT
0.149 GC
/Helvetica 13.333 F
GS
[1 0 0 1 0 0] CT
-19 5.5 moveto 
1 -1 scale
(0.3) t 
GR
GR
GS
[0.75 0 0 0.75 50.74999 176.61058] CT
0.149 GC
/Helvetica 13.333 F
GS
[1 0 0 1 0 0] CT
-19 5.5 moveto 
1 -1 scale
(0.4) t 
GR
GR
GS
[0.75 0 0 0.75 50.74999 151.875] CT
0.149 GC
/Helvetica 13.333 F
GS
[1 0 0 1 0 0] CT
-19 5.5 moveto 
1 -1 scale
(0.5) t 
GR
GR
GS
[0.75 0 0 0.75 50.74999 127.13942] CT
0.149 GC
/Helvetica 13.333 F
GS
[1 0 0 1 0 0] CT
-19 5.5 moveto 
1 -1 scale
(0.6) t 
GR
GR
GS
[0.75 0 0 0.75 50.74999 102.40385] CT
0.149 GC
/Helvetica 13.333 F
GS
[1 0 0 1 0 0] CT
-19 5.5 moveto 
1 -1 scale
(0.7) t 
GR
GR
GS
[0.75 0 0 0.75 50.74999 77.66826] CT
0.149 GC
/Helvetica 13.333 F
GS
[1 0 0 1 0 0] CT
-19 5.5 moveto 
1 -1 scale
(0.8) t 
GR
GR
GS
[0.75 0 0 0.75 50.74999 52.9327] CT
0.149 GC
/Helvetica 13.333 F
GS
[1 0 0 1 0 0] CT
-19 5.5 moveto 
1 -1 scale
(0.9) t 
GR
GR
GS
[0.75 0 0 0.75 50.74999 28.19711] CT
0.149 GC
/Helvetica 13.333 F
GS
[1 0 0 1 0 0] CT
-8 5.5 moveto 
1 -1 scale
(1) t 
GR
GR
GS
[0.75 0 0 0.75 0 0] CT
0 0.447 0.741 RC
1 LJ
0.667 LW
N
73 367.389 M
73.434 367.389 L
73.869 367.388 L
74.303 367.388 L
74.738 367.388 L
75.172 367.387 L
75.607 367.387 L
76.041 367.387 L
76.475 367.386 L
76.91 367.386 L
77.344 367.386 L
77.779 367.385 L
78.213 367.385 L
78.648 367.384 L
79.082 367.384 L
79.517 367.384 L
79.951 367.383 L
80.385 367.383 L
80.82 367.382 L
81.254 367.382 L
81.689 367.382 L
82.123 367.381 L
82.558 367.381 L
82.992 367.38 L
83.426 367.38 L
83.861 367.379 L
84.295 367.379 L
84.73 367.378 L
85.164 367.378 L
85.599 367.377 L
86.033 367.377 L
86.467 367.376 L
86.902 367.375 L
87.336 367.375 L
87.771 367.374 L
88.205 367.374 L
88.64 367.373 L
89.074 367.372 L
89.508 367.372 L
89.943 367.371 L
90.377 367.371 L
90.812 367.37 L
91.246 367.369 L
91.681 367.368 L
92.115 367.368 L
92.55 367.367 L
92.984 367.366 L
93.418 367.365 L
93.853 367.365 L
94.287 367.364 L
94.722 367.363 L
95.156 367.362 L
95.591 367.361 L
96.025 367.361 L
96.459 367.36 L
96.894 367.359 L
97.328 367.358 L
97.763 367.357 L
98.197 367.356 L
98.632 367.355 L
99.066 367.354 L
99.5 367.353 L
99.935 367.352 L
100.369 367.351 L
100.804 367.35 L
101.238 367.349 L
101.673 367.348 L
102.107 367.347 L
102.542 367.345 L
102.976 367.344 L
103.41 367.343 L
103.845 367.342 L
104.279 367.341 L
104.714 367.339 L
105.148 367.338 L
105.583 367.337 L
106.017 367.335 L
106.451 367.334 L
106.886 367.332 L
107.32 367.331 L
107.755 367.33 L
108.189 367.328 L
108.624 367.327 L
109.058 367.325 L
109.492 367.323 L
109.927 367.322 L
110.361 367.32 L
110.796 367.318 L
111.23 367.317 L
111.665 367.315 L
112.099 367.313 L
112.534 367.311 L
112.968 367.309 L
113.402 367.308 L
113.837 367.306 L
114.271 367.304 L
114.706 367.302 L
115.14 367.299 L
115.575 367.297 L
116.009 367.295 L
116.443 367.293 L
116.878 367.291 L
117.312 367.288 L
117.747 367.286 L
118.181 367.284 L
118.616 367.281 L
119.05 367.279 L
119.484 367.276 L
119.919 367.274 L
120.353 367.271 L
120.788 367.268 L
121.222 367.266 L
121.657 367.263 L
122.091 367.26 L
122.526 367.257 L
122.96 367.254 L
123.394 367.251 L
123.829 367.248 L
124.263 367.245 L
124.698 367.242 L
125.132 367.238 L
125.567 367.235 L
126.001 367.232 L
126.435 367.228 L
126.87 367.225 L
127.304 367.221 L
127.739 367.217 L
128.173 367.214 L
128.608 367.21 L
129.042 367.206 L
129.476 367.202 L
129.911 367.198 L
130.345 367.194 L
130.78 367.189 L
131.214 367.185 L
131.649 367.181 L
132.083 367.176 L
132.518 367.171 L
132.952 367.167 L
133.386 367.162 L
133.821 367.157 L
134.255 367.152 L
134.69 367.147 L
135.124 367.142 L
135.559 367.137 L
135.993 367.131 L
136.427 367.126 L
136.862 367.12 L
137.296 367.114 L
137.731 367.108 L
138.165 367.102 L
138.6 367.096 L
139.034 367.09 L
139.468 367.084 L
139.903 367.077 L
140.337 367.071 L
140.772 367.064 L
141.206 367.057 L
141.641 367.05 L
142.075 367.043 L
142.51 367.036 L
142.944 367.028 L
143.378 367.021 L
143.813 367.013 L
144.247 367.005 L
144.682 366.997 L
145.116 366.989 L
145.551 366.98 L
145.985 366.972 L
146.419 366.963 L
146.854 366.954 L
147.288 366.945 L
147.723 366.936 L
148.157 366.926 L
148.592 366.917 L
149.026 366.907 L
149.46 366.897 L
149.895 366.887 L
150.329 366.876 L
150.764 366.866 L
151.198 366.855 L
151.633 366.844 L
152.067 366.832 L
152.502 366.821 L
152.936 366.809 L
153.37 366.797 L
153.805 366.785 L
154.239 366.772 L
154.674 366.76 L
155.108 366.747 L
155.543 366.733 L
155.977 366.72 L
156.411 366.706 L
156.846 366.692 L
157.28 366.678 L
157.715 366.663 L
158.149 366.648 L
158.584 366.633 L
159.018 366.617 L
159.452 366.601 L
159.887 366.585 L
160.321 366.569 L
160.756 366.552 L
161.19 366.535 L
161.625 366.517 L
162.059 366.499 L
162.493 366.481 L
162.928 366.462 L
163.362 366.443 L
163.797 366.424 L
164.231 366.404 L
164.666 366.384 L
165.1 366.363 L
165.535 366.342 L
165.969 366.321 L
166.403 366.299 L
166.838 366.277 L
167.272 366.254 L
167.707 366.231 L
168.141 366.208 L
168.576 366.183 L
169.01 366.159 L
169.444 366.134 L
169.879 366.108 L
170.313 366.082 L
170.748 366.055 L
171.182 366.028 L
171.617 366.001 L
172.051 365.972 L
172.485 365.944 L
172.92 365.914 L
173.354 365.884 L
173.789 365.854 L
174.223 365.822 L
174.658 365.791 L
175.092 365.758 L
175.527 365.725 L
175.961 365.691 L
176.395 365.657 L
176.83 365.622 L
177.264 365.586 L
177.699 365.549 L
178.133 365.512 L
178.568 365.474 L
179.002 365.435 L
179.436 365.396 L
179.871 365.355 L
180.305 365.314 L
180.74 365.272 L
181.174 365.229 L
181.609 365.185 L
182.043 365.141 L
182.477 365.095 L
182.912 365.049 L
183.346 365.002 L
183.781 364.954 L
184.215 364.905 L
184.65 364.854 L
185.084 364.803 L
185.519 364.751 L
185.953 364.698 L
186.387 364.644 L
186.822 364.588 L
187.256 364.532 L
187.691 364.474 L
188.125 364.416 L
188.56 364.356 L
188.994 364.295 L
189.428 364.232 L
189.863 364.169 L
190.297 364.104 L
190.732 364.038 L
191.166 363.971 L
191.601 363.902 L
192.035 363.832 L
192.469 363.76 L
192.904 363.688 L
193.338 363.613 L
193.773 363.538 L
194.207 363.46 L
194.642 363.382 L
195.076 363.301 L
195.511 363.219 L
195.945 363.136 L
196.379 363.051 L
196.814 362.964 L
197.248 362.875 L
197.683 362.785 L
198.117 362.693 L
198.552 362.599 L
198.986 362.503 L
199.42 362.406 L
199.855 362.306 L
200.289 362.205 L
200.724 362.101 L
201.158 361.996 L
201.593 361.888 L
202.027 361.779 L
202.461 361.667 L
202.896 361.553 L
203.33 361.437 L
203.765 361.318 L
204.199 361.198 L
204.634 361.074 L
205.068 360.949 L
205.503 360.821 L
205.937 360.691 L
206.371 360.558 L
206.806 360.422 L
207.24 360.284 L
207.675 360.143 L
208.109 360 L
208.544 359.853 L
208.978 359.704 L
209.412 359.552 L
209.847 359.397 L
210.281 359.24 L
210.716 359.079 L
211.15 358.915 L
211.585 358.747 L
212.019 358.577 L
212.453 358.403 L
212.888 358.227 L
213.322 358.046 L
213.757 357.862 L
214.191 357.675 L
214.626 357.484 L
215.06 357.29 L
215.494 357.092 L
215.929 356.89 L
216.363 356.684 L
216.798 356.475 L
217.232 356.261 L
217.667 356.044 L
218.101 355.822 L
218.536 355.596 L
218.97 355.366 L
219.404 355.132 L
219.839 354.893 L
220.273 354.65 L
220.708 354.402 L
221.142 354.15 L
221.577 353.893 L
222.011 353.631 L
222.445 353.364 L
222.88 353.092 L
223.314 352.816 L
223.749 352.534 L
224.183 352.247 L
224.618 351.955 L
225.052 351.658 L
225.486 351.355 L
225.921 351.046 L
226.355 350.732 L
226.79 350.413 L
227.224 350.087 L
227.659 349.756 L
228.093 349.418 L
228.528 349.075 L
228.962 348.725 L
229.396 348.369 L
229.831 348.007 L
230.265 347.638 L
230.7 347.263 L
231.134 346.881 L
231.569 346.492 L
232.003 346.097 L
232.437 345.694 L
232.872 345.284 L
233.306 344.868 L
233.741 344.444 L
234.175 344.012 L
234.61 343.574 L
235.044 343.127 L
235.478 342.673 L
235.913 342.211 L
236.347 341.741 L
236.782 341.263 L
237.216 340.778 L
237.651 340.283 L
238.085 339.781 L
238.52 339.27 L
238.954 338.75 L
239.388 338.222 L
239.823 337.685 L
240.257 337.14 L
240.692 336.585 L
241.126 336.021 L
241.561 335.448 L
241.995 334.865 L
242.429 334.273 L
242.864 333.672 L
243.298 333.061 L
243.733 332.44 L
244.167 331.809 L
244.602 331.169 L
245.036 330.518 L
245.47 329.857 L
245.905 329.186 L
246.339 328.504 L
246.774 327.812 L
247.208 327.109 L
247.643 326.395 L
248.077 325.671 L
248.512 324.936 L
248.946 324.19 L
249.38 323.432 L
249.815 322.664 L
250.249 321.884 L
250.684 321.092 L
251.118 320.29 L
251.553 319.475 L
251.987 318.65 L
252.421 317.812 L
252.856 316.962 L
253.29 316.101 L
253.725 315.228 L
254.159 314.342 L
254.594 313.445 L
255.028 312.535 L
255.462 311.614 L
255.897 310.679 L
256.331 309.733 L
256.766 308.774 L
257.2 307.803 L
257.635 306.819 L
258.069 305.822 L
258.504 304.814 L
258.938 303.792 L
259.372 302.758 L
259.807 301.711 L
260.241 300.651 L
260.676 299.579 L
261.11 298.494 L
261.545 297.396 L
261.979 296.286 L
262.413 295.163 L
262.848 294.027 L
263.282 292.879 L
263.717 291.717 L
264.151 290.543 L
264.586 289.357 L
265.02 288.158 L
265.454 286.946 L
265.889 285.722 L
266.323 284.486 L
266.758 283.237 L
267.192 281.976 L
267.627 280.703 L
268.061 279.417 L
268.495 278.12 L
268.93 276.81 L
269.364 275.489 L
269.799 274.155 L
270.233 272.811 L
270.668 271.454 L
271.102 270.086 L
271.537 268.707 L
271.971 267.317 L
272.405 265.916 L
272.84 264.504 L
273.274 263.082 L
273.709 261.648 L
274.143 260.205 L
274.578 258.751 L
275.012 257.288 L
275.446 255.814 L
275.881 254.332 L
276.315 252.839 L
276.75 251.338 L
277.184 249.828 L
277.619 248.309 L
278.053 246.781 L
278.487 245.245 L
278.922 243.702 L
279.356 242.15 L
279.791 240.591 L
280.225 239.025 L
280.66 237.452 L
281.094 235.872 L
281.529 234.286 L
281.963 232.693 L
282.397 231.095 L
282.832 229.491 L
283.266 227.882 L
283.701 226.268 L
284.135 224.65 L
284.57 223.027 L
285.004 221.4 L
285.438 219.769 L
285.873 218.134 L
286.307 216.497 L
286.742 214.857 L
287.176 213.214 L
287.611 211.57 L
288.045 209.923 L
288.479 208.275 L
288.914 206.626 L
289.348 204.976 L
289.783 203.325 L
290.217 201.675 L
290.652 200.024 L
291.086 198.374 L
291.521 196.725 L
291.955 195.077 L
292.389 193.43 L
292.824 191.786 L
293.258 190.143 L
293.693 188.503 L
294.127 186.866 L
294.562 185.231 L
294.996 183.6 L
295.43 181.973 L
295.865 180.35 L
296.299 178.732 L
296.734 177.118 L
297.168 175.509 L
297.603 173.905 L
298.037 172.307 L
298.471 170.714 L
298.906 169.128 L
299.34 167.548 L
299.775 165.975 L
300.209 164.409 L
300.644 162.85 L
301.078 161.298 L
301.513 159.755 L
301.947 158.219 L
302.381 156.691 L
302.816 155.172 L
303.25 153.662 L
303.685 152.161 L
304.119 150.668 L
304.554 149.185 L
304.988 147.712 L
305.422 146.249 L
305.857 144.795 L
306.291 143.352 L
306.726 141.918 L
307.16 140.496 L
307.595 139.084 L
308.029 137.683 L
308.463 136.293 L
308.898 134.914 L
309.332 133.546 L
309.767 132.189 L
310.201 130.845 L
310.636 129.511 L
311.07 128.19 L
311.505 126.88 L
311.939 125.583 L
312.373 124.297 L
312.808 123.024 L
313.242 121.763 L
313.677 120.514 L
314.111 119.278 L
314.546 118.054 L
314.98 116.842 L
315.414 115.643 L
315.849 114.456 L
316.283 113.283 L
316.718 112.121 L
317.152 110.973 L
317.587 109.837 L
318.021 108.714 L
318.455 107.604 L
318.89 106.506 L
319.324 105.421 L
319.759 104.349 L
320.193 103.289 L
320.628 102.242 L
321.062 101.208 L
321.496 100.186 L
321.931 99.178 L
322.365 98.181 L
322.8 97.197 L
323.234 96.226 L
323.669 95.267 L
324.103 94.321 L
324.538 93.386 L
324.972 92.465 L
325.406 91.555 L
325.841 90.658 L
326.275 89.772 L
326.71 88.899 L
327.144 88.038 L
327.579 87.188 L
328.013 86.35 L
328.447 85.525 L
328.882 84.71 L
329.316 83.908 L
329.751 83.116 L
330.185 82.336 L
330.62 81.568 L
331.054 80.81 L
331.488 80.064 L
331.923 79.329 L
332.357 78.605 L
332.792 77.891 L
333.226 77.188 L
333.661 76.496 L
334.095 75.814 L
334.53 75.143 L
334.964 74.482 L
335.398 73.831 L
335.833 73.191 L
336.267 72.56 L
336.702 71.939 L
337.136 71.328 L
337.571 70.727 L
338.005 70.135 L
338.439 69.552 L
338.874 68.979 L
339.308 68.415 L
339.743 67.86 L
340.177 67.315 L
340.612 66.778 L
341.046 66.25 L
341.48 65.73 L
341.915 65.219 L
342.349 64.717 L
342.784 64.222 L
343.218 63.737 L
343.653 63.259 L
344.087 62.789 L
344.522 62.327 L
344.956 61.873 L
345.39 61.426 L
345.825 60.988 L
346.259 60.556 L
346.694 60.132 L
347.128 59.716 L
347.563 59.306 L
347.997 58.903 L
348.431 58.508 L
348.866 58.119 L
349.3 57.737 L
349.735 57.362 L
350.169 56.993 L
350.604 56.631 L
351.038 56.275 L
351.472 55.925 L
351.907 55.582 L
352.341 55.244 L
352.776 54.913 L
353.21 54.587 L
353.645 54.268 L
354.079 53.954 L
354.514 53.645 L
354.948 53.342 L
355.382 53.045 L
355.817 52.753 L
356.251 52.466 L
356.686 52.184 L
357.12 51.908 L
357.555 51.636 L
357.989 51.369 L
358.423 51.107 L
358.858 50.85 L
359.292 50.598 L
359.727 50.35 L
360.161 50.107 L
360.596 49.868 L
361.03 49.634 L
361.464 49.404 L
361.899 49.178 L
362.333 48.956 L
362.768 48.739 L
363.202 48.525 L
363.637 48.316 L
364.071 48.11 L
364.505 47.908 L
364.94 47.71 L
365.374 47.516 L
365.809 47.325 L
366.243 47.138 L
366.678 46.954 L
367.112 46.773 L
367.547 46.597 L
367.981 46.423 L
368.415 46.253 L
368.85 46.085 L
369.284 45.921 L
369.719 45.76 L
370.153 45.603 L
370.588 45.448 L
371.022 45.296 L
371.456 45.147 L
371.891 45 L
372.325 44.857 L
372.76 44.716 L
373.194 44.578 L
373.629 44.442 L
374.063 44.309 L
374.497 44.179 L
374.932 44.051 L
375.366 43.926 L
375.801 43.802 L
376.235 43.682 L
376.67 43.563 L
377.104 43.447 L
377.539 43.333 L
377.973 43.221 L
378.407 43.112 L
378.842 43.004 L
379.276 42.899 L
379.711 42.795 L
380.145 42.694 L
380.58 42.594 L
381.014 42.497 L
381.448 42.401 L
381.883 42.307 L
382.317 42.215 L
382.752 42.125 L
383.186 42.036 L
383.621 41.949 L
384.055 41.864 L
384.49 41.781 L
384.924 41.699 L
385.358 41.618 L
385.793 41.54 L
386.227 41.462 L
386.662 41.387 L
387.096 41.312 L
387.531 41.24 L
387.965 41.168 L
388.399 41.098 L
388.834 41.029 L
389.268 40.962 L
389.703 40.896 L
390.137 40.831 L
390.572 40.768 L
391.006 40.705 L
391.44 40.644 L
391.875 40.584 L
392.309 40.526 L
392.744 40.468 L
393.178 40.412 L
393.613 40.356 L
394.047 40.302 L
394.481 40.249 L
394.916 40.197 L
395.35 40.146 L
395.785 40.096 L
396.219 40.046 L
396.654 39.998 L
397.088 39.951 L
397.523 39.905 L
397.957 39.859 L
398.391 39.815 L
398.826 39.771 L
399.26 39.728 L
399.695 39.686 L
400.129 39.645 L
400.564 39.604 L
400.998 39.565 L
401.432 39.526 L
401.867 39.488 L
402.301 39.451 L
402.736 39.414 L
403.17 39.378 L
403.605 39.343 L
404.039 39.309 L
404.473 39.275 L
404.908 39.242 L
405.342 39.209 L
405.777 39.178 L
406.211 39.146 L
406.646 39.116 L
407.08 39.086 L
407.515 39.056 L
407.949 39.028 L
408.383 38.999 L
408.818 38.972 L
409.252 38.945 L
409.687 38.918 L
410.121 38.892 L
410.556 38.866 L
410.99 38.841 L
411.424 38.817 L
411.859 38.792 L
412.293 38.769 L
412.728 38.746 L
413.162 38.723 L
413.597 38.701 L
414.031 38.679 L
414.465 38.658 L
414.9 38.637 L
415.334 38.616 L
415.769 38.596 L
416.203 38.576 L
416.638 38.557 L
417.072 38.538 L
417.507 38.519 L
417.941 38.501 L
418.375 38.483 L
418.81 38.465 L
419.244 38.448 L
419.679 38.431 L
420.113 38.415 L
420.548 38.399 L
420.982 38.383 L
421.416 38.367 L
421.851 38.352 L
422.285 38.337 L
422.72 38.322 L
423.154 38.308 L
423.589 38.294 L
424.023 38.28 L
424.457 38.267 L
424.892 38.253 L
425.326 38.24 L
425.761 38.228 L
426.195 38.215 L
426.63 38.203 L
427.064 38.191 L
427.499 38.179 L
427.933 38.168 L
428.367 38.156 L
428.802 38.145 L
429.236 38.134 L
429.671 38.124 L
430.105 38.113 L
430.54 38.103 L
430.974 38.093 L
431.408 38.083 L
431.843 38.074 L
432.277 38.064 L
432.712 38.055 L
433.146 38.046 L
433.581 38.037 L
434.015 38.028 L
434.449 38.02 L
434.884 38.011 L
435.318 38.003 L
435.753 37.995 L
436.187 37.987 L
436.622 37.979 L
437.056 37.972 L
437.49 37.964 L
437.925 37.957 L
438.359 37.95 L
438.794 37.943 L
439.228 37.936 L
439.663 37.929 L
440.097 37.923 L
440.532 37.916 L
440.966 37.91 L
441.4 37.904 L
441.835 37.898 L
442.269 37.892 L
442.704 37.886 L
443.138 37.88 L
443.573 37.874 L
444.007 37.869 L
444.441 37.863 L
444.876 37.858 L
445.31 37.853 L
445.745 37.848 L
446.179 37.843 L
446.614 37.838 L
447.048 37.833 L
447.482 37.829 L
447.917 37.824 L
448.351 37.819 L
448.786 37.815 L
449.22 37.811 L
449.655 37.806 L
450.089 37.802 L
450.524 37.798 L
450.958 37.794 L
451.392 37.79 L
451.827 37.786 L
452.261 37.783 L
452.696 37.779 L
453.13 37.775 L
453.565 37.772 L
453.999 37.768 L
454.433 37.765 L
454.868 37.762 L
455.302 37.758 L
455.737 37.755 L
456.171 37.752 L
456.606 37.749 L
457.04 37.746 L
457.474 37.743 L
457.909 37.74 L
458.343 37.737 L
458.778 37.734 L
459.212 37.732 L
459.647 37.729 L
460.081 37.726 L
460.516 37.724 L
460.95 37.721 L
461.384 37.719 L
461.819 37.716 L
462.253 37.714 L
462.688 37.712 L
463.122 37.709 L
463.557 37.707 L
463.991 37.705 L
464.425 37.703 L
464.86 37.701 L
465.294 37.698 L
465.729 37.696 L
466.163 37.694 L
466.598 37.692 L
467.032 37.691 L
467.466 37.689 L
467.901 37.687 L
468.335 37.685 L
468.77 37.683 L
469.204 37.682 L
469.639 37.68 L
470.073 37.678 L
470.508 37.677 L
470.942 37.675 L
471.376 37.673 L
471.811 37.672 L
472.245 37.67 L
472.68 37.669 L
473.114 37.668 L
473.549 37.666 L
473.983 37.665 L
474.417 37.663 L
474.852 37.662 L
475.286 37.661 L
475.721 37.659 L
476.155 37.658 L
476.59 37.657 L
477.024 37.656 L
477.458 37.655 L
477.893 37.653 L
478.327 37.652 L
478.762 37.651 L
479.196 37.65 L
479.631 37.649 L
480.065 37.648 L
480.5 37.647 L
480.934 37.646 L
481.368 37.645 L
481.803 37.644 L
482.237 37.643 L
482.672 37.642 L
483.106 37.641 L
483.541 37.64 L
483.975 37.639 L
484.409 37.639 L
484.844 37.638 L
485.278 37.637 L
485.713 37.636 L
486.147 37.635 L
486.582 37.635 L
487.016 37.634 L
487.45 37.633 L
487.885 37.632 L
488.319 37.632 L
488.754 37.631 L
489.188 37.63 L
489.623 37.629 L
490.057 37.629 L
490.492 37.628 L
490.926 37.628 L
491.36 37.627 L
491.795 37.626 L
492.229 37.626 L
492.664 37.625 L
493.098 37.625 L
493.533 37.624 L
493.967 37.623 L
494.401 37.623 L
494.836 37.622 L
495.27 37.622 L
495.705 37.621 L
496.139 37.621 L
496.574 37.62 L
497.008 37.62 L
497.442 37.619 L
497.877 37.619 L
498.311 37.619 L
498.746 37.618 L
499.18 37.618 L
499.615 37.617 L
500.049 37.617 L
500.483 37.616 L
500.918 37.616 L
501.352 37.616 L
501.787 37.615 L
502.221 37.615 L
502.656 37.614 L
503.09 37.614 L
503.525 37.614 L
503.959 37.613 L
504.393 37.613 L
504.828 37.613 L
505.262 37.612 L
505.697 37.612 L
506.131 37.612 L
506.566 37.611 L
507 37.611 L
S
GR
%%Trailer
%%Pages: 1
%%EOF
