%!PS-Adobe-3.0 EPSF-3.0
%%Creator: (MATLAB, The Mathworks, Inc. Version 9.5.0.1049112 \(R2018b\) Update 3. Operating System: Windows 10)
%%Title: E:/zut/sem7/Praca_dyplomowa/Matlab/spawnChanceCurve.eps
%%CreationDate: 2020-01-17T18:53:35
%%Pages: (atend)
%%BoundingBox: 0 0 420 153
%%LanguageLevel: 3
%%EndComments
%%BeginProlog
%%BeginResource: procset (Apache XML Graphics Std ProcSet) 1.2 0
%%Version: 1.2 0
%%Copyright: (Copyright 2001-2003,2010 The Apache Software Foundation. License terms: http://www.apache.org/licenses/LICENSE-2.0)
/bd{bind def}bind def
/ld{load def}bd
/GR/grestore ld
/GS/gsave ld
/RM/rmoveto ld
/C/curveto ld
/t/show ld
/L/lineto ld
/ML/setmiterlimit ld
/CT/concat ld
/f/fill ld
/N/newpath ld
/S/stroke ld
/CC/setcmykcolor ld
/A/ashow ld
/cp/closepath ld
/RC/setrgbcolor ld
/LJ/setlinejoin ld
/GC/setgray ld
/LW/setlinewidth ld
/M/moveto ld
/re {4 2 roll M
1 index 0 rlineto
0 exch rlineto
neg 0 rlineto
cp } bd
/_ctm matrix def
/_tm matrix def
/BT { _ctm currentmatrix pop matrix _tm copy pop 0 0 moveto } bd
/ET { _ctm setmatrix } bd
/iTm { _ctm setmatrix _tm concat } bd
/Tm { _tm astore pop iTm 0 0 moveto } bd
/ux 0.0 def
/uy 0.0 def
/F {
  /Tp exch def
  /Tf exch def
  Tf findfont Tp scalefont setfont
  /cf Tf def  /cs Tp def
} bd
/ULS {currentpoint /uy exch def /ux exch def} bd
/ULE {
  /Tcx currentpoint pop def
  gsave
  newpath
  cf findfont cs scalefont dup
  /FontMatrix get 0 get /Ts exch def /FontInfo get dup
  /UnderlinePosition get Ts mul /To exch def
  /UnderlineThickness get Ts mul /Tt exch def
  ux uy To add moveto  Tcx uy To add lineto
  Tt setlinewidth stroke
  grestore
} bd
/OLE {
  /Tcx currentpoint pop def
  gsave
  newpath
  cf findfont cs scalefont dup
  /FontMatrix get 0 get /Ts exch def /FontInfo get dup
  /UnderlinePosition get Ts mul /To exch def
  /UnderlineThickness get Ts mul /Tt exch def
  ux uy To add cs add moveto Tcx uy To add cs add lineto
  Tt setlinewidth stroke
  grestore
} bd
/SOE {
  /Tcx currentpoint pop def
  gsave
  newpath
  cf findfont cs scalefont dup
  /FontMatrix get 0 get /Ts exch def /FontInfo get dup
  /UnderlinePosition get Ts mul /To exch def
  /UnderlineThickness get Ts mul /Tt exch def
  ux uy To add cs 10 mul 26 idiv add moveto Tcx uy To add cs 10 mul 26 idiv add lineto
  Tt setlinewidth stroke
  grestore
} bd
/QT {
/Y22 exch store
/X22 exch store
/Y21 exch store
/X21 exch store
currentpoint
/Y21 load 2 mul add 3 div exch
/X21 load 2 mul add 3 div exch
/X21 load 2 mul /X22 load add 3 div
/Y21 load 2 mul /Y22 load add 3 div
/X22 load /Y22 load curveto
} bd
/SSPD {
dup length /d exch dict def
{
/v exch def
/k exch def
currentpagedevice k known {
/cpdv currentpagedevice k get def
v cpdv ne {
/upd false def
/nullv v type /nulltype eq def
/nullcpdv cpdv type /nulltype eq def
nullv nullcpdv or
{
/upd true def
} {
/sametype v type cpdv type eq def
sametype {
v type /arraytype eq {
/vlen v length def
/cpdvlen cpdv length def
vlen cpdvlen eq {
0 1 vlen 1 sub {
/i exch def
/obj v i get def
/cpdobj cpdv i get def
obj cpdobj ne {
/upd true def
exit
} if
} for
} {
/upd true def
} ifelse
} {
v type /dicttype eq {
v {
/dv exch def
/dk exch def
/cpddv cpdv dk get def
dv cpddv ne {
/upd true def
exit
} if
} forall
} {
/upd true def
} ifelse
} ifelse
} if
} ifelse
upd true eq {
d k v put
} if
} if
} if
} forall
d length 0 gt {
d setpagedevice
} if
} bd
/RE { % /NewFontName [NewEncodingArray] /FontName RE -
  findfont dup length dict begin
  {
    1 index /FID ne
    {def} {pop pop} ifelse
  } forall
  /Encoding exch def
  /FontName 1 index def
  currentdict definefont pop
  end
} bind def
%%EndResource
%%BeginResource: procset (Apache XML Graphics EPS ProcSet) 1.0 0
%%Version: 1.0 0
%%Copyright: (Copyright 2002-2003 The Apache Software Foundation. License terms: http://www.apache.org/licenses/LICENSE-2.0)
/BeginEPSF { %def
/b4_Inc_state save def         % Save state for cleanup
/dict_count countdictstack def % Count objects on dict stack
/op_count count 1 sub def      % Count objects on operand stack
userdict begin                 % Push userdict on dict stack
/showpage { } def              % Redefine showpage, { } = null proc
0 setgray 0 setlinecap         % Prepare graphics state
1 setlinewidth 0 setlinejoin
10 setmiterlimit [ ] 0 setdash newpath
/languagelevel where           % If level not equal to 1 then
{pop languagelevel             % set strokeadjust and
1 ne                           % overprint to their defaults.
{false setstrokeadjust false setoverprint
} if
} if
} bd
/EndEPSF { %def
count op_count sub {pop} repeat            % Clean up stacks
countdictstack dict_count sub {end} repeat
b4_Inc_state restore
} bd
%%EndResource
%FOPBeginFontDict
%%IncludeResource: font Courier-Oblique
%%IncludeResource: font Courier-BoldOblique
%%IncludeResource: font Courier-Bold
%%IncludeResource: font ZapfDingbats
%%IncludeResource: font Symbol
%%IncludeResource: font Helvetica
%%IncludeResource: font Helvetica-Oblique
%%IncludeResource: font Helvetica-Bold
%%IncludeResource: font Helvetica-BoldOblique
%%IncludeResource: font Times-Roman
%%IncludeResource: font Times-Italic
%%IncludeResource: font Times-Bold
%%IncludeResource: font Times-BoldItalic
%%IncludeResource: font Courier
%FOPEndFontDict
%%BeginResource: encoding WinAnsiEncoding
/WinAnsiEncoding [
/.notdef /.notdef /.notdef /.notdef /.notdef
/.notdef /.notdef /.notdef /.notdef /.notdef
/.notdef /.notdef /.notdef /.notdef /.notdef
/.notdef /.notdef /.notdef /.notdef /.notdef
/.notdef /.notdef /.notdef /.notdef /.notdef
/.notdef /.notdef /.notdef /.notdef /.notdef
/.notdef /.notdef /space /exclam /quotedbl
/numbersign /dollar /percent /ampersand /quotesingle
/parenleft /parenright /asterisk /plus /comma
/hyphen /period /slash /zero /one
/two /three /four /five /six
/seven /eight /nine /colon /semicolon
/less /equal /greater /question /at
/A /B /C /D /E
/F /G /H /I /J
/K /L /M /N /O
/P /Q /R /S /T
/U /V /W /X /Y
/Z /bracketleft /backslash /bracketright /asciicircum
/underscore /quoteleft /a /b /c
/d /e /f /g /h
/i /j /k /l /m
/n /o /p /q /r
/s /t /u /v /w
/x /y /z /braceleft /bar
/braceright /asciitilde /bullet /Euro /bullet
/quotesinglbase /florin /quotedblbase /ellipsis /dagger
/daggerdbl /circumflex /perthousand /Scaron /guilsinglleft
/OE /bullet /Zcaron /bullet /bullet
/quoteleft /quoteright /quotedblleft /quotedblright /bullet
/endash /emdash /asciitilde /trademark /scaron
/guilsinglright /oe /bullet /zcaron /Ydieresis
/space /exclamdown /cent /sterling /currency
/yen /brokenbar /section /dieresis /copyright
/ordfeminine /guillemotleft /logicalnot /sfthyphen /registered
/macron /degree /plusminus /twosuperior /threesuperior
/acute /mu /paragraph /middot /cedilla
/onesuperior /ordmasculine /guillemotright /onequarter /onehalf
/threequarters /questiondown /Agrave /Aacute /Acircumflex
/Atilde /Adieresis /Aring /AE /Ccedilla
/Egrave /Eacute /Ecircumflex /Edieresis /Igrave
/Iacute /Icircumflex /Idieresis /Eth /Ntilde
/Ograve /Oacute /Ocircumflex /Otilde /Odieresis
/multiply /Oslash /Ugrave /Uacute /Ucircumflex
/Udieresis /Yacute /Thorn /germandbls /agrave
/aacute /acircumflex /atilde /adieresis /aring
/ae /ccedilla /egrave /eacute /ecircumflex
/edieresis /igrave /iacute /icircumflex /idieresis
/eth /ntilde /ograve /oacute /ocircumflex
/otilde /odieresis /divide /oslash /ugrave
/uacute /ucircumflex /udieresis /yacute /thorn
/ydieresis
] def
%%EndResource
%FOPBeginFontReencode
/Courier-Oblique findfont
dup length dict begin
  {1 index /FID ne {def} {pop pop} ifelse} forall
  /Encoding WinAnsiEncoding def
  currentdict
end
/Courier-Oblique exch definefont pop
/Courier-BoldOblique findfont
dup length dict begin
  {1 index /FID ne {def} {pop pop} ifelse} forall
  /Encoding WinAnsiEncoding def
  currentdict
end
/Courier-BoldOblique exch definefont pop
/Courier-Bold findfont
dup length dict begin
  {1 index /FID ne {def} {pop pop} ifelse} forall
  /Encoding WinAnsiEncoding def
  currentdict
end
/Courier-Bold exch definefont pop
/Helvetica findfont
dup length dict begin
  {1 index /FID ne {def} {pop pop} ifelse} forall
  /Encoding WinAnsiEncoding def
  currentdict
end
/Helvetica exch definefont pop
/Helvetica-Oblique findfont
dup length dict begin
  {1 index /FID ne {def} {pop pop} ifelse} forall
  /Encoding WinAnsiEncoding def
  currentdict
end
/Helvetica-Oblique exch definefont pop
/Helvetica-Bold findfont
dup length dict begin
  {1 index /FID ne {def} {pop pop} ifelse} forall
  /Encoding WinAnsiEncoding def
  currentdict
end
/Helvetica-Bold exch definefont pop
/Helvetica-BoldOblique findfont
dup length dict begin
  {1 index /FID ne {def} {pop pop} ifelse} forall
  /Encoding WinAnsiEncoding def
  currentdict
end
/Helvetica-BoldOblique exch definefont pop
/Times-Roman findfont
dup length dict begin
  {1 index /FID ne {def} {pop pop} ifelse} forall
  /Encoding WinAnsiEncoding def
  currentdict
end
/Times-Roman exch definefont pop
/Times-Italic findfont
dup length dict begin
  {1 index /FID ne {def} {pop pop} ifelse} forall
  /Encoding WinAnsiEncoding def
  currentdict
end
/Times-Italic exch definefont pop
/Times-Bold findfont
dup length dict begin
  {1 index /FID ne {def} {pop pop} ifelse} forall
  /Encoding WinAnsiEncoding def
  currentdict
end
/Times-Bold exch definefont pop
/Times-BoldItalic findfont
dup length dict begin
  {1 index /FID ne {def} {pop pop} ifelse} forall
  /Encoding WinAnsiEncoding def
  currentdict
end
/Times-BoldItalic exch definefont pop
/Courier findfont
dup length dict begin
  {1 index /FID ne {def} {pop pop} ifelse} forall
  /Encoding WinAnsiEncoding def
  currentdict
end
/Courier exch definefont pop
%FOPEndFontReencode
%%EndProlog
%%Page: 1 1
%%PageBoundingBox: 0 0 420 153
%%BeginPageSetup
[1 0 0 -1 0 153] CT
%%EndPageSetup
GS
[0.75 0 0 0.75 0 0] CT
1 GC
N
0 0 560 204 re
f
GR
GS
[0.75 0 0 0.75 0 0] CT
1 GC
N
0 0 560 204 re
f
GR
GS
[0.75 0 0 0.75 0 0] CT
1 GC
N
73 166 M
507 166 L
507 15 L
73 15 L
cp
f
GR
GS
[0.75 0 0 0.75 0 0] CT
0.149 GC
2 setlinecap
1 LJ
0.667 LW
N
73 166 M
507 166 L
S
GR
GS
[0.75 0 0 0.75 0 0] CT
0.149 GC
2 setlinecap
1 LJ
0.667 LW
N
73 15 M
507 15 L
S
GR
GS
[0.75 0 0 0.75 0 0] CT
0.149 GC
2 setlinecap
1 LJ
0.667 LW
N
73 166 M
73 161.66 L
S
GR
GS
[0.75 0 0 0.75 0 0] CT
0.149 GC
2 setlinecap
1 LJ
0.667 LW
N
116.4 166 M
116.4 161.66 L
S
GR
GS
[0.75 0 0 0.75 0 0] CT
0.149 GC
2 setlinecap
1 LJ
0.667 LW
N
159.8 166 M
159.8 161.66 L
S
GR
GS
[0.75 0 0 0.75 0 0] CT
0.149 GC
2 setlinecap
1 LJ
0.667 LW
N
203.2 166 M
203.2 161.66 L
S
GR
GS
[0.75 0 0 0.75 0 0] CT
0.149 GC
2 setlinecap
1 LJ
0.667 LW
N
246.6 166 M
246.6 161.66 L
S
GR
GS
[0.75 0 0 0.75 0 0] CT
0.149 GC
2 setlinecap
1 LJ
0.667 LW
N
290 166 M
290 161.66 L
S
GR
GS
[0.75 0 0 0.75 0 0] CT
0.149 GC
2 setlinecap
1 LJ
0.667 LW
N
333.4 166 M
333.4 161.66 L
S
GR
GS
[0.75 0 0 0.75 0 0] CT
0.149 GC
2 setlinecap
1 LJ
0.667 LW
N
376.8 166 M
376.8 161.66 L
S
GR
GS
[0.75 0 0 0.75 0 0] CT
0.149 GC
2 setlinecap
1 LJ
0.667 LW
N
420.2 166 M
420.2 161.66 L
S
GR
GS
[0.75 0 0 0.75 0 0] CT
0.149 GC
2 setlinecap
1 LJ
0.667 LW
N
463.6 166 M
463.6 161.66 L
S
GR
GS
[0.75 0 0 0.75 0 0] CT
0.149 GC
2 setlinecap
1 LJ
0.667 LW
N
507 166 M
507 161.66 L
S
GR
GS
[0.75 0 0 0.75 0 0] CT
0.149 GC
2 setlinecap
1 LJ
0.667 LW
N
73 15 M
73 19.34 L
S
GR
GS
[0.75 0 0 0.75 0 0] CT
0.149 GC
2 setlinecap
1 LJ
0.667 LW
N
116.4 15 M
116.4 19.34 L
S
GR
GS
[0.75 0 0 0.75 0 0] CT
0.149 GC
2 setlinecap
1 LJ
0.667 LW
N
159.8 15 M
159.8 19.34 L
S
GR
GS
[0.75 0 0 0.75 0 0] CT
0.149 GC
2 setlinecap
1 LJ
0.667 LW
N
203.2 15 M
203.2 19.34 L
S
GR
GS
[0.75 0 0 0.75 0 0] CT
0.149 GC
2 setlinecap
1 LJ
0.667 LW
N
246.6 15 M
246.6 19.34 L
S
GR
GS
[0.75 0 0 0.75 0 0] CT
0.149 GC
2 setlinecap
1 LJ
0.667 LW
N
290 15 M
290 19.34 L
S
GR
GS
[0.75 0 0 0.75 0 0] CT
0.149 GC
2 setlinecap
1 LJ
0.667 LW
N
333.4 15 M
333.4 19.34 L
S
GR
GS
[0.75 0 0 0.75 0 0] CT
0.149 GC
2 setlinecap
1 LJ
0.667 LW
N
376.8 15 M
376.8 19.34 L
S
GR
GS
[0.75 0 0 0.75 0 0] CT
0.149 GC
2 setlinecap
1 LJ
0.667 LW
N
420.2 15 M
420.2 19.34 L
S
GR
GS
[0.75 0 0 0.75 0 0] CT
0.149 GC
2 setlinecap
1 LJ
0.667 LW
N
463.6 15 M
463.6 19.34 L
S
GR
GS
[0.75 0 0 0.75 0 0] CT
0.149 GC
2 setlinecap
1 LJ
0.667 LW
N
507 15 M
507 19.34 L
S
GR
GS
[0.75 0 0 0.75 54.75 127.3] CT
0.149 GC
/Helvetica 12 F
GS
[1 0 0 1 0 0] CT
-3.5 13 moveto 
1 -1 scale
(0) t 
GR
GR
GS
[0.75 0 0 0.75 87.3 127.3] CT
0.149 GC
/Helvetica 12 F
GS
[1 0 0 1 0 0] CT
-8.5 13 moveto 
1 -1 scale
(0.1) t 
GR
GR
GS
[0.75 0 0 0.75 119.85 127.3] CT
0.149 GC
/Helvetica 12 F
GS
[1 0 0 1 0 0] CT
-8.5 13 moveto 
1 -1 scale
(0.2) t 
GR
GR
GS
[0.75 0 0 0.75 152.40001 127.3] CT
0.149 GC
/Helvetica 12 F
GS
[1 0 0 1 0 0] CT
-8.5 13 moveto 
1 -1 scale
(0.3) t 
GR
GR
GS
[0.75 0 0 0.75 184.95 127.3] CT
0.149 GC
/Helvetica 12 F
GS
[1 0 0 1 0 0] CT
-8.5 13 moveto 
1 -1 scale
(0.4) t 
GR
GR
GS
[0.75 0 0 0.75 217.5 127.3] CT
0.149 GC
/Helvetica 12 F
GS
[1 0 0 1 0 0] CT
-8.5 13 moveto 
1 -1 scale
(0.5) t 
GR
GR
GS
[0.75 0 0 0.75 250.05002 127.3] CT
0.149 GC
/Helvetica 12 F
GS
[1 0 0 1 0 0] CT
-8.5 13 moveto 
1 -1 scale
(0.6) t 
GR
GR
GS
[0.75 0 0 0.75 282.59999 127.3] CT
0.149 GC
/Helvetica 12 F
GS
[1 0 0 1 0 0] CT
-8.5 13 moveto 
1 -1 scale
(0.7) t 
GR
GR
GS
[0.75 0 0 0.75 315.15001 127.3] CT
0.149 GC
/Helvetica 12 F
GS
[1 0 0 1 0 0] CT
-8.5 13 moveto 
1 -1 scale
(0.8) t 
GR
GR
GS
[0.75 0 0 0.75 347.69998 127.3] CT
0.149 GC
/Helvetica 12 F
GS
[1 0 0 1 0 0] CT
-8.5 13 moveto 
1 -1 scale
(0.9) t 
GR
GR
GS
[0.75 0 0 0.75 380.25 127.3] CT
0.149 GC
/Helvetica 12 F
GS
[1 0 0 1 0 0] CT
-3.5 13 moveto 
1 -1 scale
(1) t 
GR
GR
GS
[0.75 0 0 0.75 217.50016 140.25] CT
0.149 GC
N
-109.859 10.734 M
-108.625 11.047 L
-109.016 12.563 -110.023 13.359 QT
-111.031 14.156 -112.484 14.156 QT
-113.984 14.156 -114.93 13.547 QT
-115.875 12.938 -116.367 11.773 QT
-116.859 10.609 -116.859 9.281 QT
-116.859 7.828 -116.297 6.742 QT
-115.734 5.656 -114.711 5.094 QT
-113.688 4.531 -112.453 4.531 QT
-111.063 4.531 -110.109 5.242 QT
-109.156 5.953 -108.781 7.25 QT
-110 7.531 L
-110.328 6.516 -110.938 6.055 QT
-111.547 5.594 -112.484 5.594 QT
-113.563 5.594 -114.281 6.109 QT
-115 6.625 -115.289 7.484 QT
-115.578 8.344 -115.578 9.266 QT
-115.578 10.453 -115.234 11.344 QT
-114.891 12.234 -114.164 12.672 QT
-113.438 13.109 -112.578 13.109 QT
-111.547 13.109 -110.828 12.508 QT
-110.109 11.906 -109.859 10.734 QT
cp
-107.726 14 M
-107.726 13.078 L
-103.43 8.141 L
-104.164 8.188 -104.726 8.188 QT
-107.461 8.188 L
-107.461 7.266 L
-101.961 7.266 L
-101.961 8.016 L
-105.601 12.297 L
-106.32 13.078 L
-105.539 13.016 -104.867 13.016 QT
-101.758 13.016 L
-101.758 14 L
-107.726 14 L
cp
-95.914 11.828 M
-94.726 11.969 L
-95.008 13.016 -95.765 13.586 QT
-96.523 14.156 -97.695 14.156 QT
-99.18 14.156 -100.047 13.242 QT
-100.914 12.328 -100.914 10.688 QT
-100.914 8.984 -100.031 8.047 QT
-99.148 7.109 -97.758 7.109 QT
-96.398 7.109 -95.547 8.031 QT
-94.695 8.953 -94.695 10.609 QT
-94.695 10.719 -94.695 10.922 QT
-99.726 10.922 L
-99.664 12.031 -99.101 12.625 QT
-98.539 13.219 -97.695 13.219 QT
-97.055 13.219 -96.609 12.883 QT
-96.164 12.547 -95.914 11.828 QT
cp
-99.664 9.984 M
-95.898 9.984 L
-95.976 9.125 -96.336 8.703 QT
-96.883 8.047 -97.742 8.047 QT
-98.539 8.047 -99.07 8.57 QT
-99.601 9.094 -99.664 9.984 QT
cp
-96.195 14 M
-96.555 14.219 -96.758 14.547 QT
-96.961 14.875 -96.961 15.219 QT
-96.961 15.484 -96.812 15.664 QT
-96.664 15.844 -96.336 15.844 QT
-96.18 15.844 -96.031 15.805 QT
-95.883 15.766 -95.758 15.688 QT
-95.758 16.5 L
-96.211 16.734 -96.617 16.734 QT
-96.945 16.734 -97.187 16.641 QT
-97.43 16.547 -97.586 16.383 QT
-97.742 16.219 -97.828 16.008 QT
-97.914 15.797 -97.914 15.563 QT
-97.914 15.156 -97.68 14.75 QT
-97.445 14.344 -97.023 14 QT
-96.195 14 L
cp
-93.642 11.984 M
-92.517 11.813 L
-92.423 12.484 -91.986 12.852 QT
-91.548 13.219 -90.767 13.219 QT
-89.986 13.219 -89.603 12.898 QT
-89.22 12.578 -89.22 12.141 QT
-89.22 11.75 -89.564 11.531 QT
-89.798 11.375 -90.736 11.141 QT
-91.986 10.828 -92.47 10.594 QT
-92.955 10.359 -93.205 9.953 QT
-93.455 9.547 -93.455 9.047 QT
-93.455 8.594 -93.252 8.211 QT
-93.048 7.828 -92.689 7.578 QT
-92.423 7.375 -91.962 7.242 QT
-91.502 7.109 -90.97 7.109 QT
-90.189 7.109 -89.587 7.336 QT
-88.986 7.563 -88.697 7.953 QT
-88.408 8.344 -88.298 9 QT
-89.423 9.156 L
-89.502 8.625 -89.861 8.336 QT
-90.22 8.047 -90.892 8.047 QT
-91.673 8.047 -92.017 8.305 QT
-92.361 8.563 -92.361 8.922 QT
-92.361 9.141 -92.22 9.313 QT
-92.08 9.5 -91.783 9.625 QT
-91.611 9.688 -90.767 9.906 QT
-89.548 10.234 -89.072 10.438 QT
-88.595 10.641 -88.322 11.039 QT
-88.048 11.438 -88.048 12.016 QT
-88.048 12.594 -88.384 13.094 QT
-88.72 13.594 -89.345 13.875 QT
-89.97 14.156 -90.767 14.156 QT
-92.08 14.156 -92.767 13.609 QT
-93.455 13.063 -93.642 11.984 QT
cp
-91.002 6 M
-90.158 4.219 L
-88.658 4.219 L
-90.048 6 L
-91.002 6 L
cp
-82.205 11.531 M
-81.08 11.672 L
-81.252 12.844 -82.017 13.5 QT
-82.783 14.156 -83.877 14.156 QT
-85.267 14.156 -86.103 13.25 QT
-86.939 12.344 -86.939 10.656 QT
-86.939 9.563 -86.58 8.742 QT
-86.22 7.922 -85.486 7.516 QT
-84.752 7.109 -83.877 7.109 QT
-82.783 7.109 -82.08 7.664 QT
-81.377 8.219 -81.189 9.234 QT
-82.298 9.406 L
-82.455 8.734 -82.853 8.391 QT
-83.252 8.047 -83.83 8.047 QT
-84.689 8.047 -85.228 8.664 QT
-85.767 9.281 -85.767 10.625 QT
-85.767 11.984 -85.252 12.602 QT
-84.736 13.219 -83.892 13.219 QT
-83.22 13.219 -82.767 12.805 QT
-82.314 12.391 -82.205 11.531 QT
cp
-84.408 6 M
-83.564 4.219 L
-82.064 4.219 L
-83.455 6 L
-84.408 6 L
cp
-76.759 10.625 M
-76.759 8.75 -75.728 7.859 QT
-74.853 7.109 -73.603 7.109 QT
-72.213 7.109 -71.33 8.016 QT
-70.447 8.922 -70.447 10.531 QT
-70.447 11.828 -70.838 12.578 QT
-71.228 13.328 -71.978 13.742 QT
-72.728 14.156 -73.603 14.156 QT
-75.025 14.156 -75.892 13.25 QT
-76.759 12.344 -76.759 10.625 QT
cp
-75.588 10.625 M
-75.588 11.922 -75.025 12.57 QT
-74.463 13.219 -73.603 13.219 QT
-72.759 13.219 -72.189 12.57 QT
-71.619 11.922 -71.619 10.594 QT
-71.619 9.344 -72.189 8.695 QT
-72.759 8.047 -73.603 8.047 QT
-74.463 8.047 -75.025 8.688 QT
-75.588 9.328 -75.588 10.625 QT
cp
-64.613 11.531 M
-63.488 11.672 L
-63.66 12.844 -64.425 13.5 QT
-65.191 14.156 -66.285 14.156 QT
-67.675 14.156 -68.511 13.25 QT
-69.347 12.344 -69.347 10.656 QT
-69.347 9.563 -68.988 8.742 QT
-68.628 7.922 -67.894 7.516 QT
-67.16 7.109 -66.285 7.109 QT
-65.191 7.109 -64.488 7.664 QT
-63.785 8.219 -63.597 9.234 QT
-64.706 9.406 L
-64.863 8.734 -65.261 8.391 QT
-65.66 8.047 -66.238 8.047 QT
-67.097 8.047 -67.636 8.664 QT
-68.175 9.281 -68.175 10.625 QT
-68.175 11.984 -67.66 12.602 QT
-67.144 13.219 -66.3 13.219 QT
-65.628 13.219 -65.175 12.805 QT
-64.722 12.391 -64.613 11.531 QT
cp
-63.019 14 M
-63.019 13.078 L
-58.722 8.141 L
-59.456 8.188 -60.019 8.188 QT
-62.753 8.188 L
-62.753 7.266 L
-57.253 7.266 L
-57.253 8.016 L
-60.894 12.297 L
-61.613 13.078 L
-60.831 13.016 -60.16 13.016 QT
-57.05 13.016 L
-57.05 14 L
-63.019 14 L
cp
-51.206 11.828 M
-50.019 11.969 L
-50.3 13.016 -51.058 13.586 QT
-51.816 14.156 -52.988 14.156 QT
-54.472 14.156 -55.339 13.242 QT
-56.206 12.328 -56.206 10.688 QT
-56.206 8.984 -55.324 8.047 QT
-54.441 7.109 -53.05 7.109 QT
-51.691 7.109 -50.839 8.031 QT
-49.988 8.953 -49.988 10.609 QT
-49.988 10.719 -49.988 10.922 QT
-55.019 10.922 L
-54.956 12.031 -54.394 12.625 QT
-53.831 13.219 -52.988 13.219 QT
-52.347 13.219 -51.902 12.883 QT
-51.456 12.547 -51.206 11.828 QT
cp
-54.956 9.984 M
-51.191 9.984 L
-51.269 9.125 -51.628 8.703 QT
-52.175 8.047 -53.035 8.047 QT
-53.831 8.047 -54.363 8.57 QT
-54.894 9.094 -54.956 9.984 QT
cp
-48.482 14 M
-48.482 4.688 L
-47.341 4.688 L
-47.341 10 L
-44.638 7.266 L
-43.153 7.266 L
-45.732 9.766 L
-42.888 14 L
-44.294 14 L
-46.528 10.547 L
-47.341 11.328 L
-47.341 14 L
-48.482 14 L
cp
-41.888 6.016 M
-41.888 4.688 L
-40.747 4.688 L
-40.747 6.016 L
-41.888 6.016 L
cp
-41.888 14 M
-41.888 7.266 L
-40.747 7.266 L
-40.747 14 L
-41.888 14 L
cp
-37.724 14 M
-39.786 7.266 L
-38.599 7.266 L
-37.521 11.156 L
-37.13 12.594 L
-37.099 12.484 -36.771 11.203 QT
-35.708 7.266 L
-34.536 7.266 L
-33.521 11.172 L
-33.177 12.453 L
-32.802 11.156 L
-31.646 7.266 L
-30.536 7.266 L
-32.646 14 L
-33.817 14 L
-34.896 9.969 L
-35.161 8.813 L
-36.521 14 L
-37.724 14 L
cp
-25.044 13.172 M
-25.669 13.703 -26.255 13.93 QT
-26.841 14.156 -27.513 14.156 QT
-28.638 14.156 -29.231 13.609 QT
-29.825 13.063 -29.825 12.219 QT
-29.825 11.734 -29.598 11.32 QT
-29.372 10.906 -29.005 10.656 QT
-28.638 10.406 -28.184 10.281 QT
-27.856 10.203 -27.169 10.109 QT
-25.794 9.953 -25.138 9.719 QT
-25.122 9.484 -25.122 9.422 QT
-25.122 8.719 -25.45 8.438 QT
-25.888 8.047 -26.747 8.047 QT
-27.559 8.047 -27.942 8.328 QT
-28.325 8.609 -28.513 9.328 QT
-29.622 9.188 L
-29.481 8.469 -29.13 8.023 QT
-28.778 7.578 -28.114 7.344 QT
-27.45 7.109 -26.591 7.109 QT
-25.716 7.109 -25.177 7.313 QT
-24.638 7.516 -24.388 7.82 QT
-24.138 8.125 -24.028 8.594 QT
-23.981 8.891 -23.981 9.656 QT
-23.981 11.172 L
-23.981 12.766 -23.903 13.188 QT
-23.825 13.609 -23.622 14 QT
-24.809 14 L
-24.981 13.641 -25.044 13.172 QT
cp
-25.138 10.609 M
-25.763 10.875 -26.997 11.047 QT
-27.7 11.156 -27.997 11.281 QT
-28.294 11.406 -28.45 11.648 QT
-28.606 11.891 -28.606 12.188 QT
-28.606 12.641 -28.263 12.945 QT
-27.919 13.25 -27.247 13.25 QT
-26.591 13.25 -26.075 12.961 QT
-25.559 12.672 -25.309 12.172 QT
-25.138 11.797 -25.138 11.031 QT
-25.138 10.609 L
cp
-22.1 14 M
-22.1 7.266 L
-21.069 7.266 L
-21.069 8.219 L
-20.335 7.109 -18.928 7.109 QT
-18.319 7.109 -17.811 7.328 QT
-17.303 7.547 -17.045 7.898 QT
-16.788 8.25 -16.694 8.75 QT
-16.631 9.063 -16.631 9.859 QT
-16.631 14 L
-17.772 14 L
-17.772 9.906 L
-17.772 9.203 -17.905 8.859 QT
-18.038 8.516 -18.374 8.305 QT
-18.71 8.094 -19.163 8.094 QT
-19.897 8.094 -20.428 8.555 QT
-20.96 9.016 -20.96 10.313 QT
-20.96 14 L
-22.1 14 L
cp
-10.157 11.828 M
-8.969 11.969 L
-9.25 13.016 -10.008 13.586 QT
-10.766 14.156 -11.938 14.156 QT
-13.422 14.156 -14.289 13.242 QT
-15.157 12.328 -15.157 10.688 QT
-15.157 8.984 -14.274 8.047 QT
-13.391 7.109 -12 7.109 QT
-10.641 7.109 -9.789 8.031 QT
-8.938 8.953 -8.938 10.609 QT
-8.938 10.719 -8.938 10.922 QT
-13.969 10.922 L
-13.907 12.031 -13.344 12.625 QT
-12.782 13.219 -11.938 13.219 QT
-11.297 13.219 -10.852 12.883 QT
-10.407 12.547 -10.157 11.828 QT
cp
-13.907 9.984 M
-10.141 9.984 L
-10.219 9.125 -10.578 8.703 QT
-11.125 8.047 -11.985 8.047 QT
-12.782 8.047 -13.313 8.57 QT
-13.844 9.094 -13.907 9.984 QT
cp
-7.447 6.016 M
-7.447 4.688 L
-6.291 4.688 L
-6.291 6.016 L
-7.447 6.016 L
cp
-8.885 16.609 M
-8.666 15.641 L
-8.322 15.734 -8.135 15.734 QT
-7.775 15.734 -7.611 15.5 QT
-7.447 15.266 -7.447 14.344 QT
-7.447 7.266 L
-6.291 7.266 L
-6.291 14.375 L
-6.291 15.609 -6.619 16.094 QT
-7.041 16.734 -7.994 16.734 QT
-8.463 16.734 -8.885 16.609 QT
cp
-0.838 14 M
-0.838 7.266 L
0.178 7.266 L
0.178 8.203 L
0.506 7.703 1.029 7.406 QT
1.553 7.109 2.225 7.109 QT
2.975 7.109 3.451 7.422 QT
3.928 7.734 4.131 8.281 QT
4.928 7.109 6.209 7.109 QT
7.209 7.109 7.748 7.664 QT
8.287 8.219 8.287 9.375 QT
8.287 14 L
7.162 14 L
7.162 9.75 L
7.162 9.063 7.053 8.766 QT
6.943 8.469 6.646 8.281 QT
6.35 8.094 5.959 8.094 QT
5.24 8.094 4.771 8.57 QT
4.303 9.047 4.303 10.078 QT
4.303 14 L
3.162 14 L
3.162 9.625 L
3.162 8.859 2.881 8.477 QT
2.6 8.094 1.975 8.094 QT
1.49 8.094 1.084 8.352 QT
0.678 8.609 0.49 9.094 QT
0.303 9.578 0.303 10.5 QT
0.303 14 L
-0.838 14 L
cp
10.147 6.016 M
10.147 4.688 L
11.288 4.688 L
11.288 6.016 L
10.147 6.016 L
cp
10.147 14 M
10.147 7.266 L
11.288 7.266 L
11.288 14 L
10.147 14 L
cp
13.077 14 M
13.077 7.266 L
14.108 7.266 L
14.108 8.219 L
14.843 7.109 16.249 7.109 QT
16.858 7.109 17.366 7.328 QT
17.874 7.547 18.132 7.898 QT
18.39 8.25 18.483 8.75 QT
18.546 9.063 18.546 9.859 QT
18.546 14 L
17.405 14 L
17.405 9.906 L
17.405 9.203 17.273 8.859 QT
17.14 8.516 16.804 8.305 QT
16.468 8.094 16.015 8.094 QT
15.28 8.094 14.749 8.555 QT
14.218 9.016 14.218 10.313 QT
14.218 14 L
13.077 14 L
cp
20.411 6.016 M
20.411 4.688 L
21.552 4.688 L
21.552 6.016 L
20.411 6.016 L
cp
20.411 14 M
20.411 7.266 L
21.552 7.266 L
21.552 14 L
20.411 14 L
cp
23.341 14 M
23.341 7.266 L
24.357 7.266 L
24.357 8.203 L
24.685 7.703 25.209 7.406 QT
25.732 7.109 26.404 7.109 QT
27.154 7.109 27.63 7.422 QT
28.107 7.734 28.31 8.281 QT
29.107 7.109 30.388 7.109 QT
31.388 7.109 31.927 7.664 QT
32.466 8.219 32.466 9.375 QT
32.466 14 L
31.341 14 L
31.341 9.75 L
31.341 9.063 31.232 8.766 QT
31.123 8.469 30.826 8.281 QT
30.529 8.094 30.138 8.094 QT
29.419 8.094 28.951 8.57 QT
28.482 9.047 28.482 10.078 QT
28.482 14 L
27.341 14 L
27.341 9.625 L
27.341 8.859 27.06 8.477 QT
26.779 8.094 26.154 8.094 QT
25.669 8.094 25.263 8.352 QT
24.857 8.609 24.669 9.094 QT
24.482 9.578 24.482 10.5 QT
24.482 14 L
23.341 14 L
cp
38.717 13.172 M
38.092 13.703 37.506 13.93 QT
36.92 14.156 36.249 14.156 QT
35.124 14.156 34.53 13.609 QT
33.936 13.063 33.936 12.219 QT
33.936 11.734 34.163 11.32 QT
34.389 10.906 34.756 10.656 QT
35.124 10.406 35.577 10.281 QT
35.905 10.203 36.592 10.109 QT
37.967 9.953 38.624 9.719 QT
38.639 9.484 38.639 9.422 QT
38.639 8.719 38.311 8.438 QT
37.874 8.047 37.014 8.047 QT
36.202 8.047 35.819 8.328 QT
35.436 8.609 35.249 9.328 QT
34.139 9.188 L
34.28 8.469 34.631 8.023 QT
34.983 7.578 35.647 7.344 QT
36.311 7.109 37.17 7.109 QT
38.045 7.109 38.584 7.313 QT
39.124 7.516 39.374 7.82 QT
39.624 8.125 39.733 8.594 QT
39.78 8.891 39.78 9.656 QT
39.78 11.172 L
39.78 12.766 39.858 13.188 QT
39.936 13.609 40.139 14 QT
38.952 14 L
38.78 13.641 38.717 13.172 QT
cp
38.624 10.609 M
37.999 10.875 36.764 11.047 QT
36.061 11.156 35.764 11.281 QT
35.467 11.406 35.311 11.648 QT
35.155 11.891 35.155 12.188 QT
35.155 12.641 35.499 12.945 QT
35.842 13.25 36.514 13.25 QT
37.17 13.25 37.686 12.961 QT
38.202 12.672 38.452 12.172 QT
38.624 11.797 38.624 11.031 QT
38.624 10.609 L
cp
41.63 14 M
41.63 4.688 L
42.77 4.688 L
42.77 14 L
41.63 14 L
cp
44.591 14 M
44.591 7.266 L
45.622 7.266 L
45.622 8.219 L
46.356 7.109 47.763 7.109 QT
48.372 7.109 48.88 7.328 QT
49.388 7.547 49.645 7.898 QT
49.903 8.25 49.997 8.75 QT
50.059 9.063 50.059 9.859 QT
50.059 14 L
48.919 14 L
48.919 9.906 L
48.919 9.203 48.786 8.859 QT
48.653 8.516 48.317 8.305 QT
47.981 8.094 47.528 8.094 QT
46.794 8.094 46.263 8.555 QT
45.731 9.016 45.731 10.313 QT
45.731 14 L
44.591 14 L
cp
56.534 11.828 M
57.722 11.969 L
57.441 13.016 56.683 13.586 QT
55.925 14.156 54.753 14.156 QT
53.269 14.156 52.402 13.242 QT
51.534 12.328 51.534 10.688 QT
51.534 8.984 52.417 8.047 QT
53.3 7.109 54.691 7.109 QT
56.05 7.109 56.902 8.031 QT
57.753 8.953 57.753 10.609 QT
57.753 10.719 57.753 10.922 QT
52.722 10.922 L
52.784 12.031 53.347 12.625 QT
53.909 13.219 54.753 13.219 QT
55.394 13.219 55.839 12.883 QT
56.284 12.547 56.534 11.828 QT
cp
52.784 9.984 M
56.55 9.984 L
56.472 9.125 56.112 8.703 QT
55.566 8.047 54.706 8.047 QT
53.909 8.047 53.378 8.57 QT
52.847 9.094 52.784 9.984 QT
cp
59.244 6.016 M
59.244 4.688 L
60.4 4.688 L
60.4 6.016 L
59.244 6.016 L
cp
57.806 16.609 M
58.025 15.641 L
58.369 15.734 58.556 15.734 QT
58.915 15.734 59.08 15.5 QT
59.244 15.266 59.244 14.344 QT
59.244 7.266 L
60.4 7.266 L
60.4 14.375 L
60.4 15.609 60.072 16.094 QT
59.65 16.734 58.697 16.734 QT
58.228 16.734 57.806 16.609 QT
cp
65.853 16.578 M
65.853 7.266 L
66.884 7.266 L
66.884 8.141 L
67.259 7.625 67.72 7.367 QT
68.181 7.109 68.853 7.109 QT
69.712 7.109 70.369 7.555 QT
71.025 8 71.361 8.805 QT
71.697 9.609 71.697 10.578 QT
71.697 11.609 71.33 12.438 QT
70.962 13.266 70.251 13.711 QT
69.54 14.156 68.759 14.156 QT
68.197 14.156 67.744 13.914 QT
67.29 13.672 66.994 13.297 QT
66.994 16.578 L
65.853 16.578 L
cp
66.884 10.672 M
66.884 11.969 67.415 12.594 QT
67.947 13.219 68.681 13.219 QT
69.447 13.219 69.994 12.57 QT
70.54 11.922 70.54 10.578 QT
70.54 9.281 70.009 8.641 QT
69.478 8 68.744 8 QT
68.009 8 67.447 8.68 QT
66.884 9.359 66.884 10.672 QT
cp
72.765 10.625 M
72.765 8.75 73.797 7.859 QT
74.672 7.109 75.922 7.109 QT
77.312 7.109 78.195 8.016 QT
79.078 8.922 79.078 10.531 QT
79.078 11.828 78.687 12.578 QT
78.297 13.328 77.547 13.742 QT
76.797 14.156 75.922 14.156 QT
74.5 14.156 73.633 13.25 QT
72.765 12.344 72.765 10.625 QT
cp
73.937 10.625 M
73.937 11.922 74.5 12.57 QT
75.062 13.219 75.922 13.219 QT
76.765 13.219 77.336 12.57 QT
77.906 11.922 77.906 10.594 QT
77.906 9.344 77.336 8.695 QT
76.765 8.047 75.922 8.047 QT
75.062 8.047 74.5 8.688 QT
73.937 9.328 73.937 10.625 QT
cp
80.522 16.578 M
80.522 7.266 L
81.553 7.266 L
81.553 8.141 L
81.928 7.625 82.389 7.367 QT
82.85 7.109 83.522 7.109 QT
84.381 7.109 85.037 7.555 QT
85.693 8 86.029 8.805 QT
86.365 9.609 86.365 10.578 QT
86.365 11.609 85.998 12.438 QT
85.631 13.266 84.92 13.711 QT
84.209 14.156 83.428 14.156 QT
82.865 14.156 82.412 13.914 QT
81.959 13.672 81.662 13.297 QT
81.662 16.578 L
80.522 16.578 L
cp
81.553 10.672 M
81.553 11.969 82.084 12.594 QT
82.615 13.219 83.35 13.219 QT
84.115 13.219 84.662 12.57 QT
85.209 11.922 85.209 10.578 QT
85.209 9.281 84.678 8.641 QT
84.147 8 83.412 8 QT
82.678 8 82.115 8.68 QT
81.553 9.359 81.553 10.672 QT
cp
92.278 14 M
92.278 13.016 L
91.481 14.156 90.137 14.156 QT
89.543 14.156 89.02 13.922 QT
88.496 13.688 88.246 13.344 QT
87.996 13 87.903 12.5 QT
87.825 12.172 87.825 11.438 QT
87.825 7.266 L
88.965 7.266 L
88.965 11 L
88.965 11.891 89.043 12.203 QT
89.153 12.656 89.496 12.914 QT
89.84 13.172 90.356 13.172 QT
90.871 13.172 91.325 12.906 QT
91.778 12.641 91.965 12.188 QT
92.153 11.734 92.153 10.875 QT
92.153 7.266 L
93.293 7.266 L
93.293 14 L
92.278 14 L
cp
95.159 14 M
95.159 4.688 L
96.299 4.688 L
96.299 14 L
95.159 14 L
cp
102.51 13.172 M
101.885 13.703 101.3 13.93 QT
100.714 14.156 100.042 14.156 QT
98.917 14.156 98.323 13.609 QT
97.729 13.063 97.729 12.219 QT
97.729 11.734 97.956 11.32 QT
98.182 10.906 98.55 10.656 QT
98.917 10.406 99.37 10.281 QT
99.698 10.203 100.385 10.109 QT
101.76 9.953 102.417 9.719 QT
102.432 9.484 102.432 9.422 QT
102.432 8.719 102.104 8.438 QT
101.667 8.047 100.807 8.047 QT
99.995 8.047 99.612 8.328 QT
99.229 8.609 99.042 9.328 QT
97.932 9.188 L
98.073 8.469 98.425 8.023 QT
98.776 7.578 99.44 7.344 QT
100.104 7.109 100.964 7.109 QT
101.839 7.109 102.378 7.313 QT
102.917 7.516 103.167 7.82 QT
103.417 8.125 103.526 8.594 QT
103.573 8.891 103.573 9.656 QT
103.573 11.172 L
103.573 12.766 103.651 13.188 QT
103.729 13.609 103.932 14 QT
102.745 14 L
102.573 13.641 102.51 13.172 QT
cp
102.417 10.609 M
101.792 10.875 100.557 11.047 QT
99.854 11.156 99.557 11.281 QT
99.26 11.406 99.104 11.648 QT
98.948 11.891 98.948 12.188 QT
98.948 12.641 99.292 12.945 QT
99.635 13.25 100.307 13.25 QT
100.964 13.25 101.479 12.961 QT
101.995 12.672 102.245 12.172 QT
102.417 11.797 102.417 11.031 QT
102.417 10.609 L
cp
109.845 11.531 M
110.97 11.672 L
110.798 12.844 110.032 13.5 QT
109.267 14.156 108.173 14.156 QT
106.782 14.156 105.946 13.25 QT
105.11 12.344 105.11 10.656 QT
105.11 9.563 105.47 8.742 QT
105.829 7.922 106.564 7.516 QT
107.298 7.109 108.173 7.109 QT
109.267 7.109 109.97 7.664 QT
110.673 8.219 110.86 9.234 QT
109.751 9.406 L
109.595 8.734 109.196 8.391 QT
108.798 8.047 108.22 8.047 QT
107.36 8.047 106.821 8.664 QT
106.282 9.281 106.282 10.625 QT
106.282 11.984 106.798 12.602 QT
107.314 13.219 108.157 13.219 QT
108.829 13.219 109.282 12.805 QT
109.735 12.391 109.845 11.531 QT
cp
112.032 6.016 M
112.032 4.688 L
113.189 4.688 L
113.189 6.016 L
112.032 6.016 L
cp
110.595 16.609 M
110.814 15.641 L
111.157 15.734 111.345 15.734 QT
111.704 15.734 111.868 15.5 QT
112.032 15.266 112.032 14.344 QT
112.032 7.266 L
113.189 7.266 L
113.189 14.375 L
113.189 15.609 112.86 16.094 QT
112.439 16.734 111.485 16.734 QT
111.017 16.734 110.595 16.609 QT
cp
114.978 6.016 M
114.978 4.688 L
116.118 4.688 L
116.118 6.016 L
114.978 6.016 L
cp
114.978 14 M
114.978 7.266 L
116.118 7.266 L
116.118 14 L
114.978 14 L
cp
f
GR
GS
[0.75 0 0 0.75 0 0] CT
0.149 GC
2 setlinecap
1 LJ
0.667 LW
N
73 166 M
73 15 L
S
GR
GS
[0.75 0 0 0.75 0 0] CT
0.149 GC
2 setlinecap
1 LJ
0.667 LW
N
507 166 M
507 15 L
S
GR
GS
[0.75 0 0 0.75 0 0] CT
0.149 GC
2 setlinecap
1 LJ
0.667 LW
N
73 166 M
77.34 166 L
S
GR
GS
[0.75 0 0 0.75 0 0] CT
0.149 GC
2 setlinecap
1 LJ
0.667 LW
N
73 135.8 M
77.34 135.8 L
S
GR
GS
[0.75 0 0 0.75 0 0] CT
0.149 GC
2 setlinecap
1 LJ
0.667 LW
N
73 105.6 M
77.34 105.6 L
S
GR
GS
[0.75 0 0 0.75 0 0] CT
0.149 GC
2 setlinecap
1 LJ
0.667 LW
N
73 75.4 M
77.34 75.4 L
S
GR
GS
[0.75 0 0 0.75 0 0] CT
0.149 GC
2 setlinecap
1 LJ
0.667 LW
N
73 45.2 M
77.34 45.2 L
S
GR
GS
[0.75 0 0 0.75 0 0] CT
0.149 GC
2 setlinecap
1 LJ
0.667 LW
N
73 15 M
77.34 15 L
S
GR
GS
[0.75 0 0 0.75 0 0] CT
0.149 GC
2 setlinecap
1 LJ
0.667 LW
N
507 166 M
502.66 166 L
S
GR
GS
[0.75 0 0 0.75 0 0] CT
0.149 GC
2 setlinecap
1 LJ
0.667 LW
N
507 135.8 M
502.66 135.8 L
S
GR
GS
[0.75 0 0 0.75 0 0] CT
0.149 GC
2 setlinecap
1 LJ
0.667 LW
N
507 105.6 M
502.66 105.6 L
S
GR
GS
[0.75 0 0 0.75 0 0] CT
0.149 GC
2 setlinecap
1 LJ
0.667 LW
N
507 75.4 M
502.66 75.4 L
S
GR
GS
[0.75 0 0 0.75 0 0] CT
0.149 GC
2 setlinecap
1 LJ
0.667 LW
N
507 45.2 M
502.66 45.2 L
S
GR
GS
[0.75 0 0 0.75 0 0] CT
0.149 GC
2 setlinecap
1 LJ
0.667 LW
N
507 15 M
502.66 15 L
S
GR
GS
[0.75 0 0 0.75 51.95 124.5] CT
0.149 GC
/Helvetica 12 F
GS
[1 0 0 1 0 0] CT
-7 5 moveto 
1 -1 scale
(0) t 
GR
GR
GS
[0.75 0 0 0.75 51.95 101.85] CT
0.149 GC
/Helvetica 12 F
GS
[1 0 0 1 0 0] CT
-17 5 moveto 
1 -1 scale
(0.2) t 
GR
GR
GS
[0.75 0 0 0.75 51.95 79.2] CT
0.149 GC
/Helvetica 12 F
GS
[1 0 0 1 0 0] CT
-17 5 moveto 
1 -1 scale
(0.4) t 
GR
GR
GS
[0.75 0 0 0.75 51.95 56.55] CT
0.149 GC
/Helvetica 12 F
GS
[1 0 0 1 0 0] CT
-17 5 moveto 
1 -1 scale
(0.6) t 
GR
GR
GS
[0.75 0 0 0.75 51.95 33.9] CT
0.149 GC
/Helvetica 12 F
GS
[1 0 0 1 0 0] CT
-17 5 moveto 
1 -1 scale
(0.8) t 
GR
GR
GS
[0.75 0 0 0.75 51.95 11.25] CT
0.149 GC
/Helvetica 12 F
GS
[1 0 0 1 0 0] CT
-7 5 moveto 
1 -1 scale
(1) t 
GR
GR
GS
[0 -0.75 0.75 0 37.2 67.87495] CT
0.149 GC
N
-80.922 -5.984 M
-79.75 -6.094 L
-79.672 -5.391 -79.367 -4.945 QT
-79.063 -4.5 -78.43 -4.227 QT
-77.797 -3.953 -77 -3.953 QT
-76.297 -3.953 -75.758 -4.156 QT
-75.219 -4.359 -74.953 -4.727 QT
-74.688 -5.094 -74.688 -5.531 QT
-74.688 -5.969 -74.945 -6.297 QT
-75.203 -6.625 -75.781 -6.844 QT
-76.156 -6.984 -77.438 -7.297 QT
-78.719 -7.609 -79.234 -7.875 QT
-79.906 -8.219 -80.234 -8.742 QT
-80.563 -9.266 -80.563 -9.906 QT
-80.563 -10.609 -80.164 -11.219 QT
-79.766 -11.828 -78.992 -12.148 QT
-78.219 -12.469 -77.281 -12.469 QT
-76.25 -12.469 -75.461 -12.133 QT
-74.672 -11.797 -74.242 -11.148 QT
-73.813 -10.5 -73.781 -9.688 QT
-74.969 -9.594 L
-75.063 -10.484 -75.609 -10.93 QT
-76.156 -11.375 -77.234 -11.375 QT
-78.344 -11.375 -78.859 -10.969 QT
-79.375 -10.563 -79.375 -9.984 QT
-79.375 -9.484 -79.016 -9.156 QT
-78.656 -8.828 -77.156 -8.492 QT
-75.656 -8.156 -75.094 -7.906 QT
-74.281 -7.531 -73.898 -6.953 QT
-73.516 -6.375 -73.516 -5.625 QT
-73.516 -4.891 -73.938 -4.234 QT
-74.359 -3.578 -75.156 -3.211 QT
-75.953 -2.844 -76.953 -2.844 QT
-78.219 -2.844 -79.07 -3.211 QT
-79.922 -3.578 -80.406 -4.32 QT
-80.891 -5.063 -80.922 -5.984 QT
cp
-72.454 -3 M
-72.454 -3.922 L
-68.157 -8.859 L
-68.892 -8.813 -69.454 -8.813 QT
-72.188 -8.813 L
-72.188 -9.734 L
-66.688 -9.734 L
-66.688 -8.984 L
-70.329 -4.703 L
-71.048 -3.922 L
-70.267 -3.984 -69.595 -3.984 QT
-66.485 -3.984 L
-66.485 -3 L
-72.454 -3 L
cp
-60.86 -3.828 M
-61.485 -3.297 -62.071 -3.07 QT
-62.657 -2.844 -63.329 -2.844 QT
-64.454 -2.844 -65.048 -3.391 QT
-65.642 -3.938 -65.642 -4.781 QT
-65.642 -5.266 -65.415 -5.68 QT
-65.188 -6.094 -64.821 -6.344 QT
-64.454 -6.594 -64.001 -6.719 QT
-63.673 -6.797 -62.985 -6.891 QT
-61.61 -7.047 -60.954 -7.281 QT
-60.938 -7.516 -60.938 -7.578 QT
-60.938 -8.281 -61.267 -8.563 QT
-61.704 -8.953 -62.563 -8.953 QT
-63.376 -8.953 -63.759 -8.672 QT
-64.142 -8.391 -64.329 -7.672 QT
-65.438 -7.813 L
-65.298 -8.531 -64.946 -8.977 QT
-64.595 -9.422 -63.931 -9.656 QT
-63.267 -9.891 -62.407 -9.891 QT
-61.532 -9.891 -60.993 -9.688 QT
-60.454 -9.484 -60.204 -9.18 QT
-59.954 -8.875 -59.845 -8.406 QT
-59.798 -8.109 -59.798 -7.344 QT
-59.798 -5.828 L
-59.798 -4.234 -59.72 -3.813 QT
-59.642 -3.391 -59.438 -3 QT
-60.626 -3 L
-60.798 -3.359 -60.86 -3.828 QT
cp
-60.954 -6.391 M
-61.579 -6.125 -62.813 -5.953 QT
-63.517 -5.844 -63.813 -5.719 QT
-64.11 -5.594 -64.267 -5.352 QT
-64.423 -5.109 -64.423 -4.813 QT
-64.423 -4.359 -64.079 -4.055 QT
-63.735 -3.75 -63.063 -3.75 QT
-62.407 -3.75 -61.892 -4.039 QT
-61.376 -4.328 -61.126 -4.828 QT
-60.954 -5.203 -60.954 -5.969 QT
-60.954 -6.391 L
cp
-57.917 -3 M
-57.917 -9.734 L
-56.885 -9.734 L
-56.885 -8.781 L
-56.151 -9.891 -54.745 -9.891 QT
-54.135 -9.891 -53.628 -9.672 QT
-53.12 -9.453 -52.862 -9.102 QT
-52.604 -8.75 -52.51 -8.25 QT
-52.448 -7.938 -52.448 -7.141 QT
-52.448 -3 L
-53.589 -3 L
-53.589 -7.094 L
-53.589 -7.797 -53.721 -8.141 QT
-53.854 -8.484 -54.19 -8.695 QT
-54.526 -8.906 -54.979 -8.906 QT
-55.714 -8.906 -56.245 -8.445 QT
-56.776 -7.984 -56.776 -6.688 QT
-56.776 -3 L
-57.917 -3 L
cp
-51.036 -5.016 M
-49.911 -5.188 L
-49.817 -4.516 -49.379 -4.148 QT
-48.942 -3.781 -48.161 -3.781 QT
-47.379 -3.781 -46.996 -4.102 QT
-46.614 -4.422 -46.614 -4.859 QT
-46.614 -5.25 -46.957 -5.469 QT
-47.192 -5.625 -48.129 -5.859 QT
-49.379 -6.172 -49.864 -6.406 QT
-50.348 -6.641 -50.598 -7.047 QT
-50.848 -7.453 -50.848 -7.953 QT
-50.848 -8.406 -50.645 -8.789 QT
-50.442 -9.172 -50.082 -9.422 QT
-49.817 -9.625 -49.356 -9.758 QT
-48.895 -9.891 -48.364 -9.891 QT
-47.582 -9.891 -46.981 -9.664 QT
-46.379 -9.438 -46.09 -9.047 QT
-45.801 -8.656 -45.692 -8 QT
-46.817 -7.844 L
-46.895 -8.375 -47.254 -8.664 QT
-47.614 -8.953 -48.286 -8.953 QT
-49.067 -8.953 -49.411 -8.695 QT
-49.754 -8.438 -49.754 -8.078 QT
-49.754 -7.859 -49.614 -7.688 QT
-49.473 -7.5 -49.176 -7.375 QT
-49.004 -7.313 -48.161 -7.094 QT
-46.942 -6.766 -46.465 -6.563 QT
-45.989 -6.359 -45.715 -5.961 QT
-45.442 -5.563 -45.442 -4.984 QT
-45.442 -4.406 -45.778 -3.906 QT
-46.114 -3.406 -46.739 -3.125 QT
-47.364 -2.844 -48.161 -2.844 QT
-49.473 -2.844 -50.161 -3.391 QT
-50.848 -3.938 -51.036 -5.016 QT
cp
-39.598 -3.828 M
-40.223 -3.297 -40.809 -3.07 QT
-41.395 -2.844 -42.067 -2.844 QT
-43.192 -2.844 -43.786 -3.391 QT
-44.379 -3.938 -44.379 -4.781 QT
-44.379 -5.266 -44.153 -5.68 QT
-43.926 -6.094 -43.559 -6.344 QT
-43.192 -6.594 -42.739 -6.719 QT
-42.411 -6.797 -41.723 -6.891 QT
-40.348 -7.047 -39.692 -7.281 QT
-39.676 -7.516 -39.676 -7.578 QT
-39.676 -8.281 -40.004 -8.563 QT
-40.442 -8.953 -41.301 -8.953 QT
-42.114 -8.953 -42.496 -8.672 QT
-42.879 -8.391 -43.067 -7.672 QT
-44.176 -7.813 L
-44.036 -8.531 -43.684 -8.977 QT
-43.332 -9.422 -42.668 -9.656 QT
-42.004 -9.891 -41.145 -9.891 QT
-40.27 -9.891 -39.731 -9.688 QT
-39.192 -9.484 -38.942 -9.18 QT
-38.692 -8.875 -38.582 -8.406 QT
-38.536 -8.109 -38.536 -7.344 QT
-38.536 -5.828 L
-38.536 -4.234 -38.457 -3.813 QT
-38.379 -3.391 -38.176 -3 QT
-39.364 -3 L
-39.536 -3.359 -39.598 -3.828 QT
cp
-39.692 -6.391 M
-40.317 -6.125 -41.551 -5.953 QT
-42.254 -5.844 -42.551 -5.719 QT
-42.848 -5.594 -43.004 -5.352 QT
-43.161 -5.109 -43.161 -4.813 QT
-43.161 -4.359 -42.817 -4.055 QT
-42.473 -3.75 -41.801 -3.75 QT
-41.145 -3.75 -40.629 -4.039 QT
-40.114 -4.328 -39.864 -4.828 QT
-39.692 -5.203 -39.692 -5.969 QT
-39.692 -6.391 L
cp
-32.99 -3 M
-32.99 -9.734 L
-31.959 -9.734 L
-31.959 -8.781 L
-31.225 -9.891 -29.819 -9.891 QT
-29.209 -9.891 -28.701 -9.672 QT
-28.194 -9.453 -27.936 -9.102 QT
-27.678 -8.75 -27.584 -8.25 QT
-27.522 -7.938 -27.522 -7.141 QT
-27.522 -3 L
-28.662 -3 L
-28.662 -7.094 L
-28.662 -7.797 -28.795 -8.141 QT
-28.928 -8.484 -29.264 -8.695 QT
-29.6 -8.906 -30.053 -8.906 QT
-30.787 -8.906 -31.319 -8.445 QT
-31.85 -7.984 -31.85 -6.688 QT
-31.85 -3 L
-32.99 -3 L
cp
-21.266 -3.828 M
-21.891 -3.297 -22.477 -3.07 QT
-23.062 -2.844 -23.734 -2.844 QT
-24.859 -2.844 -25.453 -3.391 QT
-26.047 -3.938 -26.047 -4.781 QT
-26.047 -5.266 -25.82 -5.68 QT
-25.594 -6.094 -25.227 -6.344 QT
-24.859 -6.594 -24.406 -6.719 QT
-24.078 -6.797 -23.391 -6.891 QT
-22.016 -7.047 -21.359 -7.281 QT
-21.344 -7.516 -21.344 -7.578 QT
-21.344 -8.281 -21.672 -8.563 QT
-22.109 -8.953 -22.969 -8.953 QT
-23.781 -8.953 -24.164 -8.672 QT
-24.547 -8.391 -24.734 -7.672 QT
-25.844 -7.813 L
-25.703 -8.531 -25.352 -8.977 QT
-25 -9.422 -24.336 -9.656 QT
-23.672 -9.891 -22.812 -9.891 QT
-21.937 -9.891 -21.398 -9.688 QT
-20.859 -9.484 -20.609 -9.18 QT
-20.359 -8.875 -20.25 -8.406 QT
-20.203 -8.109 -20.203 -7.344 QT
-20.203 -5.828 L
-20.203 -4.234 -20.125 -3.813 QT
-20.047 -3.391 -19.844 -3 QT
-21.031 -3 L
-21.203 -3.359 -21.266 -3.828 QT
cp
-21.359 -6.391 M
-21.984 -6.125 -23.219 -5.953 QT
-23.922 -5.844 -24.219 -5.719 QT
-24.516 -5.594 -24.672 -5.352 QT
-24.828 -5.109 -24.828 -4.813 QT
-24.828 -4.359 -24.484 -4.055 QT
-24.141 -3.75 -23.469 -3.75 QT
-22.812 -3.75 -22.297 -4.039 QT
-21.781 -4.328 -21.531 -4.828 QT
-21.359 -5.203 -21.359 -5.969 QT
-21.359 -6.391 L
cp
-15.111 -5.016 M
-13.986 -5.188 L
-13.892 -4.516 -13.455 -4.148 QT
-13.017 -3.781 -12.236 -3.781 QT
-11.455 -3.781 -11.072 -4.102 QT
-10.689 -4.422 -10.689 -4.859 QT
-10.689 -5.25 -11.033 -5.469 QT
-11.267 -5.625 -12.205 -5.859 QT
-13.455 -6.172 -13.939 -6.406 QT
-14.424 -6.641 -14.674 -7.047 QT
-14.924 -7.453 -14.924 -7.953 QT
-14.924 -8.406 -14.721 -8.789 QT
-14.517 -9.172 -14.158 -9.422 QT
-13.892 -9.625 -13.431 -9.758 QT
-12.971 -9.891 -12.439 -9.891 QT
-11.658 -9.891 -11.056 -9.664 QT
-10.455 -9.438 -10.166 -9.047 QT
-9.877 -8.656 -9.767 -8 QT
-10.892 -7.844 L
-10.971 -8.375 -11.33 -8.664 QT
-11.689 -8.953 -12.361 -8.953 QT
-13.142 -8.953 -13.486 -8.695 QT
-13.83 -8.438 -13.83 -8.078 QT
-13.83 -7.859 -13.689 -7.688 QT
-13.549 -7.5 -13.252 -7.375 QT
-13.08 -7.313 -12.236 -7.094 QT
-11.017 -6.766 -10.541 -6.563 QT
-10.064 -6.359 -9.791 -5.961 QT
-9.517 -5.563 -9.517 -4.984 QT
-9.517 -4.406 -9.853 -3.906 QT
-10.189 -3.406 -10.814 -3.125 QT
-11.439 -2.844 -12.236 -2.844 QT
-13.549 -2.844 -14.236 -3.391 QT
-14.924 -3.938 -15.111 -5.016 QT
cp
-5.564 -4.016 M
-5.408 -3.016 L
-5.892 -2.906 -6.267 -2.906 QT
-6.892 -2.906 -7.236 -3.109 QT
-7.58 -3.313 -7.721 -3.633 QT
-7.861 -3.953 -7.861 -4.969 QT
-7.861 -8.859 L
-8.689 -8.859 L
-8.689 -9.734 L
-7.861 -9.734 L
-7.861 -11.406 L
-6.721 -12.094 L
-6.721 -9.734 L
-5.564 -9.734 L
-5.564 -8.859 L
-6.721 -8.859 L
-6.721 -4.906 L
-6.721 -4.422 -6.658 -4.281 QT
-6.596 -4.141 -6.463 -4.063 QT
-6.33 -3.984 -6.08 -3.984 QT
-5.877 -3.984 -5.564 -4.016 QT
cp
-3.166 -3 M
-5.229 -9.734 L
-4.041 -9.734 L
-2.963 -5.844 L
-2.572 -4.406 L
-2.541 -4.516 -2.213 -5.797 QT
-1.15 -9.734 L
0.021 -9.734 L
1.037 -5.828 L
1.381 -4.547 L
1.756 -5.844 L
2.912 -9.734 L
4.021 -9.734 L
1.912 -3 L
0.74 -3 L
-0.338 -7.031 L
-0.604 -8.188 L
-1.963 -3 L
-3.166 -3 L
cp
4.701 -6.375 M
4.701 -8.25 5.733 -9.141 QT
6.608 -9.891 7.858 -9.891 QT
9.248 -9.891 10.131 -8.984 QT
11.014 -8.078 11.014 -6.469 QT
11.014 -5.172 10.623 -4.422 QT
10.233 -3.672 9.483 -3.258 QT
8.733 -2.844 7.858 -2.844 QT
6.436 -2.844 5.569 -3.75 QT
4.701 -4.656 4.701 -6.375 QT
cp
5.873 -6.375 M
5.873 -5.078 6.436 -4.43 QT
6.998 -3.781 7.858 -3.781 QT
8.701 -3.781 9.272 -4.43 QT
9.842 -5.078 9.842 -6.406 QT
9.842 -7.656 9.272 -8.305 QT
8.701 -8.953 7.858 -8.953 QT
6.998 -8.953 6.436 -8.313 QT
5.873 -7.672 5.873 -6.375 QT
cp
12.442 -3 M
12.442 -9.734 L
13.473 -9.734 L
13.473 -8.719 L
13.864 -9.438 14.2 -9.664 QT
14.536 -9.891 14.926 -9.891 QT
15.504 -9.891 16.098 -9.531 QT
15.707 -8.469 L
15.286 -8.719 14.879 -8.719 QT
14.504 -8.719 14.2 -8.492 QT
13.895 -8.266 13.77 -7.859 QT
13.582 -7.25 13.582 -6.531 QT
13.582 -3 L
12.442 -3 L
cp
16.24 -3 M
16.24 -3.922 L
20.536 -8.859 L
19.802 -8.813 19.24 -8.813 QT
16.505 -8.813 L
16.505 -9.734 L
22.005 -9.734 L
22.005 -8.984 L
18.365 -4.703 L
17.646 -3.922 L
18.427 -3.984 19.099 -3.984 QT
22.208 -3.984 L
22.208 -3 L
16.24 -3 L
cp
28.052 -5.172 M
29.24 -5.031 L
28.958 -3.984 28.201 -3.414 QT
27.443 -2.844 26.271 -2.844 QT
24.786 -2.844 23.919 -3.758 QT
23.052 -4.672 23.052 -6.313 QT
23.052 -8.016 23.935 -8.953 QT
24.818 -9.891 26.208 -9.891 QT
27.568 -9.891 28.419 -8.969 QT
29.271 -8.047 29.271 -6.391 QT
29.271 -6.281 29.271 -6.078 QT
24.24 -6.078 L
24.302 -4.969 24.865 -4.375 QT
25.427 -3.781 26.271 -3.781 QT
26.911 -3.781 27.357 -4.117 QT
27.802 -4.453 28.052 -5.172 QT
cp
24.302 -7.016 M
28.068 -7.016 L
27.99 -7.875 27.63 -8.297 QT
27.083 -8.953 26.224 -8.953 QT
25.427 -8.953 24.896 -8.43 QT
24.365 -7.906 24.302 -7.016 QT
cp
30.777 -3 M
30.777 -9.734 L
31.808 -9.734 L
31.808 -8.781 L
32.543 -9.891 33.949 -9.891 QT
34.558 -9.891 35.066 -9.672 QT
35.574 -9.453 35.832 -9.102 QT
36.09 -8.75 36.183 -8.25 QT
36.246 -7.938 36.246 -7.141 QT
36.246 -3 L
35.105 -3 L
35.105 -7.094 L
35.105 -7.797 34.972 -8.141 QT
34.84 -8.484 34.504 -8.695 QT
34.168 -8.906 33.715 -8.906 QT
32.98 -8.906 32.449 -8.445 QT
31.918 -7.984 31.918 -6.688 QT
31.918 -3 L
30.777 -3 L
cp
38.111 -10.984 M
38.111 -12.313 L
39.252 -12.313 L
39.252 -10.984 L
38.111 -10.984 L
cp
38.111 -3 M
38.111 -9.734 L
39.252 -9.734 L
39.252 -3 L
38.111 -3 L
cp
45.65 -5.172 M
46.838 -5.031 L
46.557 -3.984 45.799 -3.414 QT
45.041 -2.844 43.869 -2.844 QT
42.385 -2.844 41.518 -3.758 QT
40.65 -4.672 40.65 -6.313 QT
40.65 -8.016 41.533 -8.953 QT
42.416 -9.891 43.807 -9.891 QT
45.166 -9.891 46.018 -8.969 QT
46.869 -8.047 46.869 -6.391 QT
46.869 -6.281 46.869 -6.078 QT
41.838 -6.078 L
41.9 -4.969 42.463 -4.375 QT
43.025 -3.781 43.869 -3.781 QT
44.51 -3.781 44.955 -4.117 QT
45.4 -4.453 45.65 -5.172 QT
cp
41.9 -7.016 M
45.666 -7.016 L
45.588 -7.875 45.229 -8.297 QT
44.682 -8.953 43.822 -8.953 QT
43.025 -8.953 42.494 -8.43 QT
41.963 -7.906 41.9 -7.016 QT
cp
51.43 -3 M
51.43 -3.922 L
55.727 -8.859 L
54.992 -8.813 54.43 -8.813 QT
51.696 -8.813 L
51.696 -9.734 L
57.196 -9.734 L
57.196 -8.984 L
53.555 -4.703 L
52.836 -3.922 L
53.617 -3.984 54.289 -3.984 QT
57.399 -3.984 L
57.399 -3 L
51.43 -3 L
cp
54.18 -11 M
54.18 -12.422 L
55.602 -12.422 L
55.602 -11 L
54.18 -11 L
cp
58.586 -0.406 M
58.446 -1.469 L
58.821 -1.375 59.102 -1.375 QT
59.492 -1.375 59.719 -1.5 QT
59.946 -1.625 60.086 -1.859 QT
60.196 -2.031 60.446 -2.703 QT
60.477 -2.797 60.539 -2.984 QT
57.977 -9.734 L
59.211 -9.734 L
60.617 -5.844 L
60.883 -5.094 61.102 -4.281 QT
61.305 -5.063 61.571 -5.813 QT
63.024 -9.734 L
64.164 -9.734 L
61.602 -2.891 L
61.18 -1.781 60.961 -1.359 QT
60.649 -0.797 60.258 -0.531 QT
59.867 -0.266 59.321 -0.266 QT
58.992 -0.266 58.586 -0.406 QT
cp
69.617 -5.469 M
70.742 -5.328 L
70.571 -4.156 69.805 -3.5 QT
69.039 -2.844 67.946 -2.844 QT
66.555 -2.844 65.719 -3.75 QT
64.883 -4.656 64.883 -6.344 QT
64.883 -7.438 65.242 -8.258 QT
65.602 -9.078 66.336 -9.484 QT
67.071 -9.891 67.946 -9.891 QT
69.039 -9.891 69.742 -9.336 QT
70.446 -8.781 70.633 -7.766 QT
69.524 -7.594 L
69.367 -8.266 68.969 -8.609 QT
68.571 -8.953 67.992 -8.953 QT
67.133 -8.953 66.594 -8.336 QT
66.055 -7.719 66.055 -6.375 QT
66.055 -5.016 66.571 -4.398 QT
67.086 -3.781 67.93 -3.781 QT
68.602 -3.781 69.055 -4.195 QT
69.508 -4.609 69.617 -5.469 QT
cp
71.821 -10.984 M
71.821 -12.313 L
72.961 -12.313 L
72.961 -10.984 L
71.821 -10.984 L
cp
71.821 -3 M
71.821 -9.734 L
72.961 -9.734 L
72.961 -3 L
71.821 -3 L
cp
79.141 -3.828 M
78.516 -3.297 77.93 -3.07 QT
77.344 -2.844 76.672 -2.844 QT
75.547 -2.844 74.953 -3.391 QT
74.36 -3.938 74.36 -4.781 QT
74.36 -5.266 74.586 -5.68 QT
74.813 -6.094 75.18 -6.344 QT
75.547 -6.594 76 -6.719 QT
76.328 -6.797 77.016 -6.891 QT
78.391 -7.047 79.047 -7.281 QT
79.063 -7.516 79.063 -7.578 QT
79.063 -8.281 78.735 -8.563 QT
78.297 -8.953 77.438 -8.953 QT
76.625 -8.953 76.243 -8.672 QT
75.86 -8.391 75.672 -7.672 QT
74.563 -7.813 L
74.703 -8.531 75.055 -8.977 QT
75.407 -9.422 76.071 -9.656 QT
76.735 -9.891 77.594 -9.891 QT
78.469 -9.891 79.008 -9.688 QT
79.547 -9.484 79.797 -9.18 QT
80.047 -8.875 80.157 -8.406 QT
80.203 -8.109 80.203 -7.344 QT
80.203 -5.828 L
80.203 -4.234 80.282 -3.813 QT
80.36 -3.391 80.563 -3 QT
79.375 -3 L
79.203 -3.359 79.141 -3.828 QT
cp
79.047 -6.391 M
78.422 -6.125 77.188 -5.953 QT
76.485 -5.844 76.188 -5.719 QT
75.891 -5.594 75.735 -5.352 QT
75.578 -5.109 75.578 -4.813 QT
75.578 -4.359 75.922 -4.055 QT
76.266 -3.75 76.938 -3.75 QT
77.594 -3.75 78.11 -4.039 QT
78.625 -4.328 78.875 -4.828 QT
79.047 -5.203 79.047 -5.969 QT
79.047 -6.391 L
cp
f
GR
GS
[0.75 0 0 0.75 0 0] CT
0 0.447 0.741 RC
1 LJ
0.667 LW
N
73 15 M
73.434 15.002 L
73.868 15.009 L
74.302 15.02 L
74.736 15.036 L
75.17 15.057 L
75.604 15.081 L
76.038 15.11 L
76.472 15.144 L
76.906 15.182 L
77.34 15.224 L
77.774 15.271 L
78.208 15.322 L
78.642 15.377 L
79.076 15.437 L
79.51 15.501 L
79.944 15.569 L
80.378 15.641 L
80.812 15.717 L
81.246 15.798 L
81.68 15.883 L
82.114 15.972 L
82.548 16.065 L
82.982 16.162 L
83.416 16.263 L
83.85 16.368 L
84.284 16.477 L
84.718 16.59 L
85.152 16.707 L
85.586 16.828 L
86.02 16.953 L
86.454 17.082 L
86.888 17.214 L
87.322 17.351 L
87.756 17.491 L
88.19 17.635 L
88.624 17.783 L
89.058 17.935 L
89.492 18.091 L
89.926 18.25 L
90.36 18.413 L
90.794 18.579 L
91.228 18.749 L
91.662 18.923 L
92.096 19.101 L
92.53 19.282 L
92.964 19.466 L
93.398 19.654 L
93.832 19.846 L
94.266 20.041 L
94.7 20.24 L
95.134 20.442 L
95.568 20.647 L
96.002 20.856 L
96.436 21.069 L
96.87 21.284 L
97.304 21.503 L
97.738 21.726 L
98.172 21.951 L
98.606 22.18 L
99.04 22.412 L
99.474 22.648 L
99.908 22.886 L
100.342 23.128 L
100.776 23.373 L
101.21 23.621 L
101.644 23.872 L
102.078 24.126 L
102.512 24.384 L
102.946 24.644 L
103.38 24.908 L
103.814 25.174 L
104.248 25.444 L
104.682 25.716 L
105.116 25.991 L
105.55 26.27 L
105.984 26.551 L
106.418 26.835 L
106.852 27.122 L
107.286 27.412 L
107.72 27.704 L
108.154 27.999 L
108.588 28.298 L
109.022 28.598 L
109.456 28.902 L
109.89 29.208 L
110.324 29.517 L
110.758 29.829 L
111.192 30.143 L
111.626 30.46 L
112.06 30.779 L
112.494 31.101 L
112.928 31.426 L
113.362 31.753 L
113.796 32.082 L
114.23 32.414 L
114.664 32.749 L
115.098 33.086 L
115.532 33.425 L
115.966 33.767 L
116.4 34.111 L
116.834 34.457 L
117.268 34.806 L
117.702 35.157 L
118.136 35.51 L
118.57 35.866 L
119.004 36.224 L
119.438 36.584 L
119.872 36.946 L
120.306 37.31 L
120.74 37.677 L
121.174 38.046 L
121.608 38.416 L
122.042 38.789 L
122.476 39.164 L
122.91 39.541 L
123.344 39.92 L
123.778 40.301 L
124.212 40.684 L
124.646 41.068 L
125.08 41.455 L
125.514 41.844 L
125.948 42.234 L
126.382 42.627 L
126.816 43.021 L
127.25 43.417 L
127.684 43.815 L
128.118 44.214 L
128.552 44.616 L
128.986 45.019 L
129.42 45.423 L
129.854 45.83 L
130.288 46.238 L
130.722 46.648 L
131.156 47.059 L
131.59 47.472 L
132.024 47.886 L
132.458 48.302 L
132.892 48.72 L
133.326 49.139 L
133.76 49.56 L
134.194 49.981 L
134.628 50.405 L
135.062 50.83 L
135.496 51.256 L
135.93 51.684 L
136.364 52.112 L
136.798 52.543 L
137.232 52.974 L
137.666 53.407 L
138.1 53.841 L
138.534 54.277 L
138.968 54.713 L
139.402 55.151 L
139.836 55.59 L
140.27 56.03 L
140.704 56.471 L
141.138 56.913 L
141.572 57.357 L
142.006 57.801 L
142.44 58.246 L
142.874 58.693 L
143.308 59.14 L
143.742 59.589 L
144.176 60.038 L
144.61 60.488 L
145.044 60.94 L
145.478 61.392 L
145.912 61.845 L
146.346 62.298 L
146.78 62.753 L
147.214 63.208 L
147.648 63.664 L
148.082 64.121 L
148.516 64.579 L
148.95 65.037 L
149.384 65.496 L
149.818 65.956 L
150.252 66.416 L
150.686 66.877 L
151.12 67.339 L
151.554 67.801 L
151.988 68.263 L
152.422 68.726 L
152.856 69.19 L
153.29 69.654 L
153.724 70.119 L
154.158 70.584 L
154.592 71.049 L
155.026 71.515 L
155.46 71.981 L
155.894 72.448 L
156.328 72.914 L
156.762 73.382 L
157.196 73.849 L
157.63 74.317 L
158.064 74.785 L
158.498 75.253 L
158.932 75.721 L
159.366 76.19 L
159.8 76.658 L
160.234 77.127 L
160.668 77.596 L
161.102 78.065 L
161.536 78.534 L
161.97 79.003 L
162.404 79.472 L
162.838 79.941 L
163.272 80.41 L
163.706 80.879 L
164.14 81.348 L
164.574 81.817 L
165.008 82.286 L
165.442 82.754 L
165.876 83.223 L
166.31 83.691 L
166.744 84.159 L
167.178 84.627 L
167.612 85.094 L
168.046 85.562 L
168.48 86.029 L
168.914 86.495 L
169.348 86.961 L
169.782 87.427 L
170.216 87.893 L
170.65 88.358 L
171.084 88.823 L
171.518 89.287 L
171.952 89.751 L
172.386 90.214 L
172.82 90.677 L
173.254 91.139 L
173.688 91.601 L
174.122 92.062 L
174.556 92.523 L
174.99 92.982 L
175.424 93.442 L
175.858 93.9 L
176.292 94.358 L
176.726 94.815 L
177.16 95.272 L
177.594 95.727 L
178.028 96.182 L
178.462 96.636 L
178.896 97.089 L
179.33 97.542 L
179.764 97.993 L
180.198 98.444 L
180.632 98.894 L
181.066 99.342 L
181.5 99.79 L
181.934 100.237 L
182.368 100.683 L
182.802 101.127 L
183.236 101.571 L
183.67 102.014 L
184.104 102.455 L
184.538 102.896 L
184.972 103.335 L
185.406 103.773 L
185.84 104.21 L
186.274 104.646 L
186.708 105.08 L
187.142 105.514 L
187.576 105.946 L
188.01 106.376 L
188.444 106.806 L
188.878 107.234 L
189.312 107.661 L
189.746 108.086 L
190.18 108.51 L
190.614 108.932 L
191.048 109.353 L
191.482 109.773 L
191.916 110.191 L
192.35 110.608 L
192.784 111.023 L
193.218 111.436 L
193.652 111.848 L
194.086 112.258 L
194.52 112.667 L
194.954 113.074 L
195.388 113.479 L
195.822 113.883 L
196.256 114.285 L
196.69 114.685 L
197.124 115.083 L
197.558 115.48 L
197.992 115.875 L
198.426 116.268 L
198.86 116.659 L
199.294 117.048 L
199.728 117.436 L
200.162 117.821 L
200.596 118.205 L
201.03 118.586 L
201.464 118.966 L
201.898 119.344 L
202.332 119.719 L
202.766 120.093 L
203.2 120.464 L
203.634 120.833 L
204.068 121.201 L
204.502 121.566 L
204.936 121.929 L
205.37 122.29 L
205.804 122.648 L
206.238 123.005 L
206.672 123.359 L
207.106 123.71 L
207.54 124.06 L
207.974 124.407 L
208.408 124.752 L
208.842 125.095 L
209.276 125.435 L
209.71 125.773 L
210.144 126.108 L
210.578 126.441 L
211.012 126.771 L
211.446 127.099 L
211.88 127.425 L
212.314 127.747 L
212.748 128.068 L
213.182 128.385 L
213.616 128.701 L
214.05 129.013 L
214.484 129.323 L
214.918 129.63 L
215.352 129.935 L
215.786 130.236 L
216.22 130.536 L
216.654 130.832 L
217.088 131.125 L
217.522 131.416 L
217.956 131.704 L
218.39 131.989 L
218.824 132.271 L
219.258 132.551 L
219.692 132.827 L
220.126 133.1 L
220.56 133.371 L
220.994 133.638 L
221.428 133.903 L
221.862 134.164 L
222.296 134.423 L
222.73 134.678 L
223.164 134.93 L
223.598 135.18 L
224.032 135.426 L
224.466 135.668 L
224.9 135.908 L
225.334 136.145 L
225.768 136.378 L
226.202 136.608 L
226.636 136.835 L
227.07 137.058 L
227.504 137.278 L
227.938 137.495 L
228.372 137.709 L
228.806 137.919 L
229.24 138.125 L
229.674 138.329 L
230.108 138.529 L
230.542 138.725 L
230.976 138.918 L
231.41 139.107 L
231.844 139.293 L
232.278 139.475 L
232.712 139.654 L
233.146 139.829 L
233.58 140 L
234.014 140.168 L
234.448 140.332 L
234.882 140.493 L
235.316 140.65 L
235.75 140.803 L
236.184 140.952 L
236.618 141.097 L
237.052 141.239 L
237.486 141.377 L
237.92 141.511 L
238.354 141.641 L
238.788 141.767 L
239.222 141.89 L
239.656 142.008 L
240.09 142.123 L
240.524 142.233 L
240.958 142.34 L
241.392 142.442 L
241.826 142.541 L
242.26 142.635 L
242.694 142.725 L
243.128 142.811 L
243.562 142.893 L
243.996 142.971 L
244.43 143.045 L
244.864 143.114 L
245.298 143.18 L
245.732 143.241 L
246.166 143.298 L
246.6 143.35 L
247.034 143.4 L
247.468 143.45 L
247.902 143.5 L
248.336 143.549 L
248.77 143.599 L
249.204 143.648 L
249.638 143.696 L
250.072 143.745 L
250.506 143.793 L
250.94 143.841 L
251.374 143.889 L
251.808 143.936 L
252.242 143.984 L
252.676 144.031 L
253.11 144.078 L
253.544 144.124 L
253.978 144.171 L
254.412 144.217 L
254.846 144.263 L
255.28 144.309 L
255.714 144.354 L
256.148 144.4 L
256.582 144.445 L
257.016 144.49 L
257.45 144.535 L
257.884 144.579 L
258.318 144.623 L
258.752 144.668 L
259.186 144.712 L
259.62 144.755 L
260.054 144.799 L
260.488 144.842 L
260.922 144.885 L
261.356 144.928 L
261.79 144.971 L
262.224 145.014 L
262.658 145.056 L
263.092 145.098 L
263.526 145.14 L
263.96 145.182 L
264.394 145.224 L
264.828 145.265 L
265.262 145.307 L
265.696 145.348 L
266.13 145.389 L
266.564 145.43 L
266.998 145.47 L
267.432 145.511 L
267.866 145.551 L
268.3 145.591 L
268.734 145.631 L
269.168 145.671 L
269.602 145.711 L
270.036 145.751 L
270.47 145.79 L
270.904 145.829 L
271.338 145.868 L
271.772 145.907 L
272.206 145.946 L
272.64 145.985 L
273.074 146.024 L
273.508 146.062 L
273.942 146.1 L
274.376 146.138 L
274.81 146.176 L
275.244 146.214 L
275.678 146.252 L
276.112 146.29 L
276.546 146.327 L
276.98 146.365 L
277.414 146.402 L
277.848 146.439 L
278.282 146.476 L
278.716 146.513 L
279.15 146.55 L
279.584 146.587 L
280.018 146.623 L
280.452 146.66 L
280.886 146.696 L
281.32 146.732 L
281.754 146.769 L
282.188 146.805 L
282.622 146.841 L
283.056 146.877 L
283.49 146.912 L
283.924 146.948 L
284.358 146.984 L
284.792 147.019 L
285.226 147.055 L
285.66 147.09 L
286.094 147.125 L
286.528 147.161 L
286.962 147.196 L
287.396 147.231 L
287.83 147.266 L
288.264 147.301 L
288.698 147.335 L
289.132 147.37 L
289.566 147.405 L
290 147.44 L
290.434 147.474 L
290.868 147.509 L
291.302 147.543 L
291.736 147.578 L
292.17 147.612 L
292.604 147.646 L
293.038 147.68 L
293.472 147.715 L
293.906 147.749 L
294.34 147.783 L
294.774 147.817 L
295.208 147.851 L
295.642 147.885 L
296.076 147.919 L
296.51 147.953 L
296.944 147.986 L
297.378 148.02 L
297.812 148.054 L
298.246 148.088 L
298.68 148.122 L
299.114 148.155 L
299.548 148.189 L
299.982 148.223 L
300.416 148.256 L
300.85 148.29 L
301.284 148.324 L
301.718 148.357 L
302.152 148.391 L
302.586 148.424 L
303.02 148.458 L
303.454 148.491 L
303.888 148.525 L
304.322 148.559 L
304.756 148.592 L
305.19 148.626 L
305.624 148.659 L
306.058 148.693 L
306.492 148.726 L
306.926 148.76 L
307.36 148.794 L
307.794 148.827 L
308.228 148.861 L
308.662 148.894 L
309.096 148.928 L
309.53 148.962 L
309.964 148.995 L
310.398 149.029 L
310.832 149.063 L
311.266 149.097 L
311.7 149.13 L
312.134 149.164 L
312.568 149.198 L
313.002 149.232 L
313.436 149.266 L
313.87 149.3 L
314.304 149.334 L
314.738 149.368 L
315.172 149.402 L
315.606 149.436 L
316.04 149.471 L
316.474 149.505 L
316.908 149.539 L
317.342 149.573 L
317.776 149.608 L
318.21 149.642 L
318.644 149.677 L
319.078 149.711 L
319.512 149.746 L
319.946 149.781 L
320.38 149.816 L
320.814 149.85 L
321.248 149.885 L
321.682 149.92 L
322.116 149.955 L
322.55 149.991 L
322.984 150.026 L
323.418 150.061 L
323.852 150.097 L
324.286 150.132 L
324.72 150.168 L
325.154 150.203 L
325.588 150.239 L
326.022 150.275 L
326.456 150.311 L
326.89 150.347 L
327.324 150.383 L
327.758 150.419 L
328.192 150.456 L
328.626 150.492 L
329.06 150.528 L
329.494 150.565 L
329.928 150.602 L
330.362 150.639 L
330.796 150.676 L
331.23 150.713 L
331.664 150.75 L
332.098 150.787 L
332.532 150.825 L
332.966 150.862 L
333.4 150.9 L
333.834 150.938 L
334.268 150.976 L
334.702 151.014 L
335.136 151.052 L
335.57 151.091 L
336.004 151.13 L
336.438 151.169 L
336.872 151.208 L
337.306 151.247 L
337.74 151.287 L
338.174 151.326 L
338.608 151.366 L
339.042 151.406 L
339.476 151.446 L
339.91 151.487 L
340.344 151.527 L
340.778 151.568 L
341.212 151.609 L
341.646 151.65 L
342.08 151.691 L
342.514 151.732 L
342.948 151.774 L
343.382 151.815 L
343.816 151.857 L
344.25 151.899 L
344.684 151.941 L
345.118 151.983 L
345.552 152.026 L
345.986 152.068 L
346.42 152.111 L
346.854 152.154 L
347.288 152.197 L
347.722 152.24 L
348.156 152.283 L
348.59 152.327 L
349.024 152.37 L
349.458 152.414 L
349.892 152.458 L
350.326 152.502 L
350.76 152.546 L
351.194 152.59 L
351.628 152.634 L
352.062 152.679 L
352.496 152.724 L
352.93 152.768 L
353.364 152.813 L
353.798 152.858 L
354.232 152.903 L
354.666 152.949 L
355.1 152.994 L
355.534 153.039 L
355.968 153.085 L
356.402 153.131 L
356.836 153.177 L
357.27 153.222 L
357.704 153.269 L
358.138 153.315 L
358.572 153.361 L
359.006 153.407 L
359.44 153.454 L
359.874 153.5 L
360.308 153.547 L
360.742 153.594 L
361.176 153.641 L
361.61 153.688 L
362.044 153.735 L
362.478 153.782 L
362.912 153.829 L
363.346 153.877 L
363.78 153.924 L
364.214 153.972 L
364.648 154.019 L
365.082 154.067 L
365.516 154.115 L
365.95 154.163 L
366.384 154.211 L
366.818 154.259 L
367.252 154.307 L
367.686 154.355 L
368.12 154.403 L
368.554 154.452 L
368.988 154.5 L
369.422 154.548 L
369.856 154.597 L
370.29 154.646 L
370.724 154.694 L
371.158 154.743 L
371.592 154.792 L
372.026 154.841 L
372.46 154.89 L
372.894 154.939 L
373.328 154.988 L
373.762 155.037 L
374.196 155.086 L
374.63 155.136 L
375.064 155.185 L
375.498 155.234 L
375.932 155.284 L
376.366 155.333 L
376.8 155.383 L
377.234 155.432 L
377.668 155.482 L
378.102 155.532 L
378.536 155.581 L
378.97 155.631 L
379.404 155.681 L
379.838 155.731 L
380.272 155.781 L
380.706 155.83 L
381.14 155.88 L
381.574 155.93 L
382.008 155.98 L
382.442 156.03 L
382.876 156.08 L
383.31 156.131 L
383.744 156.181 L
384.178 156.231 L
384.612 156.281 L
385.046 156.331 L
385.48 156.381 L
385.914 156.432 L
386.348 156.482 L
386.782 156.532 L
387.216 156.582 L
387.65 156.633 L
388.084 156.683 L
388.518 156.733 L
388.952 156.783 L
389.386 156.834 L
389.82 156.884 L
390.254 156.934 L
390.688 156.985 L
391.122 157.035 L
391.556 157.085 L
391.99 157.136 L
392.424 157.186 L
392.858 157.236 L
393.292 157.287 L
393.726 157.337 L
394.16 157.387 L
394.594 157.438 L
395.028 157.488 L
395.462 157.538 L
395.896 157.588 L
396.33 157.639 L
396.764 157.689 L
397.198 157.739 L
397.632 157.789 L
398.066 157.839 L
398.5 157.89 L
398.934 157.94 L
399.368 157.99 L
399.802 158.04 L
400.236 158.09 L
400.67 158.14 L
401.104 158.19 L
401.538 158.24 L
401.972 158.29 L
402.406 158.34 L
402.84 158.39 L
403.274 158.439 L
403.708 158.489 L
404.142 158.539 L
404.576 158.589 L
405.01 158.638 L
405.444 158.688 L
405.878 158.737 L
406.312 158.787 L
406.746 158.836 L
407.18 158.886 L
407.614 158.935 L
408.048 158.984 L
408.482 159.034 L
408.916 159.083 L
409.35 159.132 L
409.784 159.181 L
410.218 159.23 L
410.652 159.279 L
411.086 159.328 L
411.52 159.377 L
411.954 159.426 L
412.388 159.474 L
412.822 159.523 L
413.256 159.571 L
413.69 159.62 L
414.124 159.668 L
414.558 159.717 L
414.992 159.765 L
415.426 159.813 L
415.86 159.861 L
416.294 159.909 L
416.728 159.957 L
417.162 160.005 L
417.596 160.053 L
418.03 160.1 L
418.464 160.148 L
418.898 160.196 L
419.332 160.243 L
419.766 160.29 L
420.2 160.337 L
420.634 160.385 L
421.068 160.432 L
421.502 160.479 L
421.936 160.525 L
422.37 160.572 L
422.804 160.619 L
423.238 160.665 L
423.672 160.712 L
424.106 160.758 L
424.54 160.804 L
424.974 160.851 L
425.408 160.897 L
425.842 160.942 L
426.276 160.988 L
426.71 161.034 L
427.144 161.079 L
427.578 161.125 L
428.012 161.17 L
428.446 161.215 L
428.88 161.26 L
429.314 161.305 L
429.748 161.35 L
430.182 161.395 L
430.616 161.44 L
431.05 161.484 L
431.484 161.528 L
431.918 161.573 L
432.352 161.617 L
432.786 161.66 L
433.22 161.704 L
433.654 161.748 L
434.088 161.791 L
434.522 161.835 L
434.956 161.878 L
435.39 161.921 L
435.824 161.964 L
436.258 162.007 L
436.692 162.05 L
437.126 162.092 L
437.56 162.134 L
437.994 162.177 L
438.428 162.219 L
438.862 162.261 L
439.296 162.302 L
439.73 162.344 L
440.164 162.385 L
440.598 162.427 L
441.032 162.468 L
441.466 162.509 L
441.9 162.549 L
442.334 162.59 L
442.768 162.63 L
443.202 162.671 L
443.636 162.711 L
444.07 162.751 L
444.504 162.791 L
444.938 162.83 L
445.372 162.87 L
445.806 162.909 L
446.24 162.948 L
446.674 162.987 L
447.108 163.026 L
447.542 163.064 L
447.976 163.102 L
448.41 163.141 L
448.844 163.178 L
449.278 163.216 L
449.712 163.254 L
450.146 163.291 L
450.58 163.328 L
451.014 163.365 L
451.448 163.402 L
451.882 163.439 L
452.316 163.475 L
452.75 163.512 L
453.184 163.548 L
453.618 163.583 L
454.052 163.619 L
454.486 163.654 L
454.92 163.69 L
455.354 163.725 L
455.788 163.759 L
456.222 163.794 L
456.656 163.828 L
457.09 163.863 L
457.524 163.897 L
457.958 163.93 L
458.392 163.964 L
458.826 163.997 L
459.26 164.03 L
459.694 164.063 L
460.128 164.096 L
460.562 164.128 L
460.996 164.16 L
461.43 164.192 L
461.864 164.224 L
462.298 164.255 L
462.732 164.287 L
463.166 164.318 L
463.6 164.348 L
464.034 164.379 L
464.468 164.409 L
464.902 164.439 L
465.336 164.469 L
465.77 164.499 L
466.204 164.528 L
466.638 164.557 L
467.072 164.586 L
467.506 164.615 L
467.94 164.643 L
468.374 164.671 L
468.808 164.699 L
469.242 164.727 L
469.676 164.754 L
470.11 164.781 L
470.544 164.808 L
470.978 164.835 L
471.412 164.861 L
471.846 164.887 L
472.28 164.913 L
472.714 164.938 L
473.148 164.964 L
473.582 164.989 L
474.016 165.013 L
474.45 165.038 L
474.884 165.062 L
475.318 165.086 L
475.752 165.11 L
476.186 165.133 L
476.62 165.156 L
477.054 165.179 L
477.488 165.201 L
477.922 165.224 L
478.356 165.246 L
478.79 165.267 L
479.224 165.289 L
479.658 165.31 L
480.092 165.331 L
480.526 165.351 L
480.96 165.371 L
481.394 165.391 L
481.828 165.411 L
482.262 165.43 L
482.696 165.45 L
483.13 165.468 L
483.564 165.487 L
483.998 165.505 L
484.432 165.523 L
484.866 165.54 L
485.3 165.558 L
485.734 165.575 L
486.168 165.591 L
486.602 165.608 L
487.036 165.624 L
487.47 165.639 L
487.904 165.655 L
488.338 165.67 L
488.772 165.685 L
489.206 165.699 L
489.64 165.713 L
490.074 165.727 L
490.508 165.74 L
490.942 165.754 L
491.376 165.766 L
491.81 165.779 L
492.244 165.791 L
492.678 165.803 L
493.112 165.814 L
493.546 165.826 L
493.98 165.837 L
494.414 165.847 L
494.848 165.857 L
495.282 165.867 L
495.716 165.877 L
496.15 165.886 L
496.584 165.895 L
497.018 165.903 L
497.452 165.911 L
497.886 165.919 L
498.32 165.926 L
498.754 165.933 L
499.188 165.94 L
499.622 165.947 L
500.056 165.953 L
500.49 165.958 L
500.924 165.964 L
501.358 165.969 L
501.792 165.973 L
502.226 165.977 L
502.66 165.981 L
503.094 165.985 L
503.528 165.988 L
503.962 165.991 L
504.396 165.993 L
504.83 165.995 L
505.264 165.997 L
505.698 165.998 L
506.132 165.999 L
506.566 166 L
507 166 L
S
GR
%%Trailer
%%Pages: 1
%%EOF
