%!PS-Adobe-3.0 EPSF-3.0
%%Creator: (MATLAB, The Mathworks, Inc. Version 9.5.0.1049112 \(R2018b\) Update 3. Operating System: Windows 10)
%%Title: ./perceptronRule.eps
%%CreationDate: 2020-01-05T15:48:58
%%Pages: (atend)
%%BoundingBox:    36    19   385   293
%%LanguageLevel: 3
%%EndComments
%%BeginProlog
%%BeginResource: procset (Apache XML Graphics Std ProcSet) 1.2 0
%%Version: 1.2 0
%%Copyright: (Copyright 2001-2003,2010 The Apache Software Foundation. License terms: http://www.apache.org/licenses/LICENSE-2.0)
/bd{bind def}bind def
/ld{load def}bd
/GR/grestore ld
/GS/gsave ld
/RM/rmoveto ld
/C/curveto ld
/t/show ld
/L/lineto ld
/ML/setmiterlimit ld
/CT/concat ld
/f/fill ld
/N/newpath ld
/S/stroke ld
/CC/setcmykcolor ld
/A/ashow ld
/cp/closepath ld
/RC/setrgbcolor ld
/LJ/setlinejoin ld
/GC/setgray ld
/LW/setlinewidth ld
/M/moveto ld
/re {4 2 roll M
1 index 0 rlineto
0 exch rlineto
neg 0 rlineto
cp } bd
/_ctm matrix def
/_tm matrix def
/BT { _ctm currentmatrix pop matrix _tm copy pop 0 0 moveto } bd
/ET { _ctm setmatrix } bd
/iTm { _ctm setmatrix _tm concat } bd
/Tm { _tm astore pop iTm 0 0 moveto } bd
/ux 0.0 def
/uy 0.0 def
/F {
  /Tp exch def
  /Tf exch def
  Tf findfont Tp scalefont setfont
  /cf Tf def  /cs Tp def
} bd
/ULS {currentpoint /uy exch def /ux exch def} bd
/ULE {
  /Tcx currentpoint pop def
  gsave
  newpath
  cf findfont cs scalefont dup
  /FontMatrix get 0 get /Ts exch def /FontInfo get dup
  /UnderlinePosition get Ts mul /To exch def
  /UnderlineThickness get Ts mul /Tt exch def
  ux uy To add moveto  Tcx uy To add lineto
  Tt setlinewidth stroke
  grestore
} bd
/OLE {
  /Tcx currentpoint pop def
  gsave
  newpath
  cf findfont cs scalefont dup
  /FontMatrix get 0 get /Ts exch def /FontInfo get dup
  /UnderlinePosition get Ts mul /To exch def
  /UnderlineThickness get Ts mul /Tt exch def
  ux uy To add cs add moveto Tcx uy To add cs add lineto
  Tt setlinewidth stroke
  grestore
} bd
/SOE {
  /Tcx currentpoint pop def
  gsave
  newpath
  cf findfont cs scalefont dup
  /FontMatrix get 0 get /Ts exch def /FontInfo get dup
  /UnderlinePosition get Ts mul /To exch def
  /UnderlineThickness get Ts mul /Tt exch def
  ux uy To add cs 10 mul 26 idiv add moveto Tcx uy To add cs 10 mul 26 idiv add lineto
  Tt setlinewidth stroke
  grestore
} bd
/QT {
/Y22 exch store
/X22 exch store
/Y21 exch store
/X21 exch store
currentpoint
/Y21 load 2 mul add 3 div exch
/X21 load 2 mul add 3 div exch
/X21 load 2 mul /X22 load add 3 div
/Y21 load 2 mul /Y22 load add 3 div
/X22 load /Y22 load curveto
} bd
/SSPD {
dup length /d exch dict def
{
/v exch def
/k exch def
currentpagedevice k known {
/cpdv currentpagedevice k get def
v cpdv ne {
/upd false def
/nullv v type /nulltype eq def
/nullcpdv cpdv type /nulltype eq def
nullv nullcpdv or
{
/upd true def
} {
/sametype v type cpdv type eq def
sametype {
v type /arraytype eq {
/vlen v length def
/cpdvlen cpdv length def
vlen cpdvlen eq {
0 1 vlen 1 sub {
/i exch def
/obj v i get def
/cpdobj cpdv i get def
obj cpdobj ne {
/upd true def
exit
} if
} for
} {
/upd true def
} ifelse
} {
v type /dicttype eq {
v {
/dv exch def
/dk exch def
/cpddv cpdv dk get def
dv cpddv ne {
/upd true def
exit
} if
} forall
} {
/upd true def
} ifelse
} ifelse
} if
} ifelse
upd true eq {
d k v put
} if
} if
} if
} forall
d length 0 gt {
d setpagedevice
} if
} bd
/RE { % /NewFontName [NewEncodingArray] /FontName RE -
  findfont dup length dict begin
  {
    1 index /FID ne
    {def} {pop pop} ifelse
  } forall
  /Encoding exch def
  /FontName 1 index def
  currentdict definefont pop
  end
} bind def
%%EndResource
%%BeginResource: procset (Apache XML Graphics EPS ProcSet) 1.0 0
%%Version: 1.0 0
%%Copyright: (Copyright 2002-2003 The Apache Software Foundation. License terms: http://www.apache.org/licenses/LICENSE-2.0)
/BeginEPSF { %def
/b4_Inc_state save def         % Save state for cleanup
/dict_count countdictstack def % Count objects on dict stack
/op_count count 1 sub def      % Count objects on operand stack
userdict begin                 % Push userdict on dict stack
/showpage { } def              % Redefine showpage, { } = null proc
0 setgray 0 setlinecap         % Prepare graphics state
1 setlinewidth 0 setlinejoin
10 setmiterlimit [ ] 0 setdash newpath
/languagelevel where           % If level not equal to 1 then
{pop languagelevel             % set strokeadjust and
1 ne                           % overprint to their defaults.
{false setstrokeadjust false setoverprint
} if
} if
} bd
/EndEPSF { %def
count op_count sub {pop} repeat            % Clean up stacks
countdictstack dict_count sub {end} repeat
b4_Inc_state restore
} bd
%%EndResource
%FOPBeginFontDict
%%IncludeResource: font Courier-Oblique
%%IncludeResource: font Courier-BoldOblique
%%IncludeResource: font Courier-Bold
%%IncludeResource: font ZapfDingbats
%%IncludeResource: font Symbol
%%IncludeResource: font Helvetica
%%IncludeResource: font Helvetica-Oblique
%%IncludeResource: font Helvetica-Bold
%%IncludeResource: font Helvetica-BoldOblique
%%IncludeResource: font Times-Roman
%%IncludeResource: font Times-Italic
%%IncludeResource: font Times-Bold
%%IncludeResource: font Times-BoldItalic
%%IncludeResource: font Courier
%FOPEndFontDict
%%BeginResource: encoding WinAnsiEncoding
/WinAnsiEncoding [
/.notdef /.notdef /.notdef /.notdef /.notdef
/.notdef /.notdef /.notdef /.notdef /.notdef
/.notdef /.notdef /.notdef /.notdef /.notdef
/.notdef /.notdef /.notdef /.notdef /.notdef
/.notdef /.notdef /.notdef /.notdef /.notdef
/.notdef /.notdef /.notdef /.notdef /.notdef
/.notdef /.notdef /space /exclam /quotedbl
/numbersign /dollar /percent /ampersand /quotesingle
/parenleft /parenright /asterisk /plus /comma
/hyphen /period /slash /zero /one
/two /three /four /five /six
/seven /eight /nine /colon /semicolon
/less /equal /greater /question /at
/A /B /C /D /E
/F /G /H /I /J
/K /L /M /N /O
/P /Q /R /S /T
/U /V /W /X /Y
/Z /bracketleft /backslash /bracketright /asciicircum
/underscore /quoteleft /a /b /c
/d /e /f /g /h
/i /j /k /l /m
/n /o /p /q /r
/s /t /u /v /w
/x /y /z /braceleft /bar
/braceright /asciitilde /bullet /Euro /bullet
/quotesinglbase /florin /quotedblbase /ellipsis /dagger
/daggerdbl /circumflex /perthousand /Scaron /guilsinglleft
/OE /bullet /Zcaron /bullet /bullet
/quoteleft /quoteright /quotedblleft /quotedblright /bullet
/endash /emdash /asciitilde /trademark /scaron
/guilsinglright /oe /bullet /zcaron /Ydieresis
/space /exclamdown /cent /sterling /currency
/yen /brokenbar /section /dieresis /copyright
/ordfeminine /guillemotleft /logicalnot /sfthyphen /registered
/macron /degree /plusminus /twosuperior /threesuperior
/acute /mu /paragraph /middot /cedilla
/onesuperior /ordmasculine /guillemotright /onequarter /onehalf
/threequarters /questiondown /Agrave /Aacute /Acircumflex
/Atilde /Adieresis /Aring /AE /Ccedilla
/Egrave /Eacute /Ecircumflex /Edieresis /Igrave
/Iacute /Icircumflex /Idieresis /Eth /Ntilde
/Ograve /Oacute /Ocircumflex /Otilde /Odieresis
/multiply /Oslash /Ugrave /Uacute /Ucircumflex
/Udieresis /Yacute /Thorn /germandbls /agrave
/aacute /acircumflex /atilde /adieresis /aring
/ae /ccedilla /egrave /eacute /ecircumflex
/edieresis /igrave /iacute /icircumflex /idieresis
/eth /ntilde /ograve /oacute /ocircumflex
/otilde /odieresis /divide /oslash /ugrave
/uacute /ucircumflex /udieresis /yacute /thorn
/ydieresis
] def
%%EndResource
%FOPBeginFontReencode
/Courier-Oblique findfont
dup length dict begin
  {1 index /FID ne {def} {pop pop} ifelse} forall
  /Encoding WinAnsiEncoding def
  currentdict
end
/Courier-Oblique exch definefont pop
/Courier-BoldOblique findfont
dup length dict begin
  {1 index /FID ne {def} {pop pop} ifelse} forall
  /Encoding WinAnsiEncoding def
  currentdict
end
/Courier-BoldOblique exch definefont pop
/Courier-Bold findfont
dup length dict begin
  {1 index /FID ne {def} {pop pop} ifelse} forall
  /Encoding WinAnsiEncoding def
  currentdict
end
/Courier-Bold exch definefont pop
/Helvetica findfont
dup length dict begin
  {1 index /FID ne {def} {pop pop} ifelse} forall
  /Encoding WinAnsiEncoding def
  currentdict
end
/Helvetica exch definefont pop
/Helvetica-Oblique findfont
dup length dict begin
  {1 index /FID ne {def} {pop pop} ifelse} forall
  /Encoding WinAnsiEncoding def
  currentdict
end
/Helvetica-Oblique exch definefont pop
/Helvetica-Bold findfont
dup length dict begin
  {1 index /FID ne {def} {pop pop} ifelse} forall
  /Encoding WinAnsiEncoding def
  currentdict
end
/Helvetica-Bold exch definefont pop
/Helvetica-BoldOblique findfont
dup length dict begin
  {1 index /FID ne {def} {pop pop} ifelse} forall
  /Encoding WinAnsiEncoding def
  currentdict
end
/Helvetica-BoldOblique exch definefont pop
/Times-Roman findfont
dup length dict begin
  {1 index /FID ne {def} {pop pop} ifelse} forall
  /Encoding WinAnsiEncoding def
  currentdict
end
/Times-Roman exch definefont pop
/Times-Italic findfont
dup length dict begin
  {1 index /FID ne {def} {pop pop} ifelse} forall
  /Encoding WinAnsiEncoding def
  currentdict
end
/Times-Italic exch definefont pop
/Times-Bold findfont
dup length dict begin
  {1 index /FID ne {def} {pop pop} ifelse} forall
  /Encoding WinAnsiEncoding def
  currentdict
end
/Times-Bold exch definefont pop
/Times-BoldItalic findfont
dup length dict begin
  {1 index /FID ne {def} {pop pop} ifelse} forall
  /Encoding WinAnsiEncoding def
  currentdict
end
/Times-BoldItalic exch definefont pop
/Courier findfont
dup length dict begin
  {1 index /FID ne {def} {pop pop} ifelse} forall
  /Encoding WinAnsiEncoding def
  currentdict
end
/Courier exch definefont pop
%FOPEndFontReencode
%%EndProlog
%%Page: 1 1
%%PageBoundingBox: 0 0 420 315
%%BeginPageSetup
[1 0 0 -1 0 315] CT
%%EndPageSetup
GS
[0.75 0 0 0.75 0 0] CT
1 GC
N
0 0 560 420 re
f
GR
GS
[0.75 0 0 0.75 0 0] CT
1 GC
N
0 0 560 420 re
f
GR
GS
[0.75 0 0 0.75 0 0] CT
1 GC
N
73 374 M
507 374 L
507 31 L
73 31 L
cp
f
GR
GS
[0.75 0 0 0.75 0 0] CT
0.149 GC
2 setlinecap
1 LJ
0.667 LW
N
73 374 M
507 374 L
S
GR
GS
[0.75 0 0 0.75 0 0] CT
0.149 GC
2 setlinecap
1 LJ
0.667 LW
N
73 31 M
507 31 L
S
GR
GS
[0.75 0 0 0.75 0 0] CT
0.149 GC
2 setlinecap
1 LJ
0.667 LW
N
73 374 M
73 369.66 L
S
GR
GS
[0.75 0 0 0.75 0 0] CT
0.149 GC
2 setlinecap
1 LJ
0.667 LW
N
116.4 374 M
116.4 369.66 L
S
GR
GS
[0.75 0 0 0.75 0 0] CT
0.149 GC
2 setlinecap
1 LJ
0.667 LW
N
159.8 374 M
159.8 369.66 L
S
GR
GS
[0.75 0 0 0.75 0 0] CT
0.149 GC
2 setlinecap
1 LJ
0.667 LW
N
203.2 374 M
203.2 369.66 L
S
GR
GS
[0.75 0 0 0.75 0 0] CT
0.149 GC
2 setlinecap
1 LJ
0.667 LW
N
246.6 374 M
246.6 369.66 L
S
GR
GS
[0.75 0 0 0.75 0 0] CT
0.149 GC
2 setlinecap
1 LJ
0.667 LW
N
290 374 M
290 369.66 L
S
GR
GS
[0.75 0 0 0.75 0 0] CT
0.149 GC
2 setlinecap
1 LJ
0.667 LW
N
333.4 374 M
333.4 369.66 L
S
GR
GS
[0.75 0 0 0.75 0 0] CT
0.149 GC
2 setlinecap
1 LJ
0.667 LW
N
376.8 374 M
376.8 369.66 L
S
GR
GS
[0.75 0 0 0.75 0 0] CT
0.149 GC
2 setlinecap
1 LJ
0.667 LW
N
420.2 374 M
420.2 369.66 L
S
GR
GS
[0.75 0 0 0.75 0 0] CT
0.149 GC
2 setlinecap
1 LJ
0.667 LW
N
463.6 374 M
463.6 369.66 L
S
GR
GS
[0.75 0 0 0.75 0 0] CT
0.149 GC
2 setlinecap
1 LJ
0.667 LW
N
507 374 M
507 369.66 L
S
GR
GS
[0.75 0 0 0.75 0 0] CT
0.149 GC
2 setlinecap
1 LJ
0.667 LW
N
73 31 M
73 35.34 L
S
GR
GS
[0.75 0 0 0.75 0 0] CT
0.149 GC
2 setlinecap
1 LJ
0.667 LW
N
116.4 31 M
116.4 35.34 L
S
GR
GS
[0.75 0 0 0.75 0 0] CT
0.149 GC
2 setlinecap
1 LJ
0.667 LW
N
159.8 31 M
159.8 35.34 L
S
GR
GS
[0.75 0 0 0.75 0 0] CT
0.149 GC
2 setlinecap
1 LJ
0.667 LW
N
203.2 31 M
203.2 35.34 L
S
GR
GS
[0.75 0 0 0.75 0 0] CT
0.149 GC
2 setlinecap
1 LJ
0.667 LW
N
246.6 31 M
246.6 35.34 L
S
GR
GS
[0.75 0 0 0.75 0 0] CT
0.149 GC
2 setlinecap
1 LJ
0.667 LW
N
290 31 M
290 35.34 L
S
GR
GS
[0.75 0 0 0.75 0 0] CT
0.149 GC
2 setlinecap
1 LJ
0.667 LW
N
333.4 31 M
333.4 35.34 L
S
GR
GS
[0.75 0 0 0.75 0 0] CT
0.149 GC
2 setlinecap
1 LJ
0.667 LW
N
376.8 31 M
376.8 35.34 L
S
GR
GS
[0.75 0 0 0.75 0 0] CT
0.149 GC
2 setlinecap
1 LJ
0.667 LW
N
420.2 31 M
420.2 35.34 L
S
GR
GS
[0.75 0 0 0.75 0 0] CT
0.149 GC
2 setlinecap
1 LJ
0.667 LW
N
463.6 31 M
463.6 35.34 L
S
GR
GS
[0.75 0 0 0.75 0 0] CT
0.149 GC
2 setlinecap
1 LJ
0.667 LW
N
507 31 M
507 35.34 L
S
GR
GS
[0.75 0 0 0.75 54.75 284.50001] CT
0.149 GC
/Helvetica 13.333 F
GS
[1 0 0 1 0 0] CT
-10 14 moveto 
1 -1 scale
(-10) t 
GR
GR
GS
[0.75 0 0 0.75 87.3 284.50001] CT
0.149 GC
/Helvetica 13.333 F
GS
[1 0 0 1 0 0] CT
-6 14 moveto 
1 -1 scale
(-8) t 
GR
GR
GS
[0.75 0 0 0.75 119.85 284.50001] CT
0.149 GC
/Helvetica 13.333 F
GS
[1 0 0 1 0 0] CT
-6 14 moveto 
1 -1 scale
(-6) t 
GR
GR
GS
[0.75 0 0 0.75 152.4 284.50001] CT
0.149 GC
/Helvetica 13.333 F
GS
[1 0 0 1 0 0] CT
-6 14 moveto 
1 -1 scale
(-4) t 
GR
GR
GS
[0.75 0 0 0.75 184.95 284.50001] CT
0.149 GC
/Helvetica 13.333 F
GS
[1 0 0 1 0 0] CT
-6 14 moveto 
1 -1 scale
(-2) t 
GR
GR
GS
[0.75 0 0 0.75 217.5 284.50001] CT
0.149 GC
/Helvetica 13.333 F
GS
[1 0 0 1 0 0] CT
-4 14 moveto 
1 -1 scale
(0) t 
GR
GR
GS
[0.75 0 0 0.75 250.05 284.50001] CT
0.149 GC
/Helvetica 13.333 F
GS
[1 0 0 1 0 0] CT
-4 14 moveto 
1 -1 scale
(2) t 
GR
GR
GS
[0.75 0 0 0.75 282.59999 284.50001] CT
0.149 GC
/Helvetica 13.333 F
GS
[1 0 0 1 0 0] CT
-4 14 moveto 
1 -1 scale
(4) t 
GR
GR
GS
[0.75 0 0 0.75 315.15001 284.50001] CT
0.149 GC
/Helvetica 13.333 F
GS
[1 0 0 1 0 0] CT
-4 14 moveto 
1 -1 scale
(6) t 
GR
GR
GS
[0.75 0 0 0.75 347.7 284.50001] CT
0.149 GC
/Helvetica 13.333 F
GS
[1 0 0 1 0 0] CT
-4 14 moveto 
1 -1 scale
(8) t 
GR
GR
GS
[0.75 0 0 0.75 380.25 284.50001] CT
0.149 GC
/Helvetica 13.333 F
GS
[1 0 0 1 0 0] CT
-7.5 14 moveto 
1 -1 scale
(10) t 
GR
GR
GS
[0.75 0 0 0.75 0 0] CT
0.149 GC
2 setlinecap
1 LJ
0.667 LW
N
73 374 M
73 31 L
S
GR
GS
[0.75 0 0 0.75 0 0] CT
0.149 GC
2 setlinecap
1 LJ
0.667 LW
N
507 374 M
507 31 L
S
GR
GS
[0.75 0 0 0.75 0 0] CT
0.149 GC
2 setlinecap
1 LJ
0.667 LW
N
73 367.404 M
77.34 367.404 L
S
GR
GS
[0.75 0 0 0.75 0 0] CT
0.149 GC
2 setlinecap
1 LJ
0.667 LW
N
73 334.423 M
77.34 334.423 L
S
GR
GS
[0.75 0 0 0.75 0 0] CT
0.149 GC
2 setlinecap
1 LJ
0.667 LW
N
73 301.442 M
77.34 301.442 L
S
GR
GS
[0.75 0 0 0.75 0 0] CT
0.149 GC
2 setlinecap
1 LJ
0.667 LW
N
73 268.462 M
77.34 268.462 L
S
GR
GS
[0.75 0 0 0.75 0 0] CT
0.149 GC
2 setlinecap
1 LJ
0.667 LW
N
73 235.481 M
77.34 235.481 L
S
GR
GS
[0.75 0 0 0.75 0 0] CT
0.149 GC
2 setlinecap
1 LJ
0.667 LW
N
73 202.5 M
77.34 202.5 L
S
GR
GS
[0.75 0 0 0.75 0 0] CT
0.149 GC
2 setlinecap
1 LJ
0.667 LW
N
73 169.519 M
77.34 169.519 L
S
GR
GS
[0.75 0 0 0.75 0 0] CT
0.149 GC
2 setlinecap
1 LJ
0.667 LW
N
73 136.538 M
77.34 136.538 L
S
GR
GS
[0.75 0 0 0.75 0 0] CT
0.149 GC
2 setlinecap
1 LJ
0.667 LW
N
73 103.558 M
77.34 103.558 L
S
GR
GS
[0.75 0 0 0.75 0 0] CT
0.149 GC
2 setlinecap
1 LJ
0.667 LW
N
73 70.577 M
77.34 70.577 L
S
GR
GS
[0.75 0 0 0.75 0 0] CT
0.149 GC
2 setlinecap
1 LJ
0.667 LW
N
73 37.596 M
77.34 37.596 L
S
GR
GS
[0.75 0 0 0.75 0 0] CT
0.149 GC
2 setlinecap
1 LJ
0.667 LW
N
507 367.404 M
502.66 367.404 L
S
GR
GS
[0.75 0 0 0.75 0 0] CT
0.149 GC
2 setlinecap
1 LJ
0.667 LW
N
507 334.423 M
502.66 334.423 L
S
GR
GS
[0.75 0 0 0.75 0 0] CT
0.149 GC
2 setlinecap
1 LJ
0.667 LW
N
507 301.442 M
502.66 301.442 L
S
GR
GS
[0.75 0 0 0.75 0 0] CT
0.149 GC
2 setlinecap
1 LJ
0.667 LW
N
507 268.462 M
502.66 268.462 L
S
GR
GS
[0.75 0 0 0.75 0 0] CT
0.149 GC
2 setlinecap
1 LJ
0.667 LW
N
507 235.481 M
502.66 235.481 L
S
GR
GS
[0.75 0 0 0.75 0 0] CT
0.149 GC
2 setlinecap
1 LJ
0.667 LW
N
507 202.5 M
502.66 202.5 L
S
GR
GS
[0.75 0 0 0.75 0 0] CT
0.149 GC
2 setlinecap
1 LJ
0.667 LW
N
507 169.519 M
502.66 169.519 L
S
GR
GS
[0.75 0 0 0.75 0 0] CT
0.149 GC
2 setlinecap
1 LJ
0.667 LW
N
507 136.538 M
502.66 136.538 L
S
GR
GS
[0.75 0 0 0.75 0 0] CT
0.149 GC
2 setlinecap
1 LJ
0.667 LW
N
507 103.558 M
502.66 103.558 L
S
GR
GS
[0.75 0 0 0.75 0 0] CT
0.149 GC
2 setlinecap
1 LJ
0.667 LW
N
507 70.577 M
502.66 70.577 L
S
GR
GS
[0.75 0 0 0.75 0 0] CT
0.149 GC
2 setlinecap
1 LJ
0.667 LW
N
507 37.596 M
502.66 37.596 L
S
GR
GS
[0.75 0 0 0.75 50.74999 275.55288] CT
0.149 GC
/Helvetica 13.333 F
GS
[1 0 0 1 0 0] CT
-8 5.5 moveto 
1 -1 scale
(0) t 
GR
GR
GS
[0.75 0 0 0.75 50.74999 250.8173] CT
0.149 GC
/Helvetica 13.333 F
GS
[1 0 0 1 0 0] CT
-19 5.5 moveto 
1 -1 scale
(0.1) t 
GR
GR
GS
[0.75 0 0 0.75 50.74999 226.08174] CT
0.149 GC
/Helvetica 13.333 F
GS
[1 0 0 1 0 0] CT
-19 5.5 moveto 
1 -1 scale
(0.2) t 
GR
GR
GS
[0.75 0 0 0.75 50.74999 201.34616] CT
0.149 GC
/Helvetica 13.333 F
GS
[1 0 0 1 0 0] CT
-19 5.5 moveto 
1 -1 scale
(0.3) t 
GR
GR
GS
[0.75 0 0 0.75 50.74999 176.61058] CT
0.149 GC
/Helvetica 13.333 F
GS
[1 0 0 1 0 0] CT
-19 5.5 moveto 
1 -1 scale
(0.4) t 
GR
GR
GS
[0.75 0 0 0.75 50.74999 151.875] CT
0.149 GC
/Helvetica 13.333 F
GS
[1 0 0 1 0 0] CT
-19 5.5 moveto 
1 -1 scale
(0.5) t 
GR
GR
GS
[0.75 0 0 0.75 50.74999 127.13942] CT
0.149 GC
/Helvetica 13.333 F
GS
[1 0 0 1 0 0] CT
-19 5.5 moveto 
1 -1 scale
(0.6) t 
GR
GR
GS
[0.75 0 0 0.75 50.74999 102.40385] CT
0.149 GC
/Helvetica 13.333 F
GS
[1 0 0 1 0 0] CT
-19 5.5 moveto 
1 -1 scale
(0.7) t 
GR
GR
GS
[0.75 0 0 0.75 50.74999 77.66826] CT
0.149 GC
/Helvetica 13.333 F
GS
[1 0 0 1 0 0] CT
-19 5.5 moveto 
1 -1 scale
(0.8) t 
GR
GR
GS
[0.75 0 0 0.75 50.74999 52.9327] CT
0.149 GC
/Helvetica 13.333 F
GS
[1 0 0 1 0 0] CT
-19 5.5 moveto 
1 -1 scale
(0.9) t 
GR
GR
GS
[0.75 0 0 0.75 50.74999 28.19711] CT
0.149 GC
/Helvetica 13.333 F
GS
[1 0 0 1 0 0] CT
-8 5.5 moveto 
1 -1 scale
(1) t 
GR
GR
GS
[0.75 0 0 0.75 0 0] CT
0 0.447 0.741 RC
1 LJ
0.667 LW
N
73 367.404 M
73.434 367.404 L
73.869 367.404 L
74.303 367.404 L
74.738 367.404 L
75.172 367.404 L
75.607 367.404 L
76.041 367.404 L
76.475 367.404 L
76.91 367.404 L
77.344 367.404 L
77.779 367.404 L
78.213 367.404 L
78.648 367.404 L
79.082 367.404 L
79.517 367.404 L
79.951 367.404 L
80.385 367.404 L
80.82 367.404 L
81.254 367.404 L
81.689 367.404 L
82.123 367.404 L
82.558 367.404 L
82.992 367.404 L
83.426 367.404 L
83.861 367.404 L
84.295 367.404 L
84.73 367.404 L
85.164 367.404 L
85.599 367.404 L
86.033 367.404 L
86.467 367.404 L
86.902 367.404 L
87.336 367.404 L
87.771 367.404 L
88.205 367.404 L
88.64 367.404 L
89.074 367.404 L
89.508 367.404 L
89.943 367.404 L
90.377 367.404 L
90.812 367.404 L
91.246 367.404 L
91.681 367.404 L
92.115 367.404 L
92.55 367.404 L
92.984 367.404 L
93.418 367.404 L
93.853 367.404 L
94.287 367.404 L
94.722 367.404 L
95.156 367.404 L
95.591 367.404 L
96.025 367.404 L
96.459 367.404 L
96.894 367.404 L
97.328 367.404 L
97.763 367.404 L
98.197 367.404 L
98.632 367.404 L
99.066 367.404 L
99.5 367.404 L
99.935 367.404 L
100.369 367.404 L
100.804 367.404 L
101.238 367.404 L
101.673 367.404 L
102.107 367.404 L
102.542 367.404 L
102.976 367.404 L
103.41 367.404 L
103.845 367.404 L
104.279 367.404 L
104.714 367.404 L
105.148 367.404 L
105.583 367.404 L
106.017 367.404 L
106.451 367.404 L
106.886 367.404 L
107.32 367.404 L
107.755 367.404 L
108.189 367.404 L
108.624 367.404 L
109.058 367.404 L
109.492 367.404 L
109.927 367.404 L
110.361 367.404 L
110.796 367.404 L
111.23 367.404 L
111.665 367.404 L
112.099 367.404 L
112.534 367.404 L
112.968 367.404 L
113.402 367.404 L
113.837 367.404 L
114.271 367.404 L
114.706 367.404 L
115.14 367.404 L
115.575 367.404 L
116.009 367.404 L
116.443 367.404 L
116.878 367.404 L
117.312 367.404 L
117.747 367.404 L
118.181 367.404 L
118.616 367.404 L
119.05 367.404 L
119.484 367.404 L
119.919 367.404 L
120.353 367.404 L
120.788 367.404 L
121.222 367.404 L
121.657 367.404 L
122.091 367.404 L
122.526 367.404 L
122.96 367.404 L
123.394 367.404 L
123.829 367.404 L
124.263 367.404 L
124.698 367.404 L
125.132 367.404 L
125.567 367.404 L
126.001 367.404 L
126.435 367.404 L
126.87 367.404 L
127.304 367.404 L
127.739 367.404 L
128.173 367.404 L
128.608 367.404 L
129.042 367.404 L
129.476 367.404 L
129.911 367.404 L
130.345 367.404 L
130.78 367.404 L
131.214 367.404 L
131.649 367.404 L
132.083 367.404 L
132.518 367.404 L
132.952 367.404 L
133.386 367.404 L
133.821 367.404 L
134.255 367.404 L
134.69 367.404 L
135.124 367.404 L
135.559 367.404 L
135.993 367.404 L
136.427 367.404 L
136.862 367.404 L
137.296 367.404 L
137.731 367.404 L
138.165 367.404 L
138.6 367.404 L
139.034 367.404 L
139.468 367.404 L
139.903 367.404 L
140.337 367.404 L
140.772 367.404 L
141.206 367.404 L
141.641 367.404 L
142.075 367.404 L
142.51 367.404 L
142.944 367.404 L
143.378 367.404 L
143.813 367.404 L
144.247 367.404 L
144.682 367.404 L
145.116 367.404 L
145.551 367.404 L
145.985 367.404 L
146.419 367.404 L
146.854 367.404 L
147.288 367.404 L
147.723 367.404 L
148.157 367.404 L
148.592 367.404 L
149.026 367.404 L
149.46 367.404 L
149.895 367.404 L
150.329 367.404 L
150.764 367.404 L
151.198 367.404 L
151.633 367.404 L
152.067 367.404 L
152.502 367.404 L
152.936 367.404 L
153.37 367.404 L
153.805 367.404 L
154.239 367.404 L
154.674 367.404 L
155.108 367.404 L
155.543 367.404 L
155.977 367.404 L
156.411 367.404 L
156.846 367.404 L
157.28 367.404 L
157.715 367.404 L
158.149 367.404 L
158.584 367.404 L
159.018 367.404 L
159.452 367.404 L
159.887 367.404 L
160.321 367.404 L
160.756 367.404 L
161.19 367.404 L
161.625 367.404 L
162.059 367.404 L
162.493 367.404 L
162.928 367.404 L
163.362 367.404 L
163.797 367.404 L
164.231 367.404 L
164.666 367.404 L
165.1 367.404 L
165.535 367.404 L
165.969 367.404 L
166.403 367.404 L
166.838 367.404 L
167.272 367.404 L
167.707 367.404 L
168.141 367.404 L
168.576 367.404 L
169.01 367.404 L
169.444 367.404 L
169.879 367.404 L
170.313 367.404 L
170.748 367.404 L
171.182 367.404 L
171.617 367.404 L
172.051 367.404 L
172.485 367.404 L
172.92 367.404 L
173.354 367.404 L
173.789 367.404 L
174.223 367.404 L
174.658 367.404 L
175.092 367.404 L
175.527 367.404 L
175.961 367.404 L
176.395 367.404 L
176.83 367.404 L
177.264 367.404 L
177.699 367.404 L
178.133 367.404 L
178.568 367.404 L
179.002 367.404 L
179.436 367.404 L
179.871 367.404 L
180.305 367.404 L
180.74 367.404 L
181.174 367.404 L
181.609 367.404 L
182.043 367.404 L
182.477 367.404 L
182.912 367.404 L
183.346 367.404 L
183.781 367.404 L
184.215 367.404 L
184.65 367.404 L
185.084 367.404 L
185.519 367.404 L
185.953 367.404 L
186.387 367.404 L
186.822 367.404 L
187.256 367.404 L
187.691 367.404 L
188.125 367.404 L
188.56 367.404 L
188.994 367.404 L
189.428 367.404 L
189.863 367.404 L
190.297 367.404 L
190.732 367.404 L
191.166 367.404 L
191.601 367.404 L
192.035 367.404 L
192.469 367.404 L
192.904 367.404 L
193.338 367.404 L
193.773 367.404 L
194.207 367.404 L
194.642 367.404 L
195.076 367.404 L
195.511 367.404 L
195.945 367.404 L
196.379 367.404 L
196.814 367.404 L
197.248 367.404 L
197.683 367.404 L
198.117 367.404 L
198.552 367.404 L
198.986 367.404 L
199.42 367.404 L
199.855 367.404 L
200.289 367.404 L
200.724 367.404 L
201.158 367.404 L
201.593 367.404 L
202.027 367.404 L
202.461 367.404 L
202.896 367.404 L
203.33 367.404 L
203.765 367.404 L
204.199 367.404 L
204.634 367.404 L
205.068 367.404 L
205.503 367.404 L
205.937 367.404 L
206.371 367.404 L
206.806 367.404 L
207.24 367.404 L
207.675 367.404 L
208.109 367.404 L
208.544 367.404 L
208.978 367.404 L
209.412 367.404 L
209.847 367.404 L
210.281 367.404 L
210.716 367.404 L
211.15 367.404 L
211.585 367.404 L
212.019 367.404 L
212.453 367.404 L
212.888 367.404 L
213.322 367.404 L
213.757 367.404 L
214.191 367.404 L
214.626 367.404 L
215.06 367.404 L
215.494 367.404 L
215.929 367.404 L
216.363 367.404 L
216.798 367.404 L
217.232 367.404 L
217.667 367.404 L
218.101 367.404 L
218.536 367.404 L
218.97 367.404 L
219.404 367.404 L
219.839 367.404 L
220.273 367.404 L
220.708 367.404 L
221.142 367.404 L
221.577 367.404 L
222.011 367.404 L
222.445 367.404 L
222.88 367.404 L
223.314 367.404 L
223.749 367.404 L
224.183 367.404 L
224.618 367.404 L
225.052 367.404 L
225.486 367.404 L
225.921 367.404 L
226.355 367.404 L
226.79 367.404 L
227.224 367.404 L
227.659 367.404 L
228.093 367.404 L
228.528 367.404 L
228.962 367.404 L
229.396 367.404 L
229.831 367.404 L
230.265 367.404 L
230.7 367.404 L
231.134 367.404 L
231.569 367.404 L
232.003 367.404 L
232.437 367.404 L
232.872 367.404 L
233.306 367.404 L
233.741 367.404 L
234.175 367.404 L
234.61 367.404 L
235.044 367.404 L
235.478 367.404 L
235.913 367.404 L
236.347 367.404 L
236.782 367.404 L
237.216 367.404 L
237.651 367.404 L
238.085 367.404 L
238.52 367.404 L
238.954 367.404 L
239.388 367.404 L
239.823 367.404 L
240.257 367.404 L
240.692 367.404 L
241.126 367.404 L
241.561 367.404 L
241.995 367.404 L
242.429 367.404 L
242.864 367.404 L
243.298 367.404 L
243.733 367.404 L
244.167 367.404 L
244.602 367.404 L
245.036 367.404 L
245.47 367.404 L
245.905 367.404 L
246.339 367.404 L
246.774 367.404 L
247.208 367.404 L
247.643 367.404 L
248.077 367.404 L
248.512 367.404 L
248.946 367.404 L
249.38 367.404 L
249.815 367.404 L
250.249 367.404 L
250.684 367.404 L
251.118 367.404 L
251.553 367.404 L
251.987 367.404 L
252.421 367.404 L
252.856 367.404 L
253.29 367.404 L
253.725 367.404 L
254.159 367.404 L
254.594 367.404 L
255.028 367.404 L
255.462 367.404 L
255.897 367.404 L
256.331 367.404 L
256.766 367.404 L
257.2 367.404 L
257.635 367.404 L
258.069 367.404 L
258.504 367.404 L
258.938 367.404 L
259.372 367.404 L
259.807 367.404 L
260.241 367.404 L
260.676 367.404 L
261.11 367.404 L
261.545 367.404 L
261.979 367.404 L
262.413 367.404 L
262.848 367.404 L
263.282 367.404 L
263.717 367.404 L
264.151 367.404 L
264.586 367.404 L
265.02 367.404 L
265.454 367.404 L
265.889 367.404 L
266.323 367.404 L
266.758 367.404 L
267.192 367.404 L
267.627 367.404 L
268.061 367.404 L
268.495 367.404 L
268.93 367.404 L
269.364 367.404 L
269.799 367.404 L
270.233 367.404 L
270.668 367.404 L
271.102 367.404 L
271.537 367.404 L
271.971 367.404 L
272.405 367.404 L
272.84 367.404 L
273.274 367.404 L
273.709 367.404 L
274.143 367.404 L
274.578 367.404 L
275.012 367.404 L
275.446 367.404 L
275.881 367.404 L
276.315 367.404 L
276.75 367.404 L
277.184 367.404 L
277.619 367.404 L
278.053 367.404 L
278.487 367.404 L
278.922 367.404 L
279.356 367.404 L
279.791 367.404 L
280.225 367.404 L
280.66 367.404 L
281.094 367.404 L
281.529 367.404 L
281.963 367.404 L
282.397 367.404 L
282.832 367.404 L
283.266 367.404 L
283.701 367.404 L
284.135 367.404 L
284.57 367.404 L
285.004 367.404 L
285.438 367.404 L
285.873 367.404 L
286.307 367.404 L
286.742 367.404 L
287.176 367.404 L
287.611 367.404 L
288.045 367.404 L
288.479 367.404 L
288.914 367.404 L
289.348 367.404 L
289.783 367.404 L
290.217 37.596 L
290.652 37.596 L
291.086 37.596 L
291.521 37.596 L
291.955 37.596 L
292.389 37.596 L
292.824 37.596 L
293.258 37.596 L
293.693 37.596 L
294.127 37.596 L
294.562 37.596 L
294.996 37.596 L
295.43 37.596 L
295.865 37.596 L
296.299 37.596 L
296.734 37.596 L
297.168 37.596 L
297.603 37.596 L
298.037 37.596 L
298.471 37.596 L
298.906 37.596 L
299.34 37.596 L
299.775 37.596 L
300.209 37.596 L
300.644 37.596 L
301.078 37.596 L
301.513 37.596 L
301.947 37.596 L
302.381 37.596 L
302.816 37.596 L
303.25 37.596 L
303.685 37.596 L
304.119 37.596 L
304.554 37.596 L
304.988 37.596 L
305.422 37.596 L
305.857 37.596 L
306.291 37.596 L
306.726 37.596 L
307.16 37.596 L
307.595 37.596 L
308.029 37.596 L
308.463 37.596 L
308.898 37.596 L
309.332 37.596 L
309.767 37.596 L
310.201 37.596 L
310.636 37.596 L
311.07 37.596 L
311.505 37.596 L
311.939 37.596 L
312.373 37.596 L
312.808 37.596 L
313.242 37.596 L
313.677 37.596 L
314.111 37.596 L
314.546 37.596 L
314.98 37.596 L
315.414 37.596 L
315.849 37.596 L
316.283 37.596 L
316.718 37.596 L
317.152 37.596 L
317.587 37.596 L
318.021 37.596 L
318.455 37.596 L
318.89 37.596 L
319.324 37.596 L
319.759 37.596 L
320.193 37.596 L
320.628 37.596 L
321.062 37.596 L
321.496 37.596 L
321.931 37.596 L
322.365 37.596 L
322.8 37.596 L
323.234 37.596 L
323.669 37.596 L
324.103 37.596 L
324.538 37.596 L
324.972 37.596 L
325.406 37.596 L
325.841 37.596 L
326.275 37.596 L
326.71 37.596 L
327.144 37.596 L
327.579 37.596 L
328.013 37.596 L
328.447 37.596 L
328.882 37.596 L
329.316 37.596 L
329.751 37.596 L
330.185 37.596 L
330.62 37.596 L
331.054 37.596 L
331.488 37.596 L
331.923 37.596 L
332.357 37.596 L
332.792 37.596 L
333.226 37.596 L
333.661 37.596 L
334.095 37.596 L
334.53 37.596 L
334.964 37.596 L
335.398 37.596 L
335.833 37.596 L
336.267 37.596 L
336.702 37.596 L
337.136 37.596 L
337.571 37.596 L
338.005 37.596 L
338.439 37.596 L
338.874 37.596 L
339.308 37.596 L
339.743 37.596 L
340.177 37.596 L
340.612 37.596 L
341.046 37.596 L
341.48 37.596 L
341.915 37.596 L
342.349 37.596 L
342.784 37.596 L
343.218 37.596 L
343.653 37.596 L
344.087 37.596 L
344.522 37.596 L
344.956 37.596 L
345.39 37.596 L
345.825 37.596 L
346.259 37.596 L
346.694 37.596 L
347.128 37.596 L
347.563 37.596 L
347.997 37.596 L
348.431 37.596 L
348.866 37.596 L
349.3 37.596 L
349.735 37.596 L
350.169 37.596 L
350.604 37.596 L
351.038 37.596 L
351.472 37.596 L
351.907 37.596 L
352.341 37.596 L
352.776 37.596 L
353.21 37.596 L
353.645 37.596 L
354.079 37.596 L
354.514 37.596 L
354.948 37.596 L
355.382 37.596 L
355.817 37.596 L
356.251 37.596 L
356.686 37.596 L
357.12 37.596 L
357.555 37.596 L
357.989 37.596 L
358.423 37.596 L
358.858 37.596 L
359.292 37.596 L
359.727 37.596 L
360.161 37.596 L
360.596 37.596 L
361.03 37.596 L
361.464 37.596 L
361.899 37.596 L
362.333 37.596 L
362.768 37.596 L
363.202 37.596 L
363.637 37.596 L
364.071 37.596 L
364.505 37.596 L
364.94 37.596 L
365.374 37.596 L
365.809 37.596 L
366.243 37.596 L
366.678 37.596 L
367.112 37.596 L
367.547 37.596 L
367.981 37.596 L
368.415 37.596 L
368.85 37.596 L
369.284 37.596 L
369.719 37.596 L
370.153 37.596 L
370.588 37.596 L
371.022 37.596 L
371.456 37.596 L
371.891 37.596 L
372.325 37.596 L
372.76 37.596 L
373.194 37.596 L
373.629 37.596 L
374.063 37.596 L
374.497 37.596 L
374.932 37.596 L
375.366 37.596 L
375.801 37.596 L
376.235 37.596 L
376.67 37.596 L
377.104 37.596 L
377.539 37.596 L
377.973 37.596 L
378.407 37.596 L
378.842 37.596 L
379.276 37.596 L
379.711 37.596 L
380.145 37.596 L
380.58 37.596 L
381.014 37.596 L
381.448 37.596 L
381.883 37.596 L
382.317 37.596 L
382.752 37.596 L
383.186 37.596 L
383.621 37.596 L
384.055 37.596 L
384.49 37.596 L
384.924 37.596 L
385.358 37.596 L
385.793 37.596 L
386.227 37.596 L
386.662 37.596 L
387.096 37.596 L
387.531 37.596 L
387.965 37.596 L
388.399 37.596 L
388.834 37.596 L
389.268 37.596 L
389.703 37.596 L
390.137 37.596 L
390.572 37.596 L
391.006 37.596 L
391.44 37.596 L
391.875 37.596 L
392.309 37.596 L
392.744 37.596 L
393.178 37.596 L
393.613 37.596 L
394.047 37.596 L
394.481 37.596 L
394.916 37.596 L
395.35 37.596 L
395.785 37.596 L
396.219 37.596 L
396.654 37.596 L
397.088 37.596 L
397.523 37.596 L
397.957 37.596 L
398.391 37.596 L
398.826 37.596 L
399.26 37.596 L
399.695 37.596 L
400.129 37.596 L
400.564 37.596 L
400.998 37.596 L
401.432 37.596 L
401.867 37.596 L
402.301 37.596 L
402.736 37.596 L
403.17 37.596 L
403.605 37.596 L
404.039 37.596 L
404.473 37.596 L
404.908 37.596 L
405.342 37.596 L
405.777 37.596 L
406.211 37.596 L
406.646 37.596 L
407.08 37.596 L
407.515 37.596 L
407.949 37.596 L
408.383 37.596 L
408.818 37.596 L
409.252 37.596 L
409.687 37.596 L
410.121 37.596 L
410.556 37.596 L
410.99 37.596 L
411.424 37.596 L
411.859 37.596 L
412.293 37.596 L
412.728 37.596 L
413.162 37.596 L
413.597 37.596 L
414.031 37.596 L
414.465 37.596 L
414.9 37.596 L
415.334 37.596 L
415.769 37.596 L
416.203 37.596 L
416.638 37.596 L
417.072 37.596 L
417.507 37.596 L
417.941 37.596 L
418.375 37.596 L
418.81 37.596 L
419.244 37.596 L
419.679 37.596 L
420.113 37.596 L
420.548 37.596 L
420.982 37.596 L
421.416 37.596 L
421.851 37.596 L
422.285 37.596 L
422.72 37.596 L
423.154 37.596 L
423.589 37.596 L
424.023 37.596 L
424.457 37.596 L
424.892 37.596 L
425.326 37.596 L
425.761 37.596 L
426.195 37.596 L
426.63 37.596 L
427.064 37.596 L
427.499 37.596 L
427.933 37.596 L
428.367 37.596 L
428.802 37.596 L
429.236 37.596 L
429.671 37.596 L
430.105 37.596 L
430.54 37.596 L
430.974 37.596 L
431.408 37.596 L
431.843 37.596 L
432.277 37.596 L
432.712 37.596 L
433.146 37.596 L
433.581 37.596 L
434.015 37.596 L
434.449 37.596 L
434.884 37.596 L
435.318 37.596 L
435.753 37.596 L
436.187 37.596 L
436.622 37.596 L
437.056 37.596 L
437.49 37.596 L
437.925 37.596 L
438.359 37.596 L
438.794 37.596 L
439.228 37.596 L
439.663 37.596 L
440.097 37.596 L
440.532 37.596 L
440.966 37.596 L
441.4 37.596 L
441.835 37.596 L
442.269 37.596 L
442.704 37.596 L
443.138 37.596 L
443.573 37.596 L
444.007 37.596 L
444.441 37.596 L
444.876 37.596 L
445.31 37.596 L
445.745 37.596 L
446.179 37.596 L
446.614 37.596 L
447.048 37.596 L
447.482 37.596 L
447.917 37.596 L
448.351 37.596 L
448.786 37.596 L
449.22 37.596 L
449.655 37.596 L
450.089 37.596 L
450.524 37.596 L
450.958 37.596 L
451.392 37.596 L
451.827 37.596 L
452.261 37.596 L
452.696 37.596 L
453.13 37.596 L
453.565 37.596 L
453.999 37.596 L
454.433 37.596 L
454.868 37.596 L
455.302 37.596 L
455.737 37.596 L
456.171 37.596 L
456.606 37.596 L
457.04 37.596 L
457.474 37.596 L
457.909 37.596 L
458.343 37.596 L
458.778 37.596 L
459.212 37.596 L
459.647 37.596 L
460.081 37.596 L
460.516 37.596 L
460.95 37.596 L
461.384 37.596 L
461.819 37.596 L
462.253 37.596 L
462.688 37.596 L
463.122 37.596 L
463.557 37.596 L
463.991 37.596 L
464.425 37.596 L
464.86 37.596 L
465.294 37.596 L
465.729 37.596 L
466.163 37.596 L
466.598 37.596 L
467.032 37.596 L
467.466 37.596 L
467.901 37.596 L
468.335 37.596 L
468.77 37.596 L
469.204 37.596 L
469.639 37.596 L
470.073 37.596 L
470.508 37.596 L
470.942 37.596 L
471.376 37.596 L
471.811 37.596 L
472.245 37.596 L
472.68 37.596 L
473.114 37.596 L
473.549 37.596 L
473.983 37.596 L
474.417 37.596 L
474.852 37.596 L
475.286 37.596 L
475.721 37.596 L
476.155 37.596 L
476.59 37.596 L
477.024 37.596 L
477.458 37.596 L
477.893 37.596 L
478.327 37.596 L
478.762 37.596 L
479.196 37.596 L
479.631 37.596 L
480.065 37.596 L
480.5 37.596 L
480.934 37.596 L
481.368 37.596 L
481.803 37.596 L
482.237 37.596 L
482.672 37.596 L
483.106 37.596 L
483.541 37.596 L
483.975 37.596 L
484.409 37.596 L
484.844 37.596 L
485.278 37.596 L
485.713 37.596 L
486.147 37.596 L
486.582 37.596 L
487.016 37.596 L
487.45 37.596 L
487.885 37.596 L
488.319 37.596 L
488.754 37.596 L
489.188 37.596 L
489.623 37.596 L
490.057 37.596 L
490.492 37.596 L
490.926 37.596 L
491.36 37.596 L
491.795 37.596 L
492.229 37.596 L
492.664 37.596 L
493.098 37.596 L
493.533 37.596 L
493.967 37.596 L
494.401 37.596 L
494.836 37.596 L
495.27 37.596 L
495.705 37.596 L
496.139 37.596 L
496.574 37.596 L
497.008 37.596 L
497.442 37.596 L
497.877 37.596 L
498.311 37.596 L
498.746 37.596 L
499.18 37.596 L
499.615 37.596 L
500.049 37.596 L
500.483 37.596 L
500.918 37.596 L
501.352 37.596 L
501.787 37.596 L
502.221 37.596 L
502.656 37.596 L
503.09 37.596 L
503.525 37.596 L
503.959 37.596 L
504.393 37.596 L
504.828 37.596 L
505.262 37.596 L
505.697 37.596 L
506.131 37.596 L
506.566 37.596 L
507 37.596 L
S
GR
%%Trailer
%%Pages: 1
%%EOF
