%!PS-Adobe-3.0 EPSF-3.0
%%Creator: (MATLAB, The Mathworks, Inc. Version 9.5.0.1049112 \(R2018b\) Update 3. Operating System: Windows 10)
%%Title: ./Tanh.eps
%%CreationDate: 2020-01-05T15:50:23
%%Pages: (atend)
%%BoundingBox:    33    19   385   293
%%LanguageLevel: 3
%%EndComments
%%BeginProlog
%%BeginResource: procset (Apache XML Graphics Std ProcSet) 1.2 0
%%Version: 1.2 0
%%Copyright: (Copyright 2001-2003,2010 The Apache Software Foundation. License terms: http://www.apache.org/licenses/LICENSE-2.0)
/bd{bind def}bind def
/ld{load def}bd
/GR/grestore ld
/GS/gsave ld
/RM/rmoveto ld
/C/curveto ld
/t/show ld
/L/lineto ld
/ML/setmiterlimit ld
/CT/concat ld
/f/fill ld
/N/newpath ld
/S/stroke ld
/CC/setcmykcolor ld
/A/ashow ld
/cp/closepath ld
/RC/setrgbcolor ld
/LJ/setlinejoin ld
/GC/setgray ld
/LW/setlinewidth ld
/M/moveto ld
/re {4 2 roll M
1 index 0 rlineto
0 exch rlineto
neg 0 rlineto
cp } bd
/_ctm matrix def
/_tm matrix def
/BT { _ctm currentmatrix pop matrix _tm copy pop 0 0 moveto } bd
/ET { _ctm setmatrix } bd
/iTm { _ctm setmatrix _tm concat } bd
/Tm { _tm astore pop iTm 0 0 moveto } bd
/ux 0.0 def
/uy 0.0 def
/F {
  /Tp exch def
  /Tf exch def
  Tf findfont Tp scalefont setfont
  /cf Tf def  /cs Tp def
} bd
/ULS {currentpoint /uy exch def /ux exch def} bd
/ULE {
  /Tcx currentpoint pop def
  gsave
  newpath
  cf findfont cs scalefont dup
  /FontMatrix get 0 get /Ts exch def /FontInfo get dup
  /UnderlinePosition get Ts mul /To exch def
  /UnderlineThickness get Ts mul /Tt exch def
  ux uy To add moveto  Tcx uy To add lineto
  Tt setlinewidth stroke
  grestore
} bd
/OLE {
  /Tcx currentpoint pop def
  gsave
  newpath
  cf findfont cs scalefont dup
  /FontMatrix get 0 get /Ts exch def /FontInfo get dup
  /UnderlinePosition get Ts mul /To exch def
  /UnderlineThickness get Ts mul /Tt exch def
  ux uy To add cs add moveto Tcx uy To add cs add lineto
  Tt setlinewidth stroke
  grestore
} bd
/SOE {
  /Tcx currentpoint pop def
  gsave
  newpath
  cf findfont cs scalefont dup
  /FontMatrix get 0 get /Ts exch def /FontInfo get dup
  /UnderlinePosition get Ts mul /To exch def
  /UnderlineThickness get Ts mul /Tt exch def
  ux uy To add cs 10 mul 26 idiv add moveto Tcx uy To add cs 10 mul 26 idiv add lineto
  Tt setlinewidth stroke
  grestore
} bd
/QT {
/Y22 exch store
/X22 exch store
/Y21 exch store
/X21 exch store
currentpoint
/Y21 load 2 mul add 3 div exch
/X21 load 2 mul add 3 div exch
/X21 load 2 mul /X22 load add 3 div
/Y21 load 2 mul /Y22 load add 3 div
/X22 load /Y22 load curveto
} bd
/SSPD {
dup length /d exch dict def
{
/v exch def
/k exch def
currentpagedevice k known {
/cpdv currentpagedevice k get def
v cpdv ne {
/upd false def
/nullv v type /nulltype eq def
/nullcpdv cpdv type /nulltype eq def
nullv nullcpdv or
{
/upd true def
} {
/sametype v type cpdv type eq def
sametype {
v type /arraytype eq {
/vlen v length def
/cpdvlen cpdv length def
vlen cpdvlen eq {
0 1 vlen 1 sub {
/i exch def
/obj v i get def
/cpdobj cpdv i get def
obj cpdobj ne {
/upd true def
exit
} if
} for
} {
/upd true def
} ifelse
} {
v type /dicttype eq {
v {
/dv exch def
/dk exch def
/cpddv cpdv dk get def
dv cpddv ne {
/upd true def
exit
} if
} forall
} {
/upd true def
} ifelse
} ifelse
} if
} ifelse
upd true eq {
d k v put
} if
} if
} if
} forall
d length 0 gt {
d setpagedevice
} if
} bd
/RE { % /NewFontName [NewEncodingArray] /FontName RE -
  findfont dup length dict begin
  {
    1 index /FID ne
    {def} {pop pop} ifelse
  } forall
  /Encoding exch def
  /FontName 1 index def
  currentdict definefont pop
  end
} bind def
%%EndResource
%%BeginResource: procset (Apache XML Graphics EPS ProcSet) 1.0 0
%%Version: 1.0 0
%%Copyright: (Copyright 2002-2003 The Apache Software Foundation. License terms: http://www.apache.org/licenses/LICENSE-2.0)
/BeginEPSF { %def
/b4_Inc_state save def         % Save state for cleanup
/dict_count countdictstack def % Count objects on dict stack
/op_count count 1 sub def      % Count objects on operand stack
userdict begin                 % Push userdict on dict stack
/showpage { } def              % Redefine showpage, { } = null proc
0 setgray 0 setlinecap         % Prepare graphics state
1 setlinewidth 0 setlinejoin
10 setmiterlimit [ ] 0 setdash newpath
/languagelevel where           % If level not equal to 1 then
{pop languagelevel             % set strokeadjust and
1 ne                           % overprint to their defaults.
{false setstrokeadjust false setoverprint
} if
} if
} bd
/EndEPSF { %def
count op_count sub {pop} repeat            % Clean up stacks
countdictstack dict_count sub {end} repeat
b4_Inc_state restore
} bd
%%EndResource
%FOPBeginFontDict
%%IncludeResource: font Courier-Oblique
%%IncludeResource: font Courier-BoldOblique
%%IncludeResource: font Courier-Bold
%%IncludeResource: font ZapfDingbats
%%IncludeResource: font Symbol
%%IncludeResource: font Helvetica
%%IncludeResource: font Helvetica-Oblique
%%IncludeResource: font Helvetica-Bold
%%IncludeResource: font Helvetica-BoldOblique
%%IncludeResource: font Times-Roman
%%IncludeResource: font Times-Italic
%%IncludeResource: font Times-Bold
%%IncludeResource: font Times-BoldItalic
%%IncludeResource: font Courier
%FOPEndFontDict
%%BeginResource: encoding WinAnsiEncoding
/WinAnsiEncoding [
/.notdef /.notdef /.notdef /.notdef /.notdef
/.notdef /.notdef /.notdef /.notdef /.notdef
/.notdef /.notdef /.notdef /.notdef /.notdef
/.notdef /.notdef /.notdef /.notdef /.notdef
/.notdef /.notdef /.notdef /.notdef /.notdef
/.notdef /.notdef /.notdef /.notdef /.notdef
/.notdef /.notdef /space /exclam /quotedbl
/numbersign /dollar /percent /ampersand /quotesingle
/parenleft /parenright /asterisk /plus /comma
/hyphen /period /slash /zero /one
/two /three /four /five /six
/seven /eight /nine /colon /semicolon
/less /equal /greater /question /at
/A /B /C /D /E
/F /G /H /I /J
/K /L /M /N /O
/P /Q /R /S /T
/U /V /W /X /Y
/Z /bracketleft /backslash /bracketright /asciicircum
/underscore /quoteleft /a /b /c
/d /e /f /g /h
/i /j /k /l /m
/n /o /p /q /r
/s /t /u /v /w
/x /y /z /braceleft /bar
/braceright /asciitilde /bullet /Euro /bullet
/quotesinglbase /florin /quotedblbase /ellipsis /dagger
/daggerdbl /circumflex /perthousand /Scaron /guilsinglleft
/OE /bullet /Zcaron /bullet /bullet
/quoteleft /quoteright /quotedblleft /quotedblright /bullet
/endash /emdash /asciitilde /trademark /scaron
/guilsinglright /oe /bullet /zcaron /Ydieresis
/space /exclamdown /cent /sterling /currency
/yen /brokenbar /section /dieresis /copyright
/ordfeminine /guillemotleft /logicalnot /sfthyphen /registered
/macron /degree /plusminus /twosuperior /threesuperior
/acute /mu /paragraph /middot /cedilla
/onesuperior /ordmasculine /guillemotright /onequarter /onehalf
/threequarters /questiondown /Agrave /Aacute /Acircumflex
/Atilde /Adieresis /Aring /AE /Ccedilla
/Egrave /Eacute /Ecircumflex /Edieresis /Igrave
/Iacute /Icircumflex /Idieresis /Eth /Ntilde
/Ograve /Oacute /Ocircumflex /Otilde /Odieresis
/multiply /Oslash /Ugrave /Uacute /Ucircumflex
/Udieresis /Yacute /Thorn /germandbls /agrave
/aacute /acircumflex /atilde /adieresis /aring
/ae /ccedilla /egrave /eacute /ecircumflex
/edieresis /igrave /iacute /icircumflex /idieresis
/eth /ntilde /ograve /oacute /ocircumflex
/otilde /odieresis /divide /oslash /ugrave
/uacute /ucircumflex /udieresis /yacute /thorn
/ydieresis
] def
%%EndResource
%FOPBeginFontReencode
/Courier-Oblique findfont
dup length dict begin
  {1 index /FID ne {def} {pop pop} ifelse} forall
  /Encoding WinAnsiEncoding def
  currentdict
end
/Courier-Oblique exch definefont pop
/Courier-BoldOblique findfont
dup length dict begin
  {1 index /FID ne {def} {pop pop} ifelse} forall
  /Encoding WinAnsiEncoding def
  currentdict
end
/Courier-BoldOblique exch definefont pop
/Courier-Bold findfont
dup length dict begin
  {1 index /FID ne {def} {pop pop} ifelse} forall
  /Encoding WinAnsiEncoding def
  currentdict
end
/Courier-Bold exch definefont pop
/Helvetica findfont
dup length dict begin
  {1 index /FID ne {def} {pop pop} ifelse} forall
  /Encoding WinAnsiEncoding def
  currentdict
end
/Helvetica exch definefont pop
/Helvetica-Oblique findfont
dup length dict begin
  {1 index /FID ne {def} {pop pop} ifelse} forall
  /Encoding WinAnsiEncoding def
  currentdict
end
/Helvetica-Oblique exch definefont pop
/Helvetica-Bold findfont
dup length dict begin
  {1 index /FID ne {def} {pop pop} ifelse} forall
  /Encoding WinAnsiEncoding def
  currentdict
end
/Helvetica-Bold exch definefont pop
/Helvetica-BoldOblique findfont
dup length dict begin
  {1 index /FID ne {def} {pop pop} ifelse} forall
  /Encoding WinAnsiEncoding def
  currentdict
end
/Helvetica-BoldOblique exch definefont pop
/Times-Roman findfont
dup length dict begin
  {1 index /FID ne {def} {pop pop} ifelse} forall
  /Encoding WinAnsiEncoding def
  currentdict
end
/Times-Roman exch definefont pop
/Times-Italic findfont
dup length dict begin
  {1 index /FID ne {def} {pop pop} ifelse} forall
  /Encoding WinAnsiEncoding def
  currentdict
end
/Times-Italic exch definefont pop
/Times-Bold findfont
dup length dict begin
  {1 index /FID ne {def} {pop pop} ifelse} forall
  /Encoding WinAnsiEncoding def
  currentdict
end
/Times-Bold exch definefont pop
/Times-BoldItalic findfont
dup length dict begin
  {1 index /FID ne {def} {pop pop} ifelse} forall
  /Encoding WinAnsiEncoding def
  currentdict
end
/Times-BoldItalic exch definefont pop
/Courier findfont
dup length dict begin
  {1 index /FID ne {def} {pop pop} ifelse} forall
  /Encoding WinAnsiEncoding def
  currentdict
end
/Courier exch definefont pop
%FOPEndFontReencode
%%EndProlog
%%Page: 1 1
%%PageBoundingBox: 0 0 420 315
%%BeginPageSetup
[1 0 0 -1 0 315] CT
%%EndPageSetup
GS
[0.75 0 0 0.75 0 0] CT
1 GC
N
0 0 560 420 re
f
GR
GS
[0.75 0 0 0.75 0 0] CT
1 GC
N
0 0 560 420 re
f
GR
GS
[0.75 0 0 0.75 0 0] CT
1 GC
N
73 374 M
507 374 L
507 31 L
73 31 L
cp
f
GR
GS
[0.75 0 0 0.75 0 0] CT
0.149 GC
2 setlinecap
1 LJ
0.667 LW
N
73 374 M
507 374 L
S
GR
GS
[0.75 0 0 0.75 0 0] CT
0.149 GC
2 setlinecap
1 LJ
0.667 LW
N
73 31 M
507 31 L
S
GR
GS
[0.75 0 0 0.75 0 0] CT
0.149 GC
2 setlinecap
1 LJ
0.667 LW
N
73 374 M
73 369.66 L
S
GR
GS
[0.75 0 0 0.75 0 0] CT
0.149 GC
2 setlinecap
1 LJ
0.667 LW
N
116.4 374 M
116.4 369.66 L
S
GR
GS
[0.75 0 0 0.75 0 0] CT
0.149 GC
2 setlinecap
1 LJ
0.667 LW
N
159.8 374 M
159.8 369.66 L
S
GR
GS
[0.75 0 0 0.75 0 0] CT
0.149 GC
2 setlinecap
1 LJ
0.667 LW
N
203.2 374 M
203.2 369.66 L
S
GR
GS
[0.75 0 0 0.75 0 0] CT
0.149 GC
2 setlinecap
1 LJ
0.667 LW
N
246.6 374 M
246.6 369.66 L
S
GR
GS
[0.75 0 0 0.75 0 0] CT
0.149 GC
2 setlinecap
1 LJ
0.667 LW
N
290 374 M
290 369.66 L
S
GR
GS
[0.75 0 0 0.75 0 0] CT
0.149 GC
2 setlinecap
1 LJ
0.667 LW
N
333.4 374 M
333.4 369.66 L
S
GR
GS
[0.75 0 0 0.75 0 0] CT
0.149 GC
2 setlinecap
1 LJ
0.667 LW
N
376.8 374 M
376.8 369.66 L
S
GR
GS
[0.75 0 0 0.75 0 0] CT
0.149 GC
2 setlinecap
1 LJ
0.667 LW
N
420.2 374 M
420.2 369.66 L
S
GR
GS
[0.75 0 0 0.75 0 0] CT
0.149 GC
2 setlinecap
1 LJ
0.667 LW
N
463.6 374 M
463.6 369.66 L
S
GR
GS
[0.75 0 0 0.75 0 0] CT
0.149 GC
2 setlinecap
1 LJ
0.667 LW
N
507 374 M
507 369.66 L
S
GR
GS
[0.75 0 0 0.75 0 0] CT
0.149 GC
2 setlinecap
1 LJ
0.667 LW
N
73 31 M
73 35.34 L
S
GR
GS
[0.75 0 0 0.75 0 0] CT
0.149 GC
2 setlinecap
1 LJ
0.667 LW
N
116.4 31 M
116.4 35.34 L
S
GR
GS
[0.75 0 0 0.75 0 0] CT
0.149 GC
2 setlinecap
1 LJ
0.667 LW
N
159.8 31 M
159.8 35.34 L
S
GR
GS
[0.75 0 0 0.75 0 0] CT
0.149 GC
2 setlinecap
1 LJ
0.667 LW
N
203.2 31 M
203.2 35.34 L
S
GR
GS
[0.75 0 0 0.75 0 0] CT
0.149 GC
2 setlinecap
1 LJ
0.667 LW
N
246.6 31 M
246.6 35.34 L
S
GR
GS
[0.75 0 0 0.75 0 0] CT
0.149 GC
2 setlinecap
1 LJ
0.667 LW
N
290 31 M
290 35.34 L
S
GR
GS
[0.75 0 0 0.75 0 0] CT
0.149 GC
2 setlinecap
1 LJ
0.667 LW
N
333.4 31 M
333.4 35.34 L
S
GR
GS
[0.75 0 0 0.75 0 0] CT
0.149 GC
2 setlinecap
1 LJ
0.667 LW
N
376.8 31 M
376.8 35.34 L
S
GR
GS
[0.75 0 0 0.75 0 0] CT
0.149 GC
2 setlinecap
1 LJ
0.667 LW
N
420.2 31 M
420.2 35.34 L
S
GR
GS
[0.75 0 0 0.75 0 0] CT
0.149 GC
2 setlinecap
1 LJ
0.667 LW
N
463.6 31 M
463.6 35.34 L
S
GR
GS
[0.75 0 0 0.75 0 0] CT
0.149 GC
2 setlinecap
1 LJ
0.667 LW
N
507 31 M
507 35.34 L
S
GR
GS
[0.75 0 0 0.75 54.75 284.49998] CT
0.149 GC
/Helvetica 13.333 F
GS
[1 0 0 1 0 0] CT
-10 14 moveto 
1 -1 scale
(-10) t 
GR
GR
GS
[0.75 0 0 0.75 87.3 284.49998] CT
0.149 GC
/Helvetica 13.333 F
GS
[1 0 0 1 0 0] CT
-6 14 moveto 
1 -1 scale
(-8) t 
GR
GR
GS
[0.75 0 0 0.75 119.85 284.49998] CT
0.149 GC
/Helvetica 13.333 F
GS
[1 0 0 1 0 0] CT
-6 14 moveto 
1 -1 scale
(-6) t 
GR
GR
GS
[0.75 0 0 0.75 152.4 284.49998] CT
0.149 GC
/Helvetica 13.333 F
GS
[1 0 0 1 0 0] CT
-6 14 moveto 
1 -1 scale
(-4) t 
GR
GR
GS
[0.75 0 0 0.75 184.95 284.49998] CT
0.149 GC
/Helvetica 13.333 F
GS
[1 0 0 1 0 0] CT
-6 14 moveto 
1 -1 scale
(-2) t 
GR
GR
GS
[0.75 0 0 0.75 217.5 284.49998] CT
0.149 GC
/Helvetica 13.333 F
GS
[1 0 0 1 0 0] CT
-4 14 moveto 
1 -1 scale
(0) t 
GR
GR
GS
[0.75 0 0 0.75 250.05 284.49998] CT
0.149 GC
/Helvetica 13.333 F
GS
[1 0 0 1 0 0] CT
-4 14 moveto 
1 -1 scale
(2) t 
GR
GR
GS
[0.75 0 0 0.75 282.59999 284.49998] CT
0.149 GC
/Helvetica 13.333 F
GS
[1 0 0 1 0 0] CT
-4 14 moveto 
1 -1 scale
(4) t 
GR
GR
GS
[0.75 0 0 0.75 315.15001 284.49998] CT
0.149 GC
/Helvetica 13.333 F
GS
[1 0 0 1 0 0] CT
-4 14 moveto 
1 -1 scale
(6) t 
GR
GR
GS
[0.75 0 0 0.75 347.7 284.49998] CT
0.149 GC
/Helvetica 13.333 F
GS
[1 0 0 1 0 0] CT
-4 14 moveto 
1 -1 scale
(8) t 
GR
GR
GS
[0.75 0 0 0.75 380.25 284.49998] CT
0.149 GC
/Helvetica 13.333 F
GS
[1 0 0 1 0 0] CT
-7.5 14 moveto 
1 -1 scale
(10) t 
GR
GR
GS
[0.75 0 0 0.75 0 0] CT
0.149 GC
2 setlinecap
1 LJ
0.667 LW
N
73 374 M
73 31 L
S
GR
GS
[0.75 0 0 0.75 0 0] CT
0.149 GC
2 setlinecap
1 LJ
0.667 LW
N
507 374 M
507 31 L
S
GR
GS
[0.75 0 0 0.75 0 0] CT
0.149 GC
2 setlinecap
1 LJ
0.667 LW
N
73 367.404 M
77.34 367.404 L
S
GR
GS
[0.75 0 0 0.75 0 0] CT
0.149 GC
2 setlinecap
1 LJ
0.667 LW
N
73 334.423 M
77.34 334.423 L
S
GR
GS
[0.75 0 0 0.75 0 0] CT
0.149 GC
2 setlinecap
1 LJ
0.667 LW
N
73 301.442 M
77.34 301.442 L
S
GR
GS
[0.75 0 0 0.75 0 0] CT
0.149 GC
2 setlinecap
1 LJ
0.667 LW
N
73 268.462 M
77.34 268.462 L
S
GR
GS
[0.75 0 0 0.75 0 0] CT
0.149 GC
2 setlinecap
1 LJ
0.667 LW
N
73 235.481 M
77.34 235.481 L
S
GR
GS
[0.75 0 0 0.75 0 0] CT
0.149 GC
2 setlinecap
1 LJ
0.667 LW
N
73 202.5 M
77.34 202.5 L
S
GR
GS
[0.75 0 0 0.75 0 0] CT
0.149 GC
2 setlinecap
1 LJ
0.667 LW
N
73 169.519 M
77.34 169.519 L
S
GR
GS
[0.75 0 0 0.75 0 0] CT
0.149 GC
2 setlinecap
1 LJ
0.667 LW
N
73 136.538 M
77.34 136.538 L
S
GR
GS
[0.75 0 0 0.75 0 0] CT
0.149 GC
2 setlinecap
1 LJ
0.667 LW
N
73 103.558 M
77.34 103.558 L
S
GR
GS
[0.75 0 0 0.75 0 0] CT
0.149 GC
2 setlinecap
1 LJ
0.667 LW
N
73 70.577 M
77.34 70.577 L
S
GR
GS
[0.75 0 0 0.75 0 0] CT
0.149 GC
2 setlinecap
1 LJ
0.667 LW
N
73 37.596 M
77.34 37.596 L
S
GR
GS
[0.75 0 0 0.75 0 0] CT
0.149 GC
2 setlinecap
1 LJ
0.667 LW
N
507 367.404 M
502.66 367.404 L
S
GR
GS
[0.75 0 0 0.75 0 0] CT
0.149 GC
2 setlinecap
1 LJ
0.667 LW
N
507 334.423 M
502.66 334.423 L
S
GR
GS
[0.75 0 0 0.75 0 0] CT
0.149 GC
2 setlinecap
1 LJ
0.667 LW
N
507 301.442 M
502.66 301.442 L
S
GR
GS
[0.75 0 0 0.75 0 0] CT
0.149 GC
2 setlinecap
1 LJ
0.667 LW
N
507 268.462 M
502.66 268.462 L
S
GR
GS
[0.75 0 0 0.75 0 0] CT
0.149 GC
2 setlinecap
1 LJ
0.667 LW
N
507 235.481 M
502.66 235.481 L
S
GR
GS
[0.75 0 0 0.75 0 0] CT
0.149 GC
2 setlinecap
1 LJ
0.667 LW
N
507 202.5 M
502.66 202.5 L
S
GR
GS
[0.75 0 0 0.75 0 0] CT
0.149 GC
2 setlinecap
1 LJ
0.667 LW
N
507 169.519 M
502.66 169.519 L
S
GR
GS
[0.75 0 0 0.75 0 0] CT
0.149 GC
2 setlinecap
1 LJ
0.667 LW
N
507 136.538 M
502.66 136.538 L
S
GR
GS
[0.75 0 0 0.75 0 0] CT
0.149 GC
2 setlinecap
1 LJ
0.667 LW
N
507 103.558 M
502.66 103.558 L
S
GR
GS
[0.75 0 0 0.75 0 0] CT
0.149 GC
2 setlinecap
1 LJ
0.667 LW
N
507 70.577 M
502.66 70.577 L
S
GR
GS
[0.75 0 0 0.75 0 0] CT
0.149 GC
2 setlinecap
1 LJ
0.667 LW
N
507 37.596 M
502.66 37.596 L
S
GR
GS
[0.75 0 0 0.75 50.74999 275.55288] CT
0.149 GC
/Helvetica 13.333 F
GS
[1 0 0 1 0 0] CT
-12 5.5 moveto 
1 -1 scale
(-1) t 
GR
GR
GS
[0.75 0 0 0.75 50.74999 250.8173] CT
0.149 GC
/Helvetica 13.333 F
GS
[1 0 0 1 0 0] CT
-23 5.5 moveto 
1 -1 scale
(-0.8) t 
GR
GR
GS
[0.75 0 0 0.75 50.74999 226.08174] CT
0.149 GC
/Helvetica 13.333 F
GS
[1 0 0 1 0 0] CT
-23 5.5 moveto 
1 -1 scale
(-0.6) t 
GR
GR
GS
[0.75 0 0 0.75 50.74999 201.34616] CT
0.149 GC
/Helvetica 13.333 F
GS
[1 0 0 1 0 0] CT
-23 5.5 moveto 
1 -1 scale
(-0.4) t 
GR
GR
GS
[0.75 0 0 0.75 50.74999 176.61058] CT
0.149 GC
/Helvetica 13.333 F
GS
[1 0 0 1 0 0] CT
-23 5.5 moveto 
1 -1 scale
(-0.2) t 
GR
GR
GS
[0.75 0 0 0.75 50.74999 151.875] CT
0.149 GC
/Helvetica 13.333 F
GS
[1 0 0 1 0 0] CT
-8 5.5 moveto 
1 -1 scale
(0) t 
GR
GR
GS
[0.75 0 0 0.75 50.74999 127.13942] CT
0.149 GC
/Helvetica 13.333 F
GS
[1 0 0 1 0 0] CT
-19 5.5 moveto 
1 -1 scale
(0.2) t 
GR
GR
GS
[0.75 0 0 0.75 50.74999 102.40385] CT
0.149 GC
/Helvetica 13.333 F
GS
[1 0 0 1 0 0] CT
-19 5.5 moveto 
1 -1 scale
(0.4) t 
GR
GR
GS
[0.75 0 0 0.75 50.74999 77.66826] CT
0.149 GC
/Helvetica 13.333 F
GS
[1 0 0 1 0 0] CT
-19 5.5 moveto 
1 -1 scale
(0.6) t 
GR
GR
GS
[0.75 0 0 0.75 50.74999 52.93269] CT
0.149 GC
/Helvetica 13.333 F
GS
[1 0 0 1 0 0] CT
-19 5.5 moveto 
1 -1 scale
(0.8) t 
GR
GR
GS
[0.75 0 0 0.75 50.74999 28.19711] CT
0.149 GC
/Helvetica 13.333 F
GS
[1 0 0 1 0 0] CT
-8 5.5 moveto 
1 -1 scale
(1) t 
GR
GR
GS
[0.75 0 0 0.75 0 0] CT
0 0.447 0.741 RC
1 LJ
0.667 LW
N
73 367.404 M
73.434 367.404 L
73.869 367.404 L
74.303 367.404 L
74.738 367.404 L
75.172 367.404 L
75.607 367.404 L
76.041 367.404 L
76.475 367.404 L
76.91 367.404 L
77.344 367.404 L
77.779 367.404 L
78.213 367.404 L
78.648 367.404 L
79.082 367.404 L
79.517 367.404 L
79.951 367.404 L
80.385 367.404 L
80.82 367.404 L
81.254 367.404 L
81.689 367.404 L
82.123 367.404 L
82.558 367.404 L
82.992 367.404 L
83.426 367.404 L
83.861 367.404 L
84.295 367.404 L
84.73 367.404 L
85.164 367.404 L
85.599 367.404 L
86.033 367.404 L
86.467 367.404 L
86.902 367.404 L
87.336 367.404 L
87.771 367.404 L
88.205 367.404 L
88.64 367.404 L
89.074 367.404 L
89.508 367.404 L
89.943 367.404 L
90.377 367.404 L
90.812 367.404 L
91.246 367.404 L
91.681 367.404 L
92.115 367.404 L
92.55 367.404 L
92.984 367.404 L
93.418 367.404 L
93.853 367.404 L
94.287 367.404 L
94.722 367.404 L
95.156 367.404 L
95.591 367.404 L
96.025 367.404 L
96.459 367.404 L
96.894 367.404 L
97.328 367.404 L
97.763 367.404 L
98.197 367.404 L
98.632 367.404 L
99.066 367.404 L
99.5 367.404 L
99.935 367.404 L
100.369 367.404 L
100.804 367.404 L
101.238 367.404 L
101.673 367.404 L
102.107 367.404 L
102.542 367.404 L
102.976 367.404 L
103.41 367.404 L
103.845 367.404 L
104.279 367.404 L
104.714 367.404 L
105.148 367.404 L
105.583 367.404 L
106.017 367.404 L
106.451 367.404 L
106.886 367.404 L
107.32 367.404 L
107.755 367.404 L
108.189 367.404 L
108.624 367.404 L
109.058 367.404 L
109.492 367.404 L
109.927 367.404 L
110.361 367.404 L
110.796 367.404 L
111.23 367.404 L
111.665 367.404 L
112.099 367.404 L
112.534 367.404 L
112.968 367.404 L
113.402 367.404 L
113.837 367.404 L
114.271 367.404 L
114.706 367.404 L
115.14 367.404 L
115.575 367.404 L
116.009 367.404 L
116.443 367.404 L
116.878 367.404 L
117.312 367.404 L
117.747 367.404 L
118.181 367.404 L
118.616 367.404 L
119.05 367.404 L
119.484 367.404 L
119.919 367.404 L
120.353 367.404 L
120.788 367.404 L
121.222 367.404 L
121.657 367.404 L
122.091 367.404 L
122.526 367.404 L
122.96 367.404 L
123.394 367.404 L
123.829 367.404 L
124.263 367.404 L
124.698 367.404 L
125.132 367.404 L
125.567 367.404 L
126.001 367.404 L
126.435 367.404 L
126.87 367.404 L
127.304 367.404 L
127.739 367.404 L
128.173 367.404 L
128.608 367.404 L
129.042 367.404 L
129.476 367.404 L
129.911 367.404 L
130.345 367.404 L
130.78 367.404 L
131.214 367.404 L
131.649 367.404 L
132.083 367.404 L
132.518 367.404 L
132.952 367.404 L
133.386 367.404 L
133.821 367.404 L
134.255 367.404 L
134.69 367.404 L
135.124 367.404 L
135.559 367.404 L
135.993 367.404 L
136.427 367.404 L
136.862 367.404 L
137.296 367.404 L
137.731 367.404 L
138.165 367.404 L
138.6 367.404 L
139.034 367.404 L
139.468 367.404 L
139.903 367.404 L
140.337 367.404 L
140.772 367.404 L
141.206 367.403 L
141.641 367.403 L
142.075 367.403 L
142.51 367.403 L
142.944 367.403 L
143.378 367.403 L
143.813 367.403 L
144.247 367.403 L
144.682 367.403 L
145.116 367.403 L
145.551 367.403 L
145.985 367.403 L
146.419 367.403 L
146.854 367.403 L
147.288 367.403 L
147.723 367.403 L
148.157 367.403 L
148.592 367.403 L
149.026 367.403 L
149.46 367.403 L
149.895 367.403 L
150.329 367.403 L
150.764 367.403 L
151.198 367.403 L
151.633 367.403 L
152.067 367.403 L
152.502 367.403 L
152.936 367.403 L
153.37 367.403 L
153.805 367.403 L
154.239 367.403 L
154.674 367.403 L
155.108 367.403 L
155.543 367.402 L
155.977 367.402 L
156.411 367.402 L
156.846 367.402 L
157.28 367.402 L
157.715 367.402 L
158.149 367.402 L
158.584 367.402 L
159.018 367.402 L
159.452 367.402 L
159.887 367.402 L
160.321 367.402 L
160.756 367.402 L
161.19 367.402 L
161.625 367.401 L
162.059 367.401 L
162.493 367.401 L
162.928 367.401 L
163.362 367.401 L
163.797 367.401 L
164.231 367.401 L
164.666 367.401 L
165.1 367.401 L
165.535 367.4 L
165.969 367.4 L
166.403 367.4 L
166.838 367.4 L
167.272 367.4 L
167.707 367.4 L
168.141 367.399 L
168.576 367.399 L
169.01 367.399 L
169.444 367.399 L
169.879 367.399 L
170.313 367.398 L
170.748 367.398 L
171.182 367.398 L
171.617 367.398 L
172.051 367.398 L
172.485 367.397 L
172.92 367.397 L
173.354 367.397 L
173.789 367.396 L
174.223 367.396 L
174.658 367.396 L
175.092 367.396 L
175.527 367.395 L
175.961 367.395 L
176.395 367.395 L
176.83 367.394 L
177.264 367.394 L
177.699 367.393 L
178.133 367.393 L
178.568 367.392 L
179.002 367.392 L
179.436 367.391 L
179.871 367.391 L
180.305 367.39 L
180.74 367.39 L
181.174 367.389 L
181.609 367.389 L
182.043 367.388 L
182.477 367.387 L
182.912 367.387 L
183.346 367.386 L
183.781 367.385 L
184.215 367.385 L
184.65 367.384 L
185.084 367.383 L
185.519 367.382 L
185.953 367.381 L
186.387 367.38 L
186.822 367.379 L
187.256 367.378 L
187.691 367.377 L
188.125 367.376 L
188.56 367.375 L
188.994 367.374 L
189.428 367.373 L
189.863 367.371 L
190.297 367.37 L
190.732 367.369 L
191.166 367.367 L
191.601 367.366 L
192.035 367.364 L
192.469 367.363 L
192.904 367.361 L
193.338 367.359 L
193.773 367.357 L
194.207 367.356 L
194.642 367.354 L
195.076 367.352 L
195.511 367.349 L
195.945 367.347 L
196.379 367.345 L
196.814 367.342 L
197.248 367.34 L
197.683 367.337 L
198.117 367.335 L
198.552 367.332 L
198.986 367.329 L
199.42 367.326 L
199.855 367.323 L
200.289 367.319 L
200.724 367.316 L
201.158 367.312 L
201.593 367.308 L
202.027 367.305 L
202.461 367.301 L
202.896 367.296 L
203.33 367.292 L
203.765 367.287 L
204.199 367.283 L
204.634 367.278 L
205.068 367.272 L
205.503 367.267 L
205.937 367.262 L
206.371 367.256 L
206.806 367.25 L
207.24 367.243 L
207.675 367.237 L
208.109 367.23 L
208.544 367.223 L
208.978 367.216 L
209.412 367.208 L
209.847 367.2 L
210.281 367.191 L
210.716 367.183 L
211.15 367.174 L
211.585 367.164 L
212.019 367.155 L
212.453 367.144 L
212.888 367.134 L
213.322 367.123 L
213.757 367.111 L
214.191 367.099 L
214.626 367.087 L
215.06 367.074 L
215.494 367.061 L
215.929 367.047 L
216.363 367.032 L
216.798 367.017 L
217.232 367.001 L
217.667 366.985 L
218.101 366.968 L
218.536 366.95 L
218.97 366.931 L
219.404 366.912 L
219.839 366.892 L
220.273 366.871 L
220.708 366.849 L
221.142 366.827 L
221.577 366.803 L
222.011 366.779 L
222.445 366.753 L
222.88 366.727 L
223.314 366.699 L
223.749 366.67 L
224.183 366.64 L
224.618 366.609 L
225.052 366.577 L
225.486 366.543 L
225.921 366.508 L
226.355 366.472 L
226.79 366.434 L
227.224 366.394 L
227.659 366.353 L
228.093 366.31 L
228.528 366.266 L
228.962 366.219 L
229.396 366.171 L
229.831 366.121 L
230.265 366.069 L
230.7 366.015 L
231.134 365.958 L
231.569 365.899 L
232.003 365.838 L
232.437 365.774 L
232.872 365.708 L
233.306 365.639 L
233.741 365.568 L
234.175 365.493 L
234.61 365.415 L
235.044 365.335 L
235.478 365.251 L
235.913 365.163 L
236.347 365.072 L
236.782 364.978 L
237.216 364.88 L
237.651 364.777 L
238.085 364.671 L
238.52 364.56 L
238.954 364.445 L
239.388 364.325 L
239.823 364.201 L
240.257 364.071 L
240.692 363.936 L
241.126 363.796 L
241.561 363.651 L
241.995 363.499 L
242.429 363.342 L
242.864 363.178 L
243.298 363.007 L
243.733 362.83 L
244.167 362.646 L
244.602 362.455 L
245.036 362.256 L
245.47 362.049 L
245.905 361.834 L
246.339 361.61 L
246.774 361.378 L
247.208 361.136 L
247.643 360.885 L
248.077 360.625 L
248.512 360.353 L
248.946 360.072 L
249.38 359.779 L
249.815 359.475 L
250.249 359.159 L
250.684 358.831 L
251.118 358.491 L
251.553 358.137 L
251.987 357.769 L
252.421 357.388 L
252.856 356.991 L
253.29 356.58 L
253.725 356.153 L
254.159 355.71 L
254.594 355.249 L
255.028 354.772 L
255.462 354.276 L
255.897 353.762 L
256.331 353.229 L
256.766 352.676 L
257.2 352.102 L
257.635 351.507 L
258.069 350.89 L
258.504 350.25 L
258.938 349.588 L
259.372 348.901 L
259.807 348.189 L
260.241 347.451 L
260.676 346.687 L
261.11 345.896 L
261.545 345.077 L
261.979 344.229 L
262.413 343.351 L
262.848 342.443 L
263.282 341.503 L
263.717 340.532 L
264.151 339.527 L
264.586 338.487 L
265.02 337.414 L
265.454 336.304 L
265.889 335.158 L
266.323 333.974 L
266.758 332.752 L
267.192 331.49 L
267.627 330.189 L
268.061 328.846 L
268.495 327.462 L
268.93 326.035 L
269.364 324.564 L
269.799 323.049 L
270.233 321.49 L
270.668 319.884 L
271.102 318.232 L
271.537 316.533 L
271.971 314.787 L
272.405 312.992 L
272.84 311.148 L
273.274 309.255 L
273.709 307.312 L
274.143 305.32 L
274.578 303.276 L
275.012 301.183 L
275.446 299.038 L
275.881 296.843 L
276.315 294.597 L
276.75 292.299 L
277.184 289.952 L
277.619 287.554 L
278.053 285.106 L
278.487 282.608 L
278.922 280.061 L
279.356 277.466 L
279.791 274.823 L
280.225 272.134 L
280.66 269.398 L
281.094 266.618 L
281.529 263.794 L
281.963 260.928 L
282.397 258.021 L
282.832 255.074 L
283.266 252.09 L
283.701 249.069 L
284.135 246.014 L
284.57 242.927 L
285.004 239.809 L
285.438 236.663 L
285.873 233.49 L
286.307 230.294 L
286.742 227.076 L
287.176 223.839 L
287.611 220.585 L
288.045 217.316 L
288.479 214.036 L
288.914 210.747 L
289.348 207.451 L
289.783 204.151 L
290.217 200.849 L
290.652 197.549 L
291.086 194.253 L
291.521 190.964 L
291.955 187.684 L
292.389 184.415 L
292.824 181.161 L
293.258 177.924 L
293.693 174.706 L
294.127 171.51 L
294.562 168.337 L
294.996 165.191 L
295.43 162.073 L
295.865 158.986 L
296.299 155.931 L
296.734 152.91 L
297.168 149.926 L
297.603 146.979 L
298.037 144.072 L
298.471 141.206 L
298.906 138.382 L
299.34 135.602 L
299.775 132.866 L
300.209 130.177 L
300.644 127.534 L
301.078 124.939 L
301.513 122.392 L
301.947 119.894 L
302.381 117.446 L
302.816 115.048 L
303.25 112.7 L
303.685 110.403 L
304.119 108.157 L
304.554 105.962 L
304.988 103.817 L
305.422 101.724 L
305.857 99.68 L
306.291 97.688 L
306.726 95.745 L
307.16 93.852 L
307.595 92.008 L
308.029 90.213 L
308.463 88.467 L
308.898 86.768 L
309.332 85.116 L
309.767 83.51 L
310.201 81.951 L
310.636 80.436 L
311.07 78.965 L
311.505 77.538 L
311.939 76.154 L
312.373 74.811 L
312.808 73.51 L
313.242 72.248 L
313.677 71.026 L
314.111 69.842 L
314.546 68.696 L
314.98 67.586 L
315.414 66.512 L
315.849 65.473 L
316.283 64.468 L
316.718 63.497 L
317.152 62.557 L
317.587 61.649 L
318.021 60.771 L
318.455 59.923 L
318.89 59.104 L
319.324 58.313 L
319.759 57.549 L
320.193 56.811 L
320.628 56.099 L
321.062 55.412 L
321.496 54.75 L
321.931 54.11 L
322.365 53.493 L
322.8 52.898 L
323.234 52.324 L
323.669 51.771 L
324.103 51.238 L
324.538 50.724 L
324.972 50.228 L
325.406 49.751 L
325.841 49.29 L
326.275 48.847 L
326.71 48.42 L
327.144 48.009 L
327.579 47.612 L
328.013 47.231 L
328.447 46.863 L
328.882 46.509 L
329.316 46.169 L
329.751 45.841 L
330.185 45.525 L
330.62 45.221 L
331.054 44.928 L
331.488 44.646 L
331.923 44.375 L
332.357 44.115 L
332.792 43.864 L
333.226 43.622 L
333.661 43.39 L
334.095 43.166 L
334.53 42.951 L
334.964 42.744 L
335.398 42.545 L
335.833 42.354 L
336.267 42.17 L
336.702 41.993 L
337.136 41.822 L
337.571 41.658 L
338.005 41.501 L
338.439 41.349 L
338.874 41.204 L
339.308 41.064 L
339.743 40.929 L
340.177 40.799 L
340.612 40.675 L
341.046 40.555 L
341.48 40.44 L
341.915 40.329 L
342.349 40.223 L
342.784 40.12 L
343.218 40.022 L
343.653 39.928 L
344.087 39.837 L
344.522 39.749 L
344.956 39.665 L
345.39 39.585 L
345.825 39.507 L
346.259 39.432 L
346.694 39.361 L
347.128 39.292 L
347.563 39.226 L
347.997 39.162 L
348.431 39.101 L
348.866 39.042 L
349.3 38.985 L
349.735 38.931 L
350.169 38.879 L
350.604 38.829 L
351.038 38.781 L
351.472 38.734 L
351.907 38.69 L
352.341 38.647 L
352.776 38.606 L
353.21 38.566 L
353.645 38.528 L
354.079 38.492 L
354.514 38.457 L
354.948 38.423 L
355.382 38.391 L
355.817 38.36 L
356.251 38.33 L
356.686 38.301 L
357.12 38.273 L
357.555 38.247 L
357.989 38.221 L
358.423 38.197 L
358.858 38.173 L
359.292 38.151 L
359.727 38.129 L
360.161 38.108 L
360.596 38.088 L
361.03 38.069 L
361.464 38.05 L
361.899 38.032 L
362.333 38.015 L
362.768 37.999 L
363.202 37.983 L
363.637 37.968 L
364.071 37.953 L
364.505 37.939 L
364.94 37.926 L
365.374 37.913 L
365.809 37.901 L
366.243 37.889 L
366.678 37.877 L
367.112 37.866 L
367.547 37.856 L
367.981 37.845 L
368.415 37.836 L
368.85 37.826 L
369.284 37.817 L
369.719 37.809 L
370.153 37.8 L
370.588 37.792 L
371.022 37.784 L
371.456 37.777 L
371.891 37.77 L
372.325 37.763 L
372.76 37.757 L
373.194 37.75 L
373.629 37.744 L
374.063 37.738 L
374.497 37.733 L
374.932 37.728 L
375.366 37.722 L
375.801 37.717 L
376.235 37.713 L
376.67 37.708 L
377.104 37.704 L
377.539 37.699 L
377.973 37.695 L
378.407 37.692 L
378.842 37.688 L
379.276 37.684 L
379.711 37.681 L
380.145 37.677 L
380.58 37.674 L
381.014 37.671 L
381.448 37.668 L
381.883 37.665 L
382.317 37.663 L
382.752 37.66 L
383.186 37.658 L
383.621 37.655 L
384.055 37.653 L
384.49 37.651 L
384.924 37.648 L
385.358 37.646 L
385.793 37.644 L
386.227 37.643 L
386.662 37.641 L
387.096 37.639 L
387.531 37.637 L
387.965 37.636 L
388.399 37.634 L
388.834 37.633 L
389.268 37.631 L
389.703 37.63 L
390.137 37.629 L
390.572 37.627 L
391.006 37.626 L
391.44 37.625 L
391.875 37.624 L
392.309 37.623 L
392.744 37.622 L
393.178 37.621 L
393.613 37.62 L
394.047 37.619 L
394.481 37.618 L
394.916 37.617 L
395.35 37.616 L
395.785 37.615 L
396.219 37.615 L
396.654 37.614 L
397.088 37.613 L
397.523 37.613 L
397.957 37.612 L
398.391 37.611 L
398.826 37.611 L
399.26 37.61 L
399.695 37.61 L
400.129 37.609 L
400.564 37.609 L
400.998 37.608 L
401.432 37.608 L
401.867 37.607 L
402.301 37.607 L
402.736 37.606 L
403.17 37.606 L
403.605 37.606 L
404.039 37.605 L
404.473 37.605 L
404.908 37.604 L
405.342 37.604 L
405.777 37.604 L
406.211 37.604 L
406.646 37.603 L
407.08 37.603 L
407.515 37.603 L
407.949 37.602 L
408.383 37.602 L
408.818 37.602 L
409.252 37.602 L
409.687 37.601 L
410.121 37.601 L
410.556 37.601 L
410.99 37.601 L
411.424 37.601 L
411.859 37.601 L
412.293 37.6 L
412.728 37.6 L
413.162 37.6 L
413.597 37.6 L
414.031 37.6 L
414.465 37.6 L
414.9 37.599 L
415.334 37.599 L
415.769 37.599 L
416.203 37.599 L
416.638 37.599 L
417.072 37.599 L
417.507 37.599 L
417.941 37.599 L
418.375 37.599 L
418.81 37.598 L
419.244 37.598 L
419.679 37.598 L
420.113 37.598 L
420.548 37.598 L
420.982 37.598 L
421.416 37.598 L
421.851 37.598 L
422.285 37.598 L
422.72 37.598 L
423.154 37.598 L
423.589 37.598 L
424.023 37.598 L
424.457 37.598 L
424.892 37.597 L
425.326 37.597 L
425.761 37.597 L
426.195 37.597 L
426.63 37.597 L
427.064 37.597 L
427.499 37.597 L
427.933 37.597 L
428.367 37.597 L
428.802 37.597 L
429.236 37.597 L
429.671 37.597 L
430.105 37.597 L
430.54 37.597 L
430.974 37.597 L
431.408 37.597 L
431.843 37.597 L
432.277 37.597 L
432.712 37.597 L
433.146 37.597 L
433.581 37.597 L
434.015 37.597 L
434.449 37.597 L
434.884 37.597 L
435.318 37.597 L
435.753 37.597 L
436.187 37.597 L
436.622 37.597 L
437.056 37.597 L
437.49 37.597 L
437.925 37.597 L
438.359 37.597 L
438.794 37.597 L
439.228 37.597 L
439.663 37.596 L
440.097 37.596 L
440.532 37.596 L
440.966 37.596 L
441.4 37.596 L
441.835 37.596 L
442.269 37.596 L
442.704 37.596 L
443.138 37.596 L
443.573 37.596 L
444.007 37.596 L
444.441 37.596 L
444.876 37.596 L
445.31 37.596 L
445.745 37.596 L
446.179 37.596 L
446.614 37.596 L
447.048 37.596 L
447.482 37.596 L
447.917 37.596 L
448.351 37.596 L
448.786 37.596 L
449.22 37.596 L
449.655 37.596 L
450.089 37.596 L
450.524 37.596 L
450.958 37.596 L
451.392 37.596 L
451.827 37.596 L
452.261 37.596 L
452.696 37.596 L
453.13 37.596 L
453.565 37.596 L
453.999 37.596 L
454.433 37.596 L
454.868 37.596 L
455.302 37.596 L
455.737 37.596 L
456.171 37.596 L
456.606 37.596 L
457.04 37.596 L
457.474 37.596 L
457.909 37.596 L
458.343 37.596 L
458.778 37.596 L
459.212 37.596 L
459.647 37.596 L
460.081 37.596 L
460.516 37.596 L
460.95 37.596 L
461.384 37.596 L
461.819 37.596 L
462.253 37.596 L
462.688 37.596 L
463.122 37.596 L
463.557 37.596 L
463.991 37.596 L
464.425 37.596 L
464.86 37.596 L
465.294 37.596 L
465.729 37.596 L
466.163 37.596 L
466.598 37.596 L
467.032 37.596 L
467.466 37.596 L
467.901 37.596 L
468.335 37.596 L
468.77 37.596 L
469.204 37.596 L
469.639 37.596 L
470.073 37.596 L
470.508 37.596 L
470.942 37.596 L
471.376 37.596 L
471.811 37.596 L
472.245 37.596 L
472.68 37.596 L
473.114 37.596 L
473.549 37.596 L
473.983 37.596 L
474.417 37.596 L
474.852 37.596 L
475.286 37.596 L
475.721 37.596 L
476.155 37.596 L
476.59 37.596 L
477.024 37.596 L
477.458 37.596 L
477.893 37.596 L
478.327 37.596 L
478.762 37.596 L
479.196 37.596 L
479.631 37.596 L
480.065 37.596 L
480.5 37.596 L
480.934 37.596 L
481.368 37.596 L
481.803 37.596 L
482.237 37.596 L
482.672 37.596 L
483.106 37.596 L
483.541 37.596 L
483.975 37.596 L
484.409 37.596 L
484.844 37.596 L
485.278 37.596 L
485.713 37.596 L
486.147 37.596 L
486.582 37.596 L
487.016 37.596 L
487.45 37.596 L
487.885 37.596 L
488.319 37.596 L
488.754 37.596 L
489.188 37.596 L
489.623 37.596 L
490.057 37.596 L
490.492 37.596 L
490.926 37.596 L
491.36 37.596 L
491.795 37.596 L
492.229 37.596 L
492.664 37.596 L
493.098 37.596 L
493.533 37.596 L
493.967 37.596 L
494.401 37.596 L
494.836 37.596 L
495.27 37.596 L
495.705 37.596 L
496.139 37.596 L
496.574 37.596 L
497.008 37.596 L
497.442 37.596 L
497.877 37.596 L
498.311 37.596 L
498.746 37.596 L
499.18 37.596 L
499.615 37.596 L
500.049 37.596 L
500.483 37.596 L
500.918 37.596 L
501.352 37.596 L
501.787 37.596 L
502.221 37.596 L
502.656 37.596 L
503.09 37.596 L
503.525 37.596 L
503.959 37.596 L
504.393 37.596 L
504.828 37.596 L
505.262 37.596 L
505.697 37.596 L
506.131 37.596 L
506.566 37.596 L
507 37.596 L
S
GR
%%Trailer
%%Pages: 1
%%EOF
