Wall time,Step,Value
1578060878.7426548,1000,95.1686782836914
1578060891.170981,2000,99.4299087524414
1578060901.2889104,3000,104.6460189819336
1578060911.3196445,4000,103.53982543945312
1578060921.2560396,5001,108.46534729003906
1578060931.3172429,6000,104.97142791748047
1578060941.8476598,7000,107.79090881347656
1578060952.2652433,8001,109.5686264038086
1578060962.933642,9001,112.5999984741211
1578060974.380286,10001,111.9595947265625
1578060985.1617305,11001,114.65933990478516
1578060995.7259583,12000,115.5631103515625
1578061007.4079835,13000,115.97916412353516
1578061017.813267,14001,116.46875
1578061028.2041085,15000,114.05999755859375
1578061038.724514,16001,118.17708587646484
1578061050.6271884,17001,118.13829803466797
1578061060.965707,18000,118.02127838134766
1578061071.6097403,19000,116.55670166015625
1578061084.3121872,20001,120.95698547363281
1578061097.8382802,21000,121.04210662841797
1578061112.6551824,22001,122.14583587646484
1578061123.9399216,23000,121.0526351928711
1578061135.8815005,24000,119.16999816894531
1578061146.6699657,25000,122.35106658935547
1578061157.63353,26000,120.36734771728516
1578061169.5978086,27000,120.27586364746094
1578061181.614623,28000,124.07070922851562
1578061193.7462964,29001,121.68817138671875
1578061208.040972,30000,121.60824584960938
1578061222.272951,31000,121.46666717529297
1578061237.4255605,32001,121.55000305175781
1578061254.4622421,33000,121.75555419921875
1578061274.4391913,34000,122.21052551269531
1578061297.4988635,35000,122.75757598876953
1578061327.6590295,36000,121.53465270996094
1578061362.7983797,37000,114.6868667602539
1578061396.2621434,38000,117.1894760131836
1578061419.4530222,39002,122.37894439697266
1578061434.1665318,40001,119.35051727294922
1578061446.9470494,41000,116.7300033569336
1578061459.2537832,42001,119.07691955566406
1578061472.2219741,43000,121.61956787109375
1578061487.0019927,44000,122.85148620605469
1578061504.0640607,45000,121.1134033203125
1578061526.9652174,46000,122.92552947998047
1578061550.9157405,47001,122.26041412353516
1578061575.4090173,48001,120.58064270019531
1578061598.0168908,49002,123.03296661376953
1578061615.2398252,50000,121.72340393066406
1578061630.0165517,51000,119.47525024414062
1578061642.6736865,52001,121.60674285888672
1578061655.2066822,53001,121.56700897216797
1578061668.2538025,54001,123.03060913085938
1578061683.772255,55001,119.0
1578061701.2544289,56001,124.61701965332031
1578061720.2030778,57001,123.25
1578061739.4601681,58001,123.13978576660156
1578061758.6922398,59001,119.32584381103516
1578061775.3973444,60001,119.94000244140625
1578061789.8279555,61001,121.0721664428711
1578061802.9837055,62000,120.4606704711914
1578061816.3757415,63001,123.72164916992188
1578061831.7653987,64000,123.52577209472656
1578061847.0802355,65002,123.4888916015625
1578061864.0240955,66000,123.82978820800781
1578061883.3357418,67000,123.62637329101562
1578061900.9615374,68000,121.82978820800781
1578061915.5578136,69000,123.96875
1578061930.335264,70000,119.62625885009766
1578061947.3231754,71001,122.81818389892578
1578061964.273906,72001,121.70706939697266
1578061983.3009906,73000,120.45744323730469
1578061998.871001,74001,119.30000305175781
1578062014.9736674,75000,120.32691955566406
1578062027.8506615,76001,123.0879135131836
1578062041.055381,77000,122.95744323730469
1578062056.3276794,78000,119.63735961914062
1578062072.3798916,79000,122.51579284667969
1578062091.0369096,80001,123.62245178222656
1578062110.126333,81001,123.06666564941406
1578062126.811917,82000,123.50526428222656
1578062141.8930368,83000,122.44085693359375
1578062156.3683176,84000,123.65168762207031
1578062169.5953705,85000,121.0721664428711
1578062184.3348167,86001,123.31958770751953
1578062200.0301328,87000,124.09091186523438
1578062214.4236233,88000,124.67021179199219
1578062231.001236,89000,123.57303619384766
1578062248.297622,90001,122.97916412353516
1578062264.8423443,91000,122.37754821777344
1578062279.7875686,92002,122.6823501586914
1578062296.1613073,93002,123.59596252441406
1578062309.304148,94000,124.29545593261719
1578062324.7247663,95001,122.07368469238281
1578062340.4913876,96001,123.61956787109375
1578062356.7997437,97001,126.07368469238281
1578062373.1383593,98000,121.42857360839844
1578062391.0995886,99001,123.0721664428711
1578062409.62408,100000,122.27083587646484
1578062431.6052277,101002,123.62921142578125
1578062450.2298508,102001,124.10416412353516
1578062467.4816704,103001,123.53408813476562
1578062482.8102067,104000,124.1546401977539
1578062497.331292,105001,124.11111450195312
1578062510.5402725,106000,123.80899047851562
1578062525.9150069,107000,124.31460571289062
1578062540.4881284,108000,127.10989379882812
1578062555.70934,109001,125.0
1578062572.70314,110000,123.95555877685547
1578062591.508298,111000,124.10204315185547
1578062608.4688835,112001,123.95698547363281
1578062623.958003,113000,125.9456558227539
1578062639.0216007,114000,124.3535385131836
1578062656.742054,115000,122.07368469238281
1578062671.3216474,116000,123.8723373413086
1578062686.6483498,117001,123.8720932006836
1578062703.3894737,118000,122.73403930664062
1578062720.1000276,119000,125.44329833984375
1578062736.391758,120000,123.98947143554688
1578062750.8107445,121001,121.41573333740234
1578062765.3686368,122001,120.27083587646484
1578062781.2947078,123001,123.17894744873047
1578062797.9330735,124000,122.21739196777344
1578062812.389576,125000,124.69149017333984
1578062826.842795,126000,124.08602142333984
1578062841.458963,127000,123.68539428710938
1578062856.377463,128001,123.32221984863281
1578062872.1692486,129002,124.17894744873047
1578062887.2724771,130001,124.8977279663086
1578062903.567698,131000,122.66666412353516
1578062919.6290188,132001,121.04210662841797
1578062934.145008,133000,124.35164642333984
1578062951.4945016,134002,122.48958587646484
1578062967.5190456,135001,124.29669952392578
1578062983.92985,136001,124.94680786132812
1578063000.1178186,137000,122.4631576538086
1578063015.1592321,138001,124.42708587646484
1578063029.498347,139000,121.6336669921875
1578063043.5353794,140002,122.38461303710938
1578063057.5311885,141000,121.31578826904297
1578063072.5888915,142000,121.09183502197266
1578063088.4367478,143001,122.69071960449219
1578063103.2874358,144000,126.0434799194336
1578063118.5195348,145000,124.05376434326172
1578063132.8461628,146000,122.53921508789062
1578063147.8851147,147000,122.69892120361328
1578063162.0823836,148001,122.56122589111328
1578063175.087773,149000,123.68478393554688
1578063188.316641,150001,122.71428680419922
1578063204.1569972,151001,125.0
1578063217.4244828,152000,123.6043930053711
1578063231.7680173,153000,123.78787994384766
1578063247.9041636,154001,124.73958587646484
1578063263.2260942,155000,121.68539428710938
1578063277.9178424,156001,123.94505310058594
1578063292.7614233,157001,123.56842041015625
1578063307.8728263,158001,121.64893341064453
1578063323.5936315,159000,123.5
1578063341.1908646,160000,124.57608795166016
1578063356.401958,161001,122.47826385498047
1578063371.629088,162000,124.85263061523438
1578063389.6317189,163000,122.52173614501953
1578063406.8305688,164000,120.38043212890625
1578063424.1949613,165001,121.93814086914062
1578063439.2443821,166001,122.95604705810547
1578063455.590587,167000,123.66304016113281
1578063470.5642924,168000,122.94845581054688
1578063485.0391428,169000,121.7078628540039
1578063497.8365982,170000,122.91836547851562
1578063510.4700487,171001,125.0
1578063526.1635964,172000,124.3723373413086
1578063540.5583227,173000,119.7448959350586
1578063553.5342183,174000,123.6451644897461
1578063568.6048074,175002,121.45454406738281
1578063584.9979599,176000,124.43955993652344
1578063601.9940763,177000,123.38043212890625
1578063617.5416627,178000,126.01010131835938
1578063632.9881313,179001,120.49484252929688
1578063646.231477,180000,124.05494689941406
1578063659.9902036,181000,126.97826385498047
1578063672.5852087,182000,122.06382751464844
1578063685.7335243,183000,125.0
1578063701.328769,184000,122.71428680419922
1578063716.595544,185001,125.05681610107422
1578063733.942063,186001,123.875
1578063751.0425236,187000,125.61956787109375
1578063767.886677,188002,126.04395294189453
1578063784.4641557,189001,122.57894897460938
1578063799.2910764,190000,120.14705657958984
1578063811.687651,191001,125.56179809570312
1578063824.8338745,192001,124.1505355834961
1578063837.9128501,193000,127.38636016845703
1578063852.0491116,194000,125.3263168334961
1578063866.994672,195000,126.26190185546875
1578063882.1759465,196000,130.09091186523438
1578063899.0969532,197000,126.77894592285156
1578063913.722347,198000,127.2471923828125
1578063928.3651452,199000,130.2471923828125
1578063942.4620564,200000,129.477783203125
1578063955.2056162,201000,122.72042846679688
1578063968.595488,202001,123.76344299316406
1578063984.5992558,203000,123.92391204833984
1578064001.3038466,204000,126.70237731933594
1578064018.757609,205000,132.85556030273438
1578064035.86997,206002,140.31707763671875
1578064049.090667,207001,141.6436767578125
1578064061.4866567,208001,127.68085479736328
1578064073.840788,209000,123.82954406738281
1578064089.1743999,210000,130.79347229003906
1578064104.7017896,211000,128.0425567626953
1578064123.252466,212000,124.4731216430664
1578064141.096114,213001,122.86813354492188
1578064157.9988348,214000,130.68605041503906
1578064170.898685,215001,141.406982421875
1578064183.3476264,216000,127.24418640136719
1578064196.2164562,217000,134.87777709960938
1578064212.0300457,218001,132.63043212890625
1578064227.3773208,219001,127.2872314453125
1578064245.8391855,220002,125.28915405273438
1578064264.3275661,221000,135.2906951904297
1578064280.9092557,222001,128.68675231933594
1578064297.1754656,223001,152.4512176513672
1578064310.8647707,224001,148.13333129882812
1578064324.18837,225001,132.68675231933594
1578064336.157656,226001,140.93023681640625
1578064348.7279077,227000,127.26087188720703
1578064362.8095345,228000,120.30525970458984
1578064378.8142219,229000,135.95062255859375
1578064395.384132,230001,141.89157104492188
1578064412.2070038,231001,138.72288513183594
1578064429.8438454,232000,147.42308044433594
1578064445.5914996,233000,140.72727966308594
1578064458.040102,234000,140.62069702148438
1578064470.1239831,235000,142.14443969726562
1578064482.5406108,236001,133.9545440673828
1578064497.1840432,237000,125.55421447753906
1578064515.6667693,238001,138.23333740234375
1578064535.6283972,239000,131.55555725097656
1578064553.4509141,240000,141.15554809570312
1578064567.8924382,241000,142.9036102294922
1578064581.6835709,242000,134.48837280273438
1578064594.0375285,243001,134.1666717529297
1578064606.5352697,244000,132.48863220214844
1578064621.943314,245000,133.0898895263672
1578064634.609732,246000,142.37930297851562
1578064646.708849,247001,136.88607788085938
1578064660.5396373,248000,148.55555725097656
1578064674.9656236,249000,139.61363220214844
1578064691.4480877,250001,139.19752502441406
1578064706.2031763,251001,151.90109252929688
1578064719.7118618,252000,126.35802459716797
1578064731.4104226,253000,141.3000030517578
1578064743.3924725,254000,125.91578674316406
1578064756.2453094,255001,123.08421325683594
1578064772.2985682,256001,123.89610290527344
1578064788.5447803,257001,164.75
1578064805.7368526,258001,134.94871520996094
1578064820.1637416,259000,137.3780517578125
1578064833.0636926,260000,154.9342041015625
1578064847.3257048,261001,172.41026306152344
1578064859.8820605,262000,149.05813598632812
1578064873.725761,263000,156.03797912597656
1578064889.2705324,264000,137.5487823486328
1578064904.182576,265000,149.0240936279297
1578064920.158129,266001,132.05813598632812
1578064934.870925,267000,159.53846740722656
1578064949.0114744,268001,158.21176147460938
1578064961.64315,269001,140.94381713867188
1578064975.0649164,270001,132.71249389648438
1578064987.2182121,271001,137.7261962890625
1578064999.5727563,272000,146.0963897705078
1578065012.4795732,273000,147.14117431640625
1578065026.9568355,274002,140.5802459716797
1578065043.2518284,275000,133.75
1578065062.5944605,276001,159.0
1578065079.2029114,277000,143.4626922607422
1578065095.518391,278001,170.2207794189453
1578065109.7278144,279001,168.1690216064453
1578065122.47527,280000,150.14102172851562
1578065136.2182884,281001,159.65475463867188
1578065150.7214906,282000,167.60256958007812
1578065166.8039327,283001,144.5595245361328
1578065182.0849066,284000,146.47222900390625
1578065198.6355886,285000,152.0749969482422
1578065214.5131357,286001,155.6714324951172
1578065230.0039227,287001,170.96249389648438
1578065242.503954,288001,161.8333282470703
1578065254.7483282,289000,156.16049194335938
1578065266.9267993,290000,143.73255920410156
1578065279.7906342,291000,136.093017578125
1578065294.0065517,292000,150.32530212402344
1578065309.8488228,293001,137.2168731689453
1578065324.5297587,294000,157.86111450195312
1578065341.2460794,295002,149.05194091796875
1578065359.3947723,296000,171.01388549804688
1578065375.85381,297000,162.10000610351562
1578065391.0128217,298000,140.8333282470703
1578065403.512811,299001,172.32467651367188
1578065416.4887655,300000,182.54666137695312
1578065429.6193345,301000,167.0370330810547
1578065443.7795613,302001,136.6024169921875
1578065459.8685758,303001,146.6027374267578
1578065475.9884813,304000,159.36111450195312
1578065492.0062373,305000,161.23077392578125
1578065506.3476875,306000,189.757568359375
1578065520.938122,307000,191.2051239013672
1578065534.702483,308001,163.50704956054688
1578065548.483512,309000,170.3000030517578
1578065561.5122724,310000,191.8205108642578
1578065575.5793123,311000,148.46153259277344
1578065589.8344936,312001,222.77777099609375
1578065604.9378412,313002,142.73529052734375
1578065618.889766,314001,174.8918914794922
1578065633.2339394,315001,156.47886657714844
1578065647.503754,316000,156.80519104003906
1578065662.0508015,317000,189.2820587158203
1578065677.8895643,318001,163.77272033691406
1578065694.1213188,319000,184.15383911132812
1578065709.341126,320000,169.2816925048828
1578065724.4493678,321000,161.1506805419922
1578065739.1947193,322001,182.19117736816406
1578065754.3899717,323000,187.40789794921875
1578065768.8404462,324001,171.46665954589844
1578065782.8841336,325000,156.8028106689453
1578065794.805858,326000,170.876708984375
1578065806.6689577,327001,173.64382934570312
1578065819.0418499,328000,163.2820587158203
1578065832.8676388,329000,158.5128173828125
1578065847.3388278,330000,161.8309783935547
1578065862.2819111,331000,175.63934326171875
1578065880.0135455,332000,206.57142639160156
1578065896.965473,333001,197.56716918945312
1578065913.553602,334000,165.2857208251953
1578065927.7381754,335001,179.55224609375
1578065941.1091547,336000,182.1571502685547
1578065955.262896,337000,173.5223846435547
1578065970.345441,338001,181.05404663085938
1578065986.2040985,339001,180.98507690429688
1578066000.8610792,340000,182.6999969482422
1578066014.8611338,341000,194.1212158203125
1578066028.937564,342000,209.3076934814453
1578066044.5219245,343001,197.45614624023438
1578066059.711514,344001,231.13333129882812
1578066074.497889,345001,169.63461303710938
1578066090.6603742,346000,251.55072021484375
1578066107.3382392,347000,216.2923126220703
1578066124.3290854,348000,186.60293579101562
1578066138.1979306,349001,190.35293579101562
1578066150.6686535,350001,222.6999969482422
1578066164.1875043,351000,193.25
1578066179.807779,352001,148.57534790039062
1578066195.7011452,353001,195.10293579101562
1578066210.2158535,354001,192.1692352294922
1578066224.6760826,355001,195.2063446044922
1578066237.7464092,356001,180.9193572998047
1578066253.3097546,357000,198.1012725830078
1578066267.5901387,358000,203.54098510742188
1578066280.7301629,359000,190.2096710205078
1578066296.4323728,360000,209.03334045410156
1578066310.9352984,361000,186.93333435058594
1578066325.7494075,362000,252.39654541015625
1578066340.450161,363000,237.16949462890625
1578066358.159062,364001,247.58489990234375
1578066375.6869533,365000,202.63636779785156
1578066392.7288475,366001,228.73770141601562
1578066410.0459778,367001,205.48387145996094
1578066423.2593944,368000,212.8800048828125
1578066437.2011073,369000,220.18182373046875
1578066451.3859596,370000,215.15151977539062
1578066466.5111256,371000,222.5079345703125
1578066479.782281,372000,192.12962341308594
1578066494.2654614,373000,215.28358459472656
1578066509.0953722,374000,193.50942993164062
1578066528.42305,375002,256.96551513671875
1578066545.512748,376001,250.3000030517578
1578066560.3059433,377000,206.6666717529297
1578066576.2698693,378000,191.26983642578125
1578066592.3004131,379000,214.43333435058594
1578066607.4047532,380000,235.79310607910156
1578066624.3503764,381002,216.46031188964844
1578066640.507849,382000,264.4444580078125
1578066656.5740776,383000,217.96969604492188
1578066671.9135947,384000,224.98147583007812
1578066689.0393484,385000,197.7142791748047
1578066704.2868493,386001,214.0
1578066720.4719741,387000,231.5833282470703
1578066736.6819654,388000,245.21917724609375
1578066753.0465777,389002,179.35484313964844
1578066767.3007467,390000,217.3333282470703
1578066779.9703116,391001,175.0
1578066793.80132,392000,238.21212768554688
1578066805.8742876,393000,173.80555725097656
1578066818.1333961,394002,185.3709716796875
1578066830.839699,395001,236.6119384765625
1578066847.1536021,396001,187.1212158203125
1578066863.8314192,397000,218.9166717529297
1578066881.9894989,398000,209.63333129882812
1578066900.224239,399000,228.2463836669922
1578066918.0498028,400000,220.39654541015625
1578066935.039615,401000,205.24192810058594
1578066952.4622025,402000,216.21875
1578066966.7582903,403001,211.5483856201172
1578066979.4992146,404001,190.87692260742188
1578066992.0593357,405001,224.11593627929688
1578067006.1370473,406001,170.6086883544922
1578067020.2363746,407001,186.8285675048828
1578067035.0682871,408001,194.50746154785156
1578067052.785709,409001,193.77420043945312
1578067069.8854856,410000,197.2058868408203
1578067087.0820956,411000,209.44615173339844
1578067105.0924978,412001,214.05555725097656
1578067121.4071174,413000,230.89830017089844
1578067135.8074462,414000,198.89706420898438
1578067150.3336973,415001,200.26666259765625
1578067164.582176,416000,244.2941131591797
1578067176.9284818,417000,171.23880004882812
1578067189.4227452,418001,216.46969604492188
1578067203.342885,419000,190.34722900390625
1578067217.1838605,420000,175.33871459960938
1578067230.3513434,421001,206.98245239257812
1578067247.353704,422000,208.8545379638672
1578067264.1102028,423000,300.69354248046875
1578067280.882626,424001,264.3333435058594
1578067299.0137985,425000,237.5500030517578
1578067313.5090082,426000,235.16128540039062
1578067329.299058,427000,202.7903289794922
1578067345.4229534,428000,202.88888549804688
1578067360.0630484,429000,229.6481475830078
1578067374.402899,430001,200.5932159423828
1578067389.5889828,431000,195.4166717529297
1578067403.956526,432000,229.55384826660156
1578067418.1840448,433001,243.35293579101562
1578067433.0283375,434001,238.94737243652344
1578067448.864013,435001,244.86666870117188
1578067463.2764206,436001,188.35821533203125
1578067477.9814703,437001,190.35714721679688
1578067493.2238345,438000,228.96226501464844
1578067507.599915,439000,244.125
1578067522.1331627,440000,210.63157653808594
1578067539.6863172,441000,230.36065673828125
1578067557.7417567,442000,259.2257995605469
1578067574.7612777,443001,210.36363220214844
1578067593.6745796,444000,213.1999969482422
1578067609.6013894,445001,311.1851806640625
1578067622.3667474,446000,216.13999938964844
1578067636.8068702,447001,240.53225708007812
1578067651.144622,448001,232.95652770996094
1578067666.0414724,449001,199.0
1578067682.8469462,450002,225.2786865234375
1578067700.079626,451000,154.7755126953125
1578067716.7203717,452001,240.7547149658203
1578067733.6251557,453001,287.8269348144531
1578067752.821707,454000,281.2272644042969
1578067771.476702,455001,219.5
1578067788.1431375,456001,205.3000030517578
1578067804.3916736,457001,188.2318878173828
1578067818.2579086,458001,180.61817932128906
1578067829.999282,459000,200.9104461669922
1578067840.91681,460000,213.42857360839844
1578067854.4401853,461002,209.61538696289062
1578067868.4023123,462000,202.5797119140625
1578067883.1335583,463001,218.640625
1578067900.8865597,464000,220.0800018310547
1578067919.741838,465001,229.51162719726562
1578067941.644738,466000,275.7368469238281
1578067960.3396645,467000,263.375
1578067976.31481,468000,300.47540283203125
1578067990.4128153,469000,245.5
1578068004.1575656,470001,219.11289978027344
1578068016.887968,471001,251.4923095703125
1578068029.285434,472000,168.33824157714844
1578068044.4619687,473000,238.68115234375
1578068058.8978863,474000,174.57894897460938
1578068073.7351534,475000,219.26922607421875
1578068091.5031145,476000,232.82691955566406
1578068108.7013016,477000,339.4117736816406
1578068127.100697,478000,279.8644104003906
1578068144.9879897,479002,263.8908996582031
1578068163.458973,480001,265.24139404296875
1578068177.7849495,481002,222.60317993164062
1578068191.8048692,482000,207.82455444335938
1578068207.1972296,483002,242.77272033691406
1578068221.975093,484000,201.5471649169922
1578068236.404479,485000,241.4545440673828
1578068252.1939213,486000,322.4347839355469
1578068268.726804,487000,288.1000061035156
1578068288.9410288,488002,270.7407531738281
1578068309.3717656,489000,209.9499969482422
1578068325.741579,490000,272.1785583496094
1578068339.1516213,491000,231.4264678955078
1578068351.3655314,492000,215.43283081054688
1578068365.2680924,493002,197.5483856201172
1578068379.40851,494001,181.578125
1578068394.8818932,495001,243.70689392089844
1578068410.0243142,496001,216.25454711914062
1578068426.462097,497000,280.425537109375
1578068442.9752793,498000,289.3333435058594
1578068459.5724928,499000,258.68890380859375
1578068476.6687412,500000,297.9193420410156
