Wall time,Step,Value
1577970145.6106954,1001,101.31034851074219
1577970156.1568496,2001,103.65420532226562
1577970168.6627955,3000,103.9468994140625
1577970179.221003,4000,104.4473648071289
1577970189.7682207,5001,103.98989868164062
1577970200.2142994,6000,109.64423370361328
1577970210.6452322,7000,109.37142944335938
1577970221.1229641,8001,109.50505065917969
1577970232.0032375,9001,110.55670166015625
1577970244.2502475,10001,112.20587921142578
1577970255.3604898,11000,112.01923370361328
1577970265.5676033,12000,113.15306091308594
1577970275.797633,13001,112.33999633789062
1577970287.3347957,14001,118.33673095703125
1577970297.5955172,15000,114.07843017578125
1577970308.1895003,16001,118.44210815429688
1577970319.402654,17001,117.13725280761719
1577970329.7782807,18001,117.45555877685547
1577970340.5952082,19001,117.61458587646484
1577970350.9646146,20001,115.83333587646484
1577970362.8478897,21000,115.69725036621094
1577970373.891357,22000,117.38710021972656
1577970387.436962,23001,118.22115325927734
1577970399.5989094,24000,119.74725341796875
1577970411.6315446,25000,123.0412368774414
1577970422.052116,26000,119.91752624511719
1577970433.886591,27001,119.86458587646484
1577970444.2753348,28000,118.61164855957031
1577970456.8568847,29001,121.81521606445312
1577970469.8215654,30000,119.2921371459961
1577970483.029846,31001,119.80000305175781
1577970496.1852052,32000,123.53260803222656
1577970509.126233,33001,120.65263366699219
1577970524.0282276,34001,122.54737091064453
1577970538.4594274,35000,122.36000061035156
1577970555.5006905,36000,119.26667022705078
1577970574.7935772,37001,117.11000061035156
1577970597.8854241,38000,122.72093200683594
1577970625.6686087,39001,122.80000305175781
1577970657.7299006,40000,124.0
1577970692.3032496,41000,125.27173614501953
1577970727.660465,42000,121.55000305175781
1577970763.679177,43000,122.23958587646484
1577970793.6871386,44001,121.80000305175781
1577970818.516349,45001,123.54838562011719
1577970840.2750866,46001,122.63636016845703
1577970862.1138806,47000,121.95294189453125
1577970883.3094566,48000,123.45454406738281
1577970907.6018872,49000,123.82978820800781
1577970933.9135442,50001,123.02083587646484
1577970960.9949486,51000,122.2959213256836
1577970987.1240249,52000,120.6436767578125
1577971014.1693306,53000,123.73737335205078
1577971037.109824,54000,126.06666564941406
1577971058.228755,55000,123.84042358398438
1577971078.422747,56001,124.78571319580078
1577971097.3696206,57001,123.71910095214844
1577971118.1198685,58001,124.68367004394531
1577971139.7649257,59000,126.10989379882812
1577971163.874427,60001,124.01074981689453
1577971189.4713616,61000,124.01030731201172
1577971214.9799862,62000,122.6021499633789
1577971236.3214827,63000,123.83505249023438
1577971255.6837308,64000,122.2934799194336
1577971275.0918355,65000,121.78350830078125
1577971294.2284923,66000,125.67045593261719
1577971313.65456,67001,125.125
1577971334.718465,68000,123.7934799194336
1577971355.1083138,69001,133.1145782470703
1577971374.477363,70000,127.71739196777344
1577971395.5564785,71000,122.82221984863281
1577971414.9561658,72001,130.1999969482422
1577971435.723745,73000,121.3263168334961
1577971456.978134,74000,122.54255676269531
1577971478.6653352,75000,116.56842041015625
1577971500.0329995,76001,130.84706115722656
1577971522.1554315,77001,124.56666564941406
1577971540.1255693,78001,129.3882293701172
1577971558.6024396,79000,133.39361572265625
1577971578.5903244,80001,128.0689697265625
1577971599.166346,81000,125.07777404785156
1577971621.2478313,82001,125.36666870117188
1577971642.5513399,83001,138.7349395751953
1577971663.8422773,84001,138.01190185546875
1577971683.4672732,85000,139.11627197265625
1577971702.8907263,86000,136.35789489746094
1577971721.6213224,87000,128.5
1577971738.839373,88001,129.84616088867188
1577971757.8284488,89000,129.22891235351562
1577971776.2408352,90000,135.1627960205078
1577971794.48507,91000,123.72164916992188
1577971816.0749264,92000,129.2967071533203
1577971835.8682957,93001,129.6707305908203
1577971855.359172,94001,136.96153259277344
1577971874.8929343,95000,136.22988891601562
1577971893.6384506,96000,156.48809814453125
1577971911.2802806,97000,126.97826385498047
1577971928.3924468,98000,126.73332977294922
1577971946.7415237,99002,134.65475463867188
1577971964.5738957,100000,154.456787109375
1577971981.1250741,101001,136.3222198486328
1577971998.9215944,102002,126.375
1577972016.961812,103000,136.95652770996094
1577972036.8604937,104000,121.89361572265625
1577972058.4811563,105000,132.1707305908203
1577972079.377166,106000,136.03408813476562
1577972097.1014369,107000,137.94117736816406
1577972115.5093477,108001,129.06521606445312
1577972135.0165024,109002,142.62637329101562
1577972150.7309322,110000,127.86250305175781
1577972167.5556903,111001,136.1764678955078
1577972185.7906108,112000,150.98780822753906
1577972203.46415,113001,142.8369598388672
1577972219.5161858,114001,127.57142639160156
1577972238.07269,115000,137.752685546875
1577972257.96955,116001,141.20986938476562
1577972276.1856277,117000,125.7125015258789
1577972295.899943,118000,144.90122985839844
1577972314.6661587,119000,154.1351318359375
1577972334.8737838,120000,147.85000610351562
1577972354.504002,121000,168.32142639160156
1577972374.3626792,122000,143.3333282470703
1577972394.923417,123001,153.69737243652344
1577972415.9294171,124000,154.34176635742188
1577972432.7504842,125000,155.4383544921875
1577972449.3887596,126001,149.89999389648438
1577972468.2541757,127000,151.8372039794922
1577972488.131275,128000,147.9871826171875
1577972505.7576928,129000,144.7083282470703
1577972522.2909615,130001,178.3111114501953
1577972540.6070123,131000,146.34722900390625
1577972559.7481673,132000,157.36363220214844
1577972579.0999284,133000,155.1666717529297
1577972598.0328395,134000,136.89999389648438
1577972618.8884885,135000,175.2337646484375
1577972638.2246556,136000,147.390625
1577972657.4684618,137001,185.86842346191406
1577972675.2731462,138001,168.02667236328125
1577972691.2197952,139000,148.75
1577972706.078675,140000,166.0657958984375
1577972722.2146962,141001,167.53164672851562
1577972736.7221603,142000,155.2876739501953
1577972752.7341118,143002,174.223876953125
1577972769.3366723,144001,170.37681579589844
1577972786.9282336,145000,156.7794189453125
1577972806.6286623,146000,194.76388549804688
1577972825.1792305,147001,157.8275909423828
1577972843.6674998,148000,224.4545440673828
1577972862.841427,149000,228.2280731201172
1577972884.4164622,150000,227.2142791748047
1577972901.1160853,151001,266.9183654785156
1577972917.079374,152001,225.64151000976562
1577972931.5842383,153000,254.6842041015625
1577972947.8125937,154001,225.6119384765625
1577972965.932288,155000,177.0
1577972984.6784935,156000,164.67567443847656
1577973003.4151156,157000,194.63235473632812
1577973022.7001092,158001,176.9193572998047
1577973040.1652007,159001,213.52459716796875
1577973060.61157,160000,190.04615783691406
1577973080.8750434,161000,205.70909118652344
1577973100.4118695,162001,211.42591857910156
1577973117.6723154,163001,290.89361572265625
1577973134.280422,164000,211.0
1577973151.4937,165001,237.4385986328125
1577973167.889354,166000,248.2280731201172
1577973184.5271342,167000,236.82666015625
1577973200.7704785,168000,183.41790771484375
1577973215.0585628,169001,161.37704467773438
1577973230.4464443,170000,205.7536163330078
1577973245.3791733,171000,188.5616455078125
1577973262.2996428,172000,162.7213134765625
1577973279.3403819,173000,188.02499389648438
1577973299.583492,174000,235.729736328125
1577973320.3764455,175001,312.5
1577973339.9886456,176001,322.31109619140625
1577973361.6730576,177000,342.3399963378906
1577973380.866718,178001,272.9534912109375
1577973397.5419836,179000,278.25
1577973413.420648,180000,319.01922607421875
1577973429.4106355,181000,263.40740966796875
1577973444.193647,182000,207.39682006835938
1577973461.004468,183001,253.60377502441406
1577973478.8932035,184000,236.42308044433594
1577973497.4043987,185000,265.2173767089844
1577973516.509246,186000,242.8918914794922
1577973536.9724293,187000,316.8108215332031
1577973557.9612975,188000,309.9245300292969
1577973579.0590875,189000,338.6666564941406
1577973598.9707077,190001,246.97727966308594
1577973615.8388777,191001,239.18182373046875
1577973632.4718435,192000,266.9024353027344
1577973649.7020166,193002,351.346923828125
1577973669.572052,194001,294.2950744628906
1577973690.216746,195000,223.92591857910156
1577973709.2508278,196000,278.1282043457031
1577973729.2495494,197001,244.62222290039062
1577973748.1352003,198001,378.06121826171875
1577973766.0760162,199001,267.5238037109375
1577973782.508267,200001,294.75555419921875
1577973799.282769,201001,355.7173767089844
1577973816.7703638,202000,248.04917907714844
1577973837.365622,203000,244.2941131591797
1577973856.5684795,204002,308.5428466796875
1577973876.7159917,205001,298.1025695800781
1577973893.935813,206000,308.7200012207031
1577973912.5063899,207000,292.34210205078125
1577973930.7908869,208000,406.4193420410156
1577973947.78495,209000,455.10809326171875
1577973966.2335622,210001,332.6278991699219
1577973981.9736874,211000,254.0
1577973998.5113358,212000,412.5909118652344
1577974015.117035,213000,376.2682800292969
1577974034.2182527,214000,284.3846130371094
1577974055.2333267,215001,491.8292541503906
1577974077.2812915,216000,298.92498779296875
1577974098.4378417,217000,402.4482727050781
1577974118.1676412,218001,426.75
1577974134.936804,219000,470.17022705078125
1577974151.080634,220001,359.6222229003906
1577974165.4761288,221001,323.4761962890625
1577974179.7591083,222000,296.7727355957031
1577974194.85877,223000,296.0810852050781
1577974211.9928565,224000,393.6938781738281
1577974231.9093757,225000,278.5434875488281
1577974251.1281915,226000,343.4117736816406
1577974271.6846104,227000,397.15625
1577974293.1819792,228000,466.2105407714844
1577974311.561301,229001,570.1621704101562
1577974327.542921,230001,325.2826232910156
1577974342.3948781,231000,337.5555419921875
1577974357.428848,232001,370.86956787109375
1577974375.5039957,233000,287.5094299316406
1577974393.009045,234000,286.4418640136719
1577974413.4605906,235000,354.25640869140625
1577974435.2695825,236000,348.9333190917969
1577974456.107113,237000,437.52630615234375
1577974474.9168336,238001,681.0357055664062
1577974494.1879761,239000,513.8846435546875
1577974511.0099049,240000,544.8125
1577974527.9961984,241001,531.6923217773438
1577974545.686825,242001,407.05767822265625
1577974562.0159748,243000,296.6410217285156
1577974580.2914677,244001,272.6856994628906
1577974598.416539,245000,459.6060485839844
1577974617.559528,246000,423.52630615234375
1577974638.2329917,247001,466.6383056640625
1577974658.1296296,248001,364.5714416503906
1577974674.611935,249000,445.0882263183594
1577974688.7139134,250000,314.2631530761719
1577974701.1912484,251001,458.9111022949219
1577974715.3664472,252001,359.01922607421875
1577974730.1762495,253000,292.73077392578125
1577974748.1267416,254002,272.8999938964844
1577974765.7951524,255000,296.8461608886719
1577974785.7862651,256000,388.75
1577974808.01993,257000,354.76470947265625
1577974829.3028727,258000,364.8666687011719
1577974850.4755669,259000,470.7096862792969
1577974872.3553474,260001,488.3636474609375
1577974890.681977,261000,499.25
1577974905.636722,262001,475.8333435058594
1577974921.5785031,263000,500.9787292480469
1577974937.8500395,264000,420.4081726074219
1577974954.598929,265000,413.1052551269531
1577974971.495459,266000,295.79998779296875
1577974990.3048854,267001,228.30555725097656
1577975009.93399,268000,342.34783935546875
1577975032.633536,269000,304.1666564941406
1577975053.4437923,270000,318.3809509277344
1577975072.6856277,271001,458.5
1577975093.246351,272002,372.6666564941406
1577975110.8653727,273001,328.0851135253906
1577975129.2472377,274000,361.53125
1577975147.3230429,275001,492.0714416503906
1577975163.2034993,276000,474.23077392578125
1577975182.1409087,277000,469.1764831542969
1577975204.7244463,278000,496.8387145996094
1577975226.7077818,279000,440.137939453125
1577975250.165155,280000,456.70587158203125
1577975270.842245,281000,466.0
1577975288.89686,282000,379.2727355957031
1577975305.3742194,283000,526.906982421875
1577975320.1383495,284000,441.3333435058594
1577975334.2868092,285001,450.1851806640625
1577975349.4330206,286001,560.6190185546875
1577975364.356732,287000,518.6818237304688
1577975381.3913534,288001,639.5416870117188
1577975402.347422,289000,467.0465087890625
1577975429.3938656,290000,271.3611145019531
1577975453.871493,291002,232.43182373046875
1577975474.3343205,292000,427.07501220703125
1577975490.8637338,293000,349.06976318359375
1577975505.2667637,294000,415.3571472167969
1577975519.3144493,295000,341.68182373046875
1577975532.4036298,296000,310.1025695800781
1577975548.4225194,297002,424.9111022949219
1577975564.720119,298000,370.7674560546875
1577975583.3852272,299000,401.79412841796875
1577975604.9453387,300001,416.9166564941406
1577975627.9338102,301000,472.8529357910156
1577975653.5744262,302000,415.4285583496094
1577975679.6510184,303000,506.8648681640625
1577975700.9440174,304000,466.76666259765625
1577975716.4291983,305001,551.861083984375
1577975733.0487072,306001,612.3846435546875
1577975750.8228297,307002,504.3571472167969
1577975768.1203036,308001,468.2916564941406
1577975786.2655578,309001,423.4146423339844
1577975808.1914265,310000,321.1666564941406
1577975830.9743397,311002,340.3636474609375
1577975858.377292,312000,385.25
1577975884.0161605,313000,380.971435546875
1577975902.2636442,314001,448.8292541503906
1577975921.8555868,315000,512.2647094726562
1577975939.099701,316001,479.1891784667969
1577975956.6090477,317002,457.9166564941406
1577975973.5509253,318000,578.0
1577975990.240912,319001,258.79412841796875
1577976006.3189006,320001,376.3589782714844
1577976025.7716792,321000,406.24560546875
1577976045.3490155,322000,356.6222229003906
1577976068.2980456,323000,393.3953552246094
1577976095.6273913,324001,449.22857666015625
1577976120.0557044,325000,364.29730224609375
1577976143.6284528,326000,503.5135192871094
1577976163.6376112,327002,508.3783874511719
1577976181.460837,328001,436.4102478027344
1577976198.8014371,329001,511.06060791015625
1577976218.1805677,330001,443.1538391113281
1577976240.0820248,331001,326.3616943359375
1577976258.7429173,332000,390.6666564941406
1577976279.526809,333000,502.6060485839844
1577976301.3823228,334001,508.54052734375
1577976321.376416,335001,477.125
1577976341.5110512,336000,536.0
1577976362.2314866,337000,479.4444580078125
1577976380.372709,338002,656.0625
1577976399.3077903,339002,531.9722290039062
1577976419.5941708,340001,423.5172424316406
1577976439.3551443,341001,448.16278076171875
1577976459.482324,342001,510.79486083984375
1577976480.292339,343000,385.0833435058594
1577976504.2121816,344002,500.5135192871094
1577976526.7845504,345000,464.8863525390625
1577976546.991115,346002,528.3421020507812
1577976564.9933515,347001,510.2954406738281
1577976580.0340676,348000,453.8125
1577976594.7249224,349001,456.974365234375
1577976610.9061575,350001,406.6226501464844
1577976631.5433116,351000,343.390625
1577976650.2559168,352000,323.4571533203125
1577976671.962944,353001,323.05712890625
1577976694.7207155,354000,265.16278076171875
1577976716.4744356,355000,431.0857238769531
1577976739.0206707,356000,356.1764831542969
1577976760.3097749,357002,503.85107421875
1577976780.0501733,358000,540.272705078125
1577976797.7811275,359001,371.93548583984375
1577976813.1761553,360000,385.5526428222656
1577976828.3154519,361001,366.0249938964844
1577976845.136925,362001,499.4761962890625
1577976864.080493,363001,428.8409118652344
1577976883.2892823,364001,353.31707763671875
1577976903.778172,365000,543.5128173828125
1577976925.5622716,366001,361.8709716796875
1577976945.240791,367000,511.06976318359375
1577976964.2951488,368000,366.6666564941406
1577976983.1400323,369001,556.4210815429688
1577977002.191352,370000,510.9142761230469
1577977021.7378325,371000,508.1400146484375
1577977041.5898519,372000,470.2631530761719
1577977062.8856704,373001,418.77777099609375
1577977083.696859,374001,436.71875
1577977102.4841273,375001,583.3333129882812
1577977118.3859208,376001,535.81396484375
1577977136.5955515,377000,575.3125
1577977153.414263,378000,404.54998779296875
1577977170.117244,379001,511.9183654785156
1577977185.6654,380001,416.7069091796875
1577977203.162221,381001,468.1794738769531
1577977223.7739444,382000,296.6363525390625
1577977245.2575765,383000,418.21429443359375
1577977268.6219676,384001,568.0
1577977289.663658,385000,423.0
1577977308.3766856,386000,471.2926940917969
1577977322.9859061,387000,468.06451416015625
1577977336.0501785,388000,646.0357055664062
1577977351.550244,389001,486.739990234375
1577977366.9436514,390002,579.6279296875
1577977382.4589138,391002,362.6278991699219
1577977400.951085,392000,321.9615478515625
1577977419.927104,393000,455.6666564941406
1577977440.7464595,394000,298.9333190917969
1577977462.32505,395001,359.10870361328125
1577977481.8740172,396001,513.5818481445312
1577977503.8549876,397000,438.5555419921875
1577977521.2742007,398000,556.5116577148438
1577977537.488126,399000,473.1666564941406
1577977552.31423,400001,420.3809509277344
1577977566.9308083,401001,441.15789794921875
1577977580.3443956,402000,573.9393920898438
1577977596.600379,403000,537.09521484375
1577977612.1240315,404000,443.1282043457031
1577977628.972166,405000,483.4186096191406
1577977646.9883947,406001,335.7742004394531
1577977665.9196985,407001,440.5952453613281
1577977685.6826613,408001,373.8636474609375
1577977704.18326,409001,405.5952453613281
1577977721.2246192,410000,426.3777770996094
1577977738.2246556,411000,576.8204956054688
1577977753.6967008,412001,681.8157958984375
1577977770.2935045,413000,425.7755126953125
1577977788.1730678,414001,471.5238037109375
1577977803.6953912,415000,424.137939453125
1577977822.5897825,416002,499.77142333984375
1577977843.0974507,417000,495.5531921386719
1577977864.1964204,418001,425.7659606933594
1577977883.931372,419000,461.04876708984375
1577977903.3723505,420000,507.56817626953125
1577977923.3828585,421001,473.3414611816406
1577977941.615733,422001,514.2203369140625
1577977959.043989,423001,483.4864807128906
1577977976.4100642,424000,476.0
1577977996.8854675,425000,433.34783935546875
1577978015.3669724,426000,448.4117736816406
1577978032.92482,427001,487.02630615234375
1577978049.571938,428000,380.0
1577978068.9777434,429000,537.5750122070312
1577978088.272845,430000,434.6666564941406
1577978109.0852478,431000,436.45947265625
1577978129.4498193,432000,408.82757568359375
1577978150.443112,433001,493.79998779296875
1577978168.408052,434000,514.085693359375
1577978186.715748,435001,470.3999938964844
1577978205.8645837,436002,381.3255920410156
1577978225.5100858,437001,570.3404541015625
1577978246.4162345,438002,412.3265380859375
1577978266.2387395,439001,426.7073059082031
1577978285.6544614,440000,518.5
1577978305.0197124,441001,389.0
1577978324.0398474,442000,495.53125
1577978343.0715775,443000,444.0625
1577978360.4651432,444001,497.1538391113281
1577978378.4036322,445001,623.5172119140625
1577978394.7540035,446000,528.574462890625
1577978413.479438,447000,609.772705078125
1577978432.9691756,448002,435.8222351074219
1577978451.9850473,449002,359.974365234375
1577978468.4155424,450001,300.3404235839844
1577978486.577484,451000,357.941162109375
1577978503.34863,452000,315.2105407714844
1577978520.4772375,453000,423.2162170410156
1577978537.972394,454001,411.8787841796875
1577978555.8598962,455000,434.6444396972656
1577978575.6533072,456000,557.4285888671875
1577978596.6677523,457001,403.1785583496094
1577978616.0152652,458000,420.9189147949219
1577978635.7571752,459001,375.04876708984375
1577978654.9620166,460000,424.82501220703125
1577978672.300098,461000,441.0666809082031
1577978689.08199,462000,483.26190185546875
1577978705.34534,463001,445.131591796875
1577978720.7191641,464001,343.6511535644531
1577978737.5021622,465000,480.69091796875
1577978754.2541819,466000,418.68182373046875
1577978770.8650084,467000,370.10809326171875
1577978787.5978725,468001,402.1842041015625
1577978804.7342958,469000,450.05126953125
1577978823.5299864,470001,494.36956787109375
1577978842.8326006,471000,603.2142944335938
1577978861.6900272,472001,440.23077392578125
1577978881.5064833,473000,468.70587158203125
1577978900.6797566,474000,471.5946044921875
1577978918.9299533,475002,500.631591796875
1577978933.9181554,476000,405.42498779296875
1577978948.2040646,477002,549.6333618164062
1577978963.9189835,478000,464.5227355957031
1577978979.44122,479000,542.8604736328125
1577978997.9404423,480001,505.5869445800781
1577979016.9213703,481001,441.49151611328125
1577979037.365561,482000,464.2264099121094
1577979057.0800278,483000,473.69232177734375
1577979076.3074908,484000,379.3333435058594
1577979093.0995047,485001,445.6176452636719
1577979108.5946207,486001,442.9111022949219
1577979125.3728025,487001,511.4615478515625
1577979141.2556555,488000,356.7954406738281
1577979160.042446,489000,330.7674560546875
1577979179.5417259,490001,396.9750061035156
1577979198.8281078,491000,377.9444580078125
1577979219.5216765,492000,322.23529052734375
1577979238.1242578,493000,369.9473571777344
1577979255.7159483,494000,461.7234191894531
1577979272.7030969,495002,347.9024353027344
1577979288.895608,496000,450.6458435058594
1577979303.2360322,497001,461.92498779296875
1577979317.0029106,498000,378.3409118652344
1577979332.5654278,499000,439.5686340332031
1577979352.2390175,500000,308.4444580078125
