Wall time,Step,Value
1577970145.6086988,1001,117.38095092773438
1577970156.154855,2001,123.45237731933594
1577970168.6598005,3000,123.76841735839844
1577970179.2170148,4000,125.4375
1577970189.7652357,5001,124.30850982666016
1577970200.210311,6000,125.9375
1577970210.6422405,7000,127.25
1577970221.1199727,8001,125.59770202636719
1577970231.999247,9001,126.43617248535156
1577970244.2462606,10001,126.19779968261719
1577970255.356501,11000,124.5999984741211
1577970265.5656245,12000,128.2441864013672
1577970275.7936418,13001,131.68817138671875
1577970287.3328006,14001,128.75
1577970297.591527,15000,133.86517333984375
1577970308.184514,16001,130.67901611328125
1577970319.3986664,17001,145.80555725097656
1577970329.7752886,18001,144.63888549804688
1577970340.5922155,19001,149.01695251464844
1577970350.962619,20001,148.93548583984375
1577970362.8458943,21000,125.0
1577970373.8883643,22000,187.0
1577970387.434967,23001,551.5
1577970399.5969052,24000,659.73681640625
1577970411.6285539,25000,840.0908813476562
1577970422.0501218,26000,815.4400024414062
1577970433.884596,27001,592.1199951171875
1577970444.2713518,28000,588.4736938476562
1577970456.8548894,29001,474.5
1577970469.8195708,30000,902.4400024414062
1577970483.0238628,31001,894.1578979492188
1577970496.1822028,32000,578.1923217773438
1577970509.1242402,33001,798.90478515625
1577970524.0242443,34001,686.1764526367188
1577970538.4564345,35000,1004.8529663085938
1577970555.4986968,36000,772.5789184570312
1577970574.7836046,37001,681.2608642578125
1577970597.88343,38000,742.1697998046875
1577970625.666613,39001,892.8909301757812
1577970657.72292,40000,857.4929809570312
1577970692.3002577,41000,755.1304321289062
1577970727.6584697,42000,721.4537963867188
1577970763.677181,43000,755.0576782226562
1577970793.684145,44001,749.6076049804688
1577970818.5123615,45001,785.4107055664062
1577970840.272096,46001,851.861083984375
1577970862.1118855,47000,897.2941284179688
1577970883.3074715,48000,821.3157958984375
1577970907.5988946,49000,982.7523803710938
1577970933.910553,50001,992.2920532226562
1577970960.9919565,51000,837.3737182617188
1577970987.1220303,52000,770.3508911132812
1577971014.1663377,53000,715.4259033203125
1577971037.107829,54000,789.8076782226562
1577971058.2267601,55000,739.640625
1577971078.4187574,56001,680.0447998046875
1577971097.3656437,57001,747.893310546875
1577971118.1168761,58001,880.227294921875
1577971139.761933,59000,742.9574584960938
1577971163.8694406,60001,885.978515625
1577971189.468367,61000,820.8349609375
1577971214.9760048,62000,734.9375
1577971236.3184893,63000,796.7666625976562
1577971255.6817343,64000,818.2207641601562
1577971275.087832,65000,793.6329345703125
1577971294.2245018,66000,747.5454711914062
1577971313.651566,67001,693.7230834960938
1577971334.7144773,68000,841.3943481445312
1577971355.1043243,69001,702.5342407226562
1577971374.4743714,70000,632.9517822265625
1577971395.5534837,71000,675.6329345703125
1577971414.9531744,72001,833.8064575195312
1577971435.717775,73000,717.19482421875
1577971456.9741457,74000,857.2380981445312
1577971478.6623442,75000,758.4418334960938
1577971500.0290117,76001,674.5999755859375
1577971522.1534367,77001,717.5999755859375
1577971540.1235812,78001,653.2786865234375
1577971558.5984492,79000,933.8919067382812
1577971578.587331,80001,790.7415771484375
1577971599.1613595,81000,667.625
1577971621.2438412,82001,867.8309936523438
1577971642.548349,83001,699.9722290039062
1577971663.8412805,84001,871.3378295898438
1577971683.4632998,85000,656.0545654296875
1577971702.8877344,86000,679.259765625
1577971721.6173341,87000,759.369873046875
1577971738.8363986,88001,907.7894897460938
1577971757.8244586,89000,661.6935424804688
1577971776.2368467,90000,659.1126708984375
1577971794.4810803,91000,726.3972778320312
1577971816.0719333,92000,729.136962890625
1577971835.8653023,93001,814.3650512695312
1577971855.3551826,94001,681.8873291015625
1577971874.8889456,95000,750.267578125
1577971893.6344614,96000,781.2622680664062
1577971911.278285,97000,712.1639404296875
1577971928.3904622,98000,770.6666870117188
1577971946.7365484,99002,704.9811401367188
1577971964.5708904,100000,711.1346435546875
1577971981.1220732,101001,775.2941284179688
1577971998.9186015,102002,691.2930908203125
1577972016.95882,103000,717.3491821289062
1577972036.8575027,104000,727.3902587890625
1577972058.4791627,105000,704.7999877929688
1577972079.3751721,106000,575.5818481445312
1577972097.097936,107000,723.9811401367188
1577972115.5063562,108001,726.5507202148438
1577972135.0145075,109002,840.5294189453125
1577972150.7289364,110000,467.8775634765625
1577972167.5536957,111001,806.1270141601562
1577972185.7876186,112000,759.0576782226562
1577972203.4611573,113001,733.036376953125
1577972219.5141847,114001,820.122802734375
1577972238.070694,115000,749.8358154296875
1577972257.9665585,116001,725.725830078125
1577972276.1826339,117000,615.640625
1577972295.8969624,118000,656.6795043945312
1577972314.6641636,119000,631.2000122070312
1577972334.869806,120000,684.5465087890625
1577972354.502007,121000,671.1309814453125
1577972374.3596864,122000,703.8027954101562
1577972394.9204254,123001,705.7142944335938
1577972415.926421,124000,734.0491943359375
1577972432.747493,125000,573.1923217773438
1577972449.3857687,126001,534.21875
1577972468.251175,127000,704.3803100585938
1577972488.129279,128000,717.8793334960938
1577972505.7547016,129000,698.0678100585938
1577972522.2859752,130001,605.3770751953125
1577972540.6000297,131000,615.0365600585938
1577972559.7451758,132000,710.1162719726562
1577972579.0969234,133000,739.3636474609375
1577972598.0298474,134000,658.47998046875
1577972618.8844995,135000,636.6286010742188
1577972638.22266,136000,622.9166870117188
1577972657.465483,137001,675.9027709960938
1577972675.2701533,138001,746.4821166992188
1577972691.2178001,139000,645.4705810546875
1577972706.075104,140000,759.3174438476562
1577972722.2116973,141001,678.7174072265625
1577972736.7181704,142000,720.0465087890625
1577972752.7311153,143002,595.6984252929688
1577972769.3336816,144001,716.0963745117188
1577972786.9262238,145000,722.280029296875
1577972806.6266627,146000,608.2916870117188
1577972825.175241,147001,650.1182861328125
1577972843.6645088,148000,570.8020629882812
1577972862.8384354,149000,750.7260131835938
1577972884.4144676,150000,565.0579833984375
1577972901.1120965,151001,639.5961303710938
1577972917.0763817,152001,662.448974609375
1577972931.5812464,153000,570.660400390625
1577972947.808605,154001,668.984619140625
1577972965.929297,155000,675.3882446289062
1577972984.6765156,156000,604.6385498046875
1577973003.411126,157000,737.7605590820312
1577973022.6981149,158001,631.5569458007812
1577973040.162209,159001,666.5918579101562
1577973060.6085777,160000,655.6875
1577973080.8730488,161000,636.131591796875
1577973100.4088778,162001,576.1864624023438
1577973117.6693165,163001,533.2666625976562
1577973134.2764347,164000,546.9677124023438
1577973151.489672,165001,631.5789184570312
1577973167.885365,166000,656.8378295898438
1577973184.5241418,167000,761.8214111328125
1577973200.7664883,168000,631.022705078125
1577973215.057566,169001,613.933349609375
1577973230.442456,170000,635.9423217773438
1577973245.376181,171000,681.1587524414062
1577973262.295653,172000,701.8356323242188
1577973279.3363926,173000,643.5526123046875
1577973299.580508,174000,646.4796142578125
1577973320.373453,175001,716.8161010742188
1577973339.9856544,176001,722.087890625
1577973361.6700726,177000,642.4404907226562
1577973380.8627079,178001,610.6133422851562
1577973397.5379858,179000,559.870361328125
1577973413.4176955,180000,504.3636474609375
1577973429.4066467,181000,672.9444580078125
1577973444.191651,182000,664.4627075195312
1577973461.0004394,183001,636.6714477539062
1577973478.889213,184000,657.6231689453125
1577973497.3994122,185000,604.965087890625
1577973516.5062544,186000,672.3465576171875
1577973536.96844,187000,572.7362670898438
1577973557.9573073,188000,626.5306396484375
1577973579.0560956,189000,517.2333374023438
1577973598.9687026,190001,519.042236328125
1577973615.835355,191001,576.9031982421875
1577973632.4678538,192000,584.4776000976562
1577973649.6990252,193002,627.1627807617188
1577973669.5700576,194001,582.1566162109375
1577973690.2127686,195000,626.4105224609375
1577973709.2478359,196000,598.59033203125
1577973729.2475538,197001,662.0309448242188
1577973748.13221,198001,549.2888793945312
1577973766.073025,199001,602.0428466796875
1577973782.5052755,200001,528.4833374023438
1577973799.2787805,201001,742.0581665039062
1577973816.7663667,202000,631.0850830078125
1577973837.3626297,203000,570.1744384765625
1577973856.5664845,204002,556.8863525390625
1577973876.714009,205001,501.671630859375
1577973893.931824,206000,573.0908813476562
1577973912.5004075,207000,664.7026977539062
1577973930.7888927,208000,436.171875
1577973947.7819583,209000,520.2537231445312
1577973966.229572,210001,634.763916015625
1577973981.9696987,211000,646.9869995117188
1577973998.5083444,212000,605.2222290039062
1577974015.113045,213000,586.3943481445312
1577974034.2142625,214000,641.6923217773438
1577974055.2313316,215001,525.1199951171875
1577974077.2783,216000,583.74560546875
1577974098.4348497,217000,604.4249877929688
1577974118.1646478,218001,479.5692443847656
1577974134.9328213,219000,574.9321899414062
1577974151.0776253,220001,563.6610107421875
1577974165.4731364,221001,570.5
1577974179.7571135,222000,606.5576782226562
1577974194.8557935,223000,622.3246459960938
1577974211.9888675,224000,610.5670166015625
1577974231.9083786,225000,661.4479370117188
1577974251.1242015,226000,622.1818237304688
1577974271.6826165,227000,564.5192260742188
1577974293.178987,228000,482.4090881347656
1577974311.5573118,229001,441.8196716308594
1577974327.5398898,230001,523.6923217773438
1577974342.3918877,231000,502.8524475097656
1577974357.4248586,232001,484.6712341308594
1577974375.5000062,233000,552.8480834960938
1577974393.0070505,234000,501.17333984375
1577974413.4575984,235000,635.39794921875
1577974435.2665944,236000,574.3727416992188
1577974456.1041207,237000,531.6097412109375
1577974474.913843,238001,579.6987915039062
1577974494.1859999,239000,568.2820434570312
1577974511.005915,240000,437.28125
1577974527.9902043,241001,593.82666015625
1577974545.682836,242001,564.5714111328125
1577974562.0119867,243000,632.0263061523438
1577974580.2874782,244001,647.2954711914062
1577974598.413547,245000,497.2988586425781
1577974617.5565352,246000,607.8163452148438
1577974638.2310016,247001,434.5051574707031
1577974658.126639,248001,518.6337890625
1577974674.6079452,249000,431.5641174316406
1577974688.7109284,250000,631.906982421875
1577974701.1882455,251001,515.2000122070312
1577974715.3634548,252001,642.5263061523438
1577974730.1722467,253000,567.0632934570312
1577974748.1237595,254002,534.297607421875
1577974765.7911637,255000,557.6666870117188
1577974785.7832606,256000,573.066650390625
1577974808.0169382,257000,584.9815063476562
1577974829.299883,258000,467.3699951171875
1577974850.4715784,259000,468.5833435058594
1577974872.3513587,260001,525.5750122070312
1577974890.6779864,261000,607.203369140625
1577974905.6337297,262001,533.35595703125
1577974921.5755184,263000,486.69232177734375
1577974937.8460505,264000,653.5454711914062
1577974954.5949512,265000,547.9852905273438
1577974971.4924695,266000,634.9249877929688
1577974990.3018935,267001,577.2747192382812
1577975009.930985,268000,556.1844482421875
1577975032.631541,269000,634.75
1577975053.4408004,270000,554.1728515625
1577975072.6716485,271001,582.2158813476562
1577975093.241383,272002,539.12646484375
1577975110.861383,273001,460.0389709472656
1577975129.2452428,274000,482.91046142578125
1577975147.3210485,275001,582.1666870117188
1577975163.1995099,276000,600.3295288085938
1577975182.1389143,277000,686.723388671875
1577975204.7214427,278000,485.2314147949219
1577975226.7037947,279000,530.8666381835938
1577975250.1611648,280000,633.1122436523438
1577975270.8392549,281000,485.875
1577975288.8948646,282000,527.4127197265625
1577975305.3722239,283000,566.796875
1577975320.1343486,284000,554.7692260742188
1577975334.2848141,285001,586.431396484375
1577975349.4300292,286001,666.1525268554688
1577975364.3547368,287000,567.6666870117188
1577975381.3883615,288001,637.0101928710938
1577975402.34542,289000,546.21484375
1577975429.3898797,290000,491.6549377441406
1577975453.8575282,291002,428.9111022949219
1577975474.332328,292000,526.8787841796875
1577975490.8607411,293000,578.3877563476562
1577975505.2637713,294000,464.1041564941406
1577975519.311457,295000,462.9534912109375
1577975532.401635,296000,479.8070068359375
1577975548.418543,297002,545.75
1577975564.7171273,298000,699.8202514648438
1577975583.3802402,299000,539.3448486328125
1577975604.942343,300001,538.0555419921875
1577975627.9298203,301000,539.6417846679688
1577975653.5704274,302000,509.1103515625
1577975679.6450355,303000,486.7345275878906
1577975700.9420273,304000,554.8225708007812
1577975716.4272027,305001,473.7868957519531
1577975733.0467134,306001,429.7323913574219
1577975750.8198383,307002,565.0
1577975768.11831,308001,660.4337158203125
1577975786.2635615,309001,522.3626098632812
1577975808.188433,310000,654.602294921875
1577975830.9723375,311002,530.076904296875
1577975858.3723073,312000,476.34906005859375
1577975884.0141668,313000,503.7065124511719
1577975902.2606514,314001,638.90625
1577975921.852593,315000,512.1969604492188
1577975939.0977066,316001,528.5
1577975956.6060567,317002,505.71832275390625
1577975973.5469363,318000,555.757568359375
1577975990.2389045,319001,487.5438537597656
1577976006.3159091,320001,739.77587890625
1577976025.7676904,321000,610.3950805664062
1577976045.3470218,322000,644.7954711914062
1577976068.2950547,323000,466.3658447265625
1577976095.6253963,324001,508.70941162109375
1577976120.0527115,325000,496.82073974609375
1577976143.624465,326000,546.075927734375
1577976163.635617,327002,521.6376953125
1577976181.4588425,328001,468.96429443359375
1577976198.799441,329001,461.18841552734375
1577976218.1785746,330001,552.6555786132812
1577976240.0800304,331001,468.9761962890625
1577976258.7409227,332000,480.30865478515625
1577976279.5248044,333000,647.5061645507812
1577976301.3793285,334001,620.9185791015625
1577976321.3744104,335001,522.038818359375
1577976341.50806,336000,455.1518859863281
1577976362.2255015,337000,523.6410522460938
1577976380.370714,338002,613.0277709960938
1577976399.3047981,339002,607.0958862304688
1577976419.5921743,340001,466.3146057128906
1577976439.3521311,341001,606.98681640625
1577976459.4803333,342001,617.6322021484375
1577976480.2883499,343000,544.669921875
1577976504.2081923,344002,561.364501953125
1577976526.780561,345000,556.5
1577976546.9871264,346002,485.17742919921875
1577976564.9893608,347001,477.4468078613281
1577976580.032073,348000,571.1914672851562
1577976594.7239256,349001,545.0645141601562
1577976610.9031646,350001,634.2432250976562
1577976631.5413158,351000,607.0
1577976650.2539096,352000,527.7340698242188
1577976671.958955,353001,560.7222290039062
1577976694.7187214,354000,611.7553100585938
1577976716.4724405,355000,527.8651733398438
1577976739.0186765,356000,495.1075134277344
1577976760.306783,357002,443.1428527832031
1577976780.0461853,358000,530.8732299804688
1577976797.777078,359001,422.0
1577976813.171174,360000,605.4821166992188
1577976828.311445,361001,517.079345703125
1577976845.1329358,362001,522.906982421875
1577976864.0765033,363001,517.97802734375
1577976883.28629,364001,541.0918579101562
1577976903.7741876,365000,575.831787109375
1577976925.5602756,366001,498.0229797363281
1577976945.2318094,367000,525.9189453125
1577976964.2911603,368000,476.5384521484375
1577976983.1360435,369001,471.6363525390625
1577977002.1873627,370000,441.0777893066406
1577977021.7338426,371000,496.3299865722656
1577977041.5868583,372000,526.1613159179688
1577977062.8826776,373001,394.0
1577977083.6928694,374001,591.2716064453125
1577977102.4811225,375001,468.9375
1577977118.380938,376001,406.8412780761719
1577977136.5915627,377000,516.6153564453125
1577977153.4112706,378000,497.5142822265625
1577977170.1142569,379001,496.8307800292969
1577977185.6623993,380001,514.7820434570312
1577977203.1592286,381001,521.2643432617188
1577977223.7699559,382000,597.1886596679688
1577977245.2545846,383000,562.7653198242188
1577977268.61798,384001,409.48809814453125
1577977289.6606636,385000,425.8148193359375
1577977308.3726842,386000,439.76190185546875
1577977322.982916,387000,374.2325439453125
1577977336.0461898,388000,394.4186096191406
1577977351.5472407,389001,506.368408203125
1577977366.9396493,390002,551.4146118164062
1577977382.4559224,391002,464.8157958984375
1577977400.9470963,392000,571.2098999023438
1577977419.9241095,393000,536.627685546875
1577977440.7424605,394000,508.4019470214844
1577977462.3210595,395001,515.9906616210938
1577977481.870027,396001,490.4772644042969
1577977503.8499966,397000,495.3666687011719
1577977521.269218,398000,470.1111145019531
1577977537.4851332,399000,533.9244995117188
1577977552.3112388,400001,474.941162109375
1577977566.9268184,401001,529.388916015625
1577977580.3413975,402000,427.2040710449219
1577977596.5963895,403000,605.3114624023438
1577977612.1220367,404000,426.118408203125
1577977628.9681773,405000,423.5555419921875
1577977646.9844058,406001,507.13043212890625
1577977665.9157095,407001,510.67498779296875
1577977685.6796682,408001,497.3870849609375
1577977704.179272,409001,452.02532958984375
1577977721.2206302,410000,489.6875
1577977738.2206662,411000,390.8524475097656
1577977753.6947057,412001,578.5322875976562
1577977770.2895262,413000,460.0144958496094
1577977788.1700654,414001,428.4210510253906
1577977803.6914003,415000,587.6951293945312
1577977822.585792,416002,513.7362670898438
1577977843.095468,417000,454.05377197265625
1577977864.1954238,418001,526.6969604492188
1577977883.9283807,419000,480.8817138671875
1577977903.3653717,420000,431.0235290527344
1577977923.3788471,421001,460.35443115234375
1577977941.6137385,422001,465.6666564941406
1577977959.0420012,423001,450.9824523925781
1577977976.4080741,424000,477.88525390625
1577977996.8794837,425000,456.44000244140625
1577978015.362983,426000,551.7647094726562
1577978032.9218292,427001,450.1166687011719
1577978049.5679483,428000,490.8125
1577978068.9737654,429000,498.28570556640625
1577978088.2698534,430000,477.18603515625
1577978109.0812595,431000,503.870361328125
1577978129.4458344,432000,484.2195129394531
1577978150.4401188,433001,497.76055908203125
1577978168.404062,434000,454.56756591796875
1577978186.7137527,435001,442.75
1577978205.8625886,436002,500.6410217285156
1577978225.5080998,437001,553.5913696289062
1577978246.4122436,438002,497.1400146484375
1577978266.2367432,439001,500.7974548339844
1577978285.6514692,440000,560.8641967773438
1577978305.015722,441001,474.0779113769531
1577978324.0358565,442000,483.7865295410156
1577978343.067588,443000,470.4705810546875
1577978360.4611385,444001,494.52239990234375
1577978378.4006398,445001,500.3552551269531
1577978394.7500014,446000,581.3505249023438
1577978413.4764454,447000,535.25927734375
1577978432.965186,448002,440.8461608886719
1577978451.9820552,449002,492.0
1577978468.4115467,450001,545.755126953125
1577978486.5744915,451000,628.15625
1577978503.3456762,452000,442.4166564941406
1577978520.4752426,453000,504.9176330566406
1577978537.967408,454001,557.3713989257812
1577978555.8559082,455000,537.647705078125
1577978575.6493165,456000,423.95745849609375
1577978596.6637716,457001,564.7283935546875
1577978616.011275,458000,541.1648559570312
1577978635.7531948,459001,517.763916015625
1577978654.9580278,460000,469.9358825683594
1577978672.29611,461000,470.6461486816406
1577978689.0780015,462000,562.2816772460938
1577978705.3413625,463001,528.3965454101562
1577978720.7151744,464001,593.5384521484375
1577978737.4991677,465000,492.0246887207031
1577978754.250197,466000,647.084716796875
1577978770.863025,467000,614.6727294921875
1577978787.5958788,468001,551.4805297851562
1577978804.731303,469000,480.3928527832031
1577978823.5259967,470001,465.36956787109375
1577978842.8296082,471000,423.4615478515625
1577978861.6850257,472001,491.3038024902344
1577978881.499504,473000,491.73077392578125
1577978900.6747673,474000,385.22076416015625
1577978918.5878205,475002,413.9047546386719
1577978933.8071597,476000,423.6461486816406
1577978948.2000792,477002,448.328369140625
1577978963.914955,478000,532.75
1577978979.4382281,479000,515.3855590820312
1577978997.934458,480001,578.88232421875
1577979016.9163852,481001,529.3020629882812
1577979037.2204077,482000,442.88507080078125
1577979057.0770366,483000,449.9364929199219
1577979075.994199,484000,444.5454406738281
1577979093.0955164,485001,420.6964416503906
1577979108.1845825,486001,414.346923828125
1577979125.369811,487001,455.30645751953125
1577979141.2536595,488000,484.3409118652344
1577979160.0384567,489000,492.7550964355469
1577979179.5367405,490001,424.19232177734375
1577979198.648602,491000,512.4044799804688
1577979219.3870363,492000,486.5058898925781
1577979237.7484927,493000,575.5692138671875
1577979255.712956,494000,593.2830200195312
1577979272.7001052,495002,558.8181762695312
1577979288.8916185,496000,475.0888977050781
1577979303.2310634,497001,460.52630615234375
1577979316.9989054,498000,607.7077026367188
1577979332.5614393,499000,601.8048706054688
1577979352.2360244,500000,635.4000244140625
